{"type":"FeatureCollection", "features": [
{"type":"Feature","geometry":{"type":"MultiPolygon","coordinates":[[[[130.4936,-11.8386],[130.1936,-11.6672],[130.1739,-11.485],[130.344,-11.3255],[130.491,-11.6886],[130.4936,-11.8386]]],[[[130.9589,-11.9389],[130.4934,-11.642],[130.3647,-11.253],[130.705,-11.3903],[130.8996,-11.3078],[131.0042,-11.3522],[131.2715,-11.1903],[131.4184,-11.2483],[131.5371,-11.4669],[131.2819,-11.7308],[130.9589,-11.9389]]],[[[136.9088,-14.1793],[136.8892,-14.2978],[136.378,-14.2164],[136.4572,-13.8389],[136.808,-13.8542],[136.7061,-14.0756],[136.7366,-14.1917],[136.9088,-14.1793]]],[[[138.0003,-16.5547],[138.0005,-25.9995],[131.2333,-26],[129.9006,-25.9994],[129.0059,-26.0049],[129,-17.2664],[129,-15.3992],[129,-14.8711],[129.2184,-14.8614],[129.6139,-14.9469],[129.6754,-14.7661],[129.5401,-14.5503],[129.3585,-14.4137],[129.4925,-14.1422],[129.7328,-13.9947],[129.8288,-13.5169],[130.0412,-13.5099],[130.2644,-13.3253],[130.1158,-13.1476],[130.1246,-12.9703],[130.3276,-12.894],[130.3544,-12.6726],[130.5755,-12.5709],[130.6285,-12.3851],[130.8158,-12.4447],[131.0269,-12.3583],[131.0243,-12.1496],[131.3441,-12.2236],[131.4926,-12.2972],[131.9315,-12.2681],[132.0627,-12.3091],[132.2236,-12.2],[132.3609,-12.2024],[132.6385,-12.0786],[132.635,-11.745],[132.6915,-11.6582],[132.4899,-11.477],[132.3727,-11.4378],[132.0868,-11.5247],[131.8652,-11.3092],[131.9843,-11.1274],[132.3405,-11.1301],[132.5034,-11.2645],[132.672,-11.5082],[132.8747,-11.3334],[132.9965,-11.4197],[133.1462,-11.6878],[133.6168,-11.8346],[133.7994,-11.7183],[133.8394,-11.8542],[134.0504,-11.8445],[134.2066,-12.0617],[134.5161,-12.0667],[134.7714,-11.9958],[134.8707,-12.1317],[135.0839,-12.2666],[135.2261,-12.2755],[135.3797,-12.0903],[135.5861,-12.0983],[135.5932,-11.9577],[135.7883,-12.0436],[135.6735,-12.1595],[135.7355,-12.2809],[135.8836,-12.1518],[136.0397,-12.4716],[136.2937,-12.4143],[136.3639,-12.2397],[136.1778,-12.1669],[136.4511,-11.9542],[136.6019,-12.1831],[136.7754,-12.1717],[136.9784,-12.3582],[136.8039,-12.4775],[136.6436,-12.7041],[136.5461,-12.958],[136.5283,-13.15],[136.3677,-13.2472],[136.0972,-13.1847],[135.8915,-13.3385],[135.8458,-13.6039],[135.889,-13.7287],[136.0203,-13.7625],[135.8692,-14.1946],[135.7528,-14.2711],[135.4133,-14.7294],[135.434,-14.9024],[135.9445,-15.2595],[136.2411,-15.4184],[136.32,-15.6031],[136.5686,-15.7183],[136.7658,-15.9044],[137.0306,-15.9147],[137.3691,-16.1276],[137.7377,-16.2517],[138.0003,-16.5547]]]]},"properties":{"name":"Northern Territory","id":"AU-NT","CNTRY_NAME":"Australia","TYPE":"Territory"},"id":"AU-NT"},
{"type":"Feature","geometry":{"type":"MultiPolygon","coordinates":[[[[129,-14.8711],[129,-15.3992],[129,-17.2664],[129.0059,-26.0049],[129.0003,-31.6926],[128.5544,-31.8883],[128.0124,-32.0896],[127.7375,-32.1347],[127.3347,-32.2669],[126.6872,-32.3159],[126.1797,-32.2385],[125.8065,-32.3436],[125.515,-32.5468],[125.3023,-32.5988],[124.7466,-32.8978],[124.2819,-32.9856],[124.1064,-33.1394],[123.9559,-33.5596],[123.5408,-33.9058],[123.369,-33.8952],[123.1681,-34.0186],[123.0178,-33.8575],[122.845,-33.9069],[122.3545,-33.913],[122.1183,-34.0286],[122.0137,-33.8311],[121.781,-33.8995],[121.5226,-33.8215],[120.8625,-33.8567],[120.417,-33.9739],[120.005,-33.9289],[119.6161,-34.1],[119.4675,-34.3318],[119.2086,-34.5044],[118.9116,-34.4531],[118.6379,-34.6804],[118.0817,-34.9939],[117.5334,-35.0883],[117.3325,-35.0189],[116.4605,-34.9996],[116.2169,-34.8662],[115.9736,-34.8195],[115.9133,-34.7032],[115.648,-34.4678],[115.314,-34.3049],[115.0089,-34.2625],[114.9537,-33.6923],[114.9971,-33.5241],[115.2206,-33.6533],[115.4297,-33.6051],[115.7126,-33.264],[115.5944,-32.6707],[115.7619,-32.5725],[115.7325,-32.3209],[115.7433,-31.8933],[115.6817,-31.6606],[115.4378,-31.2796],[115.3103,-30.9866],[115.0472,-30.5047],[115.0236,-30.2742],[114.9372,-30.0603],[114.978,-29.4878],[114.8349,-29.0965],[114.6193,-28.8711],[114.5841,-28.6331],[114.3075,-28.2299],[114.1543,-28.091],[114.0947,-27.8516],[114.141,-27.7072],[114.0728,-27.4511],[113.7992,-26.9674],[113.5858,-26.6908],[113.2811,-26.3994],[113.2244,-26.2392],[113.3655,-26.1189],[113.5143,-26.2842],[113.5464,-26.5081],[113.6435,-26.6543],[113.8558,-26.5075],[113.8614,-26.3365],[113.5512,-26.075],[113.3911,-25.7105],[113.4977,-25.5603],[113.7341,-25.889],[113.6843,-26.1196],[113.7986,-26.1683],[114.0693,-26.4616],[114.1949,-26.3729],[114.1719,-26.1826],[114.2581,-25.8478],[114.0343,-25.6337],[113.8066,-25.1813],[113.7011,-25.1224],[113.6141,-24.7537],[113.4257,-24.5253],[113.3841,-24.2308],[113.5322,-23.7573],[113.743,-23.5272],[113.7603,-23.1939],[113.8183,-23.0306],[113.6564,-22.6047],[113.7997,-22.3342],[113.9333,-21.9761],[114.1266,-21.9102],[114.0778,-22.1742],[114.1539,-22.5278],[114.3725,-22.4425],[114.4608,-22.1903],[114.6511,-21.84],[114.9427,-21.6887],[115.0527,-21.6811],[115.4519,-21.5178],[115.6194,-21.3319],[115.8065,-21.2365],[115.9252,-21.069],[116.1855,-20.9019],[116.4755,-20.8061],[116.7075,-20.6491],[116.8757,-20.7175],[117.0667,-20.6217],[117.4062,-20.7299],[117.8503,-20.6084],[118.0691,-20.41],[118.8011,-20.2859],[119.0803,-19.9688],[119.1889,-19.9594],[119.5818,-20.0708],[119.7855,-19.9716],[120.2395,-19.9087],[121.0275,-19.5922],[121.2767,-19.395],[121.4886,-19.1231],[121.765,-18.5561],[122.3375,-18.1314],[122.3322,-17.9795],[122.2111,-17.8936],[122.1408,-17.558],[122.1439,-17.363],[122.2566,-17.1078],[122.5239,-16.8447],[122.7522,-16.7622],[122.7605,-16.6006],[122.8943,-16.5023],[123.0961,-16.7161],[123.3078,-17.1375],[123.5534,-17.515],[123.619,-17.2061],[123.574,-17.0729],[123.7664,-16.8882],[123.6078,-16.6733],[123.7075,-16.3402],[123.8391,-16.368],[123.9644,-16.2455],[124.1664,-16.3025],[124.2298,-16.4042],[124.3844,-16.3528],[124.4305,-16.1025],[124.5347,-15.9364],[124.4002,-15.8643],[124.3719,-15.6683],[124.4572,-15.4783],[124.6741,-15.455],[124.7053,-15.2533],[125.0329,-15.0747],[125.2431,-14.902],[125.136,-14.7474],[125.3361,-14.523],[125.5889,-14.5494],[125.58,-14.3089],[125.843,-14.4649],[125.9028,-14.6436],[126.0376,-14.5152],[126.1467,-14.13],[126.2878,-14.2331],[126.3342,-14.0504],[126.4553,-14.0775],[126.6005,-14.2297],[126.7891,-13.9714],[126.7459,-13.7954],[126.9559,-13.7282],[127.0747,-13.8486],[127.4252,-13.954],[127.658,-14.176],[127.9572,-14.5817],[128.1694,-14.7028],[128.0694,-15.1008],[128.4483,-15.0471],[128.3877,-14.8],[128.536,-14.7585],[129,-14.8711]]],[[[113.2056,-26.1448],[113.0275,-25.9203],[112.9072,-25.6275],[112.9872,-25.5708],[113.2056,-26.1448]]]]},"properties":{"name":"Western Australia","id":"AU-WA","CNTRY_NAME":"Australia","TYPE":"State"},"id":"AU-WA"},
{"type":"Feature","geometry":{"type":"Polygon","coordinates":[[[149.051,-35.9172],[148.9267,-35.8728],[148.7672,-35.6522],[148.8172,-35.3203],[149.0797,-35.1617],[149.2488,-35.2672],[149.0851,-35.6209],[149.051,-35.9172]]]},"properties":{"name":"Australian Capital Territory","id":"AU-ACT","CNTRY_NAME":"Australia","TYPE":"Territory"},"id":"AU-ACT"},
{"type":"Feature","geometry":{"type":"Polygon","coordinates":[[[149.9777,-37.5126],[148.2049,-36.7974],[148.2061,-36.6071],[148.051,-36.3895],[147.999,-36.0596],[147.7233,-35.945],[147.4031,-35.9624],[147.3102,-36.0564],[146.9175,-36.1037],[146.5011,-35.9771],[146.2985,-36.0508],[145.7359,-35.9683],[145.5457,-35.8302],[145.3572,-35.8805],[144.9876,-35.878],[144.9494,-36.1011],[144.7727,-36.1414],[144.6103,-36.0749],[144.3489,-35.7791],[144.0902,-35.5842],[143.5748,-35.3412],[143.403,-35.18],[143.3309,-34.9715],[143.3429,-34.7929],[142.9814,-34.6892],[142.7878,-34.588],[142.6808,-34.7425],[142.5508,-34.7763],[142.3783,-34.5392],[142.3738,-34.3955],[142.2344,-34.2012],[142.0388,-34.1123],[141.7344,-34.107],[141.5233,-34.2006],[141.2474,-34.0803],[140.9978,-34.0241],[141.0027,-29.0002],[143.1302,-29],[144.6869,-29],[145.9567,-29],[148.9528,-29],[149.466,-28.598],[149.7055,-28.6278],[150.3205,-28.5459],[150.4661,-28.6573],[150.7843,-28.6338],[151.0371,-28.7355],[151.2925,-28.9293],[151.3454,-29.1612],[151.4649,-29.1147],[151.5555,-28.9531],[151.7279,-28.8861],[151.8268,-28.9751],[152.0181,-28.8937],[152.0506,-28.7305],[151.9606,-28.5501],[152.3685,-28.3754],[152.4866,-28.263],[152.7601,-28.3601],[153.1122,-28.3529],[153.1889,-28.2632],[153.506,-28.1501],[153.5915,-28.2739],[153.5597,-28.4916],[153.6242,-28.661],[153.606,-28.8622],[153.4481,-29.0437],[153.3377,-29.3283],[153.3655,-29.3984],[153.2539,-29.9525],[153.0186,-30.5686],[153.0055,-30.8353],[153.075,-30.9487],[152.8488,-31.6566],[152.5118,-32.1311],[152.5297,-32.4036],[152.1274,-32.6822],[152.1448,-32.7705],[151.8122,-32.8888],[151.5741,-33.2672],[151.4546,-33.3168],[151.4547,-33.5007],[151.3402,-33.6286],[151.2728,-33.9695],[150.9342,-34.3317],[150.8405,-34.5583],[150.7754,-35.012],[150.5403,-35.2267],[150.4067,-35.5278],[150.1624,-35.9405],[150.1356,-36.3282],[149.9025,-36.9233],[150.0065,-37.1618],[149.9479,-37.2819],[149.9777,-37.5126]],[[148.9267,-35.8728],[149.051,-35.9172],[149.0851,-35.6209],[149.2488,-35.2672],[149.0797,-35.1617],[148.8172,-35.3203],[148.7672,-35.6522],[148.9267,-35.8728]]]},"properties":{"name":"New South Wales","id":"AU-NSW","CNTRY_NAME":"Australia","TYPE":"State"},"id":"AU-NSW"},
{"type":"Feature","geometry":{"type":"MultiPolygon","coordinates":[[[[137.9109,-35.7294],[138.0628,-35.7632],[138.0403,-35.9227],[137.761,-35.866],[137.4555,-36.0853],[137.3575,-36.0045],[136.7122,-36.0567],[136.5385,-35.9174],[136.5811,-35.7694],[137.3172,-35.5907],[137.5261,-35.6047],[137.5979,-35.747],[137.8507,-35.8067],[137.9109,-35.7294]]],[[[129.0003,-31.6926],[129.0059,-26.0049],[129.9006,-25.9994],[131.2333,-26],[138.0005,-25.9995],[141.0005,-25.9997],[141.0027,-29.0002],[140.9978,-34.0241],[140.9719,-33.9954],[140.9681,-38.0642],[140.6986,-38.0719],[140.3559,-37.8617],[140.1213,-37.5307],[139.9938,-37.4925],[139.7514,-37.1997],[139.7519,-36.9216],[139.8618,-36.7947],[139.8235,-36.5546],[139.648,-36.2097],[139.3719,-35.9106],[139.3358,-35.6914],[139.3566,-35.3745],[139.2125,-35.3167],[138.97,-35.4085],[138.9911,-35.5574],[138.7215,-35.5388],[138.5363,-35.6535],[138.175,-35.6696],[138.153,-35.5329],[138.4388,-35.3438],[138.5142,-35.025],[138.4961,-34.7289],[138.275,-34.4801],[138.0922,-34.135],[137.9245,-34.4255],[137.8755,-34.7111],[137.6744,-35.1816],[137.4211,-35.12],[137.1668,-35.2482],[136.8315,-35.2518],[136.9604,-35.0998],[136.977,-34.9589],[137.4541,-34.8969],[137.4985,-34.6586],[137.5148,-34.1433],[137.6029,-33.884],[137.9486,-33.5593],[137.8143,-33.278],[138.0469,-33.1294],[137.7748,-32.9928],[137.5955,-33.0297],[137.3852,-33.3003],[137.3611,-33.4293],[137.142,-33.7137],[136.9497,-33.681],[136.8638,-33.807],[136.5799,-33.9319],[136.3565,-34.0902],[136.2066,-34.3321],[135.9369,-34.5369],[135.8038,-34.8152],[135.6797,-34.9538],[135.3965,-34.644],[135.3491,-34.2892],[135.2611,-34.0065],[135.0336,-33.7686],[134.8407,-33.6378],[134.8684,-33.5415],[134.7075,-33.1772],[134.5935,-33.14],[134.3295,-33.2028],[134.2082,-32.8076],[134.2764,-32.5886],[134.1141,-32.4534],[133.8529,-32.5418],[133.8263,-32.2508],[133.6059,-32.0981],[133.4851,-32.2098],[133.1666,-32.1908],[132.7852,-31.9562],[132.4889,-31.9525],[132.1959,-32.0269],[131.7691,-31.7222],[131.1486,-31.474],[130.7936,-31.6103],[130.2633,-31.5762],[129.2319,-31.6583],[129.0003,-31.6926]]]]},"properties":{"name":"South Australia","id":"AU-SA","CNTRY_NAME":"Australia","TYPE":"State"},"id":"AU-SA"},
{"type":"Feature","geometry":{"type":"Polygon","coordinates":[[[140.9681,-38.0642],[140.9719,-33.9954],[140.9978,-34.0241],[141.2474,-34.0803],[141.5233,-34.2006],[141.7344,-34.107],[142.0388,-34.1123],[142.2344,-34.2012],[142.3738,-34.3955],[142.3783,-34.5392],[142.5508,-34.7763],[142.6808,-34.7425],[142.7878,-34.588],[142.9814,-34.6892],[143.3429,-34.7929],[143.3309,-34.9715],[143.403,-35.18],[143.5748,-35.3412],[144.0902,-35.5842],[144.3489,-35.7791],[144.6103,-36.0749],[144.7727,-36.1414],[144.9494,-36.1011],[144.9876,-35.878],[145.3572,-35.8805],[145.5457,-35.8302],[145.7359,-35.9683],[146.2985,-36.0508],[146.5011,-35.9771],[146.9175,-36.1037],[147.3102,-36.0564],[147.4031,-35.9624],[147.7233,-35.945],[147.999,-36.0596],[148.051,-36.3895],[148.2061,-36.6071],[148.2049,-36.7974],[149.9777,-37.5126],[149.7855,-37.5605],[149.6728,-37.6963],[149.4571,-37.7833],[148.3091,-37.8216],[147.964,-37.9024],[147.5411,-38.1134],[146.8736,-38.6517],[146.1847,-38.7574],[146.2965,-38.9166],[146.4693,-38.8057],[146.4837,-39.0763],[146.3469,-39.1301],[146.1423,-38.846],[145.9044,-38.857],[145.8161,-38.6523],[145.5662,-38.6652],[145.416,-38.5458],[145.5552,-38.3743],[145.4443,-38.227],[145.2555,-38.2376],[145.0304,-38.4974],[144.9013,-38.5059],[145.1313,-38.137],[144.9755,-37.892],[144.8247,-37.9025],[144.5269,-38.1011],[144.6339,-38.2997],[144.3951,-38.3096],[144.0617,-38.4846],[143.8423,-38.6966],[143.5429,-38.8593],[143.0482,-38.6371],[142.8033,-38.576],[142.3793,-38.3639],[142.1604,-38.4001],[141.9647,-38.2921],[141.6794,-38.2829],[141.5714,-38.4172],[141.1931,-38.1606],[140.9681,-38.0642]]]},"properties":{"name":"Victoria","id":"AU-VIC","CNTRY_NAME":"Australia","TYPE":"State"},"id":"AU-VIC"},
{"type":"Feature","geometry":{"type":"MultiPolygon","coordinates":[[[[153.0816,-25.7959],[152.943,-25.5583],[153.0643,-25.3386],[153.0495,-25.2308],[153.1945,-25.0755],[153.371,-25.0141],[153.1271,-25.5364],[153.0816,-25.7959]]],[[[153.506,-28.1501],[153.1889,-28.2632],[153.1122,-28.3529],[152.7601,-28.3601],[152.4866,-28.263],[152.3685,-28.3754],[151.9606,-28.5501],[152.0506,-28.7305],[152.0181,-28.8937],[151.8268,-28.9751],[151.7279,-28.8861],[151.5555,-28.9531],[151.4649,-29.1147],[151.3454,-29.1612],[151.2925,-28.9293],[151.0371,-28.7355],[150.7843,-28.6338],[150.4661,-28.6573],[150.3205,-28.5459],[149.7055,-28.6278],[149.466,-28.598],[148.9528,-29],[145.9567,-29],[144.6869,-29],[143.1302,-29],[141.0027,-29.0002],[141.0005,-25.9997],[138.0005,-25.9995],[138.0003,-16.5547],[138.1948,-16.7074],[138.4869,-16.7878],[138.6396,-16.7793],[139.0105,-16.8991],[139.1413,-17.0742],[139.2605,-17.3425],[139.4372,-17.3792],[139.6165,-17.5208],[139.8142,-17.5753],[139.9794,-17.6972],[140.1322,-17.7192],[140.3966,-17.6733],[140.8333,-17.4519],[140.9569,-17.0011],[141.1945,-16.7039],[141.4266,-16.0744],[141.4005,-15.9058],[141.4605,-15.5361],[141.6655,-15.0265],[141.5665,-14.7636],[141.521,-14.4813],[141.5932,-14.2556],[141.5781,-14.0654],[141.4689,-13.8281],[141.5419,-13.5328],[141.6887,-13.254],[141.5856,-12.9864],[141.8394,-12.6725],[141.6622,-12.4511],[141.7758,-12.2136],[141.9169,-12.0889],[141.9689,-11.8085],[142.1228,-11.3726],[142.1382,-10.9736],[142.343,-10.8954],[142.4445,-10.7097],[142.6132,-10.7508],[142.609,-10.8725],[142.7448,-10.9865],[142.8659,-11.3913],[142.8598,-11.8332],[142.9687,-11.9274],[143.1992,-11.9875],[143.1022,-12.1403],[143.0775,-12.3343],[143.2758,-12.4131],[143.2794,-12.5176],[143.43,-12.6168],[143.3623,-12.8489],[143.5141,-12.8792],[143.5286,-13.3405],[143.5947,-13.432],[143.5308,-13.7564],[143.6857,-14.0233],[143.7822,-14.4133],[144.0119,-14.4877],[144.1536,-14.38],[144.4351,-14.2541],[144.567,-14.3585],[144.6768,-14.5574],[144.8966,-14.6182],[144.9593,-14.7538],[145.3158,-14.9456],[145.2343,-15.1345],[145.2894,-15.3311],[145.2486,-15.4464],[145.3595,-15.7343],[145.3592,-15.9154],[145.4623,-16.0831],[145.4021,-16.441],[145.8061,-16.9131],[146.0319,-17.3644],[146.1042,-17.6917],[146.094,-17.9559],[146.0094,-18.2381],[146.2119,-18.4917],[146.3336,-18.5356],[146.2682,-18.8536],[146.448,-19.0711],[146.8858,-19.303],[147.2534,-19.4258],[147.4319,-19.4124],[147.5552,-19.5354],[147.6695,-19.8247],[147.9718,-19.9186],[148.22,-19.9472],[148.4134,-20.2064],[148.5222,-20.088],[148.7689,-20.2324],[148.8667,-20.4448],[148.6672,-20.5617],[148.7291,-20.7175],[149.2147,-21.08],[149.24,-21.2786],[149.443,-21.5825],[149.43,-21.7732],[149.5899,-22.2333],[149.6966,-22.3506],[149.9208,-22.3506],[150.0789,-22.1628],[150.2004,-22.3917],[150.48,-22.5386],[150.5619,-22.3311],[150.7055,-22.4414],[150.6836,-22.5536],[150.8191,-22.7319],[150.7558,-23.1303],[150.8671,-23.505],[151.0231,-23.5565],[151.1681,-23.7925],[151.4242,-23.9786],[151.6839,-23.9889],[151.9334,-24.2179],[152.1318,-24.6082],[152.4183,-24.7603],[152.5077,-24.9978],[152.6715,-25.2451],[152.9079,-25.2889],[152.9205,-25.7354],[153.0379,-25.8906],[153.182,-25.9494],[153.072,-26.3085],[153.1431,-26.73],[153.1572,-27.0827],[153.0346,-27.1767],[153.0648,-27.3133],[153.256,-27.4797],[153.4328,-27.8483],[153.4103,-27.9819],[153.506,-28.1501]]],[[[139.1483,-16.7608],[139.165,-16.6006],[139.3067,-16.4625],[139.5344,-16.4139],[139.5808,-16.5025],[139.442,-16.6678],[139.1483,-16.7608]]],[[[151.2271,-23.7867],[151.0661,-23.6053],[151.203,-23.5289],[151.2871,-23.6725],[151.2271,-23.7867]]],[[[153.4069,-27.7311],[153.4336,-27.4161],[153.5409,-27.4181],[153.4069,-27.7311]]]]},"properties":{"name":"Queensland","id":"AU-QLD","CNTRY_NAME":"Australia","TYPE":"State"},"id":"AU-QLD"},
{"type":"Feature","geometry":{"type":"MultiPolygon","coordinates":[[[[146.9166,-43.6178],[146.5995,-43.5561],[146.0383,-43.498],[145.5953,-42.9792],[145.4232,-42.8467],[145.26,-42.6124],[145.1976,-42.3134],[145.2802,-42.1812],[145.1846,-41.9383],[144.955,-41.7133],[144.6858,-41.2166],[144.6187,-40.9311],[144.7622,-40.7281],[145.275,-40.8028],[146.1932,-41.1569],[146.5819,-41.1515],[147.0171,-40.9761],[147.4884,-40.985],[147.5891,-40.853],[147.8032,-40.8928],[148.0142,-40.746],[148.221,-40.849],[148.3283,-40.9954],[148.2643,-41.1673],[148.3169,-41.3347],[148.2647,-41.8146],[148.0791,-42.1172],[147.9549,-42.7175],[148.0048,-42.9769],[147.5916,-42.8267],[147.5527,-42.9789],[147.2419,-43.1336],[147.0954,-43.2887],[146.9166,-43.6178]]],[[[148.1289,-40.2745],[147.9039,-39.9756],[147.7608,-39.878],[147.9677,-39.7255],[148.2794,-39.9658],[148.3352,-40.1922],[148.1289,-40.2745]]],[[[143.9216,-40.1364],[143.8348,-39.9275],[143.9354,-39.583],[144.1086,-39.6625],[144.1464,-39.9294],[143.9216,-40.1364]]]]},"properties":{"name":"Tasmania","id":"AU-TAS","CNTRY_NAME":"Australia","TYPE":"State"},"id":"AU-TAS"}
]}