{"type":"FeatureCollection", "features": [
{"type":"Feature","geometry":{"type":"Polygon","coordinates":[[[45.5278,40.649],[45.5168,40.6358],[45.4898,40.6362],[45.4663,40.653],[45.461,40.6692],[45.4874,40.69],[45.512,40.6791],[45.5322,40.6611],[45.5278,40.649]]]},"properties":{"name":"Gegark'unik'","id":"AZ-GR","TYPE":"City","CNTRY_NAME":"Azerbaijan"},"id":"AZ-GR"},
{"type":"Feature","geometry":{"type":"MultiPolygon","coordinates":[[[[49.2919,39.953],[49.2441,40.0026],[49.2421,40.0306],[49.203,40.0768],[49.2014,40.1081],[49.1818,40.1355],[49.151,40.1474],[49.0795,40.1489],[49.062,40.1545],[49.02,40.1557],[49.0025,40.1616],[48.9702,40.2032],[48.9029,40.2619],[48.8607,40.2832],[48.8506,40.3285],[48.8712,40.3233],[48.9171,40.3011],[48.9318,40.2869],[48.9717,40.3196],[48.9857,40.3257],[49.0082,40.3539],[49.0292,40.3685],[49.0651,40.3731],[49.0939,40.4081],[49.118,40.4204],[49.1814,40.4326],[49.2006,40.4497],[49.2322,40.4637],[49.2631,40.5056],[49.3706,40.5132],[49.4028,40.532],[49.4101,40.5675],[49.4475,40.6015],[49.4702,40.6145],[49.4827,40.6368],[49.4962,40.6329],[49.5585,40.5845],[49.5833,40.5488],[49.5983,40.5412],[49.6399,40.5417],[49.6904,40.5534],[49.7067,40.5762],[49.7298,40.5723],[49.7191,40.5601],[49.7135,40.5313],[49.7168,40.5305],[49.7228,40.531],[49.7595,40.5437],[49.8001,40.5365],[49.8269,40.5259],[49.8852,40.5167],[49.8852,40.4987],[49.7762,40.4796],[49.7362,40.4653],[49.6955,40.4759],[49.6573,40.4766],[49.5905,40.465],[49.5644,40.4713],[49.5565,40.4718],[49.5273,40.4646],[49.503,40.4304],[49.4756,40.4226],[49.4489,40.4224],[49.4314,40.4154],[49.4141,40.3908],[49.4219,40.35],[49.4293,40.3334],[49.4292,40.2463],[49.4193,40.2133],[49.4077,40.1981],[49.3708,40.1721],[49.3772,40.144],[49.338,40.0927],[49.3415,40.0403],[49.3128,40.0103],[49.3095,39.9793],[49.2919,39.953]]],[[[49.7404,40.3945],[49.7566,40.3658],[49.7376,40.3385],[49.722,40.3319],[49.6931,40.3482],[49.6505,40.3226],[49.6297,40.3274],[49.6303,40.3442],[49.6476,40.3742],[49.6556,40.4099],[49.688,40.4117],[49.7376,40.4086],[49.7404,40.3945]]]]},"properties":{"name":"Abseron","id":"AZ-ABS","TYPE":"District","CNTRY_NAME":"Azerbaijan"},"id":"AZ-ABS"},
{"type":"Feature","geometry":{"type":"Polygon","coordinates":[[[45.3799,41.0194],[45.3807,41.0391],[45.3644,41.0983],[45.3787,41.1323],[45.3731,41.1486],[45.4045,41.2285],[45.3964,41.2596],[45.3765,41.2722],[45.3309,41.275],[45.2719,41.2887],[45.2194,41.3099],[45.1964,41.3244],[45.1211,41.3557],[45.1446,41.3832],[45.1787,41.4079],[45.2065,41.4121],[45.2457,41.4353],[45.2606,41.459],[45.2889,41.4605],[45.3069,41.4681],[45.3306,41.4612],[45.3451,41.4494],[45.3919,41.4257],[45.4071,41.4261],[45.4369,41.4492],[45.4644,41.4447],[45.4957,41.4215],[45.5616,41.4057],[45.5698,41.3825],[45.5974,41.3696],[45.6332,41.3747],[45.6885,41.3573],[45.7152,41.3668],[45.7357,41.3444],[45.7055,41.3404],[45.6765,41.3099],[45.7172,41.2648],[45.7786,41.2355],[45.686,41.1987],[45.6628,41.1812],[45.6482,41.1556],[45.631,41.1505],[45.5712,41.1722],[45.5669,41.1459],[45.5763,41.1174],[45.59,41.097],[45.5901,41.0661],[45.5771,41.0487],[45.5364,41.0228],[45.4905,41.0159],[45.4786,40.996],[45.454,40.9782],[45.424,40.9678],[45.4088,40.978],[45.4119,41.0029],[45.4312,41.0251],[45.4023,41.0283],[45.3799,41.0194]]]},"properties":{"name":"Agstafa","id":"AZ-AGA","TYPE":"District","CNTRY_NAME":"Azerbaijan"},"id":"AZ-AGA"},
{"type":"Feature","geometry":{"type":"Polygon","coordinates":[[[47.7374,40.1228],[47.6845,40.0371],[47.6811,40],[47.6746,39.9861],[47.6726,39.9555],[47.6642,39.9302],[47.6476,39.9048],[47.6278,39.8928],[47.5985,39.8922],[47.5684,39.8776],[47.5059,39.8744],[47.4951,39.8599],[47.4495,39.842],[47.4472,39.8156],[47.457,39.7956],[47.4325,39.7819],[47.4659,39.7384],[47.3919,39.7294],[47.3574,39.7126],[47.3115,39.708],[47.3438,39.7571],[47.3299,39.7863],[47.2669,39.8176],[47.2527,39.8316],[47.249,39.857],[47.2672,39.8678],[47.2858,39.8883],[47.2849,39.91],[47.2726,39.9258],[47.2317,39.93],[47.1591,39.9076],[47.0799,39.9302],[47.062,39.9437],[47.0588,39.9617],[47.0962,39.9868],[47.1009,39.9999],[47.1006,40.0374],[47.1082,40.0508],[47.1567,40.0583],[47.1661,40.0767],[47.129,40.0934],[47.1382,40.1136],[47.1865,40.131],[47.2289,40.1698],[47.2409,40.1861],[47.2602,40.1617],[47.2942,40.1533],[47.3478,40.1793],[47.3755,40.1982],[47.442,40.2295],[47.469,40.2504],[47.4642,40.1911],[47.4871,40.1676],[47.4992,40.14],[47.5179,40.1365],[47.5441,40.1472],[47.6246,40.1581],[47.6695,40.1483],[47.6877,40.1756],[47.722,40.1624],[47.7374,40.1228]]]},"properties":{"name":"Aghjabadi","id":"AZ-AGC","TYPE":"District","CNTRY_NAME":"Azerbaijan"},"id":"AZ-AGC"},
{"type":"Feature","geometry":{"type":"Polygon","coordinates":[[[47.5864,40.5254],[47.537,40.5403],[47.4861,40.5299],[47.4724,40.4965],[47.4721,40.4743],[47.4638,40.452],[47.4823,40.4244],[47.5187,40.4058],[47.523,40.3907],[47.4943,40.3382],[47.4266,40.2878],[47.3848,40.2986],[47.3609,40.3345],[47.3321,40.3453],[47.3286,40.3805],[47.3052,40.383],[47.2895,40.3929],[47.2789,40.4107],[47.278,40.4392],[47.2337,40.4762],[47.2003,40.4929],[47.1898,40.5198],[47.173,40.544],[47.1974,40.5522],[47.2179,40.5679],[47.2347,40.5933],[47.2347,40.6177],[47.221,40.6381],[47.2196,40.6693],[47.2296,40.7006],[47.243,40.7205],[47.2628,40.7889],[47.3285,40.7811],[47.376,40.7627],[47.4128,40.7733],[47.4875,40.7527],[47.5256,40.7615],[47.5315,40.7338],[47.5314,40.6772],[47.5365,40.6647],[47.5886,40.6395],[47.6187,40.6098],[47.6186,40.6013],[47.592,40.5737],[47.5864,40.5254]]]},"properties":{"name":"Agdas","id":"AZ-AGS","TYPE":"District","CNTRY_NAME":"Azerbaijan"},"id":"AZ-AGS"},
{"type":"Feature","geometry":{"type":"Polygon","coordinates":[[[47.2289,40.1698],[47.1865,40.131],[47.1382,40.1136],[47.129,40.0934],[47.1661,40.0767],[47.1567,40.0583],[47.1082,40.0508],[47.1006,40.0374],[47.1009,39.9999],[47.0962,39.9868],[47.0588,39.9617],[47.062,39.9437],[47.0799,39.9302],[47.1591,39.9076],[47.2317,39.93],[47.2726,39.9258],[47.2849,39.91],[47.2858,39.8883],[47.2672,39.8678],[47.249,39.857],[47.2316,39.8614],[47.177,39.8575],[47.1529,39.8272],[47.1016,39.8416],[47.0547,39.8606],[47.0285,39.8792],[47.0121,39.8831],[46.9659,39.877],[46.9576,39.8711],[46.9487,39.8363],[46.9344,39.8233],[46.8996,39.8142],[46.8527,39.7953],[46.8737,39.834],[46.9134,39.8725],[46.9231,39.8944],[46.9208,39.9116],[46.8574,39.9251],[46.8478,39.9367],[46.8419,39.9665],[46.807,40.0002],[46.7724,40.0069],[46.734,39.9962],[46.7107,40.0052],[46.6979,40.0182],[46.709,40.0277],[46.7616,40.033],[46.7707,40.0603],[46.7649,40.0871],[46.8039,40.1068],[46.8134,40.1253],[46.8143,40.1539],[46.8398,40.1712],[46.8689,40.1657],[46.9053,40.1729],[46.926,40.1854],[46.926,40.2204],[46.9396,40.2208],[46.9623,40.2059],[46.9837,40.2046],[47.0112,40.2117],[47.0233,40.201],[47.0266,40.1762],[47.0379,40.1663],[47.0863,40.1669],[47.1388,40.174],[47.1898,40.1671],[47.2289,40.1698]]]},"properties":{"name":"Agdam","id":"AZ-AGM","TYPE":"District","CNTRY_NAME":"Azerbaijan"},"id":"AZ-AGM"},
{"type":"Feature","geometry":{"type":"Polygon","coordinates":[[[48.4401,40.2784],[48.4016,40.3],[48.3816,40.3371],[48.3665,40.3446],[48.3372,40.3461],[48.3177,40.3706],[48.3314,40.415],[48.3154,40.4375],[48.299,40.4416],[48.2492,40.4424],[48.2247,40.4373],[48.1923,40.4088],[48.1656,40.4107],[48.146,40.435],[48.114,40.4267],[48.0846,40.4391],[48.0803,40.4671],[48.1084,40.5323],[48.1343,40.5241],[48.1472,40.5395],[48.1532,40.5629],[48.1996,40.5969],[48.2384,40.6118],[48.2477,40.6308],[48.3258,40.6601],[48.4166,40.7064],[48.4327,40.7264],[48.4612,40.7939],[48.4797,40.7616],[48.5137,40.7398],[48.5258,40.7175],[48.5238,40.7034],[48.5036,40.6797],[48.5068,40.6591],[48.4872,40.6378],[48.4376,40.6005],[48.4273,40.5854],[48.4355,40.5671],[48.461,40.5398],[48.4938,40.5286],[48.5731,40.5254],[48.6186,40.5024],[48.6487,40.4924],[48.6428,40.476],[48.604,40.458],[48.5425,40.4351],[48.5184,40.4124],[48.5168,40.3747],[48.4737,40.3313],[48.4581,40.3119],[48.4401,40.2784]]]},"properties":{"name":"Agsu","id":"AZ-AGU","TYPE":"District","CNTRY_NAME":"Azerbaijan"},"id":"AZ-AGU"},
{"type":"Feature","geometry":{"type":"Polygon","coordinates":[[[48.9077,38.605],[48.9107,38.5125],[48.9097,38.4191],[48.856,38.4101],[48.8188,38.3849],[48.794,38.3792],[48.7537,38.3768],[48.7196,38.354],[48.6835,38.3573],[48.668,38.3695],[48.638,38.3768],[48.5977,38.3996],[48.6007,38.4239],[48.5744,38.4712],[48.5471,38.4945],[48.5657,38.514],[48.569,38.5386],[48.5791,38.5476],[48.6272,38.5688],[48.6641,38.5665],[48.6981,38.5817],[48.723,38.5752],[48.7692,38.5751],[48.8128,38.591],[48.9014,38.6098],[48.9077,38.605]]]},"properties":{"name":"Astara","id":"AZ-AST","TYPE":"District","CNTRY_NAME":"Azerbaijan"},"id":"AZ-AST"},
{"type":"Feature","geometry":{"type":"MultiPolygon","coordinates":[[[[50.6141,40.3167],[50.5628,40.3069],[50.5568,40.3362],[50.5711,40.3501],[50.5924,40.3475],[50.613,40.3301],[50.6141,40.3167]]],[[[49.3592,39.665],[49.3522,39.7071],[49.3446,39.7281],[49.345,39.7933],[49.3568,39.8121],[49.3527,39.8603],[49.3127,39.9094],[49.3094,39.9276],[49.2919,39.953],[49.3095,39.9793],[49.3128,40.0103],[49.3415,40.0403],[49.338,40.0927],[49.3772,40.144],[49.3708,40.1721],[49.4077,40.1981],[49.4193,40.2133],[49.4292,40.2463],[49.4293,40.3334],[49.4219,40.35],[49.4141,40.3908],[49.4314,40.4154],[49.4489,40.4224],[49.4756,40.4226],[49.503,40.4304],[49.5273,40.4646],[49.5565,40.4718],[49.5644,40.4713],[49.5905,40.465],[49.6573,40.4766],[49.6955,40.4759],[49.7362,40.4653],[49.7762,40.4796],[49.8852,40.4987],[49.8852,40.5167],[49.8269,40.5259],[49.8001,40.5365],[49.7595,40.5437],[49.7228,40.531],[49.7168,40.5305],[49.7135,40.5313],[49.7191,40.5601],[49.7298,40.5723],[49.773,40.5742],[49.8079,40.5633],[49.8704,40.5705],[49.9256,40.5798],[49.9531,40.5888],[49.9804,40.5914],[50.0065,40.5827],[50.0443,40.5894],[50.0652,40.5876],[50.0605,40.573],[50.0823,40.5552],[50.0865,40.5421],[50.1153,40.5211],[50.1433,40.5185],[50.1758,40.5053],[50.2198,40.501],[50.2439,40.4653],[50.2679,40.4524],[50.2831,40.4282],[50.3319,40.4044],[50.3574,40.3555],[50.358,40.3201],[50.3523,40.2971],[50.3575,40.268],[50.3702,40.246],[50.3499,40.2467],[50.3444,40.2862],[50.3169,40.3126],[50.2256,40.3497],[50.1736,40.3539],[50.1557,40.3622],[50.1073,40.3696],[50.085,40.3607],[50.0782,40.3486],[50.0512,40.3531],[50.0225,40.3491],[49.9954,40.3322],[49.9769,40.3378],[49.9501,40.3343],[49.9466,40.3463],[49.9132,40.3691],[49.853,40.3721],[49.8278,40.3583],[49.8374,40.34],[49.8297,40.3079],[49.7539,40.2942],[49.7268,40.2782],[49.6803,40.2754],[49.6625,40.2573],[49.5789,40.2244],[49.562,40.2121],[49.5189,40.2001],[49.4956,40.1804],[49.4691,40.1701],[49.4691,40.132],[49.4846,40.115],[49.4543,40.1082],[49.4163,40.0864],[49.4213,40.0505],[49.4403,40.0239],[49.4785,39.9856],[49.4537,39.9663],[49.4202,39.9502],[49.4136,39.9269],[49.4234,39.8882],[49.4424,39.8585],[49.4129,39.8397],[49.4087,39.8186],[49.3914,39.7974],[49.3875,39.7767],[49.4025,39.7244],[49.4199,39.6967],[49.3785,39.6813],[49.3592,39.665]],[[49.7404,40.3945],[49.7376,40.4086],[49.688,40.4117],[49.6556,40.4099],[49.6476,40.3742],[49.6303,40.3442],[49.6297,40.3274],[49.6505,40.3226],[49.6931,40.3482],[49.722,40.3319],[49.7376,40.3385],[49.7566,40.3658],[49.7404,40.3945]]],[[[49.6466,39.974],[49.6337,39.9797],[49.6309,40],[49.6535,40],[49.6609,39.9814],[49.6466,39.974]]],[[[50.319,40.4641],[50.3094,40.4769],[50.3272,40.4885],[50.3446,40.48],[50.3519,40.4629],[50.3477,40.4251],[50.3306,40.438],[50.319,40.4641]]]]},"properties":{"name":"Baki","id":"AZ-BA","TYPE":"District","CNTRY_NAME":"Azerbaijan"},"id":"AZ-BA"},
{"type":"Feature","geometry":{"type":"Polygon","coordinates":[[[45.4707,39.503],[45.4334,39.4641],[45.3811,39.4356],[45.3869,39.4175],[45.4218,39.413],[45.4334,39.401],[45.4373,39.3784],[45.4528,39.3589],[45.5128,39.3559],[45.5419,39.3303],[45.571,39.3137],[45.5613,39.2927],[45.5863,39.2836],[45.5923,39.2671],[45.5865,39.2535],[45.5632,39.2414],[45.5593,39.2038],[45.509,39.1962],[45.509,39.1796],[45.5497,39.154],[45.5535,39.1208],[45.5361,39.1087],[45.5264,39.083],[45.5458,39.0649],[45.571,39.0513],[45.5787,39.0317],[45.5768,39.0135],[45.5632,38.9999],[45.5652,38.965],[45.5366,38.9586],[45.5112,38.9706],[45.466,38.9814],[45.4364,38.9984],[45.4336,39.0068],[45.4479,39.0297],[45.45,39.0477],[45.4077,39.0619],[45.3956,39.1001],[45.3644,39.1325],[45.3588,39.1578],[45.3277,39.16],[45.3182,39.1707],[45.3351,39.1892],[45.3228,39.1968],[45.2954,39.1833],[45.2284,39.2013],[45.2088,39.2012],[45.19,39.2212],[45.1651,39.2074],[45.1613,39.2369],[45.1169,39.3065],[45.1447,39.3092],[45.1601,39.2972],[45.1989,39.3092],[45.2105,39.3032],[45.2532,39.3318],[45.2629,39.3574],[45.2939,39.4055],[45.3016,39.425],[45.2977,39.4791],[45.321,39.4896],[45.3249,39.5122],[45.3448,39.5531],[45.3824,39.5456],[45.4113,39.5334],[45.4332,39.5339],[45.4532,39.5073],[45.4707,39.503]]]},"properties":{"name":"Babek","id":"AZ-BAB","TYPE":"District","CNTRY_NAME":"Azerbaijan"},"id":"AZ-BAB"},
{"type":"Feature","geometry":{"type":"Polygon","coordinates":[[[46.7063,41.846],[46.7156,41.8324],[46.7137,41.7957],[46.6971,41.7732],[46.6601,41.7463],[46.6442,41.7398],[46.5668,41.696],[46.5554,41.6798],[46.5437,41.6428],[46.526,41.619],[46.4524,41.5867],[46.423,41.5869],[46.3957,41.5708],[46.3506,41.5511],[46.304,41.5672],[46.2981,41.5983],[46.2518,41.6113],[46.2235,41.59],[46.2052,41.6067],[46.2032,41.6539],[46.189,41.6858],[46.1748,41.7404],[46.2012,41.7663],[46.2457,41.7784],[46.2959,41.7862],[46.3394,41.8155],[46.3768,41.8325],[46.399,41.851],[46.4147,41.8796],[46.418,41.9056],[46.4426,41.8893],[46.5083,41.8869],[46.5397,41.8738],[46.5409,41.8256],[46.5609,41.8078],[46.5768,41.8066],[46.6473,41.8331],[46.7004,41.8299],[46.7063,41.846]]]},"properties":{"name":"Balakan","id":"AZ-BAL","TYPE":"District","CNTRY_NAME":"Azerbaijan"},"id":"AZ-BAL"},
{"type":"Feature","geometry":{"type":"Polygon","coordinates":[[[47.0863,40.1669],[47.0756,40.2043],[47.0757,40.273],[47.0826,40.2903],[47.0742,40.3071],[47.0465,40.3101],[47.0265,40.3226],[47.0075,40.3508],[46.9854,40.363],[46.9752,40.3839],[46.9693,40.4157],[46.9967,40.442],[47.0337,40.4878],[47.0649,40.4874],[47.1011,40.4675],[47.1512,40.4958],[47.173,40.544],[47.1898,40.5198],[47.2003,40.4929],[47.2337,40.4762],[47.278,40.4392],[47.2789,40.4107],[47.2895,40.3929],[47.3052,40.383],[47.3286,40.3805],[47.3321,40.3453],[47.3609,40.3345],[47.3848,40.2986],[47.4266,40.2878],[47.4146,40.2653],[47.4297,40.2559],[47.4639,40.2571],[47.469,40.2504],[47.442,40.2295],[47.3755,40.1982],[47.3478,40.1793],[47.2942,40.1533],[47.2602,40.1617],[47.2409,40.1861],[47.2289,40.1698],[47.1898,40.1671],[47.1388,40.174],[47.0863,40.1669]]]},"properties":{"name":"Barda","id":"AZ-BAR","TYPE":"District","CNTRY_NAME":"Azerbaijan"},"id":"AZ-BAR"},
{"type":"Feature","geometry":{"type":"Polygon","coordinates":[[[47.625,39.5477],[47.6387,39.5675],[47.6389,39.5984],[47.6174,39.6223],[47.579,39.6405],[47.5509,39.6622],[47.5268,39.6934],[47.5137,39.7024],[47.4887,39.7037],[47.4727,39.7167],[47.4659,39.7384],[47.4325,39.7819],[47.457,39.7956],[47.4472,39.8156],[47.4495,39.842],[47.4951,39.8599],[47.5059,39.8744],[47.5684,39.8776],[47.5985,39.8922],[47.6278,39.8928],[47.6476,39.9048],[47.6642,39.9302],[47.6726,39.9555],[47.6746,39.9861],[47.6811,40],[47.6845,40.0371],[47.7374,40.1228],[47.766,40.1069],[47.7709,40.096],[47.7487,40.084],[47.7743,40.0563],[47.807,40.04],[47.8249,40.0092],[47.8147,39.9837],[47.7508,39.9525],[47.7433,39.9322],[47.7704,39.9175],[47.7721,39.8939],[47.7478,39.8755],[47.7416,39.8615],[47.7564,39.8473],[47.7991,39.8367],[47.8399,39.7907],[47.8806,39.776],[47.9011,39.7569],[47.8904,39.7453],[47.8153,39.7082],[47.7872,39.6812],[47.7837,39.6317],[47.7419,39.598],[47.625,39.5477]]]},"properties":{"name":"Beylagan","id":"AZ-BEY","TYPE":"District","CNTRY_NAME":"Azerbaijan"},"id":"AZ-BEY"},
{"type":"Feature","geometry":{"type":"Polygon","coordinates":[[[48.7638,39.4088],[48.7221,39.41],[48.6972,39.4199],[48.6713,39.4126],[48.6616,39.3937],[48.6386,39.3814],[48.6437,39.3654],[48.6435,39.3247],[48.6322,39.3078],[48.6061,39.3025],[48.5863,39.3083],[48.5686,39.3257],[48.5665,39.3538],[48.5479,39.3809],[48.5182,39.386],[48.4998,39.3784],[48.4801,39.3536],[48.4569,39.336],[48.4207,39.3304],[48.3863,39.3035],[48.3531,39.3011],[48.34,39.3167],[48.3386,39.3639],[48.3746,39.3708],[48.353,39.3825],[48.3191,39.4089],[48.2337,39.4703],[48.1935,39.5019],[48.1779,39.5183],[48.1483,39.5636],[48.1249,39.5773],[48.0842,39.6114],[48.0587,39.6423],[48.0014,39.6842],[47.9908,39.6963],[47.9539,39.6739],[47.9383,39.7036],[47.9701,39.7198],[47.9941,39.7193],[48.0467,39.6994],[48.1254,39.6386],[48.2271,39.5801],[48.2652,39.5642],[48.3191,39.5657],[48.3627,39.5979],[48.3794,39.6217],[48.4071,39.6492],[48.4412,39.6671],[48.4702,39.6576],[48.4996,39.6219],[48.5134,39.6163],[48.5555,39.6163],[48.5689,39.626],[48.5821,39.6517],[48.6002,39.6518],[48.6281,39.6412],[48.767,39.6057],[48.7462,39.5517],[48.7368,39.5139],[48.7403,39.5024],[48.7786,39.4621],[48.7638,39.4088]]]},"properties":{"name":"Bilasuvar","id":"AZ-BIL","TYPE":"District","CNTRY_NAME":"Azerbaijan"},"id":"AZ-BIL"},
{"type":"Feature","geometry":{"type":"Polygon","coordinates":[[[47.2735,39.3536],[47.2275,39.3308],[47.2106,39.3114],[47.1437,39.2984],[47.0992,39.2711],[47.0647,39.2431],[47.0473,39.194],[47.0332,39.1758],[46.9956,39.152],[46.9548,39.1325],[46.9247,39.1563],[46.8722,39.1476],[46.8708,39.1779],[46.8433,39.2115],[46.8229,39.228],[46.8047,39.2416],[46.7557,39.2622],[46.7389,39.2829],[46.7373,39.3202],[46.7275,39.3396],[46.706,39.3548],[46.7053,39.3908],[46.7335,39.4163],[46.7695,39.4099],[46.7972,39.3974],[46.8116,39.4032],[46.8287,39.4334],[46.8085,39.464],[46.8182,39.4776],[46.834,39.4778],[46.8647,39.4599],[46.895,39.4484],[46.8901,39.433],[46.9015,39.4229],[46.9628,39.3918],[46.9622,39.3754],[46.9889,39.3792],[47.0147,39.3964],[47.0424,39.3948],[47.0479,39.4041],[47.026,39.4375],[47.0534,39.466],[47.1326,39.4285],[47.1561,39.3877],[47.1669,39.3851],[47.2105,39.3943],[47.2513,39.3766],[47.2735,39.3536]]]},"properties":{"name":"Cəbrayıl","id":"AZ-CAB","TYPE":"District","CNTRY_NAME":"Azerbaijan"},"id":"AZ-CAB"},
{"type":"Feature","geometry":{"type":"Polygon","coordinates":[[[48.3684,39.0201],[48.3578,39.0405],[48.3062,39.0891],[48.3014,39.1089],[48.2384,39.1275],[48.2251,39.139],[48.2184,39.1607],[48.1637,39.1876],[48.1442,39.2002],[48.1296,39.2403],[48.1318,39.2648],[48.1427,39.27],[48.1653,39.2976],[48.1919,39.3072],[48.2079,39.3217],[48.2587,39.3297],[48.291,39.3475],[48.3386,39.3639],[48.34,39.3167],[48.3531,39.3011],[48.3863,39.3035],[48.4207,39.3304],[48.4569,39.336],[48.4801,39.3536],[48.4998,39.3784],[48.5182,39.386],[48.5479,39.3809],[48.5665,39.3538],[48.5686,39.3257],[48.5863,39.3083],[48.6061,39.3025],[48.6322,39.3078],[48.6435,39.3247],[48.6437,39.3654],[48.6386,39.3814],[48.6616,39.3937],[48.6713,39.4126],[48.6972,39.4199],[48.7221,39.41],[48.7638,39.4088],[48.7318,39.3791],[48.7131,39.3514],[48.7131,39.2823],[48.752,39.2234],[48.7537,39.2104],[48.753,39.1697],[48.7405,39.1472],[48.6995,39.1535],[48.7,39.1345],[48.6585,39.1345],[48.6441,39.1145],[48.6639,39.0825],[48.5917,39.0535],[48.5713,39.0379],[48.5562,39.0088],[48.538,38.9953],[48.4778,38.9857],[48.4482,39.0133],[48.4115,39.0311],[48.3684,39.0201]]]},"properties":{"name":"Cəlilabad","id":"AZ-CAL","TYPE":"District","CNTRY_NAME":"Azerbaijan"},"id":"AZ-CAL"},
{"type":"Feature","geometry":{"type":"Polygon","coordinates":[[[45.9498,39.3209],[45.8985,39.261],[45.8752,39.2535],[45.8578,39.2339],[45.8558,39.1842],[45.8229,39.151],[45.8113,39.1163],[45.7764,39.0815],[45.7628,39.0589],[45.7609,39.0392],[45.7454,39.006],[45.7822,38.9924],[45.8016,38.9727],[45.8054,38.9545],[45.7741,38.9195],[45.7202,38.9264],[45.7106,38.9373],[45.6493,38.9484],[45.6172,38.9384],[45.6047,38.952],[45.5652,38.965],[45.5632,38.9999],[45.5768,39.0135],[45.5787,39.0317],[45.571,39.0513],[45.5458,39.0649],[45.5264,39.083],[45.5361,39.1087],[45.5535,39.1208],[45.5497,39.154],[45.509,39.1796],[45.509,39.1962],[45.5593,39.2038],[45.5632,39.2414],[45.5865,39.2535],[45.5923,39.2671],[45.5863,39.2836],[45.633,39.3107],[45.6601,39.3107],[45.6911,39.3363],[45.7105,39.3363],[45.7241,39.3167],[45.7415,39.3077],[45.7822,39.3438],[45.7861,39.3589],[45.8096,39.3685],[45.8653,39.36],[45.8862,39.3525],[45.9498,39.3209]]]},"properties":{"name":"Culfa","id":"AZ-CUL","TYPE":"District","CNTRY_NAME":"Azerbaijan"},"id":"AZ-CUL"},
{"type":"Feature","geometry":{"type":"Polygon","coordinates":[[[46.1558,40.3075],[46.1017,40.305],[46.0794,40.2998],[46.0432,40.3002],[45.9733,40.3142],[45.9459,40.3133],[45.9025,40.3051],[45.8974,40.2983],[45.8484,40.2972],[45.8277,40.3149],[45.8282,40.3308],[45.8437,40.3483],[45.8458,40.3861],[45.8609,40.4083],[45.8203,40.4636],[45.8193,40.5044],[45.8542,40.5336],[45.9117,40.5572],[45.9201,40.5698],[45.9483,40.5908],[45.9758,40.6179],[46.0079,40.6648],[46.0292,40.669],[46.079,40.6472],[46.1334,40.6212],[46.2042,40.5779],[46.1847,40.5551],[46.1511,40.5296],[46.1318,40.5049],[46.1471,40.4838],[46.2006,40.4427],[46.2357,40.4244],[46.2372,40.4151],[46.2142,40.3859],[46.1764,40.3641],[46.1576,40.3425],[46.1558,40.3075]]]},"properties":{"name":"Dashkasan","id":"AZ-DAS","TYPE":"District","CNTRY_NAME":"Azerbaijan"},"id":"AZ-DAS"},
{"type":"Feature","geometry":{"type":"Polygon","coordinates":[[[47.2735,39.3536],[47.2513,39.3766],[47.2105,39.3943],[47.1669,39.3851],[47.1561,39.3877],[47.1326,39.4285],[47.0534,39.466],[47.0669,39.4931],[47.0974,39.4968],[47.0855,39.5385],[47.1043,39.5548],[47.1059,39.5786],[47.0768,39.5773],[47.0355,39.5542],[47.0174,39.5702],[47.0334,39.586],[47.066,39.5904],[47.0976,39.6036],[47.0955,39.6192],[47.0621,39.6092],[47.0262,39.6231],[47.0369,39.6406],[47.0829,39.6411],[47.138,39.6617],[47.1683,39.6851],[47.2108,39.6938],[47.2566,39.6943],[47.3115,39.708],[47.3574,39.7126],[47.3919,39.7294],[47.4659,39.7384],[47.4727,39.7167],[47.4887,39.7037],[47.5137,39.7024],[47.5268,39.6934],[47.5509,39.6622],[47.579,39.6405],[47.6174,39.6223],[47.6389,39.5984],[47.6387,39.5675],[47.625,39.5477],[47.5419,39.4996],[47.4781,39.4814],[47.4255,39.4638],[47.3849,39.4576],[47.3734,39.4406],[47.3106,39.3719],[47.2735,39.3536]]]},"properties":{"name":"Füzuli","id":"AZ-FUZ","TYPE":"District","CNTRY_NAME":"Azerbaijan"},"id":"AZ-FUZ"},
{"type":"Feature","geometry":{"type":"Polygon","coordinates":[[[46.3179,40.727],[46.3457,40.7281],[46.3704,40.7089],[46.3645,40.6882],[46.3558,40.6721],[46.3113,40.6373],[46.3003,40.635],[46.2757,40.65],[46.2821,40.6691],[46.2774,40.704],[46.3179,40.727]]]},"properties":{"name":"Ganja","id":"AZ-GA","TYPE":"City","CNTRY_NAME":"Azerbaijan"},"id":"AZ-GA"},
{"type":"Feature","geometry":{"type":"Polygon","coordinates":[[[45.9117,40.5572],[45.8542,40.5336],[45.8193,40.5044],[45.8203,40.4636],[45.8609,40.4083],[45.8458,40.3861],[45.8437,40.3483],[45.8282,40.3308],[45.8277,40.3149],[45.8104,40.3264],[45.7528,40.3488],[45.692,40.3652],[45.6452,40.3698],[45.5993,40.4147],[45.5647,40.4386],[45.546,40.4691],[45.5248,40.4785],[45.4842,40.4829],[45.4358,40.514],[45.435,40.5323],[45.4455,40.5472],[45.439,40.565],[45.4512,40.5834],[45.4378,40.6009],[45.4125,40.6125],[45.3865,40.6099],[45.3716,40.6196],[45.3727,40.6386],[45.3573,40.6517],[45.3567,40.6684],[45.3748,40.693],[45.3982,40.713],[45.4084,40.7364],[45.4414,40.7496],[45.4677,40.7661],[45.4884,40.742],[45.4902,40.7044],[45.507,40.6914],[45.5568,40.6892],[45.601,40.6715],[45.6082,40.6546],[45.6015,40.6381],[45.6106,40.622],[45.6409,40.615],[45.6751,40.5942],[45.6936,40.6042],[45.7077,40.6247],[45.7096,40.7065],[45.7161,40.7318],[45.7097,40.7457],[45.7096,40.783],[45.7226,40.8232],[45.7482,40.793],[45.7764,40.7726],[45.7785,40.7509],[45.8225,40.6981],[45.8705,40.6763],[45.8834,40.6558],[45.911,40.6387],[45.9052,40.6142],[45.9117,40.5572]],[[45.5278,40.649],[45.5322,40.6611],[45.512,40.6791],[45.4874,40.69],[45.461,40.6692],[45.4663,40.653],[45.4898,40.6362],[45.5168,40.6358],[45.5278,40.649]]]},"properties":{"name":"Gədəbəy","id":"AZ-GAD","TYPE":"District","CNTRY_NAME":"Azerbaijan"},"id":"AZ-GAD"},
{"type":"Feature","geometry":{"type":"Polygon","coordinates":[[[46.924,40.48],[46.8987,40.4644],[46.8843,40.4486],[46.8213,40.4141],[46.7967,40.4037],[46.7133,40.4036],[46.6765,40.3889],[46.6365,40.368],[46.5965,40.3556],[46.5734,40.3434],[46.5487,40.3391],[46.5345,40.3131],[46.4974,40.2901],[46.417,40.2571],[46.3592,40.258],[46.3178,40.2762],[46.3167,40.3342],[46.3232,40.3471],[46.3249,40.3784],[46.3337,40.3914],[46.3721,40.4201],[46.396,40.4558],[46.4792,40.5179],[46.5075,40.5455],[46.514,40.5599],[46.4941,40.5794],[46.494,40.6176],[46.5008,40.6495],[46.4862,40.6717],[46.4707,40.6817],[46.4886,40.7342],[46.507,40.7476],[46.5347,40.7585],[46.5497,40.7776],[46.5395,40.7937],[46.5505,40.8054],[46.6003,40.8301],[46.6342,40.8555],[46.643,40.8675],[46.6764,40.8931],[46.7311,40.9451],[46.7597,40.966],[46.7495,40.9383],[46.7471,40.9042],[46.7554,40.8802],[46.7555,40.8178],[46.7318,40.7788],[46.7312,40.7509],[46.756,40.7356],[46.7989,40.7311],[46.8266,40.711],[46.7739,40.657],[46.7746,40.6274],[46.7881,40.6266],[46.8276,40.6468],[46.8481,40.6499],[46.8814,40.6356],[46.8902,40.6237],[46.8896,40.5893],[46.8834,40.5608],[46.9014,40.5304],[46.9193,40.5283],[46.9538,40.5337],[46.9636,40.528],[46.9504,40.4869],[46.924,40.48]],[[46.8014,40.4305],[46.8014,40.4603],[46.7773,40.4674],[46.7541,40.4617],[46.7476,40.4362],[46.7606,40.4255],[46.7875,40.4227],[46.8014,40.4305]]]},"properties":{"name":"Goranboy","id":"AZ-GOR","TYPE":"District","CNTRY_NAME":"Azerbaijan"},"id":"AZ-GOR"},
{"type":"Feature","geometry":{"type":"Polygon","coordinates":[[[47.9926,40.4417],[47.9702,40.4519],[47.9447,40.4475],[47.9032,40.4492],[47.7922,40.4934],[47.7763,40.4944],[47.743,40.4711],[47.7074,40.4855],[47.687,40.4989],[47.654,40.5086],[47.6318,40.4982],[47.5874,40.5191],[47.5864,40.5254],[47.592,40.5737],[47.6186,40.6013],[47.6187,40.6098],[47.5886,40.6395],[47.6419,40.6612],[47.7122,40.6642],[47.7325,40.675],[47.784,40.6653],[47.8274,40.6479],[47.8612,40.6575],[47.9274,40.6437],[47.9878,40.6262],[48.0118,40.6233],[48.0435,40.6063],[48.0509,40.5899],[48.0137,40.5412],[48.0144,40.5224],[48.0272,40.5129],[48.037,40.4841],[48.036,40.4589],[48.0281,40.4433],[47.9926,40.4417]]]},"properties":{"name":"Göyçay","id":"AZ-GOY","TYPE":"District","CNTRY_NAME":"Azerbaijan"},"id":"AZ-GOY"},
{"type":"Feature","geometry":{"type":"Polygon","coordinates":[[[46.1558,40.3075],[46.1576,40.3425],[46.1764,40.3641],[46.2142,40.3859],[46.2372,40.4151],[46.2357,40.4244],[46.2006,40.4427],[46.1471,40.4838],[46.1318,40.5049],[46.1511,40.5296],[46.1847,40.5551],[46.2042,40.5779],[46.1334,40.6212],[46.079,40.6472],[46.1149,40.6711],[46.1313,40.6747],[46.19,40.6738],[46.2056,40.6787],[46.2233,40.7019],[46.2257,40.7298],[46.2392,40.7498],[46.241,40.7804],[46.2773,40.8329],[46.3067,40.7922],[46.3169,40.7574],[46.3179,40.727],[46.2774,40.704],[46.2821,40.6691],[46.2757,40.65],[46.3003,40.635],[46.3113,40.6373],[46.3558,40.6721],[46.3645,40.6882],[46.4132,40.6748],[46.4455,40.6743],[46.4707,40.6817],[46.4862,40.6717],[46.5008,40.6495],[46.494,40.6176],[46.4941,40.5794],[46.514,40.5599],[46.5075,40.5455],[46.4792,40.5179],[46.396,40.4558],[46.3721,40.4201],[46.3337,40.3914],[46.3249,40.3784],[46.3232,40.3471],[46.3167,40.3342],[46.3178,40.2762],[46.2523,40.2899],[46.1782,40.2944],[46.1558,40.3075]]]},"properties":{"name":"Göygöl","id":"AZ-GYG","TYPE":"District","CNTRY_NAME":"Azerbaijan"},"id":"AZ-GYG"},
{"type":"Feature","geometry":{"type":"Polygon","coordinates":[[[48.9315,39.9139],[48.935,39.9361],[48.9467,39.9473],[48.911,39.9925],[48.8881,39.99],[48.8821,39.9739],[48.8965,39.9525],[48.8954,39.9213],[48.8639,39.9347],[48.8548,39.9576],[48.8098,39.9942],[48.7874,40.0055],[48.7294,40.0151],[48.6716,40.0293],[48.6464,40.0604],[48.6672,40.1052],[48.5968,40.1348],[48.5766,40.1377],[48.4575,40.1378],[48.4594,40.1711],[48.4675,40.2086],[48.4592,40.2326],[48.457,40.2669],[48.4401,40.2784],[48.4581,40.3119],[48.4737,40.3313],[48.501,40.3237],[48.542,40.3213],[48.5734,40.3041],[48.6122,40.2936],[48.6675,40.2658],[48.6823,40.2668],[48.734,40.2983],[48.7469,40.3447],[48.7757,40.3258],[48.8182,40.3248],[48.8506,40.3285],[48.8607,40.2832],[48.9029,40.2619],[48.9702,40.2032],[49.0025,40.1616],[49.02,40.1557],[49.062,40.1545],[49.0795,40.1489],[49.151,40.1474],[49.1818,40.1355],[49.2014,40.1081],[49.203,40.0768],[49.2421,40.0306],[49.2441,40.0026],[49.2919,39.953],[49.3094,39.9276],[49.3127,39.9094],[49.3527,39.8603],[49.3568,39.8121],[49.293,39.8528],[49.281,39.8681],[49.2611,39.8765],[49.2343,39.8668],[49.1805,39.872],[49.1474,39.8685],[49.1114,39.8798],[49.074,39.8821],[49.0008,39.9186],[48.9609,39.921],[48.9315,39.9139]]]},"properties":{"name":"Haciqabul","id":"AZ-HAC","TYPE":"District","CNTRY_NAME":"Azerbaijan"},"id":"AZ-HAC"},
{"type":"Feature","geometry":{"type":"Polygon","coordinates":[[[47.7837,39.6317],[47.7872,39.6812],[47.8153,39.7082],[47.8904,39.7453],[47.9011,39.7569],[47.8806,39.776],[47.8399,39.7907],[47.7991,39.8367],[47.7564,39.8473],[47.7416,39.8615],[47.7478,39.8755],[47.7721,39.8939],[47.7704,39.9175],[47.7433,39.9322],[47.7508,39.9525],[47.8147,39.9837],[47.8249,40.0092],[47.807,40.04],[47.7743,40.0563],[47.7487,40.084],[47.8138,40.0799],[47.8287,40.0823],[47.8461,40.1039],[47.8614,40.0668],[47.8734,40.0547],[47.893,40.0543],[47.9221,40.0626],[47.9575,40.0491],[47.9765,40.064],[47.9646,40.083],[47.9947,40.0903],[48.0148,40.1229],[48.0367,40.1324],[48.0572,40.1231],[48.076,40.0962],[48.1015,40.086],[48.1069,40.0701],[48.1346,40.0529],[48.1843,40.0503],[48.2135,40.0359],[48.2422,40.0124],[48.2497,39.9797],[48.2272,39.9492],[48.2466,39.926],[48.255,39.9014],[48.2157,39.8436],[48.2157,39.8256],[48.2338,39.7914],[48.2654,39.7745],[48.3221,39.7644],[48.3458,39.742],[48.3492,39.7305],[48.3409,39.7083],[48.3428,39.6526],[48.3671,39.6367],[48.3794,39.6217],[48.3627,39.5979],[48.3191,39.5657],[48.2652,39.5642],[48.2271,39.5801],[48.1254,39.6386],[48.0467,39.6994],[47.9941,39.7193],[47.9701,39.7198],[47.9383,39.7036],[47.9539,39.6739],[47.8998,39.6549],[47.8356,39.6589],[47.8078,39.6501],[47.7837,39.6317]]]},"properties":{"name":"Imisli","id":"AZ-IMI","TYPE":"District","CNTRY_NAME":"Azerbaijan"},"id":"AZ-IMI"},
{"type":"Feature","geometry":{"type":"Polygon","coordinates":[[[48.4612,40.7939],[48.4327,40.7264],[48.4166,40.7064],[48.3258,40.6601],[48.2477,40.6308],[48.2384,40.6118],[48.1996,40.5969],[48.1532,40.5629],[48.1472,40.5395],[48.1343,40.5241],[48.1084,40.5323],[48.0625,40.5161],[48.0272,40.5129],[48.0144,40.5224],[48.0137,40.5412],[48.0509,40.5899],[48.0435,40.6063],[48.0118,40.6233],[47.9878,40.6262],[47.9274,40.6437],[47.8612,40.6575],[47.8274,40.6479],[47.784,40.6653],[47.7325,40.675],[47.7439,40.691],[47.7734,40.7099],[47.8088,40.7626],[47.8172,40.7688],[47.9099,40.8059],[47.9188,40.8141],[47.9198,40.8523],[47.969,40.8727],[47.9859,40.893],[47.9874,40.9051],[47.9754,40.9327],[47.9458,40.9666],[47.9549,40.9948],[47.9654,41.0033],[47.989,40.9967],[48.0061,41.0382],[48.0311,41.0631],[48.0542,41.0577],[48.0965,41.055],[48.1298,41.0392],[48.1682,41.0283],[48.2581,40.9911],[48.2988,40.9944],[48.3326,40.9874],[48.3666,40.9742],[48.3892,40.9485],[48.401,40.9309],[48.4222,40.9144],[48.4883,40.8802],[48.5006,40.8527],[48.4612,40.7939]]]},"properties":{"name":"Ismayilli","id":"AZ-ISM","TYPE":"District","CNTRY_NAME":"Azerbaijan"},"id":"AZ-ISM"},
{"type":"Feature","geometry":{"type":"Polygon","coordinates":[[[46.6979,40.0182],[46.6248,40.0036],[46.6097,39.98],[46.5788,39.9625],[46.5611,39.9582],[46.5423,39.9744],[46.5095,39.9855],[46.4711,39.9623],[46.451,39.9582],[46.3745,39.9329],[46.3252,39.9314],[46.2596,39.9043],[46.2232,39.8962],[46.1519,39.8903],[46.1006,39.8795],[46.0617,39.8756],[46.0407,39.8965],[46.0162,39.912],[46.0048,39.9088],[45.9919,39.8659],[45.9022,39.8076],[45.8448,39.8229],[45.829,39.8358],[45.8062,39.9309],[45.774,39.9402],[45.7455,39.9414],[45.7176,39.9593],[45.6639,39.9721],[45.6337,39.9741],[45.6168,40],[45.5786,40],[45.599,40.0236],[45.6339,40.0396],[45.6533,40.0409],[45.7454,40.0335],[45.7889,40.0079],[45.8144,40.0008],[45.8565,40.0244],[45.8848,40.0304],[45.8969,40.0729],[45.8949,40.0992],[45.9068,40.1117],[45.9341,40.1226],[45.9552,40.1456],[45.9655,40.199],[45.9772,40.2129],[45.9485,40.2423],[45.9167,40.2503],[45.921,40.2671],[45.9446,40.2596],[45.9522,40.2694],[45.9217,40.2932],[45.8974,40.2983],[45.9025,40.3051],[45.9459,40.3133],[45.9733,40.3142],[46.0432,40.3002],[46.0794,40.2998],[46.1017,40.305],[46.1558,40.3075],[46.1782,40.2944],[46.2523,40.2899],[46.3178,40.2762],[46.3592,40.258],[46.417,40.2571],[46.4974,40.2901],[46.5345,40.3131],[46.5278,40.2871],[46.503,40.2639],[46.5036,40.204],[46.5171,40.1836],[46.5296,40.1346],[46.5431,40.1338],[46.5656,40.1478],[46.5989,40.1575],[46.6408,40.1494],[46.697,40.1039],[46.7272,40.084],[46.7271,40.0624],[46.7616,40.033],[46.709,40.0277],[46.6979,40.0182]]]},"properties":{"name":"Kalbajar","id":"AZ-KAL","TYPE":"District","CNTRY_NAME":"Azerbaijan"},"id":"AZ-KAL"},
{"type":"Feature","geometry":{"type":"Polygon","coordinates":[[[45.3448,39.5531],[45.3249,39.5122],[45.321,39.4896],[45.2977,39.4791],[45.3016,39.425],[45.2939,39.4055],[45.2629,39.3574],[45.2532,39.3318],[45.2105,39.3032],[45.1989,39.3092],[45.1601,39.2972],[45.1447,39.3092],[45.1169,39.3065],[45.0981,39.3122],[45.0481,39.361],[45.0536,39.3799],[45.0729,39.3995],[45.1059,39.419],[45.1427,39.4356],[45.1815,39.4581],[45.2047,39.4972],[45.2183,39.5287],[45.2241,39.5632],[45.2551,39.5872],[45.3051,39.599],[45.329,39.567],[45.3448,39.5531]]]},"properties":{"name":"Kangarli","id":"AZ-KAN","TYPE":"District","CNTRY_NAME":"Azerbaijan"},"id":"AZ-KAN"},
{"type":"Feature","geometry":{"type":"Polygon","coordinates":[[[47.8461,40.1039],[47.8728,40.1165],[47.9008,40.1222],[47.9429,40.1612],[47.9438,40.1955],[47.9277,40.2411],[47.9282,40.2917],[47.9343,40.3132],[47.9584,40.3309],[47.9853,40.3707],[47.9873,40.418],[47.9926,40.4417],[48.0281,40.4433],[48.036,40.4589],[48.037,40.4841],[48.0272,40.5129],[48.0625,40.5161],[48.1084,40.5323],[48.0803,40.4671],[48.0846,40.4391],[48.114,40.4267],[48.146,40.435],[48.1656,40.4107],[48.1923,40.4088],[48.2247,40.4373],[48.2492,40.4424],[48.299,40.4416],[48.3154,40.4375],[48.3314,40.415],[48.3177,40.3706],[48.3372,40.3461],[48.3665,40.3446],[48.3816,40.3371],[48.4016,40.3],[48.4401,40.2784],[48.457,40.2669],[48.4592,40.2326],[48.4675,40.2086],[48.4594,40.1711],[48.4575,40.1378],[48.4103,40.12],[48.39,40.0974],[48.3432,40.0761],[48.3256,40.0456],[48.3273,40.0183],[48.2876,40.0061],[48.2497,39.9797],[48.2422,40.0124],[48.2135,40.0359],[48.1843,40.0503],[48.1346,40.0529],[48.1069,40.0701],[48.1015,40.086],[48.076,40.0962],[48.0572,40.1231],[48.0367,40.1324],[48.0148,40.1229],[47.9947,40.0903],[47.9646,40.083],[47.9765,40.064],[47.9575,40.0491],[47.9221,40.0626],[47.893,40.0543],[47.8734,40.0547],[47.8614,40.0668],[47.8461,40.1039]]]},"properties":{"name":"Kurdamir","id":"AZ-KUR","TYPE":"District","CNTRY_NAME":"Azerbaijan"},"id":"AZ-KUR"},
{"type":"Feature","geometry":{"type":"Polygon","coordinates":[[[48.8705,38.6981],[48.8529,38.6949],[48.8322,38.7046],[48.8281,38.7192],[48.8446,38.7321],[48.8643,38.7337],[48.8808,38.7086],[48.8705,38.6981]]]},"properties":{"name":"Lənkəran City","id":"AZ-LA","TYPE":"City","CNTRY_NAME":"Azerbaijan"},"id":"AZ-LA"},
{"type":"Feature","geometry":{"type":"Polygon","coordinates":[[[46.451,39.9582],[46.4355,39.9238],[46.4357,39.909],[46.4886,39.8757],[46.5252,39.8205],[46.5337,39.8012],[46.5404,39.7577],[46.5514,39.7281],[46.5572,39.693],[46.5283,39.6548],[46.5265,39.6234],[46.541,39.6069],[46.5644,39.6093],[46.5935,39.5867],[46.6204,39.58],[46.656,39.6318],[46.6792,39.639],[46.7125,39.6395],[46.7283,39.6297],[46.7356,39.5888],[46.7177,39.5833],[46.6828,39.582],[46.6622,39.5671],[46.6862,39.5442],[46.6846,39.508],[46.6407,39.4835],[46.6275,39.4806],[46.5786,39.4453],[46.5643,39.4389],[46.5265,39.4388],[46.4759,39.4634],[46.5028,39.4835],[46.5141,39.4728],[46.5421,39.4766],[46.5102,39.5006],[46.5063,39.5176],[46.5367,39.5322],[46.551,39.5449],[46.5728,39.5504],[46.563,39.5673],[46.5293,39.5873],[46.4787,39.5824],[46.4437,39.5725],[46.4278,39.5818],[46.43,39.6176],[46.4147,39.6228],[46.3989,39.6105],[46.3722,39.6375],[46.327,39.6317],[46.261,39.6038],[46.2191,39.608],[46.2003,39.6024],[46.1841,39.5822],[46.1679,39.6396],[46.1313,39.6596],[46.1058,39.6786],[46.0803,39.6781],[46.0659,39.6924],[46.0728,39.7049],[46.0405,39.7201],[46.0328,39.7357],[46.0089,39.7529],[45.996,39.7784],[45.9418,39.7935],[45.9022,39.8076],[45.9919,39.8659],[46.0048,39.9088],[46.0162,39.912],[46.0407,39.8965],[46.0617,39.8756],[46.1006,39.8795],[46.1519,39.8903],[46.2232,39.8962],[46.2596,39.9043],[46.3252,39.9314],[46.3745,39.9329],[46.451,39.9582]]]},"properties":{"name":"Laçın","id":"AZ-LAC","TYPE":"District","CNTRY_NAME":"Azerbaijan"},"id":"AZ-LAC"},
{"type":"Feature","geometry":{"type":"MultiPolygon","coordinates":[[[[49.2102,39.0367],[49.2049,38.9982],[49.1665,38.9668],[49.1814,38.9215],[49.0896,38.911],[49.0731,38.9148],[49.0628,38.9296],[49.0817,38.9463],[49.1018,38.9463],[49.1555,38.9873],[49.2102,39.0367]]],[[[48.9077,38.605],[48.9014,38.6098],[48.8128,38.591],[48.7692,38.5751],[48.723,38.5752],[48.6981,38.5817],[48.7331,38.6255],[48.714,38.6472],[48.6863,38.6645],[48.6941,38.6898],[48.6635,38.7373],[48.586,38.7735],[48.5606,38.8072],[48.5606,38.8189],[48.5934,38.8672],[48.6483,38.8342],[48.6688,38.8263],[48.7181,38.8416],[48.7607,38.8644],[48.7936,38.8741],[48.8074,38.8925],[48.825,38.898],[48.8388,38.8893],[48.8353,38.8429],[48.8405,38.8235],[48.8715,38.7823],[48.888,38.7281],[48.8901,38.7014],[48.9077,38.605]],[[48.8705,38.6981],[48.8808,38.7086],[48.8643,38.7337],[48.8446,38.7321],[48.8281,38.7192],[48.8322,38.7046],[48.8529,38.6949],[48.8705,38.6981]]],[[[49.2023,39.0556],[49.1729,39.0906],[49.1214,39.0768],[49.1006,39.0814],[49.1027,39.1195],[49.0903,39.1414],[49.0651,39.147],[49.0752,39.1665],[49.0194,39.1493],[49.0101,39.1348],[48.9859,39.1348],[48.9468,39.1043],[48.9309,39.0974],[48.9279,39.0622],[48.9467,39.0142],[48.9478,38.9785],[48.9356,38.9572],[48.9542,38.9373],[48.9449,38.8922],[48.9244,38.882],[48.9263,38.8616],[48.917,38.8412],[48.9021,38.8281],[48.8611,38.8296],[48.8667,38.85],[48.8816,38.8572],[48.8853,38.8893],[48.9151,38.9213],[48.9137,38.953],[48.9102,38.9682],[48.8889,38.9957],[48.8951,39.0246],[48.8881,39.0374],[48.8553,39.0578],[48.8464,39.0694],[48.8473,39.1024],[48.8544,39.1316],[48.8778,39.1626],[48.9977,39.2513],[49.0121,39.2668],[49.0358,39.2668],[49.0461,39.2588],[49.0852,39.2016],[49.137,39.1948],[49.176,39.1735],[49.2136,39.1719],[49.2332,39.1593],[49.2281,39.1374],[49.2137,39.1185],[49.2023,39.0556]]]]},"properties":{"name":"Lənkəran","id":"AZ-LAN","TYPE":"District","CNTRY_NAME":"Azerbaijan"},"id":"AZ-LAN"},
{"type":"Feature","geometry":{"type":"Polygon","coordinates":[[[48.6981,38.5817],[48.6641,38.5665],[48.6272,38.5688],[48.5791,38.5476],[48.569,38.5386],[48.5657,38.514],[48.5471,38.4945],[48.5132,38.5232],[48.5036,38.5476],[48.4747,38.5525],[48.4613,38.5711],[48.461,38.5997],[48.4375,38.6114],[48.4039,38.6012],[48.3594,38.5934],[48.3157,38.6014],[48.3033,38.6165],[48.2973,38.6373],[48.2574,38.658],[48.2515,38.6821],[48.258,38.7041],[48.2486,38.7222],[48.2625,38.7454],[48.2804,38.7603],[48.2809,38.7794],[48.3195,38.8227],[48.3549,38.8376],[48.3867,38.8632],[48.4569,38.8951],[48.5014,38.912],[48.5476,38.9399],[48.5814,38.9101],[48.5916,38.8947],[48.5934,38.8672],[48.5606,38.8189],[48.5606,38.8072],[48.586,38.7735],[48.6635,38.7373],[48.6941,38.6898],[48.6863,38.6645],[48.714,38.6472],[48.7331,38.6255],[48.6981,38.5817]]]},"properties":{"name":"Lerik","id":"AZ-LER","TYPE":"District","CNTRY_NAME":"Azerbaijan"},"id":"AZ-LER"},
{"type":"Feature","geometry":{"type":"Polygon","coordinates":[[[48.9137,38.953],[48.8723,38.9504],[48.8574,38.9387],[48.8428,38.8976],[48.825,38.898],[48.8074,38.8925],[48.7936,38.8741],[48.7607,38.8644],[48.7181,38.8416],[48.6688,38.8263],[48.6483,38.8342],[48.5934,38.8672],[48.5916,38.8947],[48.5814,38.9101],[48.5476,38.9399],[48.5228,38.9502],[48.4867,38.944],[48.4764,38.9616],[48.4778,38.9857],[48.538,38.9953],[48.5562,39.0088],[48.5713,39.0379],[48.5917,39.0535],[48.6639,39.0825],[48.6441,39.1145],[48.6585,39.1345],[48.7,39.1345],[48.6995,39.1535],[48.7405,39.1472],[48.7601,39.1305],[48.7871,39.1278],[48.8088,39.1332],[48.8544,39.1316],[48.8473,39.1024],[48.8464,39.0694],[48.8553,39.0578],[48.8881,39.0374],[48.8951,39.0246],[48.8889,38.9957],[48.9102,38.9682],[48.9137,38.953]]]},"properties":{"name":"Masalli","id":"AZ-MAS","TYPE":"District","CNTRY_NAME":"Azerbaijan"},"id":"AZ-MAS"},
{"type":"Feature","geometry":{"type":"Polygon","coordinates":[[[46.9839,40.7701],[47.0154,40.7789],[47.0381,40.7711],[47.0487,40.7503],[47.0375,40.734],[47.0165,40.7248],[46.9755,40.7191],[46.9402,40.7339],[46.9174,40.7577],[46.9332,40.785],[46.9424,40.7862],[46.9839,40.7701]]]},"properties":{"name":"Mingachevir","id":"AZ-MI","TYPE":"City","CNTRY_NAME":"Azerbaijan"},"id":"AZ-MI"},
{"type":"Feature","geometry":{"type":"Polygon","coordinates":[[[46.8014,40.4305],[46.7875,40.4227],[46.7606,40.4255],[46.7476,40.4362],[46.7541,40.4617],[46.7773,40.4674],[46.8014,40.4603],[46.8014,40.4305]]]},"properties":{"name":"Naftalan City","id":"AZ-NA","TYPE":"City","CNTRY_NAME":"Azerbaijan"},"id":"AZ-NA"},
{"type":"Feature","geometry":{"type":"MultiPolygon","coordinates":[[[[49.1814,38.9215],[49.1665,38.9668],[49.2049,38.9982],[49.2102,39.0367],[49.222,39.0311],[49.2251,38.9773],[49.2129,38.9344],[49.1814,38.9215]]],[[[49.2794,39.5076],[49.2786,39.4846],[49.3023,39.4469],[49.3853,39.3839],[49.4111,39.3785],[49.3987,39.3492],[49.4134,39.3156],[49.4551,39.2716],[49.4551,39.2519],[49.4358,39.2484],[49.3896,39.2531],[49.3494,39.2924],[49.3136,39.3121],[49.2749,39.2947],[49.266,39.2739],[49.2704,39.2473],[49.2615,39.2287],[49.257,39.1963],[49.2585,39.1638],[49.2451,39.1058],[49.2332,39.0779],[49.2302,39.0501],[49.2023,39.0556],[49.2137,39.1185],[49.2281,39.1374],[49.2332,39.1593],[49.2136,39.1719],[49.176,39.1735],[49.137,39.1948],[49.0852,39.2016],[49.0461,39.2588],[49.0358,39.2668],[49.0121,39.2668],[48.9977,39.2513],[48.8778,39.1626],[48.8544,39.1316],[48.8088,39.1332],[48.7871,39.1278],[48.7601,39.1305],[48.7405,39.1472],[48.753,39.1697],[48.7537,39.2104],[48.752,39.2234],[48.7131,39.2823],[48.7131,39.3514],[48.7318,39.3791],[48.7638,39.4088],[48.8066,39.3861],[48.8443,39.3585],[48.8735,39.3443],[48.8955,39.3478],[48.9241,39.3684],[48.9546,39.3774],[48.948,39.4118],[48.9493,39.4431],[48.9722,39.4724],[49.0023,39.4845],[49.0233,39.503],[49.0238,39.5251],[48.9907,39.5471],[48.981,39.5622],[48.9786,39.5942],[49.0296,39.5885],[49.0477,39.5478],[49.0712,39.5325],[49.1043,39.4956],[49.1426,39.4798],[49.1819,39.4734],[49.2185,39.4952],[49.2794,39.5076]]]]},"properties":{"name":"Neftçala","id":"AZ-NEF","TYPE":"District","CNTRY_NAME":"Azerbaijan"},"id":"AZ-NEF"},
{"type":"Feature","geometry":{"type":"Polygon","coordinates":[[[45.4198,39.243],[45.445,39.2354],[45.4547,39.2038],[45.4179,39.1857],[45.3888,39.1977],[45.3753,39.2143],[45.3966,39.2369],[45.4198,39.243]]]},"properties":{"name":"Naxçıvan","id":"AZ-NV","TYPE":"City","CNTRY_NAME":"Azerbaijan"},"id":"AZ-NV"},
{"type":"Feature","geometry":{"type":"Polygon","coordinates":[[[47.3706,41.2773],[47.4049,41.2663],[47.4319,41.2704],[47.4585,41.2645],[47.4782,41.2681],[47.4971,41.2563],[47.4954,41.2373],[47.5359,41.2072],[47.5842,41.2162],[47.6137,41.2364],[47.6442,41.2262],[47.6967,41.2209],[47.6923,41.1692],[47.6992,41.1398],[47.6845,41.117],[47.6832,41.0855],[47.6634,41.0551],[47.6304,41.0235],[47.6247,41.0004],[47.6316,40.9689],[47.5925,40.9175],[47.5816,40.8771],[47.5671,40.8415],[47.5698,40.7956],[47.5329,40.8146],[47.4209,40.8596],[47.3717,40.896],[47.3478,40.929],[47.3445,40.9565],[47.3045,40.9611],[47.3105,40.9805],[47.3027,40.9915],[47.2778,41.0022],[47.2704,41.0251],[47.2804,41.0628],[47.3363,41.1457],[47.3549,41.1863],[47.3562,41.2482],[47.3706,41.2773]]]},"properties":{"name":"Oguz","id":"AZ.OG","TYPE":"District","CNTRY_NAME":"Azerbaijan"},"id":"AZ.OG"},
{"type":"Feature","geometry":{"type":"Polygon","coordinates":[[[45.7741,38.9195],[45.8054,38.9545],[45.8016,38.9727],[45.7822,38.9924],[45.7454,39.006],[45.7609,39.0392],[45.7628,39.0589],[45.7764,39.0815],[45.8113,39.1163],[45.8229,39.151],[45.8558,39.1842],[45.8578,39.2339],[45.8752,39.2535],[45.8985,39.261],[45.9498,39.3209],[46,39.2969],[46,39.2574],[45.9956,39.2487],[46,39.186],[46.0139,39.175],[46.01,39.15],[46.0285,39.1325],[46.0258,39.1076],[46.035,39.0879],[46.0718,39.0684],[46.0874,39.0339],[46.101,39.0228],[46.1021,38.9955],[46.1141,38.9607],[46.1509,38.8856],[46.1369,38.8348],[46.1042,38.8572],[46.0755,38.8676],[46.0629,38.8812],[46.0498,38.8664],[46,38.869],[45.9463,38.8865],[45.921,38.8698],[45.9046,38.8704],[45.8619,38.8873],[45.8412,38.9016],[45.8213,38.8965],[45.7741,38.9195]]]},"properties":{"name":"Ordubad","id":"AZ-OGU","TYPE":"District","CNTRY_NAME":"Azerbaijan"},"id":"AZ-OGU"},
{"type":"Feature","geometry":{"type":"Polygon","coordinates":[[[47.7325,40.675],[47.7122,40.6642],[47.6419,40.6612],[47.5886,40.6395],[47.5365,40.6647],[47.5314,40.6772],[47.5315,40.7338],[47.5256,40.7615],[47.5373,40.7716],[47.5667,40.7661],[47.5698,40.7956],[47.5671,40.8415],[47.5816,40.8771],[47.5925,40.9175],[47.6316,40.9689],[47.6247,41.0004],[47.6304,41.0235],[47.6634,41.0551],[47.6832,41.0855],[47.6845,41.117],[47.6992,41.1398],[47.6923,41.1692],[47.6967,41.2209],[47.7199,41.1974],[47.7532,41.1889],[47.7738,41.1928],[47.802,41.2168],[47.8204,41.1832],[47.8448,41.1699],[47.9265,41.1577],[47.9146,41.137],[47.9255,41.1188],[47.9751,41.0844],[48.0058,41.0808],[48.0311,41.0631],[48.0061,41.0382],[47.989,40.9967],[47.9654,41.0033],[47.9549,40.9948],[47.9458,40.9666],[47.9754,40.9327],[47.9874,40.9051],[47.9859,40.893],[47.969,40.8727],[47.9198,40.8523],[47.9188,40.8141],[47.9099,40.8059],[47.8172,40.7688],[47.8088,40.7626],[47.7734,40.7099],[47.7439,40.691],[47.7325,40.675]]]},"properties":{"name":"Qabala","id":"AZ-QAB","TYPE":"District","CNTRY_NAME":"Azerbaijan"},"id":"AZ-QAB"},
{"type":"Feature","geometry":{"type":"Polygon","coordinates":[[[46.6461,41.0945],[46.6382,41.1075],[46.6506,41.1277],[46.6487,41.1577],[46.6622,41.1824],[46.6514,41.2048],[46.6902,41.2436],[46.6911,41.2639],[46.7166,41.283],[46.7156,41.2967],[46.6921,41.2982],[46.6797,41.3163],[46.6756,41.3365],[46.6333,41.3647],[46.6375,41.3742],[46.6702,41.405],[46.7438,41.5144],[46.786,41.5231],[46.8404,41.5226],[46.9379,41.5024],[46.9624,41.5053],[46.9886,41.5194],[47.0075,41.5221],[47.0296,41.5585],[47.0524,41.5544],[47.0659,41.5704],[47.1009,41.5872],[47.1205,41.5784],[47.124,41.5538],[47.1652,41.5233],[47.1633,41.4959],[47.1766,41.4872],[47.1614,41.4319],[47.137,41.4121],[47.1092,41.4012],[47.0888,41.3818],[47.0521,41.3714],[46.9746,41.3435],[46.921,41.3266],[46.888,41.3089],[46.8674,41.2925],[46.8606,41.2652],[46.8219,41.2468],[46.8148,41.2298],[46.8142,41.1828],[46.8073,41.1695],[46.8031,41.1299],[46.8352,41.1203],[46.8754,41.1008],[46.9061,41.069],[46.9328,41.0176],[46.9328,40.9354],[46.93,40.911],[46.8557,40.939],[46.7971,40.9681],[46.7597,40.966],[46.7578,40.9919],[46.7405,41.0154],[46.7304,41.0437],[46.7253,41.0812],[46.7008,41.0916],[46.6551,41.0877],[46.6455,41.0916],[46.6461,41.0945]]]},"properties":{"name":"Qax","id":"AZ-QAX","TYPE":"District","CNTRY_NAME":"Azerbaijan"},"id":"AZ-QAX"},
{"type":"Feature","geometry":{"type":"Polygon","coordinates":[[[45.3799,41.0194],[45.3424,41.0033],[45.3183,41.0032],[45.2966,41.0366],[45.2674,41.0322],[45.2654,41.0194],[45.2159,41.0184],[45.191,41.0482],[45.1645,41.0515],[45.1559,41.0895],[45.148,41.0967],[45.121,41.0947],[45.131,41.0774],[45.1219,41.0606],[45.0904,41.0583],[45.0713,41.0479],[45.0497,41.0522],[45.0453,41.064],[45.0679,41.0896],[45.0678,41.1018],[45.0849,41.1147],[45.134,41.1192],[45.1783,41.1316],[45.193,41.1596],[45.1679,41.162],[45.1306,41.209],[45.1109,41.2096],[45.074,41.1923],[45.0174,41.1941],[45.0112,41.2088],[45.0375,41.2237],[45.0448,41.2514],[45.0214,41.275],[45.0041,41.3014],[45.0465,41.3148],[45.0691,41.3274],[45.1032,41.3382],[45.1211,41.3557],[45.1964,41.3244],[45.2194,41.3099],[45.2719,41.2887],[45.3309,41.275],[45.3765,41.2722],[45.3964,41.2596],[45.4045,41.2285],[45.3731,41.1486],[45.3787,41.1323],[45.3644,41.0983],[45.3807,41.0391],[45.3799,41.0194]]]},"properties":{"name":"Qazax","id":"AZ-QAZ","TYPE":"District","CNTRY_NAME":"Azerbaijan"},"id":"AZ-QAZ"},
{"type":"Feature","geometry":{"type":"Polygon","coordinates":[[[48.3892,40.9485],[48.3666,40.9742],[48.3326,40.9874],[48.2988,40.9944],[48.2581,40.9911],[48.1682,41.0283],[48.1298,41.0392],[48.0965,41.055],[48.0542,41.0577],[48.0311,41.0631],[48.0058,41.0808],[47.9751,41.0844],[47.9255,41.1188],[47.9146,41.137],[47.9265,41.1577],[47.9847,41.196],[48.1103,41.2633],[48.2205,41.3192],[48.3632,41.399],[48.3973,41.4234],[48.4525,41.444],[48.5271,41.4645],[48.5755,41.4835],[48.5969,41.461],[48.6716,41.3499],[48.6808,41.3484],[48.72,41.3624],[48.7441,41.3485],[48.7377,41.3096],[48.7317,41.3001],[48.7316,41.2692],[48.7495,41.2536],[48.7437,41.2348],[48.7162,41.2093],[48.6847,41.1954],[48.6574,41.17],[48.6386,41.1424],[48.6428,41.1321],[48.713,41.0782],[48.7209,41.0615],[48.7124,41.0424],[48.6627,41.0058],[48.6637,40.9901],[48.6864,40.9679],[48.6795,40.9515],[48.68,40.8951],[48.594,40.9193],[48.5702,40.9224],[48.5013,40.9464],[48.3892,40.9485]]]},"properties":{"name":"Quba","id":"AZ.QB","TYPE":"District","CNTRY_NAME":"Azerbaijan"},"id":"AZ.QB"},
{"type":"Feature","geometry":{"type":"Polygon","coordinates":[[[46.4759,39.4634],[46.5265,39.4388],[46.5643,39.4389],[46.5786,39.4453],[46.6275,39.4806],[46.6407,39.4835],[46.6826,39.4758],[46.7298,39.485],[46.7595,39.4624],[46.7516,39.4376],[46.7335,39.4163],[46.7053,39.3908],[46.706,39.3548],[46.7275,39.3396],[46.7373,39.3202],[46.7389,39.2829],[46.7557,39.2622],[46.8047,39.2416],[46.8229,39.228],[46.7772,39.2094],[46.7433,39.1908],[46.7067,39.1638],[46.686,39.1336],[46.6697,39.118],[46.6486,39.1152],[46.6367,39.1345],[46.6362,39.1625],[46.6438,39.1796],[46.642,39.2094],[46.6296,39.22],[46.5876,39.23],[46.5784,39.2483],[46.5506,39.2558],[46.5392,39.2688],[46.5307,39.2942],[46.5356,39.3135],[46.5057,39.344],[46.4775,39.3293],[46.4304,39.3548],[46.4085,39.3784],[46.3866,39.4251],[46.4123,39.456],[46.4498,39.45],[46.4759,39.4634]]]},"properties":{"name":"Qubadli","id":"AZ-QBA","TYPE":"District","CNTRY_NAME":"Azerbaijan"},"id":"AZ-QBA"},
{"type":"Feature","geometry":{"type":"Polygon","coordinates":[[[48.7469,40.3447],[48.7041,40.3455],[48.6659,40.3406],[48.6602,40.3599],[48.7072,40.375],[48.7141,40.4023],[48.7446,40.4474],[48.7243,40.4727],[48.7277,40.4975],[48.7142,40.5435],[48.7159,40.5722],[48.6877,40.5973],[48.7206,40.6354],[48.721,40.6574],[48.7126,40.6799],[48.7142,40.7017],[48.7415,40.7343],[48.7787,40.7447],[48.808,40.7617],[48.8295,40.7628],[48.8924,40.7348],[48.9376,40.7062],[48.9491,40.6918],[49.0263,40.6324],[49.0507,40.6213],[49.0832,40.6185],[49.1316,40.5948],[49.1558,40.558],[49.2007,40.531],[49.2631,40.5056],[49.2322,40.4637],[49.2006,40.4497],[49.1814,40.4326],[49.118,40.4204],[49.0939,40.4081],[49.0651,40.3731],[49.0292,40.3685],[49.0082,40.3539],[48.9857,40.3257],[48.9717,40.3196],[48.9318,40.2869],[48.9171,40.3011],[48.8712,40.3233],[48.8506,40.3285],[48.8182,40.3248],[48.7757,40.3258],[48.7469,40.3447]]]},"properties":{"name":"Qobustan","id":"AZ-QOB","TYPE":"District","CNTRY_NAME":"Azerbaijan"},"id":"AZ-QOB"},
{"type":"Feature","geometry":{"type":"Polygon","coordinates":[[[48.5755,41.4835],[48.5271,41.4645],[48.4525,41.444],[48.3973,41.4234],[48.3632,41.399],[48.2205,41.3192],[48.1103,41.2633],[47.9847,41.196],[47.9265,41.1577],[47.8448,41.1699],[47.8204,41.1832],[47.802,41.2168],[47.8788,41.2192],[47.8992,41.238],[47.8956,41.2661],[47.9032,41.28],[47.93,41.3003],[47.9371,41.3124],[47.9409,41.3599],[47.9579,41.3774],[47.986,41.3865],[48.0251,41.4323],[48.0383,41.4592],[48.0396,41.4816],[48.0511,41.4912],[48.137,41.5048],[48.1936,41.5032],[48.213,41.5129],[48.2519,41.5217],[48.268,41.5487],[48.2813,41.5586],[48.3213,41.5693],[48.3559,41.5841],[48.4015,41.6121],[48.4144,41.6266],[48.424,41.6552],[48.4393,41.7194],[48.4774,41.7254],[48.5011,41.7232],[48.5158,41.7032],[48.4958,41.6734],[48.4939,41.6196],[48.4985,41.6069],[48.5194,41.5972],[48.5569,41.5952],[48.5603,41.5714],[48.5394,41.5458],[48.5654,41.5294],[48.578,41.497],[48.5755,41.4835]]]},"properties":{"name":"Qusar","id":"AZ-QUS","TYPE":"District","CNTRY_NAME":"Azerbaijan"},"id":"AZ-QUS"},
{"type":"Feature","geometry":{"type":"Polygon","coordinates":[[[47.1752,41.2183],[47.1938,41.1902],[47.1856,41.1738],[47.168,41.1683],[47.1318,41.173],[47.1236,41.2011],[47.1566,41.2245],[47.1752,41.2183]]]},"properties":{"name":"Şəki City","id":"AZ-SA","TYPE":"City","CNTRY_NAME":"Azerbaijan"},"id":"AZ-SA"},
{"type":"Feature","geometry":{"type":"Polygon","coordinates":[[[48.5821,39.6517],[48.5567,39.6527],[48.5603,39.6755],[48.5982,39.6844],[48.6268,39.6857],[48.679,39.7053],[48.7105,39.7474],[48.7105,39.759],[48.6881,39.7923],[48.6868,39.8172],[48.6947,39.852],[48.6515,39.8953],[48.607,39.905],[48.5793,39.9249],[48.5473,39.9398],[48.5013,39.9409],[48.4819,39.9241],[48.451,39.9329],[48.4368,39.9551],[48.4549,39.9719],[48.4454,39.9838],[48.4093,39.9999],[48.3622,39.9912],[48.3149,39.9741],[48.2733,39.9538],[48.2497,39.9797],[48.2876,40.0061],[48.3273,40.0183],[48.3256,40.0456],[48.3432,40.0761],[48.39,40.0974],[48.4103,40.12],[48.4575,40.1378],[48.5766,40.1377],[48.5968,40.1348],[48.6672,40.1052],[48.6464,40.0604],[48.6716,40.0293],[48.7294,40.0151],[48.7874,40.0055],[48.8098,39.9942],[48.8548,39.9576],[48.8639,39.9347],[48.8954,39.9213],[48.8958,39.9099],[48.8742,39.8894],[48.8807,39.8682],[48.916,39.8444],[48.9192,39.8368],[48.9012,39.8096],[48.9062,39.8005],[48.9422,39.773],[48.9466,39.7499],[48.9328,39.7299],[48.931,39.705],[48.9379,39.6852],[48.9386,39.6572],[48.9322,39.6502],[48.8856,39.6317],[48.8824,39.6235],[48.894,39.5971],[48.8813,39.5924],[48.8467,39.6106],[48.8045,39.6114],[48.767,39.6057],[48.6281,39.6412],[48.6002,39.6518],[48.5821,39.6517]]]},"properties":{"name":"Sabirabad","id":"AZ-SAB","TYPE":"District","CNTRY_NAME":"Azerbaijan"},"id":"AZ-SAB"},
{"type":"Feature","geometry":{"type":"MultiPolygon","coordinates":[[[[44.992,39.7402],[44.9954,39.71],[44.9819,39.6965],[44.9606,39.6905],[44.9373,39.6741],[44.9373,39.6561],[44.9509,39.6411],[44.9431,39.6097],[44.9044,39.5962],[44.8652,39.5908],[44.8369,39.6149],[44.8017,39.6097],[44.7861,39.6261],[44.8113,39.6576],[44.8017,39.6741],[44.761,39.701],[44.7687,39.7175],[44.7939,39.7265],[44.8152,39.7414],[44.8578,39.7489],[44.9398,39.7298],[44.992,39.7402]]],[[[44.9586,39.7699],[44.9334,39.7788],[44.9257,39.8027],[44.9702,39.8102],[44.9586,39.7699]]]]},"properties":{"name":"Sadarak","id":"AZ-SAD","TYPE":"District","CNTRY_NAME":"Azerbaijan"},"id":"AZ-SAD"},
{"type":"Feature","geometry":{"type":"Polygon","coordinates":[[[45.8096,39.3685],[45.7861,39.3589],[45.7822,39.3438],[45.7415,39.3077],[45.7241,39.3167],[45.7105,39.3363],[45.6911,39.3363],[45.6601,39.3107],[45.633,39.3107],[45.5863,39.2836],[45.5613,39.2927],[45.571,39.3137],[45.5419,39.3303],[45.5128,39.3559],[45.4528,39.3589],[45.4373,39.3784],[45.4334,39.401],[45.4218,39.413],[45.3869,39.4175],[45.3811,39.4356],[45.4334,39.4641],[45.4707,39.503],[45.5094,39.5107],[45.5464,39.5414],[45.6103,39.565],[45.6365,39.5673],[45.6697,39.5812],[45.6866,39.5987],[45.7089,39.6065],[45.745,39.5915],[45.7744,39.5884],[45.7914,39.5763],[45.8175,39.5466],[45.826,39.5285],[45.8228,39.4963],[45.8405,39.4711],[45.8243,39.4382],[45.7958,39.4003],[45.7945,39.3857],[45.8096,39.3685]]]},"properties":{"name":"Sahbuz","id":"AZ-SAH","TYPE":"District","CNTRY_NAME":"Azerbaijan"},"id":"AZ-SAH"},
{"type":"Feature","geometry":{"type":"Polygon","coordinates":[[[47.5698,40.7956],[47.5667,40.7661],[47.5373,40.7716],[47.5256,40.7615],[47.4875,40.7527],[47.4128,40.7733],[47.376,40.7627],[47.3285,40.7811],[47.2628,40.7889],[47.2034,40.8047],[47.1474,40.8287],[47.1275,40.8314],[47.0768,40.8512],[47.025,40.8754],[46.93,40.911],[46.9328,40.9354],[46.9328,41.0176],[46.9061,41.069],[46.8754,41.1008],[46.8352,41.1203],[46.8031,41.1299],[46.8073,41.1695],[46.8142,41.1828],[46.8148,41.2298],[46.8219,41.2468],[46.8606,41.2652],[46.8674,41.2925],[46.888,41.3089],[46.921,41.3266],[46.9746,41.3435],[47.0521,41.3714],[47.0888,41.3818],[47.1092,41.4012],[47.137,41.4121],[47.1614,41.4319],[47.1766,41.4872],[47.1902,41.4756],[47.1953,41.4573],[47.2275,41.4423],[47.216,41.4221],[47.2157,41.404],[47.2478,41.3984],[47.2531,41.386],[47.2624,41.3247],[47.3251,41.2915],[47.3706,41.2773],[47.3562,41.2482],[47.3549,41.1863],[47.3363,41.1457],[47.2804,41.0628],[47.2704,41.0251],[47.2778,41.0022],[47.3027,40.9915],[47.3105,40.9805],[47.3045,40.9611],[47.3445,40.9565],[47.3478,40.929],[47.3717,40.896],[47.4209,40.8596],[47.5329,40.8146],[47.5698,40.7956]],[[47.1752,41.2183],[47.1566,41.2245],[47.1236,41.2011],[47.1318,41.173],[47.168,41.1683],[47.1856,41.1738],[47.1938,41.1902],[47.1752,41.2183]]]},"properties":{"name":"Şəki","id":"AZ-SAK","TYPE":"District","CNTRY_NAME":"Azerbaijan"},"id":"AZ-SAK"},
{"type":"Feature","geometry":{"type":"Polygon","coordinates":[[[48.7638,39.4088],[48.7786,39.4621],[48.7403,39.5024],[48.7368,39.5139],[48.7462,39.5517],[48.767,39.6057],[48.8045,39.6114],[48.8467,39.6106],[48.8813,39.5924],[48.894,39.5971],[48.8824,39.6235],[48.8856,39.6317],[48.9322,39.6502],[48.9386,39.6572],[48.9379,39.6852],[48.931,39.705],[48.9328,39.7299],[48.9466,39.7499],[48.9422,39.773],[48.9062,39.8005],[48.9012,39.8096],[48.9192,39.8368],[48.916,39.8444],[48.8807,39.8682],[48.8742,39.8894],[48.8958,39.9099],[48.9153,39.9036],[48.9315,39.9139],[48.9609,39.921],[49.0008,39.9186],[49.074,39.8821],[49.1114,39.8798],[49.1474,39.8685],[49.1805,39.872],[49.2343,39.8668],[49.2611,39.8765],[49.281,39.8681],[49.293,39.8528],[49.3568,39.8121],[49.345,39.7933],[49.3446,39.7281],[49.3522,39.7071],[49.3592,39.665],[49.3328,39.6447],[49.3196,39.6183],[49.3024,39.5625],[49.2794,39.5076],[49.2185,39.4952],[49.1819,39.4734],[49.1426,39.4798],[49.1043,39.4956],[49.0712,39.5325],[49.0477,39.5478],[49.0296,39.5885],[48.9786,39.5942],[48.981,39.5622],[48.9907,39.5471],[49.0238,39.5251],[49.0233,39.503],[49.0023,39.4845],[48.9722,39.4724],[48.9493,39.4431],[48.948,39.4118],[48.9546,39.3774],[48.9241,39.3684],[48.8955,39.3478],[48.8735,39.3443],[48.8443,39.3585],[48.8066,39.3861],[48.7638,39.4088]]]},"properties":{"name":"Salyan","id":"AZ-SAL","TYPE":"District","CNTRY_NAME":"Azerbaijan"},"id":"AZ-SAL"},
{"type":"Feature","geometry":{"type":"Polygon","coordinates":[[[45.3051,39.599],[45.2551,39.5872],[45.2241,39.5632],[45.2183,39.5287],[45.2047,39.4972],[45.1815,39.4581],[45.1427,39.4356],[45.1059,39.419],[45.0729,39.3995],[45.0536,39.3799],[45.0481,39.361],[45.0264,39.3814],[45.0032,39.3829],[44.945,39.416],[44.9354,39.4461],[44.914,39.4656],[44.9102,39.5076],[44.8675,39.5422],[44.8652,39.5908],[44.9044,39.5962],[44.9431,39.6097],[44.9509,39.6411],[44.9373,39.6561],[44.9373,39.6741],[44.9606,39.6905],[44.9819,39.6965],[44.9954,39.71],[44.992,39.7402],[45.0379,39.767],[45.0671,39.8012],[45.1117,39.7983],[45.1311,39.7908],[45.1427,39.7654],[45.1401,39.7481],[45.1571,39.7183],[45.1758,39.7074],[45.1928,39.6779],[45.1937,39.6532],[45.1854,39.6377],[45.186,39.6082],[45.1962,39.5897],[45.2532,39.6246],[45.2977,39.6246],[45.3051,39.599]]]},"properties":{"name":"Sharur","id":"AZ-SAR","TYPE":"District","CNTRY_NAME":"Azerbaijan"},"id":"AZ-SAR"},
{"type":"Feature","geometry":{"type":"Polygon","coordinates":[[[48.5821,39.6517],[48.5689,39.626],[48.5555,39.6163],[48.5134,39.6163],[48.4996,39.6219],[48.4702,39.6576],[48.4412,39.6671],[48.4071,39.6492],[48.3794,39.6217],[48.3671,39.6367],[48.3428,39.6526],[48.3409,39.7083],[48.3492,39.7305],[48.3458,39.742],[48.3221,39.7644],[48.2654,39.7745],[48.2338,39.7914],[48.2157,39.8256],[48.2157,39.8436],[48.255,39.9014],[48.2466,39.926],[48.2272,39.9492],[48.2497,39.9797],[48.2733,39.9538],[48.3149,39.9741],[48.3622,39.9912],[48.4093,39.9999],[48.4454,39.9838],[48.4549,39.9719],[48.4368,39.9551],[48.451,39.9329],[48.4819,39.9241],[48.5013,39.9409],[48.5473,39.9398],[48.5793,39.9249],[48.607,39.905],[48.6515,39.8953],[48.6947,39.852],[48.6868,39.8172],[48.6881,39.7923],[48.7105,39.759],[48.7105,39.7474],[48.679,39.7053],[48.6268,39.6857],[48.5982,39.6844],[48.5603,39.6755],[48.5567,39.6527],[48.5821,39.6517]]]},"properties":{"name":"Saatli","id":"AZ-SAT","TYPE":"District","CNTRY_NAME":"Azerbaijan"},"id":"AZ-SAT"},
{"type":"Feature","geometry":{"type":"Polygon","coordinates":[[[49.1581,41.1385],[49.1423,41.143],[49.0976,41.1786],[49.0682,41.1857],[49.0279,41.1706],[48.9839,41.1741],[48.9324,41.1697],[48.9172,41.1627],[48.9086,41.139],[48.9317,41.0964],[48.9308,41.0621],[48.9128,41.0371],[48.8986,41.0271],[48.8691,41.0276],[48.8262,41.0019],[48.8225,40.9902],[48.8308,40.9672],[48.831,40.9398],[48.8446,40.8925],[48.8202,40.8831],[48.7818,40.8551],[48.68,40.8951],[48.6795,40.9515],[48.6864,40.9679],[48.6637,40.9901],[48.6627,41.0058],[48.7124,41.0424],[48.7209,41.0615],[48.713,41.0782],[48.6428,41.1321],[48.6386,41.1424],[48.6574,41.17],[48.6847,41.1954],[48.7162,41.2093],[48.7437,41.2348],[48.7495,41.2536],[48.7316,41.2692],[48.7317,41.3001],[48.7377,41.3096],[48.7441,41.3485],[48.7621,41.3463],[48.8067,41.3618],[48.8471,41.3454],[48.8746,41.3517],[48.908,41.3666],[48.9573,41.3657],[49.0023,41.3533],[49.0729,41.356],[49.0952,41.3313],[49.1233,41.2772],[49.1337,41.2414],[49.1437,41.1805],[49.1581,41.1385]]]},"properties":{"name":"Sabran","id":"AZ-SBN","TYPE":"District","CNTRY_NAME":"Azerbaijan"},"id":"AZ-SBN"},
{"type":"Feature","geometry":{"type":"Polygon","coordinates":[[[49.3671,40.8834],[49.3387,40.8807],[49.3015,40.8871],[49.2692,40.8716],[49.1775,40.8741],[49.0951,40.9099],[49.0612,40.9212],[49.0508,40.9356],[49.0504,40.9737],[49.0413,40.9809],[48.9936,40.9635],[48.9807,40.9283],[48.8719,40.8918],[48.8446,40.8925],[48.831,40.9398],[48.8308,40.9672],[48.8225,40.9902],[48.8262,41.0019],[48.8691,41.0276],[48.8986,41.0271],[48.9128,41.0371],[48.9308,41.0621],[48.9317,41.0964],[48.9086,41.139],[48.9172,41.1627],[48.9324,41.1697],[48.9839,41.1741],[49.0279,41.1706],[49.0682,41.1857],[49.0976,41.1786],[49.1423,41.143],[49.1581,41.1385],[49.1588,41.1163],[49.1791,41.0772],[49.1847,41.0512],[49.205,41.0156],[49.2672,40.9656],[49.289,40.9542],[49.3223,40.913],[49.3512,40.9005],[49.3671,40.8834]]]},"properties":{"name":"Siazan","id":"AZ-SIY","TYPE":"District","CNTRY_NAME":"Azerbaijan"},"id":"AZ-SIY"},
{"type":"Feature","geometry":{"type":"Polygon","coordinates":[[[46.079,40.6472],[46.0292,40.669],[46.0079,40.6648],[45.9758,40.6179],[45.9483,40.5908],[45.9201,40.5698],[45.9117,40.5572],[45.9052,40.6142],[45.911,40.6387],[45.8834,40.6558],[45.8705,40.6763],[45.8225,40.6981],[45.7785,40.7509],[45.7764,40.7726],[45.7482,40.793],[45.7226,40.8232],[45.7184,40.8563],[45.7297,40.873],[45.7722,40.8912],[45.7974,40.9117],[45.8553,40.9427],[45.885,40.9722],[45.9004,41.0083],[45.9119,41.0096],[46.0766,41.0066],[46.0966,41.016],[46.1013,41.0336],[46.1267,41.0589],[46.1904,41.1094],[46.2047,41.1367],[46.2362,41.0977],[46.28,41.0626],[46.3157,41.0086],[46.3165,40.9991],[46.2848,40.9582],[46.2732,40.9084],[46.2527,40.8847],[46.2526,40.8681],[46.2734,40.8496],[46.2773,40.8329],[46.241,40.7804],[46.2392,40.7498],[46.2257,40.7298],[46.2233,40.7019],[46.2056,40.6787],[46.19,40.6738],[46.1313,40.6747],[46.1149,40.6711],[46.079,40.6472]]]},"properties":{"name":"Shamkir","id":"AZ-SKR","TYPE":"District","CNTRY_NAME":"Azerbaijan"},"id":"AZ-SKR"},
{"type":"Feature","geometry":{"type":"Polygon","coordinates":[[[49.7067,40.5762],[49.6904,40.5534],[49.6399,40.5417],[49.5983,40.5412],[49.5833,40.5488],[49.5585,40.5845],[49.4962,40.6329],[49.4827,40.6368],[49.4791,40.6521],[49.5255,40.66],[49.5434,40.6315],[49.5889,40.6154],[49.6594,40.613],[49.6859,40.5854],[49.7067,40.5762]]]},"properties":{"name":"Sumqayit","id":"AZ-SM","TYPE":"City","CNTRY_NAME":"Azerbaijan"},"id":"AZ-SM"},
{"type":"Feature","geometry":{"type":"Polygon","coordinates":[[[48.808,40.7617],[48.7787,40.7447],[48.7415,40.7343],[48.7142,40.7017],[48.7126,40.6799],[48.721,40.6574],[48.7206,40.6354],[48.6877,40.5973],[48.7159,40.5722],[48.7142,40.5435],[48.7277,40.4975],[48.7243,40.4727],[48.7446,40.4474],[48.7141,40.4023],[48.7072,40.375],[48.6602,40.3599],[48.6659,40.3406],[48.7041,40.3455],[48.7469,40.3447],[48.734,40.2983],[48.6823,40.2668],[48.6675,40.2658],[48.6122,40.2936],[48.5734,40.3041],[48.542,40.3213],[48.501,40.3237],[48.4737,40.3313],[48.5168,40.3747],[48.5184,40.4124],[48.5425,40.4351],[48.604,40.458],[48.6428,40.476],[48.6487,40.4924],[48.6186,40.5024],[48.5731,40.5254],[48.4938,40.5286],[48.461,40.5398],[48.4355,40.5671],[48.4273,40.5854],[48.4376,40.6005],[48.4872,40.6378],[48.5068,40.6591],[48.5036,40.6797],[48.5238,40.7034],[48.5258,40.7175],[48.5137,40.7398],[48.4797,40.7616],[48.4612,40.7939],[48.5006,40.8527],[48.4883,40.8802],[48.4222,40.9144],[48.401,40.9309],[48.3892,40.9485],[48.5013,40.9464],[48.5702,40.9224],[48.594,40.9193],[48.68,40.8951],[48.7818,40.8551],[48.7635,40.8303],[48.7675,40.8063],[48.783,40.7825],[48.808,40.7617]]]},"properties":{"name":"Samaxi","id":"AZ-SMI","TYPE":"District","CNTRY_NAME":"Azerbaijan"},"id":"AZ-SMI"},
{"type":"Feature","geometry":{"type":"Polygon","coordinates":[[[46.6382,41.1075],[46.6461,41.0945],[46.6455,41.0916],[46.6551,41.0877],[46.7008,41.0916],[46.7253,41.0812],[46.7304,41.0437],[46.7405,41.0154],[46.7578,40.9919],[46.7597,40.966],[46.7311,40.9451],[46.6764,40.8931],[46.643,40.8675],[46.6342,40.8555],[46.6003,40.8301],[46.5505,40.8054],[46.5395,40.7937],[46.5497,40.7776],[46.5347,40.7585],[46.507,40.7476],[46.4886,40.7342],[46.4707,40.6817],[46.4455,40.6743],[46.4132,40.6748],[46.3645,40.6882],[46.3704,40.7089],[46.3457,40.7281],[46.3179,40.727],[46.3169,40.7574],[46.3067,40.7922],[46.2773,40.8329],[46.2734,40.8496],[46.2526,40.8681],[46.2527,40.8847],[46.2732,40.9084],[46.2848,40.9582],[46.3165,40.9991],[46.3157,41.0086],[46.28,41.0626],[46.2362,41.0977],[46.2047,41.1367],[46.1958,41.1427],[46.1501,41.1536],[46.0929,41.181],[46.1026,41.2015],[46.1424,41.21],[46.1652,41.2014],[46.2051,41.2048],[46.2632,41.2031],[46.2929,41.1824],[46.3704,41.1074],[46.4103,41.1161],[46.4331,41.1092],[46.4377,41.0876],[46.4605,41.0647],[46.4741,41.0673],[46.5163,41.1182],[46.5357,41.1286],[46.5825,41.1174],[46.5984,41.1036],[46.6382,41.1075]]]},"properties":{"name":"Samux","id":"AZ-SMX","TYPE":"District","CNTRY_NAME":"Azerbaijan"},"id":"AZ-SMX"},
{"type":"Feature","geometry":{"type":"Polygon","coordinates":[[[48.9315,39.9139],[48.9153,39.9036],[48.8958,39.9099],[48.8954,39.9213],[48.8965,39.9525],[48.8821,39.9739],[48.8881,39.99],[48.911,39.9925],[48.9467,39.9473],[48.935,39.9361],[48.9315,39.9139]]]},"properties":{"name":"Shirvan City","id":"AZ-SR","TYPE":"City","CNTRY_NAME":"Azerbaijan"},"id":"AZ-SR"},
{"type":"Feature","geometry":{"type":"Polygon","coordinates":[[[46.5404,39.7577],[46.5936,39.7638],[46.627,39.7787],[46.6527,39.7796],[46.6798,39.7713],[46.7193,39.7527],[46.7449,39.7151],[46.7794,39.6858],[46.7894,39.6555],[46.7356,39.5888],[46.7283,39.6297],[46.7125,39.6395],[46.6792,39.639],[46.656,39.6318],[46.6204,39.58],[46.5935,39.5867],[46.5644,39.6093],[46.541,39.6069],[46.5265,39.6234],[46.5283,39.6548],[46.5572,39.693],[46.5514,39.7281],[46.5404,39.7577]]]},"properties":{"name":"Susa","id":"AZ-SUS","TYPE":"District","CNTRY_NAME":"Azerbaijan"},"id":"AZ-SUS"},
{"type":"Feature","geometry":{"type":"Polygon","coordinates":[[[46.9693,40.4157],[46.9752,40.3839],[46.9854,40.363],[47.0075,40.3508],[47.0265,40.3226],[47.0465,40.3101],[47.0742,40.3071],[47.0826,40.2903],[47.0757,40.273],[47.0756,40.2043],[47.0863,40.1669],[47.0379,40.1663],[47.0266,40.1762],[47.0233,40.201],[47.0112,40.2117],[46.9837,40.2046],[46.9623,40.2059],[46.9396,40.2208],[46.926,40.2204],[46.926,40.1854],[46.9053,40.1729],[46.8689,40.1657],[46.8398,40.1712],[46.8143,40.1539],[46.8134,40.1253],[46.8039,40.1068],[46.7649,40.0871],[46.7707,40.0603],[46.7616,40.033],[46.7271,40.0624],[46.7272,40.084],[46.697,40.1039],[46.6408,40.1494],[46.5989,40.1575],[46.5656,40.1478],[46.5431,40.1338],[46.5296,40.1346],[46.5171,40.1836],[46.5036,40.204],[46.503,40.2639],[46.5278,40.2871],[46.5345,40.3131],[46.5487,40.3391],[46.5734,40.3434],[46.5965,40.3556],[46.6365,40.368],[46.6765,40.3889],[46.7133,40.4036],[46.7967,40.4037],[46.8213,40.4141],[46.8843,40.4486],[46.8987,40.4644],[46.924,40.48],[46.9422,40.4387],[46.9693,40.4157]]]},"properties":{"name":"Tartar","id":"AZ-TAR","TYPE":"District","CNTRY_NAME":"Azerbaijan"},"id":"AZ-TAR"},
{"type":"Feature","geometry":{"type":"Polygon","coordinates":[[[45.7226,40.8232],[45.7096,40.783],[45.7097,40.7457],[45.7161,40.7318],[45.7096,40.7065],[45.7077,40.6247],[45.6936,40.6042],[45.6751,40.5942],[45.6409,40.615],[45.6106,40.622],[45.6015,40.6381],[45.6082,40.6546],[45.601,40.6715],[45.5568,40.6892],[45.507,40.6914],[45.4902,40.7044],[45.4884,40.742],[45.4677,40.7661],[45.57,40.8245],[45.5861,40.8417],[45.5957,40.8676],[45.5922,40.8926],[45.5682,40.8955],[45.5492,40.9086],[45.5258,40.9119],[45.5144,40.9261],[45.4917,40.9262],[45.4951,40.9417],[45.4765,40.9506],[45.4679,40.9766],[45.454,40.9782],[45.4786,40.996],[45.4905,41.0159],[45.5364,41.0228],[45.5771,41.0487],[45.5901,41.0661],[45.59,41.097],[45.5763,41.1174],[45.5669,41.1459],[45.5712,41.1722],[45.631,41.1505],[45.6482,41.1556],[45.6628,41.1812],[45.686,41.1987],[45.7786,41.2355],[45.8208,41.2227],[45.8568,41.221],[45.897,41.2057],[45.9439,41.1804],[45.9763,41.1788],[46.0053,41.1833],[46.0534,41.1826],[46.0819,41.1763],[46.0929,41.181],[46.1501,41.1536],[46.1958,41.1427],[46.2047,41.1367],[46.1904,41.1094],[46.1267,41.0589],[46.1013,41.0336],[46.0966,41.016],[46.0766,41.0066],[45.9119,41.0096],[45.9004,41.0083],[45.885,40.9722],[45.8553,40.9427],[45.7974,40.9117],[45.7722,40.8912],[45.7297,40.873],[45.7184,40.8563],[45.7226,40.8232]]]},"properties":{"name":"Tovuz","id":"AZ-TOV","TYPE":"District","CNTRY_NAME":"Azerbaijan"},"id":"AZ-TOV"},
{"type":"Feature","geometry":{"type":"Polygon","coordinates":[[[47.9343,40.3132],[47.8732,40.3142],[47.8139,40.3029],[47.7676,40.3039],[47.7227,40.3085],[47.6749,40.2901],[47.6515,40.3166],[47.6056,40.3519],[47.5522,40.374],[47.523,40.3907],[47.5187,40.4058],[47.4823,40.4244],[47.4638,40.452],[47.4721,40.4743],[47.4724,40.4965],[47.4861,40.5299],[47.537,40.5403],[47.5864,40.5254],[47.5874,40.5191],[47.6318,40.4982],[47.654,40.5086],[47.687,40.4989],[47.7074,40.4855],[47.743,40.4711],[47.7763,40.4944],[47.7922,40.4934],[47.9032,40.4492],[47.9447,40.4475],[47.9702,40.4519],[47.9926,40.4417],[47.9873,40.418],[47.9853,40.3707],[47.9584,40.3309],[47.9343,40.3132]]]},"properties":{"name":"Ucar","id":"AZ-UCA","TYPE":"District","CNTRY_NAME":"Azerbaijan"},"id":"AZ-UCA"},
{"type":"Feature","geometry":{"type":"Polygon","coordinates":[[[48.7441,41.3485],[48.72,41.3624],[48.6808,41.3484],[48.6716,41.3499],[48.5969,41.461],[48.5755,41.4835],[48.578,41.497],[48.5654,41.5294],[48.5394,41.5458],[48.5603,41.5714],[48.5569,41.5952],[48.5194,41.5972],[48.4985,41.6069],[48.4939,41.6196],[48.4958,41.6734],[48.5158,41.7032],[48.5011,41.7232],[48.4774,41.7254],[48.4393,41.7194],[48.4741,41.7867],[48.4865,41.8182],[48.4997,41.829],[48.498,41.8566],[48.5148,41.8823],[48.5338,41.885],[48.5743,41.8485],[48.6168,41.8238],[48.6606,41.7935],[48.7058,41.7562],[48.738,41.7233],[48.7814,41.6586],[48.7971,41.6533],[48.8404,41.6076],[48.8946,41.5551],[48.9364,41.5197],[48.9478,41.5026],[48.9799,41.4712],[49.0125,41.4283],[49.0683,41.3664],[49.0729,41.356],[49.0023,41.3533],[48.9573,41.3657],[48.908,41.3666],[48.8746,41.3517],[48.8471,41.3454],[48.8067,41.3618],[48.7621,41.3463],[48.7441,41.3485]]]},"properties":{"name":"Xaçmaz","id":"AZ-XAC","TYPE":"District","CNTRY_NAME":"Azerbaijan"},"id":"AZ-XAC"},
{"type":"Feature","geometry":{"type":"Polygon","coordinates":[[[46.7894,39.6555],[46.7794,39.6858],[46.7449,39.7151],[46.7193,39.7527],[46.6798,39.7713],[46.6527,39.7796],[46.627,39.7787],[46.5936,39.7638],[46.5404,39.7577],[46.5337,39.8012],[46.5252,39.8205],[46.4886,39.8757],[46.4357,39.909],[46.4355,39.9238],[46.451,39.9582],[46.4711,39.9623],[46.5095,39.9855],[46.5423,39.9744],[46.5611,39.9582],[46.5788,39.9625],[46.6097,39.98],[46.6248,40.0036],[46.6979,40.0182],[46.7107,40.0052],[46.734,39.9962],[46.7724,40.0069],[46.807,40.0002],[46.8419,39.9665],[46.8478,39.9367],[46.8574,39.9251],[46.9208,39.9116],[46.9231,39.8944],[46.9134,39.8725],[46.8737,39.834],[46.8527,39.7953],[46.8321,39.7654],[46.8507,39.7435],[46.8964,39.7061],[46.906,39.6839],[46.8993,39.6611],[46.8743,39.6505],[46.8438,39.6284],[46.8278,39.6273],[46.8114,39.6437],[46.7894,39.6555]]]},"properties":{"name":"Khojali","id":"AZ-XCI","TYPE":"District","CNTRY_NAME":"Azerbaijan"},"id":"AZ-XCI"},
{"type":"Feature","geometry":{"type":"Polygon","coordinates":[[[49.5255,40.66],[49.4791,40.6521],[49.4827,40.6368],[49.4702,40.6145],[49.4475,40.6015],[49.4101,40.5675],[49.4028,40.532],[49.3706,40.5132],[49.2631,40.5056],[49.2007,40.531],[49.1558,40.558],[49.1316,40.5948],[49.0832,40.6185],[49.0507,40.6213],[49.0263,40.6324],[48.9491,40.6918],[48.9376,40.7062],[48.8924,40.7348],[48.8295,40.7628],[48.808,40.7617],[48.783,40.7825],[48.7675,40.8063],[48.7635,40.8303],[48.7818,40.8551],[48.8202,40.8831],[48.8446,40.8925],[48.8719,40.8918],[48.9807,40.9283],[48.9936,40.9635],[49.0413,40.9809],[49.0504,40.9737],[49.0508,40.9356],[49.0612,40.9212],[49.0951,40.9099],[49.1775,40.8741],[49.2692,40.8716],[49.3015,40.8871],[49.3387,40.8807],[49.3671,40.8834],[49.4121,40.8431],[49.4483,40.834],[49.4733,40.836],[49.4985,40.8262],[49.5256,40.7887],[49.5057,40.7456],[49.5069,40.7136],[49.5144,40.6734],[49.5255,40.66]]]},"properties":{"name":"Xizi","id":"AZ-XIZ","TYPE":"District","CNTRY_NAME":"Azerbaijan"},"id":"AZ-XIZ"},
{"type":"Feature","geometry":{"type":"Polygon","coordinates":[[[47.3115,39.708],[47.2566,39.6943],[47.2108,39.6938],[47.1683,39.6851],[47.138,39.6617],[47.0829,39.6411],[47.0369,39.6406],[47.0262,39.6231],[47.0621,39.6092],[47.0955,39.6192],[47.0976,39.6036],[47.066,39.5904],[47.0334,39.586],[47.0174,39.5702],[47.0355,39.5542],[47.0768,39.5773],[47.1059,39.5786],[47.1043,39.5548],[47.0855,39.5385],[47.0974,39.4968],[47.0669,39.4931],[47.0534,39.466],[47.026,39.4375],[47.0479,39.4041],[47.0424,39.3948],[47.0147,39.3964],[46.9889,39.3792],[46.9622,39.3754],[46.9628,39.3918],[46.9015,39.4229],[46.8901,39.433],[46.895,39.4484],[46.8647,39.4599],[46.834,39.4778],[46.8182,39.4776],[46.8085,39.464],[46.8287,39.4334],[46.8116,39.4032],[46.7972,39.3974],[46.7695,39.4099],[46.7335,39.4163],[46.7516,39.4376],[46.7595,39.4624],[46.7298,39.485],[46.6826,39.4758],[46.6407,39.4835],[46.6846,39.508],[46.6862,39.5442],[46.6622,39.5671],[46.6828,39.582],[46.7177,39.5833],[46.7356,39.5888],[46.7894,39.6555],[46.8114,39.6437],[46.8278,39.6273],[46.8438,39.6284],[46.8743,39.6505],[46.8993,39.6611],[46.906,39.6839],[46.8964,39.7061],[46.8507,39.7435],[46.8321,39.7654],[46.8527,39.7953],[46.8996,39.8142],[46.9344,39.8233],[46.9487,39.8363],[46.9576,39.8711],[46.9659,39.877],[47.0121,39.8831],[47.0285,39.8792],[47.0547,39.8606],[47.1016,39.8416],[47.1529,39.8272],[47.177,39.8575],[47.2316,39.8614],[47.249,39.857],[47.2527,39.8316],[47.2669,39.8176],[47.3299,39.7863],[47.3438,39.7571],[47.3115,39.708]]]},"properties":{"name":"Xocavənd","id":"AZ-XVD","TYPE":"District","CNTRY_NAME":"Azerbaijan"},"id":"AZ-XVD"},
{"type":"Feature","geometry":{"type":"Polygon","coordinates":[[[48.5476,38.9399],[48.5014,38.912],[48.4569,38.8951],[48.3867,38.8632],[48.3549,38.8376],[48.3195,38.8227],[48.2809,38.7794],[48.2804,38.7603],[48.2625,38.7454],[48.2486,38.7222],[48.2145,38.7354],[48.1874,38.7518],[48.116,38.7678],[48.1039,38.7824],[48.0501,38.8089],[48.0206,38.8412],[48.0091,38.8787],[48.0135,38.9046],[48.0698,38.9052],[48.0828,38.9314],[48.1093,38.9428],[48.1412,38.9443],[48.1624,38.952],[48.2008,38.953],[48.2467,38.9614],[48.2917,38.965],[48.3534,38.9932],[48.3684,39.0201],[48.4115,39.0311],[48.4482,39.0133],[48.4778,38.9857],[48.4764,38.9616],[48.4867,38.944],[48.5228,38.9502],[48.5476,38.9399]]]},"properties":{"name":"Yardimli","id":"AZ-YAR","TYPE":"District","CNTRY_NAME":"Azerbaijan"},"id":"AZ-YAR"},
{"type":"Feature","geometry":{"type":"Polygon","coordinates":[[[47.1623,40.6252],[47.1707,40.6181],[47.1697,40.587],[47.128,40.5828],[47.1085,40.5927],[47.1067,40.6202],[47.1234,40.6308],[47.1623,40.6252]]]},"properties":{"name":"Yevlax City","id":"AZ-YE","TYPE":"City","CNTRY_NAME":"Azerbaijan"},"id":"AZ-YE"},
{"type":"Feature","geometry":{"type":"Polygon","coordinates":[[[47.2628,40.7889],[47.243,40.7205],[47.2296,40.7006],[47.2196,40.6693],[47.221,40.6381],[47.2347,40.6177],[47.2347,40.5933],[47.2179,40.5679],[47.1974,40.5522],[47.173,40.544],[47.1512,40.4958],[47.1011,40.4675],[47.0649,40.4874],[47.0337,40.4878],[46.9967,40.442],[46.9693,40.4157],[46.9422,40.4387],[46.924,40.48],[46.9504,40.4869],[46.9636,40.528],[46.9538,40.5337],[46.9193,40.5283],[46.9014,40.5304],[46.8834,40.5608],[46.8896,40.5893],[46.8902,40.6237],[46.8814,40.6356],[46.8481,40.6499],[46.8276,40.6468],[46.7881,40.6266],[46.7746,40.6274],[46.7739,40.657],[46.8266,40.711],[46.7989,40.7311],[46.756,40.7356],[46.7312,40.7509],[46.7318,40.7788],[46.7555,40.8178],[46.7554,40.8802],[46.7471,40.9042],[46.7495,40.9383],[46.7597,40.966],[46.7971,40.9681],[46.8557,40.939],[46.93,40.911],[47.025,40.8754],[47.0768,40.8512],[47.1275,40.8314],[47.1474,40.8287],[47.2034,40.8047],[47.2628,40.7889]],[[46.9839,40.7701],[46.9424,40.7862],[46.9332,40.785],[46.9174,40.7577],[46.9402,40.7339],[46.9755,40.7191],[47.0165,40.7248],[47.0375,40.734],[47.0487,40.7503],[47.0381,40.7711],[47.0154,40.7789],[46.9839,40.7701]],[[47.1623,40.6252],[47.1234,40.6308],[47.1067,40.6202],[47.1085,40.5927],[47.128,40.5828],[47.1697,40.587],[47.1707,40.6181],[47.1623,40.6252]]]},"properties":{"name":"Yevlax","id":"AZ-YEV","TYPE":"District","CNTRY_NAME":"Azerbaijan"},"id":"AZ-YEV"},
{"type":"Feature","geometry":{"type":"Polygon","coordinates":[[[46.8722,39.1476],[46.8527,39.1396],[46.8403,39.1192],[46.7991,39.0876],[46.7638,39.054],[46.755,39.0239],[46.7295,39.0083],[46.7029,39.007],[46.6777,38.9882],[46.6587,38.9619],[46.627,38.9373],[46.6092,38.9155],[46.5472,38.8727],[46.5413,38.9061],[46.5148,38.9438],[46.5276,38.9694],[46.5249,38.9899],[46.5519,39.0493],[46.53,39.0541],[46.5269,39.0691],[46.5382,39.078],[46.5123,39.0986],[46.5081,39.1165],[46.4936,39.1236],[46.4906,39.1479],[46.4752,39.1428],[46.4445,39.1565],[46.4395,39.1897],[46.4545,39.1972],[46.4917,39.1865],[46.5131,39.2053],[46.5332,39.2015],[46.5361,39.1712],[46.5603,39.1811],[46.5785,39.2023],[46.6296,39.22],[46.642,39.2094],[46.6438,39.1796],[46.6362,39.1625],[46.6367,39.1345],[46.6486,39.1152],[46.6697,39.118],[46.686,39.1336],[46.7067,39.1638],[46.7433,39.1908],[46.7772,39.2094],[46.8229,39.228],[46.8433,39.2115],[46.8708,39.1779],[46.8722,39.1476]]]},"properties":{"name":"Zangilan","id":"AZ-ZAN","TYPE":"District","CNTRY_NAME":"Azerbaijan"},"id":"AZ-ZAN"},
{"type":"Feature","geometry":{"type":"Polygon","coordinates":[[[46.304,41.5672],[46.3506,41.5511],[46.3957,41.5708],[46.423,41.5869],[46.4524,41.5867],[46.526,41.619],[46.5437,41.6428],[46.5554,41.6798],[46.5668,41.696],[46.6442,41.7398],[46.6601,41.7463],[46.6971,41.7732],[46.7137,41.7957],[46.7156,41.8324],[46.7063,41.846],[46.7487,41.8631],[46.7612,41.853],[46.7812,41.7854],[46.8552,41.728],[46.8958,41.7316],[46.9168,41.7155],[46.9188,41.6854],[46.9595,41.6395],[46.9936,41.6343],[47.0038,41.6181],[46.9878,41.6015],[46.9888,41.5896],[47.0098,41.556],[47.0296,41.5585],[47.0075,41.5221],[46.9886,41.5194],[46.9624,41.5053],[46.9379,41.5024],[46.8404,41.5226],[46.786,41.5231],[46.7438,41.5144],[46.6702,41.405],[46.6375,41.3742],[46.626,41.3726],[46.6094,41.3895],[46.4889,41.4235],[46.462,41.4381],[46.4386,41.459],[46.4134,41.4614],[46.4115,41.4747],[46.3519,41.4926],[46.3379,41.5048],[46.3383,41.5279],[46.304,41.5672]]]},"properties":{"name":"Zaqatala","id":"AZ-ZAQ","TYPE":"District","CNTRY_NAME":"Azerbaijan"},"id":"AZ-ZAQ"},
{"type":"Feature","geometry":{"type":"Polygon","coordinates":[[[47.8461,40.1039],[47.8287,40.0823],[47.8138,40.0799],[47.7487,40.084],[47.7709,40.096],[47.766,40.1069],[47.7374,40.1228],[47.722,40.1624],[47.6877,40.1756],[47.6695,40.1483],[47.6246,40.1581],[47.5441,40.1472],[47.5179,40.1365],[47.4992,40.14],[47.4871,40.1676],[47.4642,40.1911],[47.469,40.2504],[47.4639,40.2571],[47.4297,40.2559],[47.4146,40.2653],[47.4266,40.2878],[47.4943,40.3382],[47.523,40.3907],[47.5522,40.374],[47.6056,40.3519],[47.6515,40.3166],[47.6749,40.2901],[47.7227,40.3085],[47.7676,40.3039],[47.8139,40.3029],[47.8732,40.3142],[47.9343,40.3132],[47.9282,40.2917],[47.9277,40.2411],[47.9438,40.1955],[47.9429,40.1612],[47.9008,40.1222],[47.8728,40.1165],[47.8461,40.1039]]]},"properties":{"name":"Zardab","id":"AZ-ZAR","TYPE":"District","CNTRY_NAME":"Azerbaijan"},"id":"AZ-ZAR"}
]}