{"type":"FeatureCollection", "features": [
{"type":"Feature","geometry":{"type":"Polygon","coordinates":[[[89.2345,27.7496],[89.2452,27.74],[89.254,27.7215],[89.2615,27.7178],[89.2842,27.7151],[89.2756,27.7038],[89.276,27.6945],[89.2964,27.6985],[89.3008,27.7079],[89.3206,27.6989],[89.335,27.6978],[89.343,27.7099],[89.3571,27.7163],[89.3673,27.716],[89.3827,27.7054],[89.3961,27.7164],[89.4238,27.7246],[89.4268,27.7173],[89.4253,27.6932],[89.4198,27.6877],[89.425,27.6775],[89.4207,27.6677],[89.4307,27.6608],[89.4402,27.645],[89.4331,27.6358],[89.4164,27.6293],[89.4102,27.6205],[89.4205,27.6127],[89.4275,27.6194],[89.4371,27.6209],[89.4398,27.6137],[89.4665,27.5941],[89.4788,27.5795],[89.4909,27.5753],[89.4841,27.5681],[89.492,27.5578],[89.5003,27.5404],[89.5137,27.536],[89.5195,27.5296],[89.5053,27.5191],[89.504,27.4981],[89.5074,27.4849],[89.5003,27.4687],[89.5008,27.4512],[89.4942,27.4418],[89.4974,27.425],[89.4925,27.4035],[89.4991,27.3949],[89.5127,27.3962],[89.531,27.3878],[89.5347,27.3697],[89.5234,27.3553],[89.5236,27.3455],[89.5386,27.3382],[89.5607,27.3235],[89.5597,27.2959],[89.5543,27.2803],[89.554,27.2681],[89.5419,27.2554],[89.5339,27.2305],[89.5271,27.2191],[89.5253,27.2071],[89.5316,27.19],[89.5226,27.1801],[89.4756,27.1863],[89.4675,27.194],[89.448,27.2013],[89.4322,27.2154],[89.4225,27.2074],[89.4072,27.2033],[89.3908,27.206],[89.3722,27.2016],[89.356,27.2027],[89.3463,27.2249],[89.3493,27.2367],[89.3454,27.2494],[89.3449,27.2662],[89.3526,27.2744],[89.3781,27.2818],[89.3936,27.2939],[89.399,27.3039],[89.379,27.3227],[89.3728,27.3404],[89.3661,27.3436],[89.3513,27.3623],[89.3456,27.3652],[89.3325,27.397],[89.3207,27.4036],[89.3066,27.424],[89.3108,27.4332],[89.2843,27.4539],[89.2743,27.4556],[89.2738,27.4697],[89.265,27.4927],[89.2648,27.5083],[89.2562,27.5169],[89.2538,27.54],[89.2474,27.5512],[89.226,27.5458],[89.2038,27.562],[89.176,27.563],[89.1707,27.5692],[89.1554,27.5724],[89.1528,27.5855],[89.1371,27.5905],[89.1313,27.5967],[89.1396,27.6028],[89.1379,27.6106],[89.1501,27.6161],[89.1481,27.6272],[89.1617,27.6391],[89.1655,27.6466],[89.1788,27.6445],[89.1869,27.6718],[89.2005,27.675],[89.206,27.6938],[89.2212,27.6946],[89.2293,27.7001],[89.235,27.7188],[89.2283,27.7329],[89.2345,27.7496]]]},"properties":{"name":"Paro","id":"BT-11","TYPE":"District","CNTRY":"Bhutan"},"id":"BT-11"},
{"type":"Feature","geometry":{"type":"Polygon","coordinates":[[[89.5597,27.2959],[89.5725,27.2924],[89.5855,27.2767],[89.5856,27.2531],[89.6022,27.2523],[89.6138,27.246],[89.6352,27.2453],[89.6423,27.2325],[89.6228,27.2214],[89.6076,27.217],[89.597,27.2054],[89.595,27.1867],[89.5822,27.177],[89.5944,27.1747],[89.6034,27.1574],[89.6182,27.1467],[89.6218,27.1403],[89.6343,27.1347],[89.6484,27.1386],[89.6624,27.1216],[89.6632,27.1063],[89.675,27.0827],[89.6776,27.0693],[89.6975,27.0709],[89.704,27.0664],[89.7054,27.0547],[89.6975,27.0436],[89.698,27.0307],[89.7078,27.0281],[89.7342,27.0368],[89.7593,27.034],[89.7688,27.014],[89.7788,27.0037],[89.7844,26.9869],[89.7824,26.976],[89.7905,26.9414],[89.801,26.9422],[89.8122,26.9325],[89.8029,26.9215],[89.8074,26.9051],[89.8234,26.8961],[89.8265,26.8858],[89.8224,26.8804],[89.8091,26.8797],[89.7901,26.8837],[89.7864,26.8814],[89.7892,26.8631],[89.7823,26.857],[89.7782,26.8439],[89.7815,26.8307],[89.7713,26.822],[89.7595,26.8015],[89.7499,26.7966],[89.7353,26.7776],[89.7299,26.7647],[89.7312,26.739],[89.7461,26.7327],[89.7302,26.7237],[89.7169,26.7217],[89.6949,26.7346],[89.6818,26.7318],[89.6647,26.7381],[89.6599,26.7265],[89.6497,26.7161],[89.6261,26.7216],[89.6173,26.7152],[89.6111,26.7286],[89.6174,26.7389],[89.637,26.7481],[89.6405,26.7615],[89.6461,26.7686],[89.644,26.7764],[89.6345,26.7821],[89.6164,26.7768],[89.6128,26.7846],[89.5856,26.7906],[89.5666,26.798],[89.5564,26.8153],[89.5432,26.81],[89.5251,26.8129],[89.5087,26.8117],[89.5036,26.8082],[89.4805,26.8026],[89.4649,26.8018],[89.4512,26.8144],[89.448,26.8348],[89.4276,26.8359],[89.4094,26.8412],[89.391,26.841],[89.387,26.8581],[89.3714,26.86],[89.3753,26.8767],[89.366,26.8871],[89.3545,26.8851],[89.3412,26.876],[89.3286,26.8807],[89.3344,26.8921],[89.3266,26.8989],[89.3302,26.9095],[89.3066,26.9138],[89.2906,26.9278],[89.2776,26.9218],[89.2683,26.9349],[89.2712,26.9449],[89.2656,26.9607],[89.283,26.9658],[89.3137,26.9925],[89.3344,27.0306],[89.3294,27.0437],[89.3238,27.0466],[89.3278,27.0628],[89.3275,27.0794],[89.3222,27.0907],[89.3221,27.1008],[89.3543,27.1188],[89.3508,27.1294],[89.3536,27.1373],[89.366,27.1518],[89.3821,27.165],[89.3788,27.1718],[89.3639,27.1811],[89.3562,27.1941],[89.356,27.2027],[89.3722,27.2016],[89.3908,27.206],[89.4072,27.2033],[89.4225,27.2074],[89.4322,27.2154],[89.448,27.2013],[89.4675,27.194],[89.4756,27.1863],[89.5226,27.1801],[89.5316,27.19],[89.5253,27.2071],[89.5271,27.2191],[89.5339,27.2305],[89.5419,27.2554],[89.554,27.2681],[89.5543,27.2803],[89.5597,27.2959]]]},"properties":{"name":"Chhukha","id":"BT-12","TYPE":"District","CNTRY":"Bhutan"},"id":"BT-12"},
{"type":"Feature","geometry":{"type":"Polygon","coordinates":[[[89.1313,27.5967],[89.1371,27.5905],[89.1528,27.5855],[89.1554,27.5724],[89.1707,27.5692],[89.176,27.563],[89.2038,27.562],[89.226,27.5458],[89.2474,27.5512],[89.2538,27.54],[89.2562,27.5169],[89.2648,27.5083],[89.265,27.4927],[89.2738,27.4697],[89.2743,27.4556],[89.2843,27.4539],[89.3108,27.4332],[89.3066,27.424],[89.3207,27.4036],[89.3325,27.397],[89.3456,27.3652],[89.3513,27.3623],[89.3661,27.3436],[89.3728,27.3404],[89.379,27.3227],[89.399,27.3039],[89.3936,27.2939],[89.3781,27.2818],[89.3526,27.2744],[89.3449,27.2662],[89.3454,27.2494],[89.3493,27.2367],[89.3463,27.2249],[89.356,27.2027],[89.3562,27.1941],[89.3639,27.1811],[89.3788,27.1718],[89.3821,27.165],[89.366,27.1518],[89.3536,27.1373],[89.3508,27.1294],[89.3543,27.1188],[89.3221,27.1008],[89.3222,27.0907],[89.3275,27.0794],[89.3006,27.077],[89.2784,27.0824],[89.2597,27.0787],[89.2456,27.0645],[89.245,27.0532],[89.229,27.0288],[89.2186,27.0261],[89.2071,27.0421],[89.1928,27.0517],[89.1833,27.0751],[89.1713,27.0831],[89.1656,27.0703],[89.1647,27.0571],[89.1556,27.0469],[89.1345,27.0395],[89.1255,27.0335],[89.1144,27.0339],[89.1049,27.044],[89.0951,27.0449],[89.0879,27.0526],[89.0742,27.0584],[89.0725,27.0701],[89.0348,27.0914],[89.0229,27.119],[89.0042,27.1281],[88.9872,27.1319],[88.9881,27.1527],[88.9944,27.1691],[88.9923,27.192],[88.9669,27.2157],[88.9566,27.2289],[88.9522,27.2413],[88.9283,27.2547],[88.909,27.2599],[88.901,27.2657],[88.9069,27.2789],[88.9006,27.2866],[88.8996,27.2987],[88.9061,27.3145],[88.9167,27.3244],[88.923,27.3219],[88.9525,27.2913],[88.9732,27.276],[88.9782,27.2798],[88.9819,27.2951],[88.9938,27.302],[88.9948,27.3079],[88.987,27.3256],[88.9666,27.3399],[88.9655,27.3612],[88.9699,27.3788],[88.9648,27.3941],[88.9775,27.4102],[88.9751,27.4233],[88.9963,27.445],[88.9922,27.4609],[88.9839,27.473],[88.9989,27.484],[89.0132,27.484],[89.0048,27.497],[89.0034,27.5058],[89.0086,27.5125],[89.0374,27.5277],[89.0388,27.5432],[89.0443,27.5479],[89.041,27.5598],[89.044,27.5684],[89.0579,27.5774],[89.0705,27.5805],[89.0833,27.5896],[89.095,27.5896],[89.114,27.5838],[89.1188,27.5917],[89.1313,27.5967]]]},"properties":{"name":"Haa","id":"BT-13","TYPE":"District","CNTRY":"Bhutan"},"id":"BT-13"},
{"type":"Feature","geometry":{"type":"Polygon","coordinates":[[[88.901,27.2657],[88.909,27.2599],[88.9283,27.2547],[88.9522,27.2413],[88.9566,27.2289],[88.9669,27.2157],[88.9923,27.192],[88.9944,27.1691],[88.9881,27.1527],[88.9872,27.1319],[89.0042,27.1281],[89.0229,27.119],[89.0348,27.0914],[89.0725,27.0701],[89.0742,27.0584],[89.0879,27.0526],[89.0951,27.0449],[89.1049,27.044],[89.1144,27.0339],[89.1255,27.0335],[89.1345,27.0395],[89.1556,27.0469],[89.1647,27.0571],[89.1656,27.0703],[89.1713,27.0831],[89.1833,27.0751],[89.1928,27.0517],[89.2071,27.0421],[89.2186,27.0261],[89.229,27.0288],[89.245,27.0532],[89.2456,27.0645],[89.2597,27.0787],[89.2784,27.0824],[89.3006,27.077],[89.3275,27.0794],[89.3278,27.0628],[89.3238,27.0466],[89.3294,27.0437],[89.3344,27.0306],[89.3137,26.9925],[89.283,26.9658],[89.2656,26.9607],[89.2712,26.9449],[89.2683,26.9349],[89.2776,26.9218],[89.2906,26.9278],[89.3066,26.9138],[89.3302,26.9095],[89.3266,26.8989],[89.3344,26.8921],[89.3286,26.8807],[89.3412,26.876],[89.3545,26.8851],[89.366,26.8871],[89.3753,26.8767],[89.3714,26.86],[89.3288,26.8434],[89.3199,26.8532],[89.3068,26.8445],[89.2647,26.8272],[89.2556,26.8169],[89.2336,26.8205],[89.2135,26.8178],[89.1898,26.8085],[89.1685,26.8176],[89.1321,26.8078],[89.1232,26.8209],[89.1126,26.8225],[89.1088,26.8327],[89.102,26.8363],[89.1002,26.8492],[89.1041,26.8598],[89.0985,26.8675],[89.0876,26.872],[89.0953,26.8852],[89.0903,26.894],[89.0676,26.9032],[89.0465,26.9037],[89.0464,26.9197],[89.0312,26.9299],[89.0249,26.9403],[88.9846,26.9208],[88.9712,26.9205],[88.9434,26.9368],[88.9412,26.9463],[88.9555,26.9542],[88.9537,26.9682],[88.9486,26.9761],[88.9301,26.9836],[88.919,26.9962],[88.9113,26.9944],[88.9042,26.9835],[88.8938,26.9772],[88.8886,26.96],[88.8787,26.9509],[88.8727,26.9571],[88.8705,27.0108],[88.8787,27.0411],[88.8715,27.0777],[88.8727,27.0922],[88.8699,27.1087],[88.8568,27.1071],[88.8446,27.1163],[88.8261,27.1177],[88.8107,27.1258],[88.8,27.1368],[88.7854,27.1356],[88.751,27.1429],[88.7605,27.1571],[88.7583,27.1689],[88.766,27.1785],[88.7847,27.182],[88.7882,27.1858],[88.7896,27.2019],[88.8007,27.2207],[88.8011,27.2476],[88.8304,27.2626],[88.8438,27.2608],[88.8638,27.2622],[88.8724,27.2588],[88.8797,27.263],[88.901,27.2657]]]},"properties":{"name":"Samtse","id":"BT-14","TYPE":"District","CNTRY":"Bhutan"},"id":"BT-14"},
{"type":"Feature","geometry":{"type":"Polygon","coordinates":[[[89.5597,27.2959],[89.5607,27.3235],[89.5386,27.3382],[89.5236,27.3455],[89.5234,27.3553],[89.5347,27.3697],[89.531,27.3878],[89.5127,27.3962],[89.4991,27.3949],[89.4925,27.4035],[89.4974,27.425],[89.4942,27.4418],[89.5008,27.4512],[89.5003,27.4687],[89.5074,27.4849],[89.504,27.4981],[89.5053,27.5191],[89.5195,27.5296],[89.5137,27.536],[89.5003,27.5404],[89.492,27.5578],[89.4841,27.5681],[89.4909,27.5753],[89.4788,27.5795],[89.4665,27.5941],[89.4398,27.6137],[89.4371,27.6209],[89.4275,27.6194],[89.4205,27.6127],[89.4102,27.6205],[89.4164,27.6293],[89.4331,27.6358],[89.4402,27.645],[89.4307,27.6608],[89.4207,27.6677],[89.425,27.6775],[89.4198,27.6877],[89.4253,27.6932],[89.4268,27.7173],[89.4238,27.7246],[89.3961,27.7164],[89.3827,27.7054],[89.3673,27.716],[89.3571,27.7163],[89.343,27.7099],[89.335,27.6978],[89.3206,27.6989],[89.3008,27.7079],[89.2964,27.6985],[89.276,27.6945],[89.2756,27.7038],[89.2842,27.7151],[89.2615,27.7178],[89.254,27.7215],[89.2452,27.74],[89.2345,27.7496],[89.2452,27.7645],[89.2473,27.7728],[89.2561,27.7745],[89.2778,27.7865],[89.2815,27.8006],[89.3004,27.8134],[89.3087,27.8232],[89.3223,27.8266],[89.3436,27.8229],[89.3504,27.8331],[89.3816,27.8498],[89.3869,27.8569],[89.4001,27.865],[89.4047,27.8798],[89.4132,27.8927],[89.4269,27.9006],[89.4251,27.9068],[89.4324,27.9157],[89.448,27.9239],[89.453,27.9375],[89.464,27.9502],[89.4623,27.9738],[89.4746,27.9681],[89.4923,27.9667],[89.5031,27.9535],[89.5128,27.9488],[89.5348,27.945],[89.5442,27.9262],[89.541,27.9011],[89.545,27.8914],[89.5554,27.8826],[89.5694,27.8761],[89.5861,27.874],[89.603,27.8673],[89.6004,27.8605],[89.5857,27.8587],[89.5751,27.8533],[89.5681,27.8383],[89.552,27.8285],[89.5512,27.8231],[89.5285,27.8018],[89.5358,27.7899],[89.5369,27.7743],[89.5315,27.7696],[89.5317,27.7491],[89.5239,27.7376],[89.5331,27.7233],[89.5453,27.7182],[89.5524,27.7255],[89.5549,27.7353],[89.5655,27.7457],[89.5921,27.7458],[89.5927,27.7348],[89.6045,27.7146],[89.6015,27.7069],[89.6143,27.6959],[89.642,27.6907],[89.6475,27.6865],[89.6498,27.6676],[89.6662,27.6633],[89.6725,27.6508],[89.6675,27.6347],[89.6688,27.616],[89.6626,27.6051],[89.6639,27.595],[89.6736,27.5797],[89.6854,27.5743],[89.6978,27.5398],[89.7107,27.5358],[89.7191,27.526],[89.7223,27.5161],[89.718,27.5056],[89.7231,27.4934],[89.7422,27.4858],[89.7494,27.4687],[89.7604,27.4632],[89.7739,27.4427],[89.7661,27.4052],[89.7747,27.3973],[89.7768,27.3893],[89.7612,27.379],[89.7553,27.3707],[89.7189,27.3483],[89.73,27.3373],[89.7419,27.3322],[89.735,27.3186],[89.7405,27.2905],[89.7399,27.2645],[89.735,27.2532],[89.7232,27.2554],[89.719,27.2392],[89.7079,27.2306],[89.7096,27.2227],[89.6978,27.2155],[89.6877,27.2154],[89.6723,27.2088],[89.6631,27.2013],[89.6545,27.1675],[89.6567,27.1553],[89.6484,27.1386],[89.6343,27.1347],[89.6218,27.1403],[89.6182,27.1467],[89.6034,27.1574],[89.5944,27.1747],[89.5822,27.177],[89.595,27.1867],[89.597,27.2054],[89.6076,27.217],[89.6228,27.2214],[89.6423,27.2325],[89.6352,27.2453],[89.6138,27.246],[89.6022,27.2523],[89.5856,27.2531],[89.5855,27.2767],[89.5725,27.2924],[89.5597,27.2959]]]},"properties":{"name":"Thimphu","id":"BT-15","TYPE":"District","CNTRY":"Bhutan"},"id":"BT-15"},
{"type":"Feature","geometry":{"type":"Polygon","coordinates":[[[90.078,27.1053],[90.0813,27.1115],[90.0749,27.1231],[90.0793,27.1467],[90.08,27.1717],[90.0947,27.1796],[90.1236,27.1705],[90.131,27.1653],[90.1509,27.1583],[90.1567,27.1525],[90.1768,27.1583],[90.2038,27.157],[90.2106,27.1632],[90.221,27.1648],[90.2381,27.1495],[90.2466,27.1484],[90.2633,27.1359],[90.2753,27.1484],[90.2893,27.1456],[90.2981,27.1533],[90.3076,27.1529],[90.3218,27.1582],[90.3291,27.169],[90.3368,27.1696],[90.3507,27.1624],[90.3551,27.1493],[90.3487,27.1359],[90.3392,27.1402],[90.3304,27.1387],[90.3075,27.126],[90.2959,27.1119],[90.2834,27.1067],[90.2792,27.0963],[90.2822,27.0829],[90.2689,27.0695],[90.2679,27.0479],[90.2551,27.0427],[90.2474,27.0358],[90.2497,27.0179],[90.2463,26.9983],[90.2323,26.9821],[90.2253,26.9812],[90.2201,26.972],[90.2022,26.9568],[90.2011,26.9364],[90.1786,26.9271],[90.1709,26.9207],[90.1692,26.9109],[90.148,26.8979],[90.1413,26.8796],[90.1374,26.849],[90.1234,26.8468],[90.1147,26.8405],[90.1029,26.8471],[90.0815,26.837],[90.079,26.8212],[90.0572,26.816],[90.0498,26.822],[90.0362,26.8245],[90.0258,26.8202],[90.0218,26.8317],[90.0123,26.8414],[90.0059,26.8531],[90.0169,26.8628],[90.0066,26.8657],[90.0039,26.8771],[90.0123,26.8844],[90.0095,26.8998],[90.0235,26.9103],[90.0326,26.908],[90.0409,26.9169],[90.0428,26.9281],[90.0584,26.9394],[90.0651,26.9495],[90.0706,26.9756],[90.0712,26.9959],[90.0807,27.0329],[90.0808,27.0483],[90.0729,27.054],[90.083,27.0706],[90.0765,27.0831],[90.0795,27.09],[90.078,27.1053]]]},"properties":{"name":"Tsirang","id":"BT-21","TYPE":"District","CNTRY":"Bhutan"},"id":"BT-21"},
{"type":"Feature","geometry":{"type":"Polygon","coordinates":[[[89.735,27.2532],[89.743,27.2517],[89.7567,27.2598],[89.7941,27.2648],[89.8139,27.2515],[89.8487,27.2594],[89.8562,27.2489],[89.8676,27.2462],[89.8761,27.2313],[89.8954,27.2206],[89.9107,27.2163],[89.94,27.1548],[89.9547,27.1485],[89.9592,27.1395],[89.9742,27.1416],[89.984,27.1375],[90.0044,27.1384],[90.0107,27.1304],[90.0295,27.1215],[90.0571,27.1225],[90.078,27.1053],[90.0795,27.09],[90.0765,27.0831],[90.083,27.0706],[90.0729,27.054],[90.0808,27.0483],[90.0807,27.0329],[90.0712,26.9959],[90.0706,26.9756],[90.0651,26.9495],[90.0584,26.9394],[90.0428,26.9281],[90.0409,26.9169],[90.0326,26.908],[90.0235,26.9103],[90.0095,26.8998],[90.0123,26.8844],[90.0039,26.8771],[90.0066,26.8657],[90.0169,26.8628],[90.0059,26.8531],[90.0123,26.8414],[90.0218,26.8317],[90.0258,26.8202],[90.0362,26.8245],[90.0349,26.8195],[90.048,26.7995],[90.0442,26.7922],[90.0423,26.7593],[90.0275,26.7596],[90.0192,26.7705],[90.0142,26.7491],[90.0021,26.7343],[89.9847,26.7268],[89.9578,26.7232],[89.9208,26.7226],[89.8894,26.7244],[89.8603,26.734],[89.854,26.7157],[89.8544,26.6978],[89.8041,26.7092],[89.7873,26.7038],[89.7581,26.6999],[89.7534,26.7145],[89.7456,26.7185],[89.7506,26.7274],[89.7461,26.7327],[89.7312,26.739],[89.7299,26.7647],[89.7353,26.7776],[89.7499,26.7966],[89.7595,26.8015],[89.7713,26.822],[89.7815,26.8307],[89.7782,26.8439],[89.7823,26.857],[89.7892,26.8631],[89.7864,26.8814],[89.7901,26.8837],[89.8091,26.8797],[89.8224,26.8804],[89.8265,26.8858],[89.8234,26.8961],[89.8074,26.9051],[89.8029,26.9215],[89.8122,26.9325],[89.801,26.9422],[89.7905,26.9414],[89.7824,26.976],[89.7844,26.9869],[89.7788,27.0037],[89.7688,27.014],[89.7593,27.034],[89.7342,27.0368],[89.7078,27.0281],[89.698,27.0307],[89.6975,27.0436],[89.7054,27.0547],[89.704,27.0664],[89.6975,27.0709],[89.6776,27.0693],[89.675,27.0827],[89.6632,27.1063],[89.6624,27.1216],[89.6484,27.1386],[89.6567,27.1553],[89.6545,27.1675],[89.6631,27.2013],[89.6723,27.2088],[89.6877,27.2154],[89.6978,27.2155],[89.7096,27.2227],[89.7079,27.2306],[89.719,27.2392],[89.7232,27.2554],[89.735,27.2532]]]},"properties":{"name":"Dagana","id":"BT-22","TYPE":"District","CNTRY":"Bhutan"},"id":"BT-22"},
{"type":"Feature","geometry":{"type":"Polygon","coordinates":[[[89.6475,27.6865],[89.6556,27.6985],[89.6715,27.6966],[89.6819,27.7007],[89.7086,27.6918],[89.7173,27.695],[89.7333,27.6944],[89.7491,27.7031],[89.7446,27.7124],[89.7534,27.7152],[89.7645,27.7326],[89.7751,27.7383],[89.7858,27.7325],[89.7939,27.7179],[89.8077,27.7249],[89.8144,27.741],[89.8289,27.7485],[89.8342,27.7588],[89.8478,27.7663],[89.867,27.7996],[89.8836,27.8072],[89.9086,27.8085],[89.9288,27.8195],[89.9398,27.8174],[89.9688,27.7943],[89.9826,27.7936],[89.9995,27.7851],[90.0181,27.78],[90.0244,27.7717],[90.0447,27.7684],[90.0493,27.7399],[90.0437,27.727],[90.0252,27.7175],[90.003,27.6966],[89.9944,27.6633],[90.0029,27.6558],[90.0167,27.6525],[90.0346,27.6574],[90.0482,27.6547],[90.0624,27.6384],[90.0747,27.6292],[90.0753,27.6178],[90.0642,27.6112],[90.0531,27.5971],[90.0319,27.5953],[90.0102,27.5672],[89.9876,27.5572],[89.9831,27.5475],[89.9649,27.5381],[89.9656,27.5274],[89.9425,27.5105],[89.9454,27.4996],[89.9427,27.4895],[89.933,27.4861],[89.9188,27.4922],[89.903,27.491],[89.897,27.4844],[89.9028,27.4735],[89.8782,27.4608],[89.8684,27.4606],[89.8508,27.4515],[89.8284,27.4555],[89.8208,27.4482],[89.8078,27.4493],[89.7969,27.4443],[89.7739,27.4427],[89.7604,27.4632],[89.7494,27.4687],[89.7422,27.4858],[89.7231,27.4934],[89.718,27.5056],[89.7223,27.5161],[89.7191,27.526],[89.7107,27.5358],[89.6978,27.5398],[89.6854,27.5743],[89.6736,27.5797],[89.6639,27.595],[89.6626,27.6051],[89.6688,27.616],[89.6675,27.6347],[89.6725,27.6508],[89.6662,27.6633],[89.6498,27.6676],[89.6475,27.6865]]]},"properties":{"name":"Punakha","id":"BT-23","TYPE":"District","CNTRY":"Bhutan"},"id":"BT-23"},
{"type":"Feature","geometry":{"type":"Polygon","coordinates":[[[90.078,27.1053],[90.0571,27.1225],[90.0295,27.1215],[90.0107,27.1304],[90.0044,27.1384],[89.984,27.1375],[89.9742,27.1416],[89.9592,27.1395],[89.9547,27.1485],[89.94,27.1548],[89.9107,27.2163],[89.8954,27.2206],[89.8761,27.2313],[89.8676,27.2462],[89.8562,27.2489],[89.8487,27.2594],[89.8139,27.2515],[89.7941,27.2648],[89.7567,27.2598],[89.743,27.2517],[89.735,27.2532],[89.7399,27.2645],[89.7405,27.2905],[89.735,27.3186],[89.7419,27.3322],[89.73,27.3373],[89.7189,27.3483],[89.7553,27.3707],[89.7612,27.379],[89.7768,27.3893],[89.7747,27.3973],[89.7661,27.4052],[89.7739,27.4427],[89.7969,27.4443],[89.8078,27.4493],[89.8208,27.4482],[89.8284,27.4555],[89.8508,27.4515],[89.8684,27.4606],[89.8782,27.4608],[89.9028,27.4735],[89.897,27.4844],[89.903,27.491],[89.9188,27.4922],[89.933,27.4861],[89.9427,27.4895],[89.9454,27.4996],[89.9425,27.5105],[89.9656,27.5274],[89.9649,27.5381],[89.9831,27.5475],[89.9876,27.5572],[90.0102,27.5672],[90.0319,27.5953],[90.0531,27.5971],[90.0642,27.6112],[90.0753,27.6178],[90.0747,27.6292],[90.0624,27.6384],[90.0482,27.6547],[90.0346,27.6574],[90.0167,27.6525],[90.0029,27.6558],[89.9944,27.6633],[90.003,27.6966],[90.0252,27.7175],[90.0437,27.727],[90.0493,27.7399],[90.0447,27.7684],[90.0472,27.7825],[90.0452,27.7955],[90.0494,27.8043],[90.0848,27.8117],[90.1107,27.8057],[90.1341,27.8251],[90.144,27.8502],[90.1756,27.8884],[90.1901,27.9132],[90.194,27.9341],[90.2054,27.9415],[90.2257,27.9408],[90.2481,27.9448],[90.2554,27.9489],[90.2731,27.9376],[90.2819,27.9276],[90.2771,27.9104],[90.2988,27.8696],[90.3094,27.867],[90.3195,27.8584],[90.3289,27.8596],[90.3391,27.8724],[90.3579,27.87],[90.3658,27.8653],[90.3762,27.8727],[90.3908,27.8675],[90.3981,27.8802],[90.3934,27.8953],[90.3958,27.9067],[90.3881,27.9213],[90.3939,27.9298],[90.3873,27.9426],[90.3874,27.9618],[90.399,27.971],[90.4278,27.9702],[90.4333,27.972],[90.4431,27.9889],[90.4553,27.9973],[90.4639,28.0151],[90.4849,28.0151],[90.5005,27.9894],[90.5042,27.9601],[90.4925,27.935],[90.5001,27.9296],[90.5054,27.905],[90.5171,27.9037],[90.5289,27.8982],[90.5294,27.8791],[90.5364,27.8737],[90.5391,27.8467],[90.5387,27.8285],[90.5292,27.8039],[90.5225,27.7963],[90.4979,27.7901],[90.4991,27.7741],[90.5084,27.7648],[90.5081,27.748],[90.5045,27.7169],[90.4902,27.6712],[90.4774,27.663],[90.4594,27.6604],[90.4283,27.6471],[90.418,27.6491],[90.4103,27.6581],[90.393,27.651],[90.3795,27.6498],[90.3604,27.6544],[90.3504,27.6462],[90.3453,27.6302],[90.3455,27.6147],[90.3249,27.5984],[90.3248,27.5884],[90.3323,27.5839],[90.3413,27.5544],[90.3495,27.5448],[90.3631,27.5178],[90.3733,27.5081],[90.3896,27.509],[90.3979,27.4982],[90.3819,27.4882],[90.3764,27.4795],[90.3619,27.488],[90.357,27.4836],[90.3353,27.4824],[90.3252,27.4775],[90.3137,27.4606],[90.2825,27.4587],[90.2759,27.4474],[90.2776,27.4331],[90.2953,27.4233],[90.2974,27.4128],[90.2917,27.3964],[90.2942,27.3899],[90.3079,27.3753],[90.3149,27.3632],[90.327,27.3525],[90.3212,27.346],[90.3212,27.3371],[90.3356,27.3235],[90.3565,27.3114],[90.3678,27.2997],[90.3641,27.2923],[90.3723,27.2765],[90.369,27.2684],[90.3869,27.259],[90.3879,27.2464],[90.3846,27.2316],[90.3641,27.2173],[90.362,27.2087],[90.3531,27.1987],[90.3348,27.1867],[90.3368,27.1696],[90.3291,27.169],[90.3218,27.1582],[90.3076,27.1529],[90.2981,27.1533],[90.2893,27.1456],[90.2753,27.1484],[90.2633,27.1359],[90.2466,27.1484],[90.2381,27.1495],[90.221,27.1648],[90.2106,27.1632],[90.2038,27.157],[90.1768,27.1583],[90.1567,27.1525],[90.1509,27.1583],[90.131,27.1653],[90.1236,27.1705],[90.0947,27.1796],[90.08,27.1717],[90.0793,27.1467],[90.0749,27.1231],[90.0813,27.1115],[90.078,27.1053]]]},"properties":{"name":"Wangdue Phodrang","id":"BT-24","TYPE":"District","CNTRY":"Bhutan"},"id":"BT-24"},
{"type":"Feature","geometry":{"type":"Polygon","coordinates":[[[90.5385,27.1293],[90.5411,27.1134],[90.5546,27.1064],[90.5566,27.0996],[90.5667,27.0997],[90.5806,27.081],[90.5947,27.0858],[90.6035,27.0732],[90.6229,27.0662],[90.6517,27.079],[90.6588,27.0712],[90.6698,27.07],[90.6855,27.0553],[90.6801,27.0353],[90.6849,27.0266],[90.6939,27.0234],[90.6906,27.0072],[90.6964,26.9911],[90.6854,26.977],[90.693,26.951],[90.6791,26.932],[90.6652,26.9245],[90.6566,26.9013],[90.6434,26.8903],[90.6423,26.8846],[90.6295,26.8774],[90.6252,26.8707],[90.6284,26.861],[90.627,26.8464],[90.6406,26.8446],[90.6552,26.8375],[90.6841,26.8364],[90.7062,26.8221],[90.7098,26.8085],[90.733,26.81],[90.7541,26.8146],[90.7676,26.8139],[90.8013,26.8158],[90.8109,26.8281],[90.828,26.8372],[90.847,26.8357],[90.9184,26.8362],[90.9336,26.8424],[90.9455,26.8419],[90.9479,26.8334],[90.9375,26.8267],[90.9346,26.8172],[90.9551,26.8138],[90.9589,26.7953],[90.9511,26.7839],[90.8969,26.7786],[90.8707,26.7796],[90.8021,26.7741],[90.7659,26.7737],[90.741,26.775],[90.729,26.7684],[90.6999,26.768],[90.6794,26.7802],[90.6698,26.7807],[90.6491,26.7743],[90.6303,26.7917],[90.6015,26.7975],[90.5807,26.7976],[90.5599,26.801],[90.5488,26.8119],[90.5388,26.8163],[90.454,26.8724],[90.4221,26.8981],[90.4097,26.9019],[90.3551,26.8961],[90.3458,26.8764],[90.3117,26.8509],[90.2904,26.8485],[90.2443,26.8579],[90.2262,26.8582],[90.2148,26.8537],[90.1947,26.833],[90.184,26.8097],[90.183,26.7984],[90.1887,26.7706],[90.1278,26.749],[90.0552,26.7293],[90.0197,26.7305],[90.0021,26.7343],[90.0142,26.7491],[90.0192,26.7705],[90.0275,26.7596],[90.0423,26.7593],[90.0442,26.7922],[90.048,26.7995],[90.0349,26.8195],[90.0362,26.8245],[90.0498,26.822],[90.0572,26.816],[90.079,26.8212],[90.0815,26.837],[90.1029,26.8471],[90.1147,26.8405],[90.1234,26.8468],[90.1374,26.849],[90.1413,26.8796],[90.148,26.8979],[90.1692,26.9109],[90.1709,26.9207],[90.1786,26.9271],[90.2011,26.9364],[90.2022,26.9568],[90.2201,26.972],[90.2253,26.9812],[90.2323,26.9821],[90.2463,26.9983],[90.2497,27.0179],[90.2474,27.0358],[90.2551,27.0427],[90.2679,27.0479],[90.2689,27.0695],[90.2822,27.0829],[90.2792,27.0963],[90.2834,27.1067],[90.2959,27.1119],[90.3075,27.126],[90.3304,27.1387],[90.3392,27.1402],[90.3487,27.1359],[90.3551,27.1493],[90.3507,27.1624],[90.3368,27.1696],[90.3348,27.1867],[90.3531,27.1987],[90.362,27.2087],[90.384,27.1984],[90.3981,27.195],[90.4075,27.1845],[90.4312,27.1762],[90.443,27.1674],[90.4549,27.1524],[90.4701,27.1509],[90.4774,27.1375],[90.4914,27.1328],[90.5025,27.1361],[90.5203,27.1365],[90.5241,27.1293],[90.5385,27.1293]]]},"properties":{"name":"Sarpang","id":"BT-31","TYPE":"District","CNTRY":"Bhutan"},"id":"BT-31"},
{"type":"Feature","geometry":{"type":"Polygon","coordinates":[[[90.5081,27.748],[90.5205,27.7357],[90.5326,27.7399],[90.5491,27.7339],[90.5625,27.7165],[90.5694,27.7015],[90.5639,27.6948],[90.5732,27.6832],[90.5719,27.6713],[90.5648,27.6641],[90.5673,27.6514],[90.5544,27.6467],[90.5509,27.622],[90.551,27.6041],[90.563,27.6042],[90.5582,27.5913],[90.5614,27.5848],[90.5643,27.5612],[90.5744,27.5582],[90.5776,27.5321],[90.5861,27.5086],[90.5938,27.5005],[90.5921,27.4893],[90.5992,27.4755],[90.6014,27.4628],[90.5925,27.4551],[90.5995,27.4371],[90.6112,27.4287],[90.6385,27.4276],[90.6449,27.4153],[90.6933,27.4019],[90.7008,27.3907],[90.7128,27.3835],[90.7183,27.3728],[90.7371,27.3654],[90.7442,27.3556],[90.7539,27.3403],[90.7546,27.3317],[90.7492,27.3181],[90.7392,27.305],[90.732,27.2864],[90.7358,27.2763],[90.7332,27.2618],[90.7349,27.252],[90.7082,27.2339],[90.6559,27.2207],[90.628,27.2058],[90.636,27.193],[90.6508,27.176],[90.6554,27.1744],[90.6649,27.1575],[90.6505,27.1581],[90.6273,27.1513],[90.614,27.1535],[90.6022,27.1642],[90.5904,27.166],[90.5836,27.159],[90.5704,27.1568],[90.5695,27.1429],[90.5526,27.1433],[90.5431,27.1378],[90.5385,27.1293],[90.5241,27.1293],[90.5203,27.1365],[90.5025,27.1361],[90.4914,27.1328],[90.4774,27.1375],[90.4701,27.1509],[90.4549,27.1524],[90.443,27.1674],[90.4312,27.1762],[90.4075,27.1845],[90.3981,27.195],[90.384,27.1984],[90.362,27.2087],[90.3641,27.2173],[90.3846,27.2316],[90.3879,27.2464],[90.3869,27.259],[90.369,27.2684],[90.3723,27.2765],[90.3641,27.2923],[90.3678,27.2997],[90.3565,27.3114],[90.3356,27.3235],[90.3212,27.3371],[90.3212,27.346],[90.327,27.3525],[90.3149,27.3632],[90.3079,27.3753],[90.2942,27.3899],[90.2917,27.3964],[90.2974,27.4128],[90.2953,27.4233],[90.2776,27.4331],[90.2759,27.4474],[90.2825,27.4587],[90.3137,27.4606],[90.3252,27.4775],[90.3353,27.4824],[90.357,27.4836],[90.3619,27.488],[90.3764,27.4795],[90.3819,27.4882],[90.3979,27.4982],[90.3896,27.509],[90.3733,27.5081],[90.3631,27.5178],[90.3495,27.5448],[90.3413,27.5544],[90.3323,27.5839],[90.3248,27.5884],[90.3249,27.5984],[90.3455,27.6147],[90.3453,27.6302],[90.3504,27.6462],[90.3604,27.6544],[90.3795,27.6498],[90.393,27.651],[90.4103,27.6581],[90.418,27.6491],[90.4283,27.6471],[90.4594,27.6604],[90.4774,27.663],[90.4902,27.6712],[90.5045,27.7169],[90.5081,27.748]]]},"properties":{"name":"Trongsa","id":"BT-32","TYPE":"District","CNTRY":"Bhutan"},"id":"BT-32"},
{"type":"Feature","geometry":{"type":"Polygon","coordinates":[[[90.9627,27.3617],[90.9567,27.3495],[90.9399,27.3408],[90.9181,27.3435],[90.9128,27.3348],[90.8906,27.3347],[90.8649,27.3191],[90.8564,27.3266],[90.8368,27.3244],[90.8216,27.3386],[90.8176,27.35],[90.8056,27.3574],[90.7945,27.3688],[90.7845,27.3709],[90.7602,27.3681],[90.7442,27.3556],[90.7371,27.3654],[90.7183,27.3728],[90.7128,27.3835],[90.7008,27.3907],[90.6933,27.4019],[90.6449,27.4153],[90.6385,27.4276],[90.6112,27.4287],[90.5995,27.4371],[90.5925,27.4551],[90.6014,27.4628],[90.5992,27.4755],[90.5921,27.4893],[90.5938,27.5005],[90.5861,27.5086],[90.5776,27.5321],[90.5744,27.5582],[90.5643,27.5612],[90.5614,27.5848],[90.5582,27.5913],[90.563,27.6042],[90.551,27.6041],[90.5509,27.622],[90.5544,27.6467],[90.5673,27.6514],[90.5648,27.6641],[90.5719,27.6713],[90.5732,27.6832],[90.5639,27.6948],[90.5694,27.7015],[90.5625,27.7165],[90.5491,27.7339],[90.5326,27.7399],[90.5205,27.7357],[90.5081,27.748],[90.5084,27.7648],[90.4991,27.7741],[90.4979,27.7901],[90.5225,27.7963],[90.5292,27.8039],[90.5387,27.8285],[90.5391,27.8467],[90.5364,27.8737],[90.5294,27.8791],[90.5289,27.8982],[90.5171,27.9037],[90.5054,27.905],[90.5001,27.9296],[90.4925,27.935],[90.5042,27.9601],[90.5005,27.9894],[90.4849,28.0151],[90.4961,28.0273],[90.5113,28.0334],[90.5335,28.0266],[90.5451,28.0188],[90.5643,28.0138],[90.5759,28.0054],[90.579,27.9977],[90.5967,27.9909],[90.6105,28.0023],[90.6184,28.0133],[90.6409,28.0147],[90.6513,28.0232],[90.669,28.0289],[90.6844,28.0439],[90.6966,28.0492],[90.7113,28.0388],[90.725,28.0387],[90.7422,28.0237],[90.7737,28.0208],[90.7792,28.013],[90.7911,28.0185],[90.802,28.0153],[90.7988,28.0002],[90.7997,27.9884],[90.8071,27.9844],[90.8041,27.9684],[90.8092,27.9568],[90.8058,27.9414],[90.7851,27.9314],[90.7867,27.9203],[90.7755,27.9045],[90.794,27.8847],[90.8215,27.883],[90.8304,27.8772],[90.8289,27.8687],[90.8325,27.8558],[90.8465,27.8286],[90.8467,27.8181],[90.8414,27.8089],[90.8564,27.8033],[90.8682,27.7951],[90.879,27.776],[90.8953,27.7721],[90.9178,27.7616],[90.9204,27.7488],[90.9283,27.7428],[90.9266,27.732],[90.936,27.7128],[90.9256,27.7033],[90.9236,27.6933],[90.932,27.6897],[90.9527,27.6913],[90.9762,27.6737],[90.9925,27.6579],[90.9903,27.627],[91.013,27.6184],[90.9904,27.5934],[90.9894,27.5838],[90.9824,27.5761],[90.986,27.5691],[90.9813,27.5578],[90.9734,27.5502],[90.9891,27.5282],[90.9858,27.5236],[90.9878,27.5037],[90.9803,27.4953],[90.9829,27.4853],[91.0041,27.4757],[91.0157,27.4593],[90.9975,27.4275],[90.9827,27.4132],[90.9839,27.4062],[90.9979,27.3956],[91.0016,27.3829],[90.9983,27.3763],[90.9781,27.3768],[90.9627,27.3617]]]},"properties":{"name":"Bumthang","id":"BT-33","TYPE":"District","CNTRY":"Bhutan"},"id":"BT-33"},
{"type":"Feature","geometry":{"type":"Polygon","coordinates":[[[90.9511,26.7839],[90.9589,26.7953],[90.9551,26.8138],[90.9346,26.8172],[90.9375,26.8267],[90.9479,26.8334],[90.9455,26.8419],[90.9336,26.8424],[90.9184,26.8362],[90.847,26.8357],[90.828,26.8372],[90.8109,26.8281],[90.8013,26.8158],[90.7676,26.8139],[90.7541,26.8146],[90.733,26.81],[90.7098,26.8085],[90.7062,26.8221],[90.6841,26.8364],[90.6552,26.8375],[90.6406,26.8446],[90.627,26.8464],[90.6284,26.861],[90.6252,26.8707],[90.6295,26.8774],[90.6423,26.8846],[90.6434,26.8903],[90.6566,26.9013],[90.6652,26.9245],[90.6791,26.932],[90.693,26.951],[90.6854,26.977],[90.6964,26.9911],[90.6906,27.0072],[90.6939,27.0234],[90.6849,27.0266],[90.6801,27.0353],[90.6855,27.0553],[90.6698,27.07],[90.6588,27.0712],[90.6517,27.079],[90.6229,27.0662],[90.6035,27.0732],[90.5947,27.0858],[90.5806,27.081],[90.5667,27.0997],[90.5566,27.0996],[90.5546,27.1064],[90.5411,27.1134],[90.5385,27.1293],[90.5431,27.1378],[90.5526,27.1433],[90.5695,27.1429],[90.5704,27.1568],[90.5836,27.159],[90.5904,27.166],[90.6022,27.1642],[90.614,27.1535],[90.6273,27.1513],[90.6505,27.1581],[90.6649,27.1575],[90.6554,27.1744],[90.6508,27.176],[90.636,27.193],[90.628,27.2058],[90.6559,27.2207],[90.7082,27.2339],[90.7349,27.252],[90.7332,27.2618],[90.7358,27.2763],[90.732,27.2864],[90.7392,27.305],[90.7492,27.3181],[90.7546,27.3317],[90.7539,27.3403],[90.7442,27.3556],[90.7602,27.3681],[90.7845,27.3709],[90.7945,27.3688],[90.8056,27.3574],[90.8176,27.35],[90.8216,27.3386],[90.8368,27.3244],[90.8564,27.3266],[90.8649,27.3191],[90.8906,27.3347],[90.9128,27.3348],[90.9181,27.3435],[90.9399,27.3408],[90.9567,27.3495],[90.9627,27.3617],[90.9691,27.3456],[90.9693,27.3342],[90.9805,27.3287],[90.9799,27.3042],[90.9856,27.2997],[90.9859,27.286],[90.9931,27.2792],[90.9919,27.2665],[91.0191,27.247],[91.0175,27.2274],[91.0315,27.2116],[91.0283,27.2035],[91.0272,27.1771],[91.0092,27.1464],[91.0126,27.1358],[91.01,27.119],[91.0117,27.1111],[91.0203,27.1032],[91.0329,27.0993],[91.0393,27.0562],[91.0611,27.0495],[91.082,27.0478],[91.0927,27.0342],[91.0883,27.0227],[91.0914,27.0163],[91.088,27.0029],[91.095,26.9942],[91.0941,26.9809],[91.1093,26.9767],[91.1231,26.9774],[91.136,26.9696],[91.1379,26.9555],[91.1574,26.9452],[91.176,26.9328],[91.1653,26.9246],[91.1551,26.8976],[91.1586,26.8885],[91.1483,26.8804],[91.1316,26.8766],[91.12,26.8668],[91.1048,26.873],[91.0978,26.8795],[91.0828,26.8717],[91.0741,26.8735],[91.0436,26.8613],[91.0289,26.8641],[91.0128,26.8609],[91.0066,26.8487],[90.9994,26.8452],[91.0026,26.8355],[90.9942,26.8292],[91.0121,26.7856],[90.996,26.7883],[90.9511,26.7839]]]},"properties":{"name":"Zhemgang","id":"BT-34","TYPE":"District","CNTRY":"Bhutan"},"id":"BT-34"},
{"type":"Feature","geometry":{"type":"Polygon","coordinates":[[[92.044,27.1822],[92.0342,27.1854],[91.9949,27.1852],[91.9725,27.1946],[91.97,27.2053],[91.9612,27.2167],[91.9541,27.2411],[91.9382,27.2471],[91.9282,27.234],[91.9304,27.2228],[91.9276,27.2088],[91.9311,27.201],[91.9262,27.1685],[91.9278,27.1586],[91.9099,27.1641],[91.9001,27.1585],[91.8885,27.1618],[91.8588,27.1559],[91.8488,27.1499],[91.8337,27.1473],[91.8165,27.1334],[91.8033,27.1109],[91.7914,27.1015],[91.7816,27.0882],[91.7658,27.0842],[91.7525,27.0861],[91.7381,27.0775],[91.7282,27.0804],[91.7125,27.0723],[91.7023,27.0733],[91.6801,27.0657],[91.6674,27.055],[91.6473,27.0499],[91.636,27.0518],[91.6285,27.0581],[91.6152,27.0583],[91.6051,27.0624],[91.6011,27.0531],[91.591,27.0477],[91.5676,27.0421],[91.5521,27.0301],[91.5256,27.0215],[91.5239,27.0313],[91.5357,27.0381],[91.5496,27.0667],[91.5418,27.0735],[91.5271,27.0795],[91.5111,27.0752],[91.5082,27.0938],[91.5014,27.0967],[91.4968,27.1127],[91.481,27.128],[91.4789,27.1356],[91.4817,27.1494],[91.4694,27.1702],[91.4536,27.1757],[91.448,27.1645],[91.4137,27.1668],[91.3972,27.1611],[91.3799,27.1656],[91.3794,27.1738],[91.3848,27.1859],[91.3977,27.1903],[91.3935,27.205],[91.3972,27.209],[91.3941,27.2209],[91.3972,27.2297],[91.4156,27.2451],[91.4228,27.2585],[91.4444,27.264],[91.4486,27.2711],[91.4591,27.2731],[91.4654,27.2822],[91.4783,27.2852],[91.5007,27.3017],[91.5005,27.3164],[91.4888,27.3282],[91.4909,27.3373],[91.4764,27.3457],[91.4595,27.3464],[91.4417,27.3679],[91.4208,27.3747],[91.4313,27.3849],[91.4265,27.3983],[91.4362,27.4003],[91.4617,27.3951],[91.488,27.3816],[91.5031,27.3769],[91.529,27.3729],[91.5484,27.3629],[91.5585,27.3639],[91.5623,27.3705],[91.5857,27.3749],[91.6144,27.4061],[91.6467,27.4056],[91.6574,27.4101],[91.6681,27.4195],[91.6837,27.4201],[91.7276,27.4365],[91.7382,27.4329],[91.7538,27.4346],[91.763,27.4453],[91.7712,27.465],[91.8094,27.4726],[91.8285,27.469],[91.8491,27.4826],[91.863,27.4821],[91.8722,27.4728],[91.891,27.4732],[91.8985,27.4683],[91.9227,27.4713],[91.9394,27.4606],[91.9574,27.4579],[91.9668,27.4624],[91.9823,27.4624],[91.9883,27.4693],[91.9914,27.4813],[92.0174,27.484],[92.0198,27.4681],[92.0167,27.458],[92.0239,27.4416],[92.0388,27.4365],[92.0439,27.4253],[92.0421,27.4128],[92.0545,27.4001],[92.0461,27.3793],[92.0484,27.3583],[92.0602,27.3453],[92.0588,27.3272],[92.078,27.3103],[92.1026,27.3014],[92.1173,27.2928],[92.119,27.2759],[92.1016,27.2691],[92.095,27.273],[92.0831,27.2721],[92.07,27.2774],[92.0396,27.2667],[92.0399,27.2618],[92.0658,27.245],[92.0697,27.2236],[92.0573,27.2031],[92.0562,27.1896],[92.044,27.1822]]]},"properties":{"name":"Trashigang","id":"BT-41","TYPE":"District","CNTRY":"Bhutan"},"id":"BT-41"},
{"type":"Feature","geometry":{"type":"Polygon","coordinates":[[[91.3371,27.5816],[91.3435,27.5712],[91.3565,27.5622],[91.36,27.5444],[91.3773,27.5357],[91.3767,27.5258],[91.4016,27.5028],[91.4148,27.4821],[91.4284,27.4758],[91.433,27.4601],[91.4407,27.4536],[91.4433,27.4357],[91.4497,27.427],[91.4388,27.4184],[91.4265,27.3983],[91.4313,27.3849],[91.4208,27.3747],[91.4417,27.3679],[91.4595,27.3464],[91.4764,27.3457],[91.4909,27.3373],[91.4888,27.3282],[91.5005,27.3164],[91.5007,27.3017],[91.4783,27.2852],[91.4654,27.2822],[91.4591,27.2731],[91.4486,27.2711],[91.4444,27.264],[91.4228,27.2585],[91.4156,27.2451],[91.3972,27.2297],[91.3941,27.2209],[91.3972,27.209],[91.3935,27.205],[91.3977,27.1903],[91.3848,27.1859],[91.3794,27.1738],[91.3799,27.1656],[91.3749,27.1568],[91.3629,27.1467],[91.3632,27.1343],[91.3698,27.1186],[91.3538,27.1109],[91.3436,27.0854],[91.3453,27.0797],[91.3332,27.0736],[91.3134,27.0749],[91.2827,27.0558],[91.2671,27.0562],[91.2522,27.0499],[91.2365,27.0479],[91.2352,27.0378],[91.2229,27.0301],[91.2213,27.0181],[91.2138,27.0125],[91.2121,27.0014],[91.1922,26.9844],[91.1892,26.965],[91.1719,26.9563],[91.1713,26.944],[91.176,26.9328],[91.1574,26.9452],[91.1379,26.9555],[91.136,26.9696],[91.1231,26.9774],[91.1093,26.9767],[91.0941,26.9809],[91.095,26.9942],[91.088,27.0029],[91.0914,27.0163],[91.0883,27.0227],[91.0927,27.0342],[91.082,27.0478],[91.0611,27.0495],[91.0393,27.0562],[91.0329,27.0993],[91.0203,27.1032],[91.0117,27.1111],[91.01,27.119],[91.0126,27.1358],[91.0092,27.1464],[91.0272,27.1771],[91.0283,27.2035],[91.0315,27.2116],[91.0175,27.2274],[91.0191,27.247],[90.9919,27.2665],[90.9931,27.2792],[90.9859,27.286],[90.9856,27.2997],[90.9799,27.3042],[90.9805,27.3287],[90.9693,27.3342],[90.9691,27.3456],[90.9627,27.3617],[90.9781,27.3768],[90.9983,27.3763],[91.0016,27.3829],[91.0246,27.3804],[91.0461,27.3722],[91.0525,27.3732],[91.0576,27.3832],[91.0674,27.3854],[91.0847,27.403],[91.0967,27.4092],[91.1167,27.4251],[91.1327,27.4197],[91.1395,27.422],[91.1745,27.4161],[91.1808,27.3978],[91.1957,27.3814],[91.2122,27.3935],[91.2214,27.3946],[91.2352,27.4042],[91.2527,27.4085],[91.2654,27.4189],[91.2789,27.4206],[91.2952,27.449],[91.2965,27.4675],[91.2831,27.4809],[91.2793,27.4929],[91.2856,27.5063],[91.2976,27.5115],[91.3036,27.5201],[91.3313,27.5318],[91.3283,27.5438],[91.3213,27.5518],[91.3266,27.567],[91.3371,27.5816]]]},"properties":{"name":"Monggar","id":"BT-42","TYPE":"District","CNTRY":"Bhutan"},"id":"BT-42"},
{"type":"Feature","geometry":{"type":"Polygon","coordinates":[[[91.3799,27.1656],[91.3972,27.1611],[91.4137,27.1668],[91.448,27.1645],[91.4536,27.1757],[91.4694,27.1702],[91.4817,27.1494],[91.4789,27.1356],[91.481,27.128],[91.4968,27.1127],[91.5014,27.0967],[91.5082,27.0938],[91.5111,27.0752],[91.5271,27.0795],[91.5418,27.0735],[91.5496,27.0667],[91.5357,27.0381],[91.5239,27.0313],[91.5256,27.0215],[91.5126,27.0186],[91.5071,27.0268],[91.4981,27.0299],[91.4899,27.0262],[91.4803,27.0157],[91.4661,27.0166],[91.463,27.0009],[91.4385,26.9744],[91.4385,26.9523],[91.443,26.942],[91.4235,26.9123],[91.4112,26.9098],[91.3955,26.8918],[91.3961,26.8579],[91.385,26.8526],[91.3891,26.8444],[91.4083,26.8356],[91.4021,26.8351],[91.3796,26.8015],[91.3596,26.7895],[91.3363,26.7797],[91.2951,26.7852],[91.2623,26.805],[91.2369,26.8089],[91.2023,26.8087],[91.1803,26.8114],[91.1297,26.8085],[91.1058,26.8142],[91.0966,26.8198],[91.0891,26.8184],[91.0756,26.8005],[91.054,26.7795],[91.0415,26.779],[91.0121,26.7856],[90.9942,26.8292],[91.0026,26.8355],[90.9994,26.8452],[91.0066,26.8487],[91.0128,26.8609],[91.0289,26.8641],[91.0436,26.8613],[91.0741,26.8735],[91.0828,26.8717],[91.0978,26.8795],[91.1048,26.873],[91.12,26.8668],[91.1316,26.8766],[91.1483,26.8804],[91.1586,26.8885],[91.1551,26.8976],[91.1653,26.9246],[91.176,26.9328],[91.1713,26.944],[91.1719,26.9563],[91.1892,26.965],[91.1922,26.9844],[91.2121,27.0014],[91.2138,27.0125],[91.2213,27.0181],[91.2229,27.0301],[91.2352,27.0378],[91.2365,27.0479],[91.2522,27.0499],[91.2671,27.0562],[91.2827,27.0558],[91.3134,27.0749],[91.3332,27.0736],[91.3453,27.0797],[91.3436,27.0854],[91.3538,27.1109],[91.3698,27.1186],[91.3632,27.1343],[91.3629,27.1467],[91.3749,27.1568],[91.3799,27.1656]]]},"properties":{"name":"Pemagatshel","id":"BT-43","TYPE":"District","CNTRY":"Bhutan"},"id":"BT-43"},
{"type":"Feature","geometry":{"type":"Polygon","coordinates":[[[91.4648,27.9751],[91.45,27.962],[91.4297,27.9673],[91.419,27.9626],[91.4027,27.9358],[91.3863,27.9203],[91.3706,27.9189],[91.3617,27.899],[91.3672,27.8918],[91.3662,27.8628],[91.3594,27.8338],[91.3659,27.8135],[91.3668,27.7963],[91.3541,27.7711],[91.3596,27.7595],[91.358,27.7442],[91.3503,27.728],[91.3413,27.7177],[91.3429,27.7053],[91.3537,27.6851],[91.3513,27.6767],[91.342,27.6685],[91.349,27.6444],[91.3453,27.6232],[91.3524,27.6108],[91.3421,27.5962],[91.3371,27.5816],[91.3266,27.567],[91.3213,27.5518],[91.3283,27.5438],[91.3313,27.5318],[91.3036,27.5201],[91.2976,27.5115],[91.2856,27.5063],[91.2793,27.4929],[91.2831,27.4809],[91.2965,27.4675],[91.2952,27.449],[91.2789,27.4206],[91.2654,27.4189],[91.2527,27.4085],[91.2352,27.4042],[91.2214,27.3946],[91.2122,27.3935],[91.1957,27.3814],[91.1808,27.3978],[91.1745,27.4161],[91.1395,27.422],[91.1327,27.4197],[91.1167,27.4251],[91.0967,27.4092],[91.0847,27.403],[91.0674,27.3854],[91.0576,27.3832],[91.0525,27.3732],[91.0461,27.3722],[91.0246,27.3804],[91.0016,27.3829],[90.9979,27.3956],[90.9839,27.4062],[90.9827,27.4132],[90.9975,27.4275],[91.0157,27.4593],[91.0041,27.4757],[90.9829,27.4853],[90.9803,27.4953],[90.9878,27.5037],[90.9858,27.5236],[90.9891,27.5282],[90.9734,27.5502],[90.9813,27.5578],[90.986,27.5691],[90.9824,27.5761],[90.9894,27.5838],[90.9904,27.5934],[91.013,27.6184],[90.9903,27.627],[90.9925,27.6579],[90.9762,27.6737],[90.9527,27.6913],[90.932,27.6897],[90.9236,27.6933],[90.9256,27.7033],[90.936,27.7128],[90.9266,27.732],[90.9283,27.7428],[90.9204,27.7488],[90.9178,27.7616],[90.8953,27.7721],[90.879,27.776],[90.8682,27.7951],[90.8564,27.8033],[90.8414,27.8089],[90.8467,27.8181],[90.8465,27.8286],[90.8325,27.8558],[90.8289,27.8687],[90.8304,27.8772],[90.8215,27.883],[90.794,27.8847],[90.7755,27.9045],[90.7867,27.9203],[90.7851,27.9314],[90.8058,27.9414],[90.8092,27.9568],[90.8041,27.9684],[90.8071,27.9844],[90.7997,27.9884],[90.7988,28.0002],[90.802,28.0153],[90.7911,28.0185],[90.8026,28.0415],[90.8112,28.0448],[90.8291,28.0374],[90.8276,28.0264],[90.8404,28.0213],[90.8594,28.0243],[90.8963,28.0121],[90.896,28.0002],[90.9156,28.0014],[90.9195,28.0157],[90.9311,28.0169],[90.9501,28.0041],[90.9567,27.988],[90.9724,27.9761],[90.9828,27.9779],[90.9929,27.9978],[91.0213,28.0001],[91.0305,27.9869],[91.0454,27.9835],[91.0503,27.972],[91.0684,27.9711],[91.0694,27.9807],[91.0913,27.9763],[91.097,27.979],[91.1075,27.9713],[91.1229,27.9746],[91.1409,27.9724],[91.1561,27.9644],[91.1751,27.9736],[91.1852,27.9685],[91.1989,27.9679],[91.2284,27.9861],[91.2373,27.9962],[91.2427,27.9953],[91.2534,28.0051],[91.2733,28.0114],[91.2766,28.0203],[91.2944,28.0411],[91.3013,28.0584],[91.3129,28.0572],[91.3245,28.0607],[91.3301,28.0572],[91.3328,28.0423],[91.3521,28.0417],[91.3735,28.0238],[91.3872,28.0236],[91.3964,28.014],[91.4134,28.0128],[91.4303,28.0045],[91.4509,28.0036],[91.4604,27.9777],[91.4648,27.9751]]]},"properties":{"name":"Lhuentse","id":"BT-44","TYPE":"District","CNTRY":"Bhutan"},"id":"BT-44"},
{"type":"Feature","geometry":{"type":"Polygon","coordinates":[[[91.5256,27.0215],[91.5521,27.0301],[91.5676,27.0421],[91.591,27.0477],[91.6011,27.0531],[91.6051,27.0624],[91.6152,27.0583],[91.6285,27.0581],[91.636,27.0518],[91.6473,27.0499],[91.6674,27.055],[91.6801,27.0657],[91.7023,27.0733],[91.7125,27.0723],[91.7282,27.0804],[91.7381,27.0775],[91.7525,27.0861],[91.7658,27.0842],[91.7816,27.0882],[91.7914,27.1015],[91.8033,27.1109],[91.8165,27.1334],[91.8337,27.1473],[91.8488,27.1499],[91.8588,27.1559],[91.8885,27.1618],[91.9001,27.1585],[91.9099,27.1641],[91.9278,27.1586],[91.9262,27.1685],[91.9311,27.201],[91.9276,27.2088],[91.9304,27.2228],[91.9282,27.234],[91.9382,27.2471],[91.9541,27.2411],[91.9612,27.2167],[91.97,27.2053],[91.9725,27.1946],[91.9949,27.1852],[92.0342,27.1854],[92.044,27.1822],[92.0311,27.1725],[92.0308,27.1638],[92.038,27.1363],[92.0362,27.1272],[92.0264,27.1101],[92.0344,27.0949],[92.0341,27.0845],[92.0399,27.0636],[92.0499,27.0549],[92.0601,27.0547],[92.0853,27.0427],[92.0813,27.0306],[92.0824,27.0211],[92.1067,27.0094],[92.1097,26.9812],[92.1247,26.9716],[92.1255,26.9576],[92.1184,26.952],[92.1223,26.9395],[92.119,26.9181],[92.1241,26.9086],[92.119,26.8937],[92.1059,26.8809],[92.1059,26.866],[92.1006,26.8619],[92.0601,26.8449],[92.0458,26.8443],[92.0291,26.85],[91.9942,26.8552],[91.9728,26.8669],[91.9599,26.8776],[91.954,26.8877],[91.942,26.8949],[91.8973,26.9161],[91.8889,26.9165],[91.8535,26.9123],[91.8319,26.8764],[91.802,26.8521],[91.7269,26.8126],[91.6972,26.8119],[91.6873,26.8051],[91.6793,26.8048],[91.6536,26.8151],[91.6238,26.8213],[91.5908,26.8048],[91.4928,26.7898],[91.4782,26.7918],[91.4083,26.8356],[91.3891,26.8444],[91.385,26.8526],[91.3961,26.8579],[91.3955,26.8918],[91.4112,26.9098],[91.4235,26.9123],[91.443,26.942],[91.4385,26.9523],[91.4385,26.9744],[91.463,27.0009],[91.4661,27.0166],[91.4803,27.0157],[91.4899,27.0262],[91.4981,27.0299],[91.5071,27.0268],[91.5126,27.0186],[91.5256,27.0215]]]},"properties":{"name":"Samdrup Jongkhar","id":"BT-45","TYPE":"District","CNTRY":"Bhutan"},"id":"BT-45"},
{"type":"Feature","geometry":{"type":"Polygon","coordinates":[[[90.0447,27.7684],[90.0244,27.7717],[90.0181,27.78],[89.9995,27.7851],[89.9826,27.7936],[89.9688,27.7943],[89.9398,27.8174],[89.9288,27.8195],[89.9086,27.8085],[89.8836,27.8072],[89.867,27.7996],[89.8478,27.7663],[89.8342,27.7588],[89.8289,27.7485],[89.8144,27.741],[89.8077,27.7249],[89.7939,27.7179],[89.7858,27.7325],[89.7751,27.7383],[89.7645,27.7326],[89.7534,27.7152],[89.7446,27.7124],[89.7491,27.7031],[89.7333,27.6944],[89.7173,27.695],[89.7086,27.6918],[89.6819,27.7007],[89.6715,27.6966],[89.6556,27.6985],[89.6475,27.6865],[89.642,27.6907],[89.6143,27.6959],[89.6015,27.7069],[89.6045,27.7146],[89.5927,27.7348],[89.5921,27.7458],[89.5655,27.7457],[89.5549,27.7353],[89.5524,27.7255],[89.5453,27.7182],[89.5331,27.7233],[89.5239,27.7376],[89.5317,27.7491],[89.5315,27.7696],[89.5369,27.7743],[89.5358,27.7899],[89.5285,27.8018],[89.5512,27.8231],[89.552,27.8285],[89.5681,27.8383],[89.5751,27.8533],[89.5857,27.8587],[89.6004,27.8605],[89.603,27.8673],[89.5861,27.874],[89.5694,27.8761],[89.5554,27.8826],[89.545,27.8914],[89.541,27.9011],[89.5442,27.9262],[89.5348,27.945],[89.5128,27.9488],[89.5031,27.9535],[89.4923,27.9667],[89.4746,27.9681],[89.4623,27.9738],[89.4661,27.9789],[89.4817,27.9852],[89.482,27.9925],[89.4714,28.0033],[89.4744,28.0114],[89.4857,28.0157],[89.4863,28.0227],[89.4944,28.0345],[89.5162,28.0532],[89.5198,28.0692],[89.5428,28.0624],[89.5494,28.0649],[89.5624,28.0779],[89.5627,28.0909],[89.5831,28.0999],[89.5949,28.1182],[89.6048,28.1272],[89.6072,28.1425],[89.6236,28.1486],[89.6367,28.1436],[89.6508,28.1536],[89.6626,28.1468],[89.6811,28.1527],[89.6944,28.164],[89.7202,28.1577],[89.7327,28.1504],[89.7447,28.1576],[89.7469,28.1717],[89.7532,28.173],[89.7662,28.1651],[89.782,28.1757],[89.786,28.1892],[89.7803,28.2051],[89.7986,28.2151],[89.8054,28.2314],[89.8142,28.2295],[89.8165,28.2215],[89.8365,28.2225],[89.8486,28.2069],[89.8728,28.2109],[89.882,28.201],[89.8877,28.1869],[89.8991,28.1768],[89.9073,28.1603],[89.9198,28.158],[89.9301,28.1643],[89.9507,28.1654],[89.9507,28.1456],[89.9587,28.1468],[89.9702,28.1641],[89.9898,28.1664],[90.0014,28.1588],[90.008,28.1479],[90.0318,28.1372],[90.0374,28.1188],[90.0494,28.1091],[90.0556,28.1119],[90.0613,28.1232],[90.0693,28.1296],[90.0945,28.1285],[90.1145,28.1076],[90.1294,28.1076],[90.1334,28.1216],[90.126,28.1357],[90.1338,28.1529],[90.1256,28.1677],[90.1353,28.1707],[90.1737,28.1635],[90.1874,28.1559],[90.1968,28.1451],[90.1952,28.1338],[90.2095,28.1253],[90.2445,28.1129],[90.2634,28.1131],[90.2761,28.1285],[90.2991,28.1298],[90.3027,28.1275],[90.3117,28.0986],[90.3166,28.0957],[90.3379,28.0935],[90.3535,28.0747],[90.3688,28.0642],[90.3764,28.0341],[90.3804,28.0282],[90.395,28.0263],[90.4093,28.0358],[90.4209,28.0314],[90.4316,28.0332],[90.4577,28.0233],[90.4639,28.0151],[90.4553,27.9973],[90.4431,27.9889],[90.4333,27.972],[90.4278,27.9702],[90.399,27.971],[90.3874,27.9618],[90.3873,27.9426],[90.3939,27.9298],[90.3881,27.9213],[90.3958,27.9067],[90.3934,27.8953],[90.3981,27.8802],[90.3908,27.8675],[90.3762,27.8727],[90.3658,27.8653],[90.3579,27.87],[90.3391,27.8724],[90.3289,27.8596],[90.3195,27.8584],[90.3094,27.867],[90.2988,27.8696],[90.2771,27.9104],[90.2819,27.9276],[90.2731,27.9376],[90.2554,27.9489],[90.2481,27.9448],[90.2257,27.9408],[90.2054,27.9415],[90.194,27.9341],[90.1901,27.9132],[90.1756,27.8884],[90.144,27.8502],[90.1341,27.8251],[90.1107,27.8057],[90.0848,27.8117],[90.0494,27.8043],[90.0452,27.7955],[90.0472,27.7825],[90.0447,27.7684]]]},"properties":{"name":"Gasa","id":"BT-GA","TYPE":"District","CNTRY":"Bhutan"},"id":"BT-GA"},
{"type":"Feature","geometry":{"type":"Polygon","coordinates":[[[91.7712,27.465],[91.763,27.4453],[91.7538,27.4346],[91.7382,27.4329],[91.7276,27.4365],[91.6837,27.4201],[91.6681,27.4195],[91.6574,27.4101],[91.6467,27.4056],[91.6144,27.4061],[91.5857,27.3749],[91.5623,27.3705],[91.5585,27.3639],[91.5484,27.3629],[91.529,27.3729],[91.5031,27.3769],[91.488,27.3816],[91.4617,27.3951],[91.4362,27.4003],[91.4265,27.3983],[91.4388,27.4184],[91.4497,27.427],[91.4433,27.4357],[91.4407,27.4536],[91.433,27.4601],[91.4284,27.4758],[91.4148,27.4821],[91.4016,27.5028],[91.3767,27.5258],[91.3773,27.5357],[91.36,27.5444],[91.3565,27.5622],[91.3435,27.5712],[91.3371,27.5816],[91.3421,27.5962],[91.3524,27.6108],[91.3453,27.6232],[91.349,27.6444],[91.342,27.6685],[91.3513,27.6767],[91.3537,27.6851],[91.3429,27.7053],[91.3413,27.7177],[91.3503,27.728],[91.358,27.7442],[91.3596,27.7595],[91.3541,27.7711],[91.3668,27.7963],[91.3659,27.8135],[91.3594,27.8338],[91.3662,27.8628],[91.3672,27.8918],[91.3617,27.899],[91.3706,27.9189],[91.3863,27.9203],[91.4027,27.9358],[91.419,27.9626],[91.4297,27.9673],[91.45,27.962],[91.4648,27.9751],[91.4711,27.9736],[91.4796,27.9592],[91.4738,27.94],[91.4792,27.9335],[91.4945,27.9307],[91.5174,27.916],[91.5345,27.9132],[91.5381,27.8993],[91.5438,27.8911],[91.5574,27.8914],[91.5674,27.8993],[91.5823,27.9],[91.598,27.8903],[91.6113,27.8896],[91.6134,27.8821],[91.6077,27.8607],[91.6012,27.8542],[91.5864,27.8544],[91.5697,27.8607],[91.5583,27.8501],[91.545,27.8503],[91.5655,27.8153],[91.573,27.8127],[91.5841,27.8188],[91.5988,27.8209],[91.6282,27.8008],[91.6311,27.7716],[91.6396,27.7652],[91.64,27.758],[91.6296,27.747],[91.6317,27.7273],[91.6211,27.6918],[91.5984,27.6808],[91.5855,27.6609],[91.5668,27.6525],[91.5577,27.6335],[91.5549,27.6208],[91.5745,27.5999],[91.5594,27.5806],[91.5654,27.5692],[91.5768,27.5606],[91.5764,27.5498],[91.5917,27.5375],[91.6073,27.5392],[91.608,27.5307],[91.6147,27.5185],[91.6441,27.499],[91.6474,27.4847],[91.6532,27.483],[91.6675,27.4908],[91.6811,27.4919],[91.6921,27.5013],[91.7106,27.4912],[91.7138,27.4736],[91.7218,27.4674],[91.7342,27.4647],[91.7506,27.4717],[91.7683,27.4742],[91.7712,27.465]]]},"properties":{"name":"Trashi Yangtse","id":"BT-TY","TYPE":"District","CNTRY":"Bhutan"},"id":"BT-TY"}
]}