{"type":"FeatureCollection", "features": [
{"type":"Feature","geometry":{"type":"Polygon","coordinates":[[[-66.7846,-15.6995],[-67.1207,-15.3733],[-67.1281,-15.2655],[-67.2674,-15.0354],[-67.2868,-15.0164],[-67.3592,-15.0155],[-67.4138,-14.9782],[-67.4343,-14.8926],[-67.4147,-14.8],[-67.4222,-14.7532],[-67.5163,-14.6603],[-67.5449,-14.5745],[-67.5425,-14.458],[-67.5611,-14.3072],[-67.5232,-14.205],[-67.5389,-14.0072],[-67.4989,-13.7755],[-67.4705,-13.7047],[-67.4389,-13.6901],[-67.3492,-13.5697],[-67.3795,-13.5312],[-67.4018,-13.4142],[-67.3297,-13.2935],[-67.2859,-13.2704],[-67.1533,-13.1072],[-67.0529,-13.028],[-66.9614,-12.7342],[-66.9379,-12.6286],[-66.9533,-12.5547],[-66.9429,-12.3965],[-66.9305,-12.381],[-66.9011,-12.3374],[-66.9145,-12.2767],[-66.9008,-12.1853],[-66.8679,-12.0567],[-66.8979,-11.9647],[-66.9306,-11.9067],[-66.9139,-11.7489],[-66.9011,-11.7272],[-66.765,-11.6839],[-66.7147,-11.6414],[-66.7232,-11.5785],[-66.7006,-11.4747],[-66.6802,-11.444],[-66.6122,-11.4292],[-66.4605,-11.4308],[-66.3219,-11.3556],[-66.2717,-11.2932],[-66.2741,-11.2667],[-66.1625,-11.1075],[-66.0795,-10.9675],[-66.0479,-10.8693],[-66.0997,-10.853],[-66.0232,-10.7939],[-65.934,-10.8057],[-65.7649,-10.6893],[-65.6583,-10.5675],[-65.529,-10.4894],[-65.4574,-10.4036],[-65.3958,-10.3936],[-65.4024,-10.4422],[-65.442,-10.4735],[-65.4381,-10.6188],[-65.39,-10.7558],[-65.3158,-10.8808],[-65.3027,-10.9855],[-65.4019,-11.1697],[-65.3907,-11.2747],[-65.3103,-11.4941],[-65.2229,-11.5187],[-65.1695,-11.6147],[-65.2092,-11.7117],[-65.1917,-11.752],[-65.1495,-11.7722],[-65.1184,-11.6989],[-65.0624,-11.7549],[-65.0433,-11.8097],[-65.017,-11.97],[-64.9843,-12.0111],[-64.8096,-12.0286],[-64.7911,-12.0415],[-64.7386,-12.1501],[-64.6177,-12.211],[-64.5165,-12.2422],[-64.4969,-12.3662],[-64.4214,-12.4411],[-64.3731,-12.4683],[-64.2933,-12.4821],[-64.1764,-12.4855],[-64.0395,-12.518],[-64.02,-12.5371],[-63.928,-12.5473],[-63.8706,-12.4939],[-63.7975,-12.46],[-63.672,-12.4705],[-63.4714,-12.5704],[-63.4156,-12.6539],[-63.3249,-12.7042],[-63.2471,-12.7058],[-63.1334,-12.6359],[-63.0671,-12.6599],[-63.0492,-12.7475],[-62.9942,-12.8393],[-62.8967,-12.9003],[-62.7697,-13.0058],[-62.6883,-12.9686],[-62.6455,-13.0324],[-62.3847,-13.1458],[-62.2685,-13.1409],[-62.2137,-13.121],[-62.1137,-13.1537],[-62.0856,-13.2714],[-62.0025,-13.3622],[-61.8742,-13.4539],[-61.8403,-13.5387],[-61.8101,-13.5487],[-61.5935,-13.5072],[-63.5872,-14.6286],[-63.9693,-14.7322],[-63.935,-14.8519],[-63.9558,-15.0742],[-63.9333,-15.1522],[-63.8668,-15.2954],[-63.6767,-15.5786],[-63.625,-15.628],[-63.4864,-15.7004],[-63.4431,-15.7641],[-63.3739,-15.8975],[-63.4022,-15.9139],[-64.5022,-15.8703],[-64.6036,-15.8639],[-64.6836,-15.8462],[-64.7828,-15.8636],[-65.1878,-15.9092],[-65.2765,-16.0815],[-65.2672,-16.1189],[-65.3172,-16.2653],[-65.3542,-16.3212],[-65.4425,-16.3656],[-65.8036,-16.4667],[-65.8756,-16.4678],[-65.9956,-16.4444],[-66.0931,-16.4108],[-66.24,-16.3178],[-66.4364,-16.1078],[-66.465,-16.069],[-66.4972,-15.9804],[-66.5433,-15.9244],[-66.7846,-15.6995]]]},"properties":{"name":"El Beni","id":"BO-B","CNTRY":"Bolivia","TYPE":"Department"},"id":"BO-B"},
{"type":"Feature","geometry":{"type":"Polygon","coordinates":[[[-66.625,-17.9914],[-66.7035,-17.8205],[-66.8042,-17.6922],[-66.8592,-17.6414],[-66.9901,-17.5514],[-66.8321,-17.4717],[-66.8931,-17.1754],[-67.0257,-16.9844],[-66.9471,-16.8357],[-66.7872,-16.8122],[-66.7506,-16.761],[-66.7258,-16.581],[-66.7572,-16.5242],[-66.7872,-16.2999],[-66.8806,-16.1286],[-66.9133,-16.0935],[-66.9182,-15.8319],[-66.8656,-15.7596],[-66.7846,-15.6995],[-66.5433,-15.9244],[-66.4972,-15.9804],[-66.465,-16.069],[-66.4364,-16.1078],[-66.24,-16.3178],[-66.0931,-16.4108],[-65.9956,-16.4444],[-65.8756,-16.4678],[-65.8036,-16.4667],[-65.4425,-16.3656],[-65.3542,-16.3212],[-65.3172,-16.2653],[-65.2672,-16.1189],[-65.2765,-16.0815],[-65.1878,-15.9092],[-64.7828,-15.8636],[-64.6836,-15.8462],[-64.7067,-15.9125],[-64.7,-15.9967],[-64.6597,-16.1575],[-64.6392,-16.37],[-64.6992,-16.5346],[-64.7469,-16.6122],[-64.785,-16.7044],[-64.7692,-16.826],[-64.6971,-16.9647],[-64.3889,-17.1583],[-64.3394,-17.1964],[-64.226,-17.3289],[-64.2203,-17.4203],[-64.3424,-17.4209],[-64.4017,-17.4638],[-64.4169,-17.5408],[-64.5775,-17.7647],[-64.7029,-17.8775],[-64.7079,-17.9333],[-64.6356,-18.01],[-64.4808,-18.251],[-64.4264,-18.4167],[-64.3042,-18.4999],[-64.2927,-18.5961],[-64.3434,-18.6657],[-64.3758,-18.6108],[-64.4167,-18.613],[-64.4549,-18.6521],[-64.5539,-18.6728],[-64.6272,-18.6347],[-64.6922,-18.5364],[-64.8082,-18.4961],[-64.8742,-18.4949],[-64.9254,-18.5171],[-65.0231,-18.5856],[-65.0582,-18.6237],[-65.0513,-18.6765],[-65.243,-18.5817],[-65.2538,-18.5346],[-65.3476,-18.4233],[-65.4778,-18.3267],[-65.565,-18.2347],[-65.6422,-18.1361],[-65.707,-18.0772],[-65.8075,-18.0072],[-65.8775,-17.9755],[-65.9322,-17.9874],[-66.019,-17.8714],[-66.0981,-17.853],[-66.1844,-17.8705],[-66.3425,-17.9869],[-66.4558,-17.9831],[-66.625,-17.9914]]]},"properties":{"name":"Cochabamba","id":"BO-C","CNTRY":"Bolivia","TYPE":"Department"},"id":"BO-C"},
{"type":"Feature","geometry":{"type":"Polygon","coordinates":[[[-65.2366,-21.5369],[-65.3314,-21.4636],[-65.4491,-21.3517],[-65.4783,-21.2675],[-65.4704,-21.0843],[-65.4395,-20.9961],[-65.4267,-20.8495],[-65.3756,-20.7111],[-65.3114,-20.5883],[-65.2962,-20.5339],[-65.3671,-20.2667],[-65.3703,-20.2092],[-65.3208,-20.0439],[-65.2286,-19.9911],[-65.0378,-19.9632],[-64.8967,-19.8897],[-64.7879,-19.7889],[-64.7357,-19.7166],[-64.802,-19.6223],[-64.8297,-19.532],[-64.826,-19.4885],[-64.861,-19.4076],[-64.9176,-19.361],[-64.993,-19.3551],[-65.0474,-19.3801],[-65.1452,-19.3759],[-65.3009,-19.3082],[-65.3805,-19.2573],[-65.39,-19.2266],[-65.5181,-19.0794],[-65.5399,-19.016],[-65.4989,-18.9369],[-65.5077,-18.8151],[-65.4289,-18.7425],[-65.4425,-18.6849],[-65.6075,-18.658],[-65.632,-18.5286],[-65.6725,-18.4361],[-65.6645,-18.3581],[-65.4528,-18.4075],[-65.3706,-18.4331],[-65.3476,-18.4233],[-65.2538,-18.5346],[-65.243,-18.5817],[-65.0513,-18.6765],[-65.0582,-18.6237],[-65.0231,-18.5856],[-64.9254,-18.5171],[-64.8742,-18.4949],[-64.8082,-18.4961],[-64.6922,-18.5364],[-64.6272,-18.6347],[-64.5539,-18.6728],[-64.4549,-18.6521],[-64.4167,-18.613],[-64.3758,-18.6108],[-64.3434,-18.6657],[-64.3183,-18.681],[-64.3158,-18.7472],[-64.2817,-18.8289],[-64.0475,-19.0805],[-64.0054,-19.1687],[-63.9395,-19.1726],[-63.9067,-19.1314],[-63.8858,-19.0422],[-63.7413,-19.0441],[-63.7686,-19.2542],[-63.7308,-19.7397],[-63.7292,-19.9468],[-63.6986,-20.0256],[-63.6749,-20.4369],[-63.6583,-20.4498],[-63.507,-20.462],[-63.4183,-20.4058],[-63.2899,-20.4751],[-62.1988,-20.4714],[-62.2694,-20.5622],[-62.2611,-21.0005],[-63.03,-21.0036],[-63.9766,-20.9976],[-64.0697,-20.918],[-64.1747,-20.8917],[-64.1833,-21.0236],[-64.1991,-21.1103],[-64.2328,-21.1444],[-64.3639,-21.1354],[-64.4947,-21.0858],[-64.6463,-20.9422],[-64.7137,-20.9308],[-64.7506,-20.9855],[-64.7799,-21.082],[-64.832,-21.0922],[-64.9125,-21.0336],[-65.0781,-20.9542],[-65.1601,-20.9451],[-65.1753,-20.9743],[-65.2366,-21.5369]]]},"properties":{"name":"Chuquisaca","id":"BO-H","CNTRY":"Bolivia","TYPE":"Department"},"id":"BO-H"},
{"type":"Feature","geometry":{"type":"Polygon","coordinates":[[[-66.7846,-15.6995],[-66.8656,-15.7596],[-66.9182,-15.8319],[-66.9133,-16.0935],[-66.8806,-16.1286],[-66.7872,-16.2999],[-66.7572,-16.5242],[-66.7258,-16.581],[-66.7506,-16.761],[-66.7872,-16.8122],[-66.9471,-16.8357],[-67.0257,-16.9844],[-66.8931,-17.1754],[-66.8321,-17.4717],[-66.9901,-17.5514],[-67.0436,-17.4958],[-67.0858,-17.4271],[-67.1395,-17.3999],[-67.3025,-17.4453],[-67.4422,-17.5232],[-67.5581,-17.6086],[-67.7539,-17.7294],[-67.7335,-17.8192],[-67.7515,-17.8512],[-67.8117,-17.8593],[-68.0171,-17.7124],[-68.1936,-17.6457],[-68.3356,-17.6433],[-68.4592,-17.6547],[-68.5878,-17.718],[-68.7028,-17.8536],[-68.8197,-17.9428],[-68.8811,-17.9725],[-69.0026,-18.0026],[-69.0749,-18.0379],[-69.1336,-18.0289],[-69.2912,-17.9795],[-69.3153,-17.9269],[-69.3187,-17.8251],[-69.3556,-17.7455],[-69.4872,-17.6329],[-69.4997,-17.5053],[-69.5011,-17.3789],[-69.5908,-17.2953],[-69.6562,-17.2872],[-69.6189,-17.2147],[-69.5315,-17.1299],[-69.4064,-17.0722],[-69.3207,-16.9263],[-69.1919,-16.778],[-69.1076,-16.7116],[-69.0124,-16.657],[-69.0414,-16.5476],[-69.0342,-16.473],[-68.9909,-16.4197],[-68.8333,-16.354],[-68.8385,-16.2984],[-68.8929,-16.2836],[-68.9682,-16.2091],[-69.0447,-16.2078],[-69.0707,-16.2276],[-69.14,-16.2222],[-69.2138,-16.1572],[-69.421,-15.6215],[-69.3325,-15.4389],[-69.2683,-15.3269],[-69.196,-15.2617],[-69.1371,-15.2276],[-69.1978,-15.1586],[-69.295,-15.0794],[-69.3814,-14.9648],[-69.3648,-14.8006],[-69.3106,-14.7669],[-69.2489,-14.6875],[-69.2354,-14.5889],[-68.9842,-14.3781],[-68.9998,-14.336],[-69.0024,-14.2488],[-68.9864,-14.2317],[-68.8579,-14.2001],[-68.8986,-14.0318],[-68.9751,-13.9662],[-69.0142,-13.7911],[-69.0628,-13.7078],[-68.9792,-13.5661],[-68.9613,-13.5068],[-68.9606,-13.2725],[-68.9683,-13.1661],[-68.9633,-13.0267],[-68.9733,-13.0019],[-68.9733,-12.8655],[-68.8795,-12.7575],[-68.8156,-12.733],[-68.7436,-12.5847],[-68.6739,-12.5011],[-68.6386,-12.4986],[-68.4777,-12.4188],[-68.437,-12.3544],[-68.407,-12.2661],[-68.2957,-12.189],[-68.2869,-12.0776],[-68.2625,-12.0315],[-68.2189,-12.0083],[-68.0428,-11.9553],[-67.9816,-11.9013],[-67.2339,-12.2311],[-66.9305,-12.381],[-66.9429,-12.3965],[-66.9533,-12.5547],[-66.9379,-12.6286],[-66.9614,-12.7342],[-67.0529,-13.028],[-67.1533,-13.1072],[-67.2859,-13.2704],[-67.3297,-13.2935],[-67.4018,-13.4142],[-67.3795,-13.5312],[-67.3492,-13.5697],[-67.4389,-13.6901],[-67.4705,-13.7047],[-67.4989,-13.7755],[-67.5389,-14.0072],[-67.5232,-14.205],[-67.5611,-14.3072],[-67.5425,-14.458],[-67.5449,-14.5745],[-67.5163,-14.6603],[-67.4222,-14.7532],[-67.4147,-14.8],[-67.4343,-14.8926],[-67.4138,-14.9782],[-67.3592,-15.0155],[-67.2868,-15.0164],[-67.2674,-15.0354],[-67.1281,-15.2655],[-67.1207,-15.3733],[-66.7846,-15.6995]]]},"properties":{"name":"La Paz","id":"BO-L","CNTRY":"Bolivia","TYPE":"Department"},"id":"BO-L"},
{"type":"Feature","geometry":{"type":"Polygon","coordinates":[[[-68.6739,-12.5011],[-68.9253,-11.9983],[-69.5684,-10.9511],[-69.4122,-10.9378],[-69.0761,-10.9672],[-68.8489,-11.0161],[-68.7618,-11.0033],[-68.7667,-11.1371],[-68.7006,-11.1347],[-68.5765,-11.1031],[-68.5226,-11.0593],[-68.2809,-10.9797],[-68.1246,-10.7593],[-68.102,-10.7053],[-68.0176,-10.6603],[-67.8658,-10.6569],[-67.8175,-10.6653],[-67.7424,-10.7129],[-67.7033,-10.6947],[-67.675,-10.62],[-67.5825,-10.5044],[-67.4494,-10.4417],[-67.3267,-10.359],[-67.3233,-10.3235],[-67.2254,-10.3119],[-67.1832,-10.3237],[-67.077,-10.2687],[-66.8938,-10.0915],[-66.7603,-9.9908],[-66.6592,-9.9485],[-66.6305,-9.9058],[-66.4793,-9.8818],[-66.4371,-9.8886],[-66.175,-9.7972],[-66.0776,-9.7755],[-65.972,-9.7797],[-65.7458,-9.7705],[-65.606,-9.8349],[-65.5693,-9.8351],[-65.5157,-9.774],[-65.5122,-9.7414],[-65.4423,-9.6792],[-65.3769,-9.7033],[-65.3018,-9.8421],[-65.3365,-9.9471],[-65.3304,-10.0439],[-65.3038,-10.1008],[-65.2892,-10.2178],[-65.3115,-10.2888],[-65.3782,-10.3549],[-65.3958,-10.3936],[-65.4574,-10.4036],[-65.529,-10.4894],[-65.6583,-10.5675],[-65.7649,-10.6893],[-65.934,-10.8057],[-66.0232,-10.7939],[-66.0997,-10.853],[-66.0479,-10.8693],[-66.0795,-10.9675],[-66.1625,-11.1075],[-66.2741,-11.2667],[-66.2717,-11.2932],[-66.3219,-11.3556],[-66.4605,-11.4308],[-66.6122,-11.4292],[-66.6802,-11.444],[-66.7006,-11.4747],[-66.7232,-11.5785],[-66.7147,-11.6414],[-66.765,-11.6839],[-66.9011,-11.7272],[-66.9139,-11.7489],[-66.9306,-11.9067],[-66.8979,-11.9647],[-66.8679,-12.0567],[-66.9008,-12.1853],[-66.9145,-12.2767],[-66.9011,-12.3374],[-66.9305,-12.381],[-67.2339,-12.2311],[-67.9816,-11.9013],[-68.0428,-11.9553],[-68.2189,-12.0083],[-68.2625,-12.0315],[-68.2869,-12.0776],[-68.2957,-12.189],[-68.407,-12.2661],[-68.437,-12.3544],[-68.4777,-12.4188],[-68.6386,-12.4986],[-68.6739,-12.5011]]]},"properties":{"name":"Pando","id":"BO-N","CNTRY":"Bolivia","TYPE":"Department"},"id":"BO-N"},
{"type":"Feature","geometry":{"type":"Polygon","coordinates":[[[-69.0749,-18.0379],[-69.0026,-18.0026],[-68.8811,-17.9725],[-68.8197,-17.9428],[-68.7028,-17.8536],[-68.5878,-17.718],[-68.4592,-17.6547],[-68.3356,-17.6433],[-68.1936,-17.6457],[-68.0171,-17.7124],[-67.8117,-17.8593],[-67.7515,-17.8512],[-67.7335,-17.8192],[-67.7539,-17.7294],[-67.5581,-17.6086],[-67.4422,-17.5232],[-67.3025,-17.4453],[-67.1395,-17.3999],[-67.0858,-17.4271],[-67.0436,-17.4958],[-66.9901,-17.5514],[-66.8592,-17.6414],[-66.8042,-17.6922],[-66.7035,-17.8205],[-66.625,-17.9914],[-66.6395,-18.0204],[-66.7413,-18.0636],[-66.7511,-18.151],[-66.7263,-18.2186],[-66.666,-18.2421],[-66.6056,-18.2333],[-66.5364,-18.2735],[-66.6786,-18.3533],[-66.6918,-18.4891],[-66.6302,-18.6074],[-66.5258,-18.6889],[-66.4128,-18.7303],[-66.3592,-18.7319],[-66.2753,-18.7709],[-66.2275,-18.9111],[-66.1528,-19.0367],[-66.0431,-19.1579],[-66.0853,-19.2083],[-66.4364,-19.2343],[-66.5161,-19.278],[-66.6539,-19.4017],[-66.6967,-19.428],[-67.552,-19.7825],[-67.7259,-19.8436],[-68.0064,-19.7489],[-68.3256,-19.6522],[-68.5726,-19.5665],[-68.4437,-19.4336],[-68.4917,-19.369],[-68.5513,-19.3193],[-68.6422,-19.2821],[-68.7825,-19.1419],[-68.8999,-19.0648],[-68.9658,-18.953],[-68.9328,-18.8828],[-69.0006,-18.7431],[-69.0245,-18.6586],[-69.0325,-18.56],[-69.0235,-18.4835],[-69.0747,-18.3922],[-69.091,-18.2281],[-69.1354,-18.1796],[-69.1396,-18.1252],[-69.0824,-18.0869],[-69.0749,-18.0379]]]},"properties":{"name":"Oruro","id":"BO-O","CNTRY":"Bolivia","TYPE":"Department"},"id":"BO-O"},
{"type":"Feature","geometry":{"type":"Polygon","coordinates":[[[-65.2366,-21.5369],[-65.2528,-21.6339],[-65.2895,-21.6757],[-65.3285,-21.7965],[-65.2732,-21.8546],[-65.2067,-21.9525],[-65.1728,-22.09],[-65.1902,-22.0947],[-65.5989,-22.1],[-65.75,-22.1101],[-65.8128,-22.0714],[-65.9261,-21.9333],[-66.0775,-21.8319],[-66.223,-21.7805],[-66.2363,-21.797],[-66.2913,-22.0353],[-66.3454,-22.1166],[-66.6164,-22.1919],[-66.6889,-22.1961],[-66.7367,-22.2275],[-66.7714,-22.375],[-66.7747,-22.427],[-66.9264,-22.4781],[-67.0225,-22.5239],[-67.0126,-22.6342],[-67.1245,-22.7196],[-67.1836,-22.8217],[-67.5792,-22.9011],[-67.7933,-22.878],[-67.8764,-22.8281],[-67.8842,-22.7128],[-67.8497,-22.5549],[-67.9328,-22.3003],[-67.9226,-22.2392],[-67.9445,-22.1047],[-68.0852,-21.9617],[-68.0875,-21.8428],[-68.1052,-21.7453],[-68.1388,-21.6669],[-68.1861,-21.6097],[-68.1886,-21.2969],[-68.424,-20.9389],[-68.5318,-20.9264],[-68.5656,-20.8703],[-68.565,-20.7338],[-68.467,-20.6306],[-68.5494,-20.5675],[-68.691,-20.505],[-68.7522,-20.424],[-68.7548,-20.3736],[-68.7036,-20.338],[-68.7211,-20.2378],[-68.7772,-20.0892],[-68.6506,-20.0567],[-68.5778,-20.0535],[-68.5233,-19.9164],[-68.567,-19.8339],[-68.6897,-19.7427],[-68.6872,-19.7037],[-68.5726,-19.5665],[-68.3256,-19.6522],[-68.0064,-19.7489],[-67.7259,-19.8436],[-67.552,-19.7825],[-66.6967,-19.428],[-66.6539,-19.4017],[-66.5161,-19.278],[-66.4364,-19.2343],[-66.0853,-19.2083],[-66.0431,-19.1579],[-66.1528,-19.0367],[-66.2275,-18.9111],[-66.2753,-18.7709],[-66.3592,-18.7319],[-66.4128,-18.7303],[-66.5258,-18.6889],[-66.6302,-18.6074],[-66.6918,-18.4891],[-66.6786,-18.3533],[-66.5364,-18.2735],[-66.6056,-18.2333],[-66.666,-18.2421],[-66.7263,-18.2186],[-66.7511,-18.151],[-66.7413,-18.0636],[-66.6395,-18.0204],[-66.625,-17.9914],[-66.4558,-17.9831],[-66.3425,-17.9869],[-66.1844,-17.8705],[-66.0981,-17.853],[-66.019,-17.8714],[-65.9322,-17.9874],[-65.8775,-17.9755],[-65.8075,-18.0072],[-65.707,-18.0772],[-65.6422,-18.1361],[-65.565,-18.2347],[-65.4778,-18.3267],[-65.3476,-18.4233],[-65.3706,-18.4331],[-65.4528,-18.4075],[-65.6645,-18.3581],[-65.6725,-18.4361],[-65.632,-18.5286],[-65.6075,-18.658],[-65.4425,-18.6849],[-65.4289,-18.7425],[-65.5077,-18.8151],[-65.4989,-18.9369],[-65.5399,-19.016],[-65.5181,-19.0794],[-65.39,-19.2266],[-65.3805,-19.2573],[-65.3009,-19.3082],[-65.1452,-19.3759],[-65.0474,-19.3801],[-64.993,-19.3551],[-64.9176,-19.361],[-64.861,-19.4076],[-64.826,-19.4885],[-64.8297,-19.532],[-64.802,-19.6223],[-64.7357,-19.7166],[-64.7879,-19.7889],[-64.8967,-19.8897],[-65.0378,-19.9632],[-65.2286,-19.9911],[-65.3208,-20.0439],[-65.3703,-20.2092],[-65.3671,-20.2667],[-65.2962,-20.5339],[-65.3114,-20.5883],[-65.3756,-20.7111],[-65.4267,-20.8495],[-65.4395,-20.9961],[-65.4704,-21.0843],[-65.4783,-21.2675],[-65.4491,-21.3517],[-65.3314,-21.4636],[-65.2366,-21.5369]]]},"properties":{"name":"Potosí","id":"BO-P","CNTRY":"Bolivia","TYPE":"Department"},"id":"BO-P"},
{"type":"Feature","geometry":{"type":"Polygon","coordinates":[[[-62.1988,-20.4714],[-63.2899,-20.4751],[-63.4183,-20.4058],[-63.507,-20.462],[-63.6583,-20.4498],[-63.6749,-20.4369],[-63.6986,-20.0256],[-63.7292,-19.9468],[-63.7308,-19.7397],[-63.7686,-19.2542],[-63.7413,-19.0441],[-63.8858,-19.0422],[-63.9067,-19.1314],[-63.9395,-19.1726],[-64.0054,-19.1687],[-64.0475,-19.0805],[-64.2817,-18.8289],[-64.3158,-18.7472],[-64.3183,-18.681],[-64.3434,-18.6657],[-64.2927,-18.5961],[-64.3042,-18.4999],[-64.4264,-18.4167],[-64.4808,-18.251],[-64.6356,-18.01],[-64.7079,-17.9333],[-64.7029,-17.8775],[-64.5775,-17.7647],[-64.4169,-17.5408],[-64.4017,-17.4638],[-64.3424,-17.4209],[-64.2203,-17.4203],[-64.226,-17.3289],[-64.3394,-17.1964],[-64.3889,-17.1583],[-64.6971,-16.9647],[-64.7692,-16.826],[-64.785,-16.7044],[-64.7469,-16.6122],[-64.6992,-16.5346],[-64.6392,-16.37],[-64.6597,-16.1575],[-64.7,-15.9967],[-64.7067,-15.9125],[-64.6836,-15.8462],[-64.6036,-15.8639],[-64.5022,-15.8703],[-63.4022,-15.9139],[-63.3739,-15.8975],[-63.4431,-15.7641],[-63.4864,-15.7004],[-63.625,-15.628],[-63.6767,-15.5786],[-63.8668,-15.2954],[-63.9333,-15.1522],[-63.9558,-15.0742],[-63.935,-14.8519],[-63.9693,-14.7322],[-63.5872,-14.6286],[-61.5935,-13.5072],[-61.4928,-13.5533],[-61.039,-13.4931],[-60.9578,-13.5828],[-60.7916,-13.6794],[-60.7443,-13.6824],[-60.6756,-13.7386],[-60.4768,-13.8035],[-60.3845,-13.9872],[-60.4258,-14.0671],[-60.4649,-14.1018],[-60.482,-14.1679],[-60.4505,-14.2911],[-60.4275,-14.3243],[-60.2811,-14.6233],[-60.2589,-15.0936],[-60.5714,-15.0975],[-60.2272,-15.4786],[-60.1603,-16.263],[-58.4392,-16.3297],[-58.3889,-16.2829],[-58.3275,-16.2792],[-58.3244,-16.3961],[-58.3464,-16.5061],[-58.4194,-16.5736],[-58.4758,-16.6746],[-58.4635,-16.9007],[-58.4244,-17.0097],[-58.4074,-17.1121],[-58.4094,-17.1906],[-58.3711,-17.2789],[-58.2944,-17.2997],[-58.1206,-17.4128],[-58.0917,-17.4555],[-57.9836,-17.5007],[-57.9017,-17.4619],[-57.7455,-17.5939],[-57.7795,-17.6377],[-57.7173,-17.7276],[-57.7189,-17.845],[-57.5211,-18.2039],[-57.5633,-18.2747],[-57.7703,-18.9061],[-57.723,-18.9136],[-57.7047,-19.0436],[-57.7767,-19.0475],[-58.1211,-19.7414],[-57.8519,-19.9755],[-57.9008,-20.029],[-58.1097,-20.1492],[-58.1372,-20.1164],[-58.1312,-19.9861],[-58.151,-19.8311],[-58.268,-19.7642],[-59.0958,-19.3489],[-59.9818,-19.2968],[-60.6133,-19.4591],[-61.7425,-19.645],[-61.9131,-20.08],[-62.1988,-20.4714]]]},"properties":{"name":"Santa Cruz","id":"BO-S","CNTRY":"Bolivia","TYPE":"Department"},"id":"BO-S"},
{"type":"Feature","geometry":{"type":"Polygon","coordinates":[[[-65.1902,-22.0947],[-65.1728,-22.09],[-65.2067,-21.9525],[-65.2732,-21.8546],[-65.3285,-21.7965],[-65.2895,-21.6757],[-65.2528,-21.6339],[-65.2366,-21.5369],[-65.1753,-20.9743],[-65.1601,-20.9451],[-65.0781,-20.9542],[-64.9125,-21.0336],[-64.832,-21.0922],[-64.7799,-21.082],[-64.7506,-20.9855],[-64.7137,-20.9308],[-64.6463,-20.9422],[-64.4947,-21.0858],[-64.3639,-21.1354],[-64.2328,-21.1444],[-64.1991,-21.1103],[-64.1833,-21.0236],[-64.1747,-20.8917],[-64.0697,-20.918],[-63.9766,-20.9976],[-63.03,-21.0036],[-62.2611,-21.0005],[-62.2589,-21.0569],[-62.6438,-22.2389],[-62.765,-22.1547],[-62.7924,-22.1154],[-62.8007,-22.017],[-62.8172,-21.9974],[-63.9411,-22.0008],[-63.9931,-22.0944],[-64.1267,-22.4103],[-64.2231,-22.5129],[-64.2799,-22.6455],[-64.2839,-22.7544],[-64.3014,-22.8325],[-64.3481,-22.843],[-64.3631,-22.7369],[-64.4531,-22.6439],[-64.4439,-22.58],[-64.4619,-22.5144],[-64.5261,-22.4089],[-64.5469,-22.2606],[-64.5926,-22.2132],[-64.6836,-22.1754],[-64.7157,-22.1821],[-64.9695,-22.1076],[-64.9884,-22.0908],[-65.1902,-22.0947]]]},"properties":{"name":"Tarija","id":"BO-T","CNTRY":"Bolivia","TYPE":"Department"},"id":"BO-T"}
]}