{"type":"FeatureCollection", "features": [
{"type":"Feature","geometry":{"type":"Polygon","coordinates":[[[11.2671,5.9768],[11.2872,5.995],[11.3203,6.0593],[11.2862,6.12],[11.2845,6.2078],[11.3009,6.2408],[11.2918,6.2645],[11.2164,6.2801],[11.1888,6.2938],[11.2127,6.4005],[11.2036,6.4327],[11.2385,6.4436],[11.2777,6.4284],[11.3169,6.4501],[11.3649,6.4458],[11.4084,6.4698],[11.4304,6.5472],[11.4334,6.5996],[11.4842,6.5971],[11.5209,6.6099],[11.5536,6.664],[11.5646,6.7248],[11.5882,6.7341],[11.5742,6.7754],[11.5973,6.8152],[11.5741,6.8526],[11.5801,6.9039],[11.6144,6.9144],[11.6459,6.9495],[11.6917,6.967],[11.7091,6.9909],[11.7549,7.0084],[11.8063,7.0598],[11.848,7.0859],[11.8856,7.0781],[11.8965,7.1239],[11.808,7.2164],[11.8022,7.2541],[11.7614,7.2524],[11.744,7.2698],[11.7919,7.2982],[11.8492,7.3728],[11.9815,7.5161],[12.0011,7.5596],[12.0261,7.577],[12.0178,7.6512],[12.0356,7.6763],[12.0423,7.7318],[12.0965,7.8363],[12.153,7.8861],[12.1965,7.9458],[12.2219,8],[12.2061,8.0887],[12.2563,8.169],[12.3001,8.111],[12.4399,7.9738],[12.4862,7.94],[12.5669,7.9214],[12.616,7.922],[12.6419,7.8625],[12.6289,7.8184],[12.6341,7.7537],[12.8179,7.6709],[12.9773,7.6506],[13.0638,7.6113],[13.1312,7.601],[13.2052,7.5989],[13.2672,7.6168],[13.2695,7.6833],[13.2946,7.7051],[13.329,7.7063],[13.3841,7.6904],[13.427,7.6389],[13.4785,7.6206],[13.514,7.5813],[13.5398,7.5789],[13.5667,7.6193],[13.5998,7.6255],[13.6611,7.6585],[13.7175,7.6463],[13.776,7.6634],[13.8756,7.678],[13.8946,7.6415],[13.8923,7.6054],[13.9657,7.587],[14.1212,7.5707],[14.1418,7.5516],[14.1498,7.4895],[14.2118,7.4545],[14.2087,7.4243],[14.2357,7.4036],[14.2739,7.3384],[14.3168,7.324],[14.3312,7.3034],[14.3407,7.2127],[14.3281,7.1667],[14.4108,7.1536],[14.5261,7.158],[14.5689,7.0753],[14.6189,7.0693],[14.6647,7.0269],[14.7301,7.0399],[14.8363,7.102],[14.8559,7.0988],[14.9556,7.1396],[15.0079,7.169],[15.0863,7.1772],[15.1304,7.2034],[15.1778,7.2622],[15.2367,7.2802],[15.2808,7.2654],[15.2401,7.226],[15.2133,7.1757],[15.2253,7.1375],[15.1973,7.0779],[15.1697,7.0667],[15.1487,7.0279],[15.1443,6.9466],[15.1193,6.9127],[15.0714,6.7872],[15.0515,6.7611],[15.0214,6.766],[14.9669,6.7434],[14.8664,6.5147],[14.8134,6.4091],[14.8159,6.3604],[14.7507,6.261],[14.7243,6.2444],[14.5792,6.1926],[14.5346,6.1686],[14.5055,6.1273],[14.4448,6.0856],[14.4257,6.0837],[14.3736,6.114],[14.3387,6.0764],[14.2886,6.0818],[14.2547,6.056],[14.1964,6.0533],[14.0446,6.0303],[13.9809,6.063],[13.8358,6.0004],[13.665,5.9902],[13.441,5.9855],[12.9617,5.9864],[12.8782,5.9895],[12.6769,5.9906],[12.5103,5.9952],[12.4753,6.0626],[12.3066,6.194],[12.2655,6.1988],[12.1529,6.1667],[12.0594,6.1678],[11.9791,6.2518],[11.9479,6.2506],[11.9275,6.2266],[11.8456,6.1961],[11.7944,6.1882],[11.7212,6.1463],[11.664,6.0827],[11.5073,6.0389],[11.4314,6.0251],[11.2671,5.9768]]]},"properties":{"name":"Adamaoua","id":"CM-AD","CNTRY":"Cameroon","TYPE":"Province"},"id":"CM-AD"},
{"type":"Feature","geometry":{"type":"Polygon","coordinates":[[[11.2671,5.9768],[11.4314,6.0251],[11.5073,6.0389],[11.664,6.0827],[11.7212,6.1463],[11.7944,6.1882],[11.8456,6.1961],[11.9275,6.2266],[11.9479,6.2506],[11.9791,6.2518],[12.0594,6.1678],[12.1529,6.1667],[12.2655,6.1988],[12.3066,6.194],[12.4753,6.0626],[12.5103,5.9952],[12.6769,5.9906],[12.8782,5.9895],[12.8723,5.9057],[12.9119,5.8596],[12.9517,5.7927],[12.9672,5.7183],[13.0038,5.6994],[13.0142,5.6484],[13.074,5.5557],[13.074,5.5247],[13.0255,5.4126],[12.9678,5.3215],[12.8758,5.3151],[12.8288,5.2886],[12.986,5.1439],[13.0578,5.0567],[13.045,4.9746],[13.1181,4.949],[13.1809,4.9426],[13.2373,4.8118],[13.2269,4.7516],[13.2129,4.5951],[13.1921,4.5645],[13.1475,4.5755],[13.0648,4.5765],[13.0197,4.5665],[12.9788,4.5717],[12.8981,4.5272],[12.8754,4.5004],[12.8408,4.3874],[12.8028,4.3458],[12.7894,4.1963],[12.7653,4.1109],[12.7894,4.087],[12.788,4.0389],[12.7303,4.01],[12.6562,3.939],[12.5584,3.9194],[12.5024,3.8828],[12.4956,3.8504],[12.5182,3.801],[12.6099,3.7495],[12.6047,3.628],[12.5708,3.5591],[12.542,3.5849],[12.5028,3.6651],[12.4596,3.6651],[12.4349,3.6239],[12.3103,3.5241],[12.2598,3.4715],[12.2279,3.3387],[12.2073,3.3161],[12.1723,3.3222],[12.1352,3.2986],[12.128,3.3521],[11.9942,3.4056],[11.9787,3.4303],[11.9438,3.4282],[11.9077,3.4582],[11.884,3.4509],[11.8603,3.3871],[11.8043,3.3689],[11.7605,3.3405],[11.7171,3.2829],[11.6995,3.2138],[11.6764,3.1919],[11.5801,3.1498],[11.4986,3.1417],[11.3941,3.1498],[11.3289,3.1309],[11.2882,3.1431],[11.2122,3.1336],[11.1538,3.1919],[11.1484,3.2381],[11.1023,3.2693],[11.0832,3.3684],[11.0316,3.4196],[10.9936,3.4094],[10.9407,3.4335],[10.8549,3.4099],[10.8248,3.4753],[10.7806,3.4838],[10.6064,3.4368],[10.3734,3.3657],[10.2892,3.3535],[10.2556,3.4823],[10.2349,3.5218],[10.252,3.5458],[10.2905,3.5476],[10.3322,3.6231],[10.334,3.6697],[10.3576,3.6943],[10.372,3.7865],[10.3964,3.8082],[10.4494,3.8258],[10.5596,3.7621],[10.6014,3.7227],[10.6177,3.7756],[10.6665,3.8421],[10.6516,3.948],[10.6855,3.99],[10.7018,4.0525],[10.7949,4.0889],[10.8281,4.0824],[10.8851,4.1134],[10.9204,4.1134],[10.9828,4.1353],[11.0167,4.1584],[11.0914,4.1718],[11.0941,4.2208],[11.0405,4.2551],[11.0139,4.3014],[10.9755,4.3388],[10.9736,4.3654],[10.8986,4.4611],[10.9224,4.6071],[10.9022,4.6267],[10.866,4.6038],[10.8155,4.6201],[10.7941,4.5846],[10.7757,4.516],[10.7452,4.4874],[10.7127,4.5258],[10.6804,4.492],[10.6438,4.4786],[10.6192,4.4481],[10.5837,4.4372],[10.4518,4.4864],[10.4023,4.4943],[10.3923,4.514],[10.4085,4.5809],[10.4548,4.6484],[10.4724,4.6524],[10.4982,4.7217],[10.4765,4.742],[10.4382,4.7429],[10.3815,4.7067],[10.3598,4.7095],[10.3706,4.7733],[10.4573,4.8365],[10.5158,4.9102],[10.5892,4.8981],[10.6448,4.9171],[10.7532,4.9747],[10.8036,5.0203],[10.8715,4.9443],[10.9131,4.9376],[10.957,4.9701],[10.9942,5.1315],[11.0319,5.1811],[11.0805,5.1941],[11.0738,5.2185],[11.0796,5.2957],[11.1334,5.3288],[11.1466,5.356],[11.1878,5.3909],[11.1942,5.4644],[11.2151,5.5326],[11.1942,5.6079],[11.2137,5.6469],[11.2072,5.6714],[11.2801,5.7364],[11.314,5.7848],[11.2783,5.8075],[11.2651,5.8911],[11.2671,5.9768]]]},"properties":{"name":"Centre","id":"CM-CE","CNTRY":"Cameroon","TYPE":"Province"},"id":"CM-CE"},
{"type":"Feature","geometry":{"type":"Polygon","coordinates":[[[13.3952,10.1276],[13.4596,10.1869],[13.4638,10.2352],[13.5095,10.3073],[13.5074,10.3625],[13.5231,10.3893],[13.5272,10.4629],[13.5532,10.4895],[13.5293,10.5913],[13.5469,10.6569],[13.5898,10.6962],[13.6118,10.7742],[13.6746,10.8589],[13.6908,10.8983],[13.6947,10.9668],[13.7915,11.0063],[13.8183,11.0595],[13.885,11.126],[13.9276,11.2208],[13.9611,11.2584],[13.9743,11.303],[14.0613,11.2868],[14.0996,11.252],[14.1372,11.2527],[14.2092,11.2836],[14.2403,11.3259],[14.3256,11.3746],[14.424,11.4094],[14.4515,11.4586],[14.514,11.4729],[14.6169,11.5138],[14.6372,11.5288],[14.6473,11.6033],[14.6401,11.6376],[14.5728,11.6903],[14.5525,11.7177],[14.6102,11.7803],[14.6052,11.8645],[14.6428,11.9086],[14.6579,11.955],[14.623,12.0179],[14.652,12.0674],[14.6398,12.0891],[14.6578,12.1356],[14.6787,12.1512],[14.6586,12.1958],[14.62,12.1806],[14.5969,12.2134],[14.558,12.2411],[14.5503,12.2764],[14.4719,12.3515],[14.4352,12.3611],[14.3788,12.3555],[14.3314,12.3694],[14.2921,12.3492],[14.2801,12.3677],[14.2248,12.3592],[14.1885,12.4006],[14.1748,12.4708],[14.1969,12.5057],[14.2274,12.5236],[14.2664,12.5933],[14.2479,12.6302],[14.2089,12.661],[14.2212,12.6856],[14.2869,12.7143],[14.3238,12.7041],[14.3402,12.7431],[14.4284,12.7266],[14.4182,12.6774],[14.4592,12.6733],[14.5208,12.7841],[14.5167,12.8708],[14.5413,12.8682],[14.5661,12.8285],[14.5517,12.7858],[14.5857,12.7474],[14.6366,12.7395],[14.6628,12.7202],[14.7062,12.7248],[14.7526,12.6833],[14.7716,12.6313],[14.8315,12.6285],[14.8519,12.5636],[14.849,12.4564],[14.8817,12.4584],[14.9105,12.3792],[14.9001,12.3024],[14.909,12.2732],[14.8925,12.1678],[14.9336,12.1139],[14.9806,12.0904],[15.0094,12.1124],[15.0381,12.0962],[15.0348,12.0691],[15.0611,12.0416],[15.0535,11.9702],[15.0612,11.9218],[15.0421,11.8987],[15.0545,11.8517],[15.0949,11.8465],[15.119,11.7936],[15.0804,11.7615],[15.0695,11.7261],[15.08,11.6446],[15.1026,11.6107],[15.1006,11.5823],[15.1367,11.5645],[15.1331,11.51],[15.1074,11.4951],[15.0587,11.4101],[15.0698,11.3678],[15.0518,11.3139],[15.0324,11.3016],[15.0284,11.1979],[15.0391,11.1135],[15.0342,11.0883],[15.0524,11.0386],[15.0501,10.9955],[15.0829,10.948],[15.0935,10.8661],[15.0702,10.8387],[15.0694,10.8054],[15.127,10.7107],[15.1545,10.6465],[15.1442,10.5887],[15.1459,10.5384],[15.2086,10.5023],[15.2411,10.4707],[15.2515,10.4373],[15.2832,10.4014],[15.2827,10.3653],[15.3102,10.3074],[15.3557,10.2908],[15.4205,10.2096],[15.4516,10.1879],[15.4862,10.119],[15.5723,10.0602],[15.649,10.0259],[15.6837,9.9851],[15.5898,9.9578],[15.435,9.9333],[15.3379,9.9711],[15.2361,9.9964],[15.2126,9.9645],[15.1328,9.9946],[15.1015,9.9639],[15.0669,9.9667],[15.0029,10.0013],[14.9191,9.9798],[14.836,9.9245],[14.7989,9.9278],[14.7562,9.9492],[14.7054,9.9499],[14.5441,9.9994],[14.4847,10.0102],[14.3079,10.0037],[14.2095,9.9896],[14.1924,9.9652],[14.2043,10.0322],[14.1965,10.0553],[14.0976,10.0951],[14.055,10.0865],[14.0288,10.1265],[13.9994,10.1409],[13.9786,10.1787],[13.9444,10.1994],[13.8917,10.2021],[13.8603,10.2169],[13.8032,10.2061],[13.6885,10.2285],[13.6653,10.2186],[13.6472,10.1789],[13.6785,10.1372],[13.6719,10.1145],[13.6093,10.1008],[13.5601,10.0713],[13.5076,10.0801],[13.4276,10.0625],[13.3952,10.1276]]]},"properties":{"name":"Far North","id":"CM-EN","CNTRY":"Cameroon","TYPE":"Province"},"id":"CM-EN"},
{"type":"Feature","geometry":{"type":"Polygon","coordinates":[[[13.6714,2.1707],[13.6536,2.5757],[13.6459,2.6351],[13.6261,2.8692],[13.5849,2.8847],[13.5639,2.8533],[13.5324,2.8538],[13.4984,2.826],[13.4964,2.7869],[13.4424,2.774],[13.3769,2.8157],[13.3469,2.8042],[13.2935,2.8476],[13.2626,2.8229],[13.207,2.8682],[13.1602,2.8465],[13.137,2.8713],[13.1092,2.8414],[13.03,2.8569],[12.9877,2.8847],[12.963,2.8692],[12.8776,2.8785],[12.7983,2.9197],[12.7643,2.9732],[12.7627,3.0729],[12.755,3.1565],[12.7077,3.2419],[12.6665,3.2893],[12.5703,3.3795],[12.5512,3.4087],[12.5605,3.5313],[12.5708,3.5591],[12.6047,3.628],[12.6099,3.7495],[12.5182,3.801],[12.4956,3.8504],[12.5024,3.8828],[12.5584,3.9194],[12.6562,3.939],[12.7303,4.01],[12.788,4.0389],[12.7894,4.087],[12.7653,4.1109],[12.7894,4.1963],[12.8028,4.3458],[12.8408,4.3874],[12.8754,4.5004],[12.8981,4.5272],[12.9788,4.5717],[13.0197,4.5665],[13.0648,4.5765],[13.1475,4.5755],[13.1921,4.5645],[13.2129,4.5951],[13.2269,4.7516],[13.2373,4.8118],[13.1809,4.9426],[13.1181,4.949],[13.045,4.9746],[13.0578,5.0567],[12.986,5.1439],[12.8288,5.2886],[12.8758,5.3151],[12.9678,5.3215],[13.0255,5.4126],[13.074,5.5247],[13.074,5.5557],[13.0142,5.6484],[13.0038,5.6994],[12.9672,5.7183],[12.9517,5.7927],[12.9119,5.8596],[12.8723,5.9057],[12.8782,5.9895],[12.9617,5.9864],[13.441,5.9855],[13.665,5.9902],[13.8358,6.0004],[13.9809,6.063],[14.0446,6.0303],[14.1964,6.0533],[14.2547,6.056],[14.2886,6.0818],[14.3387,6.0764],[14.3736,6.114],[14.4257,6.0837],[14.4208,6.0426],[14.4361,6.0026],[14.4661,5.9765],[14.4936,5.9144],[14.5278,5.8975],[14.5645,5.8987],[14.5913,5.9197],[14.6213,5.8961],[14.6271,5.8173],[14.628,5.6984],[14.5956,5.5994],[14.5974,5.5757],[14.631,5.5066],[14.6043,5.4655],[14.6018,5.4],[14.5279,5.278],[14.579,5.2257],[14.6526,5.211],[14.6764,5.1792],[14.6955,5.096],[14.6776,5.0711],[14.6919,5.0218],[14.6783,4.9892],[14.6959,4.9607],[14.6857,4.9276],[14.7069,4.8792],[14.7219,4.8009],[14.7147,4.7701],[14.7251,4.6993],[14.724,4.6413],[14.7579,4.5814],[14.8153,4.5246],[14.8554,4.5082],[14.8909,4.4669],[15.0162,4.4166],[15.0332,4.363],[15.0863,4.3067],[15.1144,4.1184],[15.138,4.0999],[15.146,4.0334],[15.0676,4.0129],[15.0904,3.9959],[15.1071,3.945],[15.2478,3.714],[15.4198,3.5287],[15.5073,3.4405],[15.7005,3.2112],[15.7982,3.1],[15.8613,3.1088],[15.8882,3.0962],[15.9265,3.0354],[15.9691,2.9876],[16.0051,3.0008],[16.0732,2.9034],[16.0891,2.8214],[16.051,2.791],[16.0654,2.7316],[16.0897,2.7003],[16.0674,2.6398],[16.0848,2.5972],[16.0672,2.5268],[16.0839,2.4978],[16.0756,2.4652],[16.1157,2.3931],[16.1487,2.3496],[16.1712,2.2736],[16.1648,2.2454],[16.1908,2.2235],[16.1806,2.1986],[16.0863,2.1923],[16.0801,2.1403],[16.0843,2.0465],[16.0557,2.0013],[16.0557,1.9697],[16.0801,1.946],[16.0911,1.8901],[16.1129,1.8672],[16.1471,1.762],[16.153,1.7046],[16.0839,1.6854],[16.0647,1.6532],[16.0324,1.6574],[16.0182,1.7186],[16.0266,1.7655],[15.9596,1.7621],[15.8865,1.7796],[15.8732,1.8197],[15.8075,1.8526],[15.7649,1.9086],[15.6868,1.9331],[15.5256,1.9537],[15.4937,1.9756],[15.433,1.9568],[15.3449,1.9111],[15.307,1.9345],[15.3046,1.9676],[15.2519,2.0257],[15.1623,2.04],[15.1077,1.9783],[15.0517,1.9803],[14.9871,2.0332],[14.9738,2.0089],[14.923,1.9977],[14.8979,2.0183],[14.9149,2.0598],[14.8411,2.08],[14.8104,2.0581],[14.7296,2.1222],[14.6559,2.1275],[14.6122,2.1908],[14.557,2.2115],[14.5459,2.197],[14.4337,2.156],[14.3968,2.1826],[14.3099,2.1906],[14.2456,2.1716],[13.6714,2.1707]]]},"properties":{"name":"East","id":"CM-ES","CNTRY":"Cameroon","TYPE":"Province"},"id":"CM-ES"},
{"type":"Feature","geometry":{"type":"MultiPolygon","coordinates":[[[[9.3304,3.9199],[9.3565,3.9557],[9.3937,3.9599],[9.4054,3.971],[9.404,3.9924],[9.4265,4.009],[9.4588,3.9737],[9.4479,3.9207],[9.4101,3.8857],[9.3304,3.9199]]],[[[9.4818,4.0374],[9.4937,4.016],[9.4679,3.9871],[9.4476,4.0182],[9.4818,4.0374]]],[[[9.4904,4.1126],[9.5148,4.1051],[9.5453,4.1467],[9.5209,4.2035],[9.4625,4.1896],[9.419,4.2236],[9.4379,4.3073],[9.5056,4.4176],[9.4918,4.4495],[9.4963,4.499],[9.5447,4.5889],[9.5852,4.6497],[9.6212,4.6385],[9.6481,4.6503],[9.6459,4.6879],[9.7045,4.761],[9.7157,4.8252],[9.7994,4.9127],[9.7709,4.9444],[9.772,4.9676],[9.8113,5.0501],[9.863,5.0715],[9.8146,5.1581],[9.7775,5.1862],[9.7496,5.2884],[9.8034,5.3043],[9.8383,5.3549],[9.8709,5.3549],[9.8584,5.2847],[9.8968,5.2605],[9.9183,5.2791],[9.9607,5.2803],[9.9866,5.2542],[10.0077,5.2041],[9.9924,5.1331],[10.0152,5.0702],[10.0724,5.0492],[10.0803,4.9781],[10.0993,4.9755],[10.1188,4.9337],[10.1453,4.9351],[10.1773,5.0061],[10.2345,5.0395],[10.2512,5.0939],[10.3055,5.0786],[10.3804,5.0896],[10.3918,5.034],[10.4216,4.9981],[10.4288,4.9547],[10.464,4.9517],[10.4768,4.917],[10.5158,4.9102],[10.4573,4.8365],[10.3706,4.7733],[10.3598,4.7095],[10.3815,4.7067],[10.4382,4.7429],[10.4765,4.742],[10.4982,4.7217],[10.4724,4.6524],[10.4548,4.6484],[10.4085,4.5809],[10.3923,4.514],[10.4023,4.4943],[10.4518,4.4864],[10.5837,4.4372],[10.6192,4.4481],[10.6438,4.4786],[10.6804,4.492],[10.7127,4.5258],[10.7452,4.4874],[10.7757,4.516],[10.7941,4.5846],[10.8155,4.6201],[10.866,4.6038],[10.9022,4.6267],[10.9224,4.6071],[10.8986,4.4611],[10.9736,4.3654],[10.9755,4.3388],[11.0139,4.3014],[11.0405,4.2551],[11.0941,4.2208],[11.0914,4.1718],[11.0167,4.1584],[10.9828,4.1353],[10.9204,4.1134],[10.8851,4.1134],[10.8281,4.0824],[10.7949,4.0889],[10.7018,4.0525],[10.6855,3.99],[10.6516,3.948],[10.6665,3.8421],[10.6177,3.7756],[10.6014,3.7227],[10.5596,3.7621],[10.4494,3.8258],[10.3964,3.8082],[10.372,3.7865],[10.3576,3.6943],[10.334,3.6697],[10.3322,3.6231],[10.2905,3.5476],[10.252,3.5458],[10.2498,3.5693],[10.2023,3.6059],[10.1738,3.5856],[10.1312,3.5855],[10.0657,3.4933],[10.0679,3.4159],[10.0354,3.3385],[9.9824,3.31],[9.9471,3.2747],[9.8985,3.2618],[9.901,3.2876],[9.8565,3.3507],[9.766,3.4499],[9.729,3.4837],[9.6443,3.5437],[9.6376,3.5888],[9.6524,3.6376],[9.6001,3.7468],[9.5929,3.8057],[9.6124,3.8643],[9.6265,3.869],[9.6782,3.8271],[9.7076,3.8718],[9.6763,3.9124],[9.6799,3.9387],[9.6343,3.9396],[9.624,3.971],[9.6921,4.0657],[9.6551,4.0518],[9.6257,4.0199],[9.5915,4.006],[9.529,4.0251],[9.4979,4.0588],[9.4904,4.1126]]],[[[9.5076,4.0196],[9.5324,3.9735],[9.5004,3.964],[9.474,3.9801],[9.5076,4.0196]]]]},"properties":{"name":"Littoral","id":"CM-LT","CNTRY":"Cameroon","TYPE":"Province"},"id":"CM-LT"},
{"type":"Feature","geometry":{"type":"Polygon","coordinates":[[[15.2808,7.2654],[15.2367,7.2802],[15.1778,7.2622],[15.1304,7.2034],[15.0863,7.1772],[15.0079,7.169],[14.9556,7.1396],[14.8559,7.0988],[14.8363,7.102],[14.7301,7.0399],[14.6647,7.0269],[14.6189,7.0693],[14.5689,7.0753],[14.5261,7.158],[14.4108,7.1536],[14.3281,7.1667],[14.3407,7.2127],[14.3312,7.3034],[14.3168,7.324],[14.2739,7.3384],[14.2357,7.4036],[14.2087,7.4243],[14.2118,7.4545],[14.1498,7.4895],[14.1418,7.5516],[14.1212,7.5707],[13.9657,7.587],[13.8923,7.6054],[13.8946,7.6415],[13.8756,7.678],[13.776,7.6634],[13.7175,7.6463],[13.6611,7.6585],[13.5998,7.6255],[13.5667,7.6193],[13.5398,7.5789],[13.514,7.5813],[13.4785,7.6206],[13.427,7.6389],[13.3841,7.6904],[13.329,7.7063],[13.2946,7.7051],[13.2695,7.6833],[13.2672,7.6168],[13.2052,7.5989],[13.1312,7.601],[13.0638,7.6113],[12.9773,7.6506],[12.8179,7.6709],[12.6341,7.7537],[12.6289,7.8184],[12.6419,7.8625],[12.616,7.922],[12.5669,7.9214],[12.4862,7.94],[12.4399,7.9738],[12.3001,8.111],[12.2563,8.169],[12.2575,8.2246],[12.2379,8.3276],[12.2451,8.3797],[12.2669,8.4254],[12.3083,8.4363],[12.3453,8.4276],[12.3816,8.4775],[12.4224,8.5016],[12.3911,8.5976],[12.4456,8.5976],[12.4849,8.6233],[12.5888,8.5979],[12.6437,8.6424],[12.6735,8.6408],[12.7108,8.687],[12.7132,8.7309],[12.7461,8.7573],[12.7838,8.7545],[12.8012,8.7723],[12.8225,8.8416],[12.829,8.9288],[12.8471,8.976],[12.8356,9.0686],[12.8617,9.1514],[12.9039,9.2324],[12.9024,9.3524],[12.8563,9.3634],[12.8637,9.3926],[12.9279,9.4247],[12.9763,9.4711],[13.0025,9.4757],[13.0468,9.5103],[13.131,9.5159],[13.2193,9.5426],[13.2479,9.6042],[13.2392,9.6493],[13.2566,9.6729],[13.2658,9.7548],[13.2964,9.8055],[13.2382,9.8437],[13.2252,9.8878],[13.2573,9.9199],[13.2754,9.974],[13.2504,10],[13.3155,10.1099],[13.3952,10.1276],[13.4276,10.0625],[13.5076,10.0801],[13.5601,10.0713],[13.6093,10.1008],[13.6719,10.1145],[13.6785,10.1372],[13.6472,10.1789],[13.6653,10.2186],[13.6885,10.2285],[13.8032,10.2061],[13.8603,10.2169],[13.8917,10.2021],[13.9444,10.1994],[13.9786,10.1787],[13.9994,10.1409],[14.0288,10.1265],[14.055,10.0865],[14.0976,10.0951],[14.1965,10.0553],[14.2043,10.0322],[14.1924,9.9652],[14.1776,9.9003],[14.0754,9.7667],[14.0497,9.7515],[14.025,9.7057],[14.0221,9.6471],[14.0621,9.5892],[14.1359,9.5082],[14.1911,9.4781],[14.1967,9.4501],[14.2249,9.4354],[14.2505,9.3915],[14.3174,9.3667],[14.3545,9.3077],[14.3927,9.2679],[14.3808,9.1969],[14.4458,9.1264],[14.4933,9.0919],[14.4845,9.0708],[14.5099,9.0324],[14.5597,9.0119],[14.6262,8.9505],[14.7536,8.8202],[14.8501,8.8028],[14.8979,8.809],[14.9253,8.769],[14.9891,8.7181],[14.9833,8.6878],[15.0732,8.6516],[15.1143,8.575],[15.2072,8.485],[15.2276,8.4327],[15.278,8.3451],[15.2863,8.3092],[15.3982,8.0882],[15.3909,8.0409],[15.4229,7.9875],[15.4532,7.8947],[15.5108,7.7962],[15.5973,7.7675],[15.5949,7.6754],[15.5684,7.6048],[15.5739,7.5905],[15.5028,7.5251],[15.4325,7.4305],[15.4638,7.388],[15.4262,7.3798],[15.356,7.3128],[15.2808,7.2654]]]},"properties":{"name":"North","id":"CM-NO","CNTRY":"Cameroon","TYPE":"Province"},"id":"CM-NO"},
{"type":"Feature","geometry":{"type":"Polygon","coordinates":[[[11.2036,6.4327],[11.2127,6.4005],[11.1888,6.2938],[11.1309,6.2351],[11.0923,6.2323],[11.0169,6.2452],[10.9985,6.2277],[11.0135,6.1678],[10.9976,6.1043],[10.9785,6.082],[10.9135,6.044],[10.8609,6.0286],[10.8404,6.0102],[10.7405,6.035],[10.691,6.0257],[10.652,5.9417],[10.6231,5.8642],[10.5979,5.8311],[10.4842,5.8338],[10.3221,5.8042],[10.3138,5.7429],[10.2929,5.7248],[10.2484,5.7597],[10.1719,5.7843],[10.1159,5.7385],[10.0929,5.7362],[10.0087,5.7511],[9.9795,5.7653],[9.9226,5.7306],[9.8675,5.7588],[9.7981,5.7791],[9.7584,5.8038],[9.7224,5.8465],[9.6875,5.8398],[9.6448,5.887],[9.5958,5.9209],[9.6213,5.9737],[9.5977,6.0053],[9.5943,6.0413],[9.6687,6.0793],[9.7069,6.1188],[9.7287,6.184],[9.7535,6.2292],[9.7416,6.2629],[9.7535,6.356],[9.7257,6.3937],[9.7423,6.4792],[9.7069,6.5133],[9.7309,6.603],[9.7617,6.6718],[9.7559,6.7046],[9.784,6.7964],[9.88,6.7698],[9.9546,6.8447],[9.9726,6.8744],[10.1169,6.9998],[10.1549,7.0396],[10.1849,6.9691],[10.175,6.9407],[10.1839,6.9001],[10.2411,6.8641],[10.4405,6.8772],[10.4944,6.8739],[10.5073,6.9182],[10.5431,6.9411],[10.5657,7.0383],[10.5741,7.158],[10.6034,7.1406],[10.6013,7.0758],[10.6313,7.0502],[10.6816,7.0417],[10.7,7.016],[10.7608,6.9785],[10.8327,6.9638],[10.8555,6.9442],[10.8555,6.9033],[10.8768,6.8723],[10.8801,6.8282],[10.9307,6.7808],[11.0124,6.7759],[11.0696,6.7317],[11.0803,6.6967],[11.0693,6.5954],[11.096,6.474],[11.141,6.4345],[11.2036,6.4327]]]},"properties":{"name":"Nord-West","id":"CM-NW","CNTRY":"Cameroon","TYPE":"Province"},"id":"CM-NW"},
{"type":"Feature","geometry":{"type":"Polygon","coordinates":[[[11.1888,6.2938],[11.2164,6.2801],[11.2918,6.2645],[11.3009,6.2408],[11.2845,6.2078],[11.2862,6.12],[11.3203,6.0593],[11.2872,5.995],[11.2671,5.9768],[11.2651,5.8911],[11.2783,5.8075],[11.314,5.7848],[11.2801,5.7364],[11.2072,5.6714],[11.2137,5.6469],[11.1942,5.6079],[11.2151,5.5326],[11.1942,5.4644],[11.1878,5.3909],[11.1466,5.356],[11.1334,5.3288],[11.0796,5.2957],[11.0738,5.2185],[11.0805,5.1941],[11.0319,5.1811],[10.9942,5.1315],[10.957,4.9701],[10.9131,4.9376],[10.8715,4.9443],[10.8036,5.0203],[10.7532,4.9747],[10.6448,4.9171],[10.5892,4.8981],[10.5158,4.9102],[10.4768,4.917],[10.464,4.9517],[10.4288,4.9547],[10.4216,4.9981],[10.3918,5.034],[10.3804,5.0896],[10.3055,5.0786],[10.2512,5.0939],[10.2345,5.0395],[10.1773,5.0061],[10.1453,4.9351],[10.1188,4.9337],[10.0993,4.9755],[10.0803,4.9781],[10.0724,5.0492],[10.0152,5.0702],[9.9924,5.1331],[10.0077,5.2041],[9.9866,5.2542],[9.9607,5.2803],[9.9183,5.2791],[9.8968,5.2605],[9.8584,5.2847],[9.8709,5.3549],[9.8929,5.3691],[9.9492,5.4527],[9.9567,5.5594],[9.9674,5.5807],[10.0283,5.6193],[10.0655,5.6564],[10.1171,5.6801],[10.0929,5.7362],[10.1159,5.7385],[10.1719,5.7843],[10.2484,5.7597],[10.2929,5.7248],[10.3138,5.7429],[10.3221,5.8042],[10.4842,5.8338],[10.5979,5.8311],[10.6231,5.8642],[10.652,5.9417],[10.691,6.0257],[10.7405,6.035],[10.8404,6.0102],[10.8609,6.0286],[10.9135,6.044],[10.9785,6.082],[10.9976,6.1043],[11.0135,6.1678],[10.9985,6.2277],[11.0169,6.2452],[11.0923,6.2323],[11.1309,6.2351],[11.1888,6.2938]]]},"properties":{"name":"West","id":"CM-OU","CNTRY":"Cameroon","TYPE":"Province"},"id":"CM-OU"},
{"type":"Feature","geometry":{"type":"Polygon","coordinates":[[[12.5708,3.5591],[12.5605,3.5313],[12.5512,3.4087],[12.5703,3.3795],[12.6665,3.2893],[12.7077,3.2419],[12.755,3.1565],[12.7627,3.0729],[12.7643,2.9732],[12.7983,2.9197],[12.8776,2.8785],[12.963,2.8692],[12.9877,2.8847],[13.03,2.8569],[13.1092,2.8414],[13.137,2.8713],[13.1602,2.8465],[13.207,2.8682],[13.2626,2.8229],[13.2935,2.8476],[13.3469,2.8042],[13.3769,2.8157],[13.4424,2.774],[13.4964,2.7869],[13.4984,2.826],[13.5324,2.8538],[13.5639,2.8533],[13.5849,2.8847],[13.6261,2.8692],[13.6459,2.6351],[13.6536,2.5757],[13.6714,2.1707],[13.299,2.1706],[13.3066,2.208],[13.2869,2.2501],[13.252,2.2733],[13.2073,2.2593],[13.1627,2.284],[13.0769,2.2495],[12.9354,2.2533],[12.8727,2.2285],[12.8288,2.2398],[12.743,2.2232],[12.6897,2.2424],[12.6593,2.2387],[12.5895,2.2548],[12.5042,2.2608],[12.4534,2.2526],[12.3269,2.2767],[12.2418,2.2499],[12.2134,2.2772],[12.1487,2.2733],[12.0535,2.2875],[11.9812,2.2914],[11.9339,2.2819],[11.8389,2.2772],[11.7502,2.281],[11.6996,2.3222],[11.6643,2.3219],[11.6122,2.2997],[11.5879,2.3112],[11.5445,2.2985],[11.4575,2.3046],[11.3647,2.2884],[11.3775,2.2604],[11.3502,2.2267],[11.3574,2.1741],[11.228,2.1737],[11.1825,2.1862],[11.1665,2.1748],[10.1979,2.173],[10.0408,2.1619],[9.9256,2.2009],[9.8479,2.2466],[9.8215,2.3479],[9.819,2.4212],[9.8279,2.4424],[9.8174,2.506],[9.8237,2.5693],[9.8415,2.6196],[9.8593,2.7196],[9.8949,2.8007],[9.8832,2.8457],[9.9138,2.976],[9.9537,3.014],[9.9754,3.0876],[9.9215,3.2226],[9.8985,3.2618],[9.9471,3.2747],[9.9824,3.31],[10.0354,3.3385],[10.0679,3.4159],[10.0657,3.4933],[10.1312,3.5855],[10.1738,3.5856],[10.2023,3.6059],[10.2498,3.5693],[10.252,3.5458],[10.2349,3.5218],[10.2556,3.4823],[10.2892,3.3535],[10.3734,3.3657],[10.6064,3.4368],[10.7806,3.4838],[10.8248,3.4753],[10.8549,3.4099],[10.9407,3.4335],[10.9936,3.4094],[11.0316,3.4196],[11.0832,3.3684],[11.1023,3.2693],[11.1484,3.2381],[11.1538,3.1919],[11.2122,3.1336],[11.2882,3.1431],[11.3289,3.1309],[11.3941,3.1498],[11.4986,3.1417],[11.5801,3.1498],[11.6764,3.1919],[11.6995,3.2138],[11.7171,3.2829],[11.7605,3.3405],[11.8043,3.3689],[11.8603,3.3871],[11.884,3.4509],[11.9077,3.4582],[11.9438,3.4282],[11.9787,3.4303],[11.9942,3.4056],[12.128,3.3521],[12.1352,3.2986],[12.1723,3.3222],[12.2073,3.3161],[12.2279,3.3387],[12.2598,3.4715],[12.3103,3.5241],[12.4349,3.6239],[12.4596,3.6651],[12.5028,3.6651],[12.542,3.5849],[12.5708,3.5591]]]},"properties":{"name":"South","id":"CM-SU","CNTRY":"Cameroon","TYPE":"Province"},"id":"CM-SU"},
{"type":"Feature","geometry":{"type":"MultiPolygon","coordinates":[[[[9.3565,3.9557],[9.3304,3.9199],[9.2937,3.9646],[9.3176,3.9937],[9.3565,3.9557]]],[[[8.8551,4.5624],[8.8362,4.5487],[8.7951,4.5818],[8.7685,4.6221],[8.7751,4.6524],[8.8193,4.6643],[8.8146,4.629],[8.8551,4.5624]]],[[[9.4168,4.036],[9.421,4.0101],[9.399,3.9921],[9.4032,3.971],[9.3621,3.9618],[9.3251,3.9929],[9.3638,4.0321],[9.4168,4.036]]],[[[8.7099,4.5124],[8.6965,4.4829],[8.5607,4.4837],[8.5746,4.5396],[8.5513,4.6015],[8.5826,4.6171],[8.5576,4.6829],[8.584,4.7018],[8.5971,4.744],[8.6307,4.7513],[8.6285,4.7379],[8.6396,4.7368],[8.6335,4.6821],[8.6599,4.6413],[8.666,4.5774],[8.7099,4.5124]]],[[[9.8709,5.3549],[9.8383,5.3549],[9.8034,5.3043],[9.7496,5.2884],[9.7775,5.1862],[9.8146,5.1581],[9.863,5.0715],[9.8113,5.0501],[9.772,4.9676],[9.7709,4.9444],[9.7994,4.9127],[9.7157,4.8252],[9.7045,4.761],[9.6459,4.6879],[9.6481,4.6503],[9.6212,4.6385],[9.5852,4.6497],[9.5447,4.5889],[9.4963,4.499],[9.4918,4.4495],[9.5056,4.4176],[9.4379,4.3073],[9.419,4.2236],[9.4625,4.1896],[9.5209,4.2035],[9.5453,4.1467],[9.5148,4.1051],[9.4904,4.1126],[9.4149,4.0638],[9.3749,4.0537],[9.3385,4.0143],[9.291,3.9943],[9.2529,3.9479],[9.209,3.9529],[9.2001,4.011],[9.126,4.0054],[8.9882,4.0941],[8.9857,4.1499],[8.9985,4.1788],[8.9721,4.2385],[8.9335,4.2582],[8.9146,4.2871],[8.9235,4.3221],[8.896,4.364],[8.8787,4.4221],[8.9135,4.5021],[8.8813,4.5171],[8.884,4.5801],[8.819,4.6315],[8.8257,4.6743],[8.7754,4.656],[8.761,4.6165],[8.7976,4.5468],[8.7682,4.5321],[8.7054,4.5846],[8.6771,4.6643],[8.6487,4.6846],[8.6412,4.739],[8.6343,4.7515],[8.6082,4.7496],[8.5946,4.7454],[8.5349,4.7801],[8.5559,4.8159],[8.5904,4.8024],[8.6294,4.8262],[8.6049,4.8849],[8.683,4.9814],[8.7218,5.0738],[8.7856,5.13],[8.8164,5.1848],[8.814,5.291],[8.837,5.3802],[8.8399,5.4492],[8.9045,5.5675],[8.902,5.6041],[8.8196,5.6954],[8.8518,5.7404],[8.8694,5.7934],[8.841,5.8241],[8.8893,5.8622],[8.9158,5.8994],[8.9955,5.9489],[9.1524,6.0902],[9.1677,6.1307],[9.2134,6.169],[9.2656,6.1841],[9.3108,6.2626],[9.3376,6.2897],[9.3506,6.3514],[9.4338,6.3158],[9.4662,6.4499],[9.5282,6.4428],[9.5848,6.4715],[9.5992,6.5304],[9.6687,6.5095],[9.7069,6.5133],[9.7423,6.4792],[9.7257,6.3937],[9.7535,6.356],[9.7416,6.2629],[9.7535,6.2292],[9.7287,6.184],[9.7069,6.1188],[9.6687,6.0793],[9.5943,6.0413],[9.5977,6.0053],[9.6213,5.9737],[9.5958,5.9209],[9.6448,5.887],[9.6875,5.8398],[9.7224,5.8465],[9.7584,5.8038],[9.7981,5.7791],[9.8675,5.7588],[9.9226,5.7306],[9.9795,5.7653],[10.0087,5.7511],[10.0929,5.7362],[10.1171,5.6801],[10.0655,5.6564],[10.0283,5.6193],[9.9674,5.5807],[9.9567,5.5594],[9.9492,5.4527],[9.8929,5.3691],[9.8709,5.3549]]]]},"properties":{"name":"South-West","id":"CM-SW","CNTRY":"Cameroon","TYPE":"Province"},"id":"CM-SW"}
]}