{"type":"FeatureCollection", "features": [
{"type":"Feature","geometry":{"type":"Polygon","coordinates":[[[19.0747,8.5692],[19.0725,8.4036],[19.02,8.3003],[19.0581,8.2364],[19.0586,8.0647],[19.0256,8.0167],[19.0322,7.9492],[18.98,7.7739],[19.0217,7.76],[18.7595,7.6369],[18.7181,7.6014],[18.8464,7.2511],[18.7764,7.2108],[18.7464,7.0975],[18.6967,6.9919],[18.6508,6.94],[18.7081,6.8886],[18.7458,6.7525],[18.8625,6.6878],[18.8617,6.6367],[18.7744,6.5869],[18.7525,6.5147],[18.7425,6.4767],[18.8639,6.3567],[18.8644,6.2364],[18.9114,6.2081],[18.7461,6.0603],[18.6214,5.9961],[18.6358,5.9436],[18.6078,5.8808],[18.6339,5.731],[18.5964,5.645],[18.4069,5.56],[18.3456,5.7592],[18.2756,5.7458],[18.2392,5.8047],[18.1239,5.7878],[18.0278,5.7972],[17.9875,5.8514],[17.9067,5.905],[17.8044,5.8339],[17.5989,5.7164],[17.0292,5.7086],[16.9731,5.8064],[16.9784,5.8587],[16.9358,5.9664],[16.9044,6.1094],[16.9542,6.1339],[16.9375,6.2194],[16.9547,6.2969],[17.1011,6.4514],[17.04,6.4889],[16.9619,6.4864],[16.9136,6.4533],[16.8511,6.4928],[16.7533,6.6506],[16.7256,6.7708],[16.7247,6.8817],[16.6764,6.9906],[16.7697,7.1236],[16.7528,7.1978],[16.7786,7.2631],[16.7919,7.3908],[16.8245,7.4128],[16.8223,7.5327],[16.896,7.5502],[16.9009,7.6165],[17.0492,7.6552],[17.1605,7.6668],[17.1657,7.7028],[17.3087,7.8277],[17.4678,7.8941],[17.5151,7.8687],[17.6717,7.9828],[17.9216,7.9586],[18.032,8.0093],[18.2704,8.0211],[18.6134,8.0502],[18.6281,8.1412],[18.6666,8.2058],[18.8044,8.2607],[18.8996,8.3641],[18.9217,8.4242],[19.0448,8.5701],[19.0747,8.5692]]]},"properties":{"name":"Ouham","id":"CF-AC","CNTRY":"Central African Republic","TYPE_ENG":"Prefecture"},"id":"CF-AC"},
{"type":"Feature","geometry":{"type":"Polygon","coordinates":[[[20.8045,9.4425],[20.8889,9.3764],[20.9358,9.4344],[21.0064,9.4594],[21.0453,9.5264],[21.1047,9.5558],[21.2589,9.5833],[21.3553,9.6961],[21.4972,9.7689],[21.5219,9.6014],[21.6197,9.5925],[21.7772,9.405],[21.7925,9.3014],[21.85,9.1819],[21.9989,9.0706],[22.0194,9.0069],[22.082,8.9361],[22.1225,8.7636],[22.2108,8.7019],[22.3258,8.6817],[22.3933,8.6508],[22.3911,8.5917],[22.3536,8.5653],[22.1686,8.5819],[22.0753,8.6233],[21.9919,8.5969],[21.9561,8.5242],[22.0003,8.3867],[21.9583,8.2897],[21.9897,8.2183],[21.8606,8.2022],[21.8358,8.2633],[21.7544,8.3372],[21.5978,8.2331],[21.5411,8.2558],[21.3786,8.15],[21.4528,8.0006],[21.1219,7.9997],[21.1294,7.9025],[21.1017,7.8475],[21.1308,7.7033],[21.0553,7.595],[21.0803,7.5133],[21.0194,7.4608],[20.9105,7.2964],[20.7958,7.2256],[20.6831,7.2422],[20.6414,7.1314],[20.5678,7.0678],[20.5128,7.0661],[20.4506,7.0189],[20.2314,7.0331],[20.1586,7.0925],[20.1294,7.0958],[20.005,7.2072],[19.8983,7.2706],[19.8942,7.3383],[19.8389,7.3664],[19.7619,7.4964],[19.7017,7.5589],[19.5811,7.5717],[19.5947,7.65],[19.5069,7.7353],[19.3678,7.7436],[19.3197,7.8108],[19.3531,7.9106],[19.3442,8.0147],[19.3656,8.1064],[19.3369,8.1658],[19.2342,8.2767],[19.2208,8.3422],[19.1458,8.4058],[19.0747,8.5692],[19.0448,8.5701],[19.1051,8.6987],[19.0145,8.7657],[18.9097,8.8069],[18.8683,8.8757],[18.9876,8.9752],[19.0917,9.0204],[19.1352,9.0045],[19.2184,9.0315],[19.3092,9.0078],[19.4391,9.0312],[19.523,9.0163],[19.672,9.0208],[19.8225,9.0643],[19.9271,9.0608],[20.0124,9.1261],[20.1015,9.1565],[20.2212,9.1518],[20.2736,9.1221],[20.3532,9.1282],[20.4503,9.1656],[20.5286,9.3371],[20.6379,9.3178],[20.6628,9.3953],[20.7608,9.4011],[20.8045,9.4425]]]},"properties":{"name":"Bamingui-Bangoran","id":"CF-BB","CNTRY":"Central African Republic","TYPE_ENG":"Prefecture"},"id":"CF-BB"},
{"type":"Feature","geometry":{"type":"Polygon","coordinates":[[[18.6675,4.352],[18.5685,4.3354],[18.5708,4.4203],[18.6359,4.427],[18.6675,4.352]]]},"properties":{"name":"Bangui","id":"CF-BGF","CNTRY":"Central African Republic","TYPE_ENG":"Autonomous Commune"},"id":"CF-BGF"},
{"type":"Feature","geometry":{"type":"Polygon","coordinates":[[[20.4525,4.5307],[20.5745,4.5903],[20.7111,4.7514],[20.8092,4.8011],[20.9058,4.8197],[20.8936,4.9394],[20.9386,5.0314],[20.9006,5.1214],[20.9542,5.2139],[20.9533,5.3808],[20.9892,5.4242],[20.9489,5.5319],[21.0264,5.552],[21.0581,5.6506],[21.1797,5.6719],[21.2353,5.6456],[21.3378,5.7161],[21.4508,5.6872],[21.5128,5.5053],[21.585,5.4636],[21.6364,5.4822],[21.6628,5.5492],[21.7517,5.5417],[21.9003,5.4775],[21.9069,5.3658],[21.8872,5.1925],[21.793,5.0908],[21.8314,4.9969],[21.7758,4.9172],[21.7706,4.8106],[21.7433,4.6878],[21.8192,4.685],[21.9142,4.6403],[21.9128,4.6036],[22.0014,4.5167],[22.1217,4.5392],[22.1514,4.508],[22.0639,4.3583],[22.0744,4.2914],[22.0356,4.2216],[21.8592,4.24],[21.7345,4.3039],[21.6506,4.3091],[21.5648,4.2473],[21.4278,4.2607],[21.3344,4.2939],[21.2822,4.3379],[21.2113,4.287],[21.1189,4.3361],[21.0753,4.3924],[20.8655,4.4458],[20.7945,4.414],[20.6127,4.4016],[20.4779,4.4855],[20.4525,4.5307]]]},"properties":{"name":"Basse-Kotto","id":"CF-BK","CNTRY":"Central African Republic","TYPE_ENG":"Prefecture"},"id":"CF-BK"},
{"type":"Feature","geometry":{"type":"Polygon","coordinates":[[[24.277,8.2725],[24.4203,8.1131],[24.4842,8.0583],[24.4622,7.9103],[24.5019,7.7128],[24.5036,7.6075],[24.5844,7.4803],[24.5092,7.3161],[24.5422,7.2481],[24.5553,7.0317],[24.4922,6.9753],[24.3497,6.9639],[24.3189,6.9342],[24.3281,6.84],[24.2607,6.7526],[23.5669,6.3747],[23.4433,6.2983],[23.3931,6.2094],[23.3161,6.2094],[23.272,6.0822],[22.8739,6.1872],[22.8386,6.26],[22.6808,6.2745],[22.5447,6.2461],[22.4672,6.082],[22.38,6.0358],[22.2889,6.0364],[22.2689,6.0647],[22.1617,6.022],[22.0742,5.8844],[22.072,5.7578],[22.0475,5.7283],[22.0739,5.6317],[21.9003,5.4775],[21.7517,5.5417],[21.6628,5.5492],[21.6619,5.5972],[21.7628,5.6767],[21.8583,5.6158],[21.9011,5.6717],[21.9403,5.8208],[21.9453,5.9097],[21.8878,6.0372],[21.8267,6.0433],[21.7897,6.18],[21.7369,6.2203],[21.7944,6.3047],[21.8092,6.3692],[21.7739,6.4414],[21.7944,6.5611],[21.7145,6.5867],[21.6394,6.687],[21.6078,6.7864],[21.6539,6.88],[21.6353,6.9806],[21.6044,6.9917],[21.5758,7.1761],[21.5833,7.2667],[21.5536,7.3117],[21.4206,7.3131],[21.4239,7.4775],[21.3925,7.5408],[21.3217,7.5956],[21.2139,7.6197],[21.1308,7.7033],[21.1017,7.8475],[21.1294,7.9025],[21.1219,7.9997],[21.4528,8.0006],[21.3786,8.15],[21.5411,8.2558],[21.5978,8.2331],[21.7544,8.3372],[21.8358,8.2633],[21.8606,8.2022],[21.9897,8.2183],[21.9583,8.2897],[22.0003,8.3867],[21.9561,8.5242],[21.9919,8.5969],[22.0753,8.6233],[22.1686,8.5819],[22.3536,8.5653],[22.3911,8.5917],[22.522,8.5861],[22.5811,8.6456],[22.6714,8.7],[22.815,8.7011],[22.9383,8.7514],[23.0381,8.7517],[23.0803,8.7878],[23.0925,8.9036],[23.2008,8.9822],[23.3203,9.0275],[23.3472,9.1733],[23.4158,9.2394],[23.4739,9.1288],[23.4656,8.9813],[23.5313,8.9635],[23.581,8.9027],[23.514,8.8261],[23.5201,8.727],[23.6296,8.7445],[23.7389,8.7161],[23.818,8.7369],[23.9406,8.73],[23.9944,8.708],[24.2599,8.6838],[24.2321,8.6318],[24.2698,8.5887],[24.1712,8.4815],[24.1534,8.3699],[24.2036,8.304],[24.277,8.2725]]]},"properties":{"name":"Haute-Kotto","id":"CF-HK","CNTRY":"Central African Republic","TYPE_ENG":"Prefecture"},"id":"CF-HK"},
{"type":"Feature","geometry":{"type":"Polygon","coordinates":[[[24.4782,5.0987],[24.6214,5.2614],[24.6956,5.2592],[24.7525,5.2975],[24.8706,5.3322],[24.8708,5.395],[24.9736,5.4489],[25.0111,5.5058],[25.0505,5.7378],[25.1175,5.8072],[25.1897,5.9164],[25.1544,5.9667],[25.0831,5.9978],[24.9825,6.0997],[24.9272,6.2047],[25.0006,6.2406],[25.0122,6.2892],[25.0736,6.2989],[25.0633,6.3667],[24.8792,6.4967],[24.7811,6.4858],[24.7006,6.3964],[24.5969,6.3833],[24.4597,6.527],[24.2607,6.7526],[24.3281,6.84],[24.3189,6.9342],[24.3497,6.9639],[24.4922,6.9753],[24.5553,7.0317],[24.5422,7.2481],[24.5092,7.3161],[24.5844,7.4803],[24.5036,7.6075],[24.5019,7.7128],[24.4622,7.9103],[24.4842,8.0583],[24.4203,8.1131],[24.277,8.2725],[24.3715,8.2514],[24.4755,8.2753],[24.554,8.2043],[24.647,8.2262],[24.7613,8.1836],[24.8648,8.1805],[24.9058,8.0516],[25.0932,7.8837],[25.1801,7.9029],[25.2896,7.7997],[25.2878,7.6389],[25.1754,7.5793],[25.2004,7.489],[25.3366,7.4217],[25.3611,7.3445],[25.5265,7.277],[25.598,7.2187],[25.8181,7.1492],[25.8169,7.1108],[25.9066,7.0831],[25.9293,7.0421],[26.0307,7.0075],[26.0856,6.8542],[26.1676,6.8132],[26.2628,6.709],[26.3575,6.689],[26.4151,6.6374],[26.2972,6.4939],[26.2979,6.3877],[26.3846,6.3123],[26.4756,6.2773],[26.5177,6.2264],[26.5097,6.1579],[26.5602,6.0333],[26.655,6.005],[26.7518,6.0132],[26.8105,5.9875],[26.833,5.9039],[26.9969,5.8583],[27.0509,5.7903],[27.1038,5.8007],[27.1883,5.7275],[27.2834,5.587],[27.2332,5.4268],[27.2489,5.3269],[27.3238,5.1993],[27.3966,5.1526],[27.4146,5.0878],[27.2318,5.1523],[27.1574,5.1996],[27.0787,5.2041],[26.9351,5.1342],[26.8722,5.0338],[26.8081,5.0491],[26.7725,5.1017],[26.5403,5.0465],[26.3909,5.1474],[26.2546,5.1715],[26.208,5.237],[26.141,5.2631],[26.0995,5.2082],[25.9666,5.223],[25.8985,5.1946],[25.8201,5.2459],[25.7492,5.2367],[25.7089,5.2971],[25.6239,5.3215],[25.5815,5.3752],[25.4975,5.3641],[25.3573,5.2863],[25.322,5.195],[25.3512,5.1141],[25.318,5.0362],[25.1364,5],[25,5],[24.7917,4.9069],[24.6581,4.9195],[24.6135,5.0305],[24.4782,5.0987]]]},"properties":{"name":"Haut-Mbomou","id":"CF-HM","CNTRY":"Central African Republic","TYPE_ENG":"Prefecture"},"id":"CF-HM"},
{"type":"Feature","geometry":{"type":"Polygon","coordinates":[[[16.5242,5.2742],[16.7111,5.3905],[16.7886,5.3467],[16.9192,5.3706],[17.0358,5.2894],[17.1222,5.1653],[16.9939,5.0905],[17.0379,5.023],[17.0275,4.9669],[16.8633,4.8789],[16.8397,4.8381],[16.8289,4.7272],[16.9292,4.5125],[16.9825,4.48],[17.0194,4.395],[16.9458,4.3872],[16.87,4.4181],[16.7786,4.3361],[16.7374,4.2443],[16.6645,4.2652],[16.6,4.1428],[16.6003,4.0414],[16.5472,3.9483],[16.4308,3.8322],[16.3847,3.8864],[16.3067,3.8897],[16.2267,3.9425],[16.0864,3.9917],[15.8797,3.9711],[15.6456,3.8692],[15.56,3.7475],[15.5,3.7392],[15.4464,3.7814],[15.281,3.6777],[15.2478,3.714],[15.1071,3.945],[15.0904,3.9959],[15.146,4.0334],[15.1144,4.1184],[15.0863,4.3067],[15.0162,4.4166],[14.8908,4.4669],[14.7579,4.5814],[14.724,4.6413],[14.7161,4.8631],[14.6857,4.9276],[14.6842,5.017],[14.8667,4.9911],[14.94,5.0108],[15.0064,4.9464],[15.0789,4.9986],[15.4258,5.0061],[15.4973,5.0549],[15.5575,5.0228],[15.7011,5.0339],[15.6672,5.1519],[15.7328,5.2367],[15.7758,5.2314],[15.7922,5.1217],[15.8211,5.06],[15.9408,5.1122],[15.9781,5.0619],[16.077,5.0811],[16.2628,5.1686],[16.4219,5.2242],[16.5242,5.2742]]]},"properties":{"name":"Haute-Sangha","id":"CF-HS","CNTRY":"Central African Republic","TYPE_ENG":"Prefecture"},"id":"CF-HS"},
{"type":"Feature","geometry":{"type":"Polygon","coordinates":[[[19.0747,8.5692],[19.1458,8.4058],[19.2208,8.3422],[19.2342,8.2767],[19.3369,8.1658],[19.3656,8.1064],[19.3442,8.0147],[19.3531,7.9106],[19.3197,7.8108],[19.3678,7.7436],[19.5069,7.7353],[19.5947,7.65],[19.5811,7.5717],[19.7017,7.5589],[19.7619,7.4964],[19.8389,7.3664],[19.8942,7.3383],[19.8983,7.2706],[20.005,7.2072],[20.1294,7.0958],[20.1586,7.0925],[20.1531,7.008],[20.1072,6.8817],[19.9331,6.7064],[19.8644,6.6233],[19.8797,6.4525],[19.8164,6.4797],[19.7431,6.4761],[19.5078,6.5058],[19.3358,6.4603],[19.1631,6.4333],[19.0714,6.4772],[19.0389,6.54],[18.9864,6.5528],[18.7525,6.5147],[18.7744,6.5869],[18.8617,6.6367],[18.8625,6.6878],[18.7458,6.7525],[18.7081,6.8886],[18.6508,6.94],[18.6967,6.9919],[18.7464,7.0975],[18.7764,7.2108],[18.8464,7.2511],[18.7181,7.6014],[18.7595,7.6369],[19.0217,7.76],[18.98,7.7739],[19.0322,7.9492],[19.0256,8.0167],[19.0586,8.0647],[19.0581,8.2364],[19.02,8.3003],[19.0725,8.4036],[19.0747,8.5692]]]},"properties":{"name":"Gribingui","id":"CF-KB","CNTRY":"Central African Republic","TYPE_ENG":"Economic Prefecture"},"id":"CF-KB"},
{"type":"Feature","geometry":{"type":"Polygon","coordinates":[[[18.7525,6.5147],[18.9864,6.5528],[19.0389,6.54],[19.0714,6.4772],[19.1631,6.4333],[19.3358,6.4603],[19.5078,6.5058],[19.7431,6.4761],[19.7833,6.3964],[19.8756,6.3353],[19.8408,6.2361],[19.8642,6.1925],[19.8447,6.1219],[19.7847,6.0397],[19.7012,5.9975],[19.5908,5.9136],[19.6233,5.7975],[19.6689,5.7439],[19.6544,5.6569],[19.5567,5.578],[19.4731,5.5642],[19.5111,5.4833],[20.0153,5.4911],[20.0114,5.4342],[19.9539,5.3222],[19.9378,5.1258],[19.8546,5.0639],[19.8252,5.0934],[19.6964,5.133],[19.5549,5.1457],[19.4299,5.13],[19.2413,5.0069],[19.2024,4.9422],[19.1159,4.9339],[19.0908,5.0456],[19.0542,5.0695],[18.9853,5.1872],[19.0289,5.3381],[18.9789,5.435],[18.8817,5.5092],[18.8572,5.6358],[18.6908,5.6567],[18.6339,5.731],[18.6078,5.8808],[18.6358,5.9436],[18.6214,5.9961],[18.7461,6.0603],[18.9114,6.2081],[18.8644,6.2364],[18.8639,6.3567],[18.7425,6.4767],[18.7525,6.5147]]]},"properties":{"name":"Kémo-Gribingui","id":"CF-KG","CNTRY":"Central African Republic","TYPE_ENG":"Prefecture"},"id":"CF-KG"},
{"type":"Feature","geometry":{"type":"Polygon","coordinates":[[[17.0379,5.023],[17.135,5.04],[17.1586,4.9933],[17.2256,4.9678],[17.3047,4.8747],[17.4517,4.8075],[17.5111,4.7392],[17.5397,4.5847],[17.5897,4.5247],[17.6558,4.5089],[17.76,4.5392],[17.8325,4.4694],[17.9011,4.4497],[17.95,4.4786],[18.1203,4.4625],[18.1975,4.3436],[18.2883,4.3231],[18.3444,4.2233],[18.3506,4.0592],[18.5069,3.9039],[18.5965,3.8556],[18.5871,3.7514],[18.6184,3.5334],[18.4868,3.6533],[18.4197,3.609],[18.2677,3.5916],[18.2415,3.5004],[18.189,3.4812],[18.1052,3.5714],[17.9193,3.5735],[17.8591,3.533],[17.829,3.6267],[17.733,3.6512],[17.6063,3.6413],[17.5437,3.6859],[17.4619,3.6992],[17.4151,3.6724],[17.3192,3.8175],[17.1642,3.8881],[16.9706,3.9458],[16.9203,3.9914],[16.8258,4.1542],[16.7374,4.2443],[16.7786,4.3361],[16.87,4.4181],[16.9458,4.3872],[17.0194,4.395],[16.9825,4.48],[16.9292,4.5125],[16.8289,4.7272],[16.8397,4.8381],[16.8633,4.8789],[17.0275,4.9669],[17.0379,5.023]]]},"properties":{"name":"Lobaye","id":"CF-LB","CNTRY":"Central African Republic","TYPE_ENG":"Prefecture"},"id":"CF-LB"},
{"type":"Feature","geometry":{"type":"Polygon","coordinates":[[[24.2607,6.7526],[24.4597,6.527],[24.5969,6.3833],[24.7006,6.3964],[24.7811,6.4858],[24.8792,6.4967],[25.0633,6.3667],[25.0736,6.2989],[25.0122,6.2892],[25.0006,6.2406],[24.9272,6.2047],[24.9825,6.0997],[25.0831,5.9978],[25.1544,5.9667],[25.1897,5.9164],[25.1175,5.8072],[25.0505,5.7378],[25.0111,5.5058],[24.9736,5.4489],[24.8708,5.395],[24.8706,5.3322],[24.7525,5.2975],[24.6956,5.2592],[24.6214,5.2614],[24.4782,5.0987],[24.3894,5.1092],[24.3753,5.0084],[24.2983,5.0029],[24.1605,4.8949],[24.0903,4.9103],[23.9762,4.8562],[23.9498,4.8094],[23.8335,4.8294],[23.7706,4.7796],[23.7091,4.7823],[23.5821,4.733],[23.5007,4.6733],[23.431,4.6502],[23.4209,4.5889],[23.3312,4.6022],[23.2084,4.6922],[23.1716,4.7382],[23.1133,4.708],[23.0128,4.7534],[22.9838,4.8233],[22.9067,4.8179],[22.9026,4.7571],[22.8456,4.7018],[22.7834,4.7044],[22.7395,4.6249],[22.699,4.4717],[22.5992,4.4717],[22.5504,4.2154],[22.4541,4.1279],[22.2663,4.1144],[22.1638,4.1541],[22.0953,4.2117],[22.0356,4.2216],[22.0744,4.2914],[22.0639,4.3583],[22.1514,4.508],[22.1217,4.5392],[22.0014,4.5167],[21.9128,4.6036],[21.9142,4.6403],[21.8192,4.685],[21.7433,4.6878],[21.7706,4.8106],[21.7758,4.9172],[21.8314,4.9969],[21.793,5.0908],[21.8872,5.1925],[21.9069,5.3658],[21.9003,5.4775],[22.0739,5.6317],[22.0475,5.7283],[22.072,5.7578],[22.0742,5.8844],[22.1617,6.022],[22.2689,6.0647],[22.2889,6.0364],[22.38,6.0358],[22.4672,6.082],[22.5447,6.2461],[22.6808,6.2745],[22.8386,6.26],[22.8739,6.1872],[23.272,6.0822],[23.3161,6.2094],[23.3931,6.2094],[23.4433,6.2983],[23.5669,6.3747],[24.2607,6.7526]]]},"properties":{"name":"Mbomou","id":"CF-MB","CNTRY":"Central African Republic","TYPE_ENG":"Prefecture"},"id":"CF-MB"},
{"type":"Feature","geometry":{"type":"Polygon","coordinates":[[[16.9784,5.8587],[16.9731,5.8064],[17.0292,5.7086],[17.5989,5.7164],[17.8044,5.8339],[17.9067,5.905],[17.9875,5.8514],[18.0278,5.7972],[18.1239,5.7878],[18.2392,5.8047],[18.2756,5.7458],[18.3456,5.7592],[18.4069,5.56],[18.5964,5.645],[18.6339,5.731],[18.6908,5.6567],[18.8572,5.6358],[18.8817,5.5092],[18.9789,5.435],[19.0289,5.3381],[18.9853,5.1872],[19.0542,5.0695],[19.0908,5.0456],[19.1159,4.9339],[19.0765,4.8949],[19.0097,4.7533],[18.906,4.656],[18.8318,4.5583],[18.7908,4.4172],[18.7333,4.3636],[18.6675,4.352],[18.6359,4.427],[18.5708,4.4203],[18.5685,4.3354],[18.5462,4.3015],[18.6184,4.1667],[18.6489,4.0764],[18.6523,3.9779],[18.5965,3.8556],[18.5069,3.9039],[18.3506,4.0592],[18.3444,4.2233],[18.2883,4.3231],[18.1975,4.3436],[18.1203,4.4625],[17.95,4.4786],[17.9011,4.4497],[17.8325,4.4694],[17.76,4.5392],[17.6558,4.5089],[17.5897,4.5247],[17.5397,4.5847],[17.5111,4.7392],[17.4517,4.8075],[17.3047,4.8747],[17.2256,4.9678],[17.1586,4.9933],[17.135,5.04],[17.0379,5.023],[16.9939,5.0905],[17.1222,5.1653],[17.0358,5.2894],[16.9192,5.3706],[16.7886,5.3467],[16.7111,5.3905],[16.5242,5.2742],[16.4894,5.3914],[16.5147,5.5683],[16.6083,5.6236],[16.68,5.6975],[16.6881,5.7419],[16.7633,5.7975],[16.9336,5.8289],[16.9784,5.8587]]]},"properties":{"name":"Ombella-Mpoko","id":"CF-MP","CNTRY":"Central African Republic","TYPE_ENG":"Prefecture"},"id":"CF-MP"},
{"type":"Feature","geometry":{"type":"Polygon","coordinates":[[[14.9422,6.6889],[14.9914,6.6842],[15.1767,6.7572],[15.1917,6.6872],[15.2828,6.6214],[15.3044,6.5747],[15.3275,6.4225],[15.3858,6.3247],[15.4258,6.2958],[15.7078,6.3861],[15.7533,6.4261],[15.7894,6.3678],[15.7017,6.2703],[15.7925,6.1508],[15.8128,5.9347],[15.8722,5.8811],[15.9431,5.8572],[15.9839,5.8053],[16.0667,5.7867],[16.1589,5.8311],[16.1925,5.9092],[16.2572,5.8553],[16.3172,5.7722],[16.4533,5.6789],[16.5147,5.5683],[16.4894,5.3914],[16.5242,5.2742],[16.4219,5.2242],[16.2628,5.1686],[16.077,5.0811],[15.9781,5.0619],[15.9408,5.1122],[15.8211,5.06],[15.7922,5.1217],[15.7758,5.2314],[15.7328,5.2367],[15.6672,5.1519],[15.7011,5.0339],[15.5575,5.0228],[15.4973,5.0549],[15.4258,5.0061],[15.0789,4.9986],[15.0064,4.9464],[14.94,5.0108],[14.8667,4.9911],[14.6842,5.017],[14.6955,5.096],[14.6706,5.193],[14.579,5.2257],[14.5279,5.278],[14.6018,5.4],[14.631,5.5066],[14.5951,5.5874],[14.628,5.6984],[14.6213,5.8962],[14.4936,5.9144],[14.4219,6.0318],[14.562,6.1901],[14.7507,6.261],[14.8159,6.3604],[14.8134,6.4091],[14.9422,6.6889]]]},"properties":{"name":"Nana-Mambéré","id":"CF-NM","CNTRY":"Central African Republic","TYPE_ENG":"Prefecture"},"id":"CF-NM"},
{"type":"Feature","geometry":{"type":"Polygon","coordinates":[[[16.8223,7.5327],[16.8245,7.4128],[16.7919,7.3908],[16.7786,7.2631],[16.7528,7.1978],[16.7697,7.1236],[16.6764,6.9906],[16.7247,6.8817],[16.7256,6.7708],[16.7533,6.6506],[16.8511,6.4928],[16.9136,6.4533],[16.9619,6.4864],[17.04,6.4889],[17.1011,6.4514],[16.9547,6.2969],[16.9375,6.2194],[16.9542,6.1339],[16.9044,6.1094],[16.9358,5.9664],[16.9784,5.8587],[16.9336,5.8289],[16.7633,5.7975],[16.6881,5.7419],[16.68,5.6975],[16.6083,5.6236],[16.5147,5.5683],[16.4533,5.6789],[16.3172,5.7722],[16.2572,5.8553],[16.1925,5.9092],[16.1589,5.8311],[16.0667,5.7867],[15.9839,5.8053],[15.9431,5.8572],[15.8722,5.8811],[15.8128,5.9347],[15.7925,6.1508],[15.7017,6.2703],[15.7894,6.3678],[15.7533,6.4261],[15.7078,6.3861],[15.4258,6.2958],[15.3858,6.3247],[15.3275,6.4225],[15.3044,6.5747],[15.2828,6.6214],[15.1917,6.6872],[15.1767,6.7572],[14.9914,6.6842],[14.9422,6.6889],[14.9708,6.7489],[15.0665,6.7762],[15.1443,6.9466],[15.1487,7.0279],[15.2253,7.1375],[15.2162,7.2248],[15.2624,7.2768],[15.4278,7.4149],[15.5028,7.5251],[15.5604,7.5105],[15.7279,7.5191],[15.8096,7.4411],[15.9748,7.4833],[16.1046,7.5916],[16.2355,7.6067],[16.3015,7.6518],[16.3928,7.6711],[16.4305,7.7187],[16.439,7.8052],[16.4891,7.7903],[16.5188,7.8457],[16.5837,7.8339],[16.5945,7.7689],[16.668,7.7382],[16.6672,7.6687],[16.7268,7.6502],[16.8223,7.5327]]]},"properties":{"name":"Ouham-Pendé","id":"CF-OP","CNTRY":"Central African Republic","TYPE_ENG":"Prefecture"},"id":"CF-OP"},
{"type":"Feature","geometry":{"type":"Polygon","coordinates":[[[16.7374,4.2443],[16.8258,4.1542],[16.9203,3.9914],[16.9706,3.9458],[17.1642,3.8881],[17.3192,3.8175],[17.4151,3.6724],[17.3627,3.607],[17.2988,3.6301],[17.2483,3.5833],[17.0581,3.5481],[16.8737,3.5575],[16.8518,3.5106],[16.7545,3.5571],[16.672,3.5418],[16.5933,3.4667],[16.5584,3.2534],[16.5058,3.1599],[16.5445,3.0657],[16.4934,3.0043],[16.4903,2.9093],[16.5201,2.8423],[16.192,2.2205],[16.1487,2.3496],[16.0756,2.4652],[16.0849,2.5972],[16.051,2.791],[16.0903,2.8346],[16.0732,2.9034],[16.0051,3.0008],[15.9691,2.9876],[15.8882,3.0962],[15.7982,3.1],[15.5073,3.4405],[15.281,3.6777],[15.4464,3.7814],[15.5,3.7392],[15.56,3.7475],[15.6456,3.8692],[15.8797,3.9711],[16.0864,3.9917],[16.2267,3.9425],[16.3067,3.8897],[16.3847,3.8864],[16.4308,3.8322],[16.5472,3.9483],[16.6003,4.0414],[16.6,4.1428],[16.6645,4.2652],[16.7374,4.2443]]]},"properties":{"name":"Sangha","id":"CF-SE","CNTRY":"Central African Republic","TYPE_ENG":"Economic Prefecture"},"id":"CF-SE"},
{"type":"Feature","geometry":{"type":"Polygon","coordinates":[[[21.1308,7.7033],[21.2139,7.6197],[21.3217,7.5956],[21.3925,7.5408],[21.4239,7.4775],[21.4206,7.3131],[21.5536,7.3117],[21.5833,7.2667],[21.5758,7.1761],[21.6044,6.9917],[21.6353,6.9806],[21.6539,6.88],[21.6078,6.7864],[21.6394,6.687],[21.7145,6.5867],[21.7944,6.5611],[21.7739,6.4414],[21.8092,6.3692],[21.7944,6.3047],[21.7369,6.2203],[21.7897,6.18],[21.8267,6.0433],[21.8878,6.0372],[21.9453,5.9097],[21.9403,5.8208],[21.9011,5.6717],[21.8583,5.6158],[21.7628,5.6767],[21.6619,5.5972],[21.6628,5.5492],[21.6364,5.4822],[21.585,5.4636],[21.5128,5.5053],[21.4508,5.6872],[21.3378,5.7161],[21.2353,5.6456],[21.1797,5.6719],[21.0581,5.6506],[21.0264,5.552],[20.9489,5.5319],[20.9892,5.4242],[20.9533,5.3808],[20.9542,5.2139],[20.9006,5.1214],[20.9386,5.0314],[20.8936,4.9394],[20.9058,4.8197],[20.8092,4.8011],[20.7111,4.7514],[20.5745,4.5903],[20.4525,4.5307],[20.4534,4.6274],[20.3431,4.7512],[20.1963,4.8273],[20.1568,4.8759],[20.024,4.9659],[19.9151,4.9795],[19.8546,5.0639],[19.9378,5.1258],[19.9539,5.3222],[20.0114,5.4342],[20.0153,5.4911],[19.5111,5.4833],[19.4731,5.5642],[19.5567,5.578],[19.6544,5.6569],[19.6689,5.7439],[19.6233,5.7975],[19.5908,5.9136],[19.7012,5.9975],[19.7847,6.0397],[19.8447,6.1219],[19.8642,6.1925],[19.8408,6.2361],[19.8756,6.3353],[19.7833,6.3964],[19.7431,6.4761],[19.8164,6.4797],[19.8797,6.4525],[19.8644,6.6233],[19.9331,6.7064],[20.1072,6.8817],[20.1531,7.008],[20.1586,7.0925],[20.2314,7.0331],[20.4506,7.0189],[20.5128,7.0661],[20.5678,7.0678],[20.6414,7.1314],[20.6831,7.2422],[20.7958,7.2256],[20.9105,7.2964],[21.0194,7.4608],[21.0803,7.5133],[21.0553,7.595],[21.1308,7.7033]]]},"properties":{"name":"Ouaka","id":"CF-UK","CNTRY":"Central African Republic","TYPE_ENG":"Prefecture"},"id":"CF-UK"},
{"type":"Feature","geometry":{"type":"Polygon","coordinates":[[[23.4739,9.1288],[23.4158,9.2394],[23.3472,9.1733],[23.3203,9.0275],[23.2008,8.9822],[23.0925,8.9036],[23.0803,8.7878],[23.0381,8.7517],[22.9383,8.7514],[22.815,8.7011],[22.6714,8.7],[22.5811,8.6456],[22.522,8.5861],[22.3911,8.5917],[22.3933,8.6508],[22.3258,8.6817],[22.2108,8.7019],[22.1225,8.7636],[22.082,8.9361],[22.0194,9.0069],[21.9989,9.0706],[21.85,9.1819],[21.7925,9.3014],[21.7772,9.405],[21.6197,9.5925],[21.5219,9.6014],[21.4972,9.7689],[21.3553,9.6961],[21.2589,9.5833],[21.1047,9.5558],[21.0453,9.5264],[21.0064,9.4594],[20.9358,9.4344],[20.8889,9.3764],[20.8045,9.4425],[20.9153,9.5254],[20.9515,9.6164],[21.0305,9.7285],[21.1153,9.7919],[21.1331,9.8479],[21.199,9.8953],[21.2541,9.9904],[21.3547,9.9703],[21.455,10.087],[21.4681,10.1522],[21.5613,10.2104],[21.6757,10.2376],[21.7374,10.3202],[21.771,10.4117],[21.7176,10.5079],[21.7336,10.654],[21.7886,10.6694],[21.7885,10.7946],[21.8808,10.8699],[22.0742,10.8958],[22.1518,10.876],[22.1955,10.9086],[22.3269,10.9558],[22.4243,10.9707],[22.5091,11.0073],[22.7343,10.9745],[22.7687,10.9441],[22.8813,10.9309],[22.8853,10.8947],[22.9762,10.7782],[22.9985,10.7248],[23.13,10.6399],[23.2638,10.4946],[23.3019,10.4746],[23.6682,9.8915],[23.6979,9.6677],[23.6286,9.5421],[23.6553,9.2857],[23.5458,9.1776],[23.4739,9.1288]]]},"properties":{"name":"Vakaga","id":"CF-VK","CNTRY":"Central African Republic","TYPE_ENG":"Prefecture"},"id":"CF-VK"}
]}