{"type":"FeatureCollection", "features": [
{"type":"Feature","geometry":{"type":"MultiPolygon","coordinates":[[[[-2.2096,49.6977],[-2.2079,49.6976],[-2.2079,49.6968],[-2.2099,49.6963],[-2.2121,49.6979],[-2.2096,49.6977]]],[[[-2.1776,49.7335],[-2.1737,49.7315],[-2.174,49.7304],[-2.1718,49.729],[-2.171,49.7313],[-2.1699,49.7313],[-2.1685,49.7301],[-2.1676,49.7318],[-2.166,49.7318],[-2.1657,49.7307],[-2.1649,49.7304],[-2.1646,49.7321],[-2.1637,49.7326],[-2.1624,49.7326],[-2.1599,49.7313],[-2.1612,49.7307],[-2.1615,49.7299],[-2.1582,49.7301],[-2.1579,49.7285],[-2.1585,49.7274],[-2.1557,49.7271],[-2.156,49.7257],[-2.1576,49.7249],[-2.1604,49.7243],[-2.1607,49.7235],[-2.1624,49.7238],[-2.1646,49.7204],[-2.169,49.721],[-2.171,49.7221],[-2.1737,49.7218],[-2.1746,49.7207],[-2.1721,49.7193],[-2.1721,49.7163],[-2.1746,49.7157],[-2.1751,49.7135],[-2.1765,49.714],[-2.1807,49.7143],[-2.1807,49.7121],[-2.1832,49.7124],[-2.1835,49.711],[-2.1849,49.711],[-2.1857,49.7101],[-2.1871,49.7104],[-2.1865,49.709],[-2.1874,49.7085],[-2.1896,49.7085],[-2.1901,49.7071],[-2.1915,49.7062],[-2.1965,49.7054],[-2.2035,49.7051],[-2.2051,49.7046],[-2.2071,49.7026],[-2.2085,49.7032],[-2.2101,49.7026],[-2.2113,49.701],[-2.2154,49.701],[-2.216,49.7015],[-2.2182,49.7007],[-2.2204,49.6993],[-2.2224,49.6999],[-2.2232,49.701],[-2.2246,49.701],[-2.2263,49.7018],[-2.2282,49.7001],[-2.2299,49.7007],[-2.2318,49.7007],[-2.2335,49.7018],[-2.234,49.7035],[-2.2349,49.7038],[-2.234,49.7054],[-2.2357,49.7068],[-2.2357,49.7079],[-2.234,49.7082],[-2.2357,49.7093],[-2.236,49.7107],[-2.2332,49.7101],[-2.2321,49.7113],[-2.2307,49.7113],[-2.2296,49.7121],[-2.2296,49.7132],[-2.2315,49.7132],[-2.2321,49.7124],[-2.2354,49.7124],[-2.2349,49.7149],[-2.2265,49.7149],[-2.2246,49.716],[-2.2232,49.716],[-2.2215,49.7174],[-2.2215,49.7193],[-2.2238,49.7193],[-2.2232,49.7212],[-2.2179,49.7218],[-2.2168,49.721],[-2.214,49.7212],[-2.214,49.7207],[-2.2101,49.7207],[-2.2085,49.7212],[-2.2079,49.7226],[-2.2057,49.721],[-2.2049,49.721],[-2.2043,49.7229],[-2.2051,49.724],[-2.2065,49.7243],[-2.206,49.7262],[-2.2046,49.7262],[-2.2018,49.7246],[-2.2015,49.7254],[-2.2032,49.7268],[-2.199,49.726],[-2.199,49.7235],[-2.1979,49.7218],[-2.196,49.721],[-2.1926,49.7218],[-2.1885,49.7218],[-2.1871,49.7238],[-2.1862,49.7238],[-2.1865,49.7251],[-2.1882,49.7251],[-2.1888,49.7257],[-2.1888,49.7282],[-2.186,49.7282],[-2.186,49.731],[-2.1846,49.731],[-2.1843,49.7326],[-2.1829,49.7326],[-2.1815,49.7315],[-2.1812,49.7293],[-2.1793,49.7293],[-2.1796,49.7301],[-2.1807,49.7307],[-2.1807,49.7318],[-2.1796,49.7332],[-2.1776,49.7335]]],[[[-2.3737,49.7229],[-2.3724,49.7224],[-2.3737,49.7212],[-2.3754,49.7212],[-2.3763,49.7204],[-2.3776,49.721],[-2.3796,49.7207],[-2.3771,49.7229],[-2.3737,49.7229]]],[[[-2.2393,49.7057],[-2.2365,49.7046],[-2.2365,49.7032],[-2.2413,49.7032],[-2.2421,49.7038],[-2.2415,49.7057],[-2.2393,49.7057]]],[[[-2.1668,49.7199],[-2.1657,49.7185],[-2.166,49.7174],[-2.1676,49.7176],[-2.1688,49.7171],[-2.1693,49.7182],[-2.1682,49.7196],[-2.1668,49.7199]]],[[[-2.2751,49.736],[-2.274,49.7343],[-2.276,49.7343],[-2.2771,49.7335],[-2.279,49.7335],[-2.2796,49.7349],[-2.2782,49.7349],[-2.2751,49.736]]],[[[-2.2474,49.7337],[-2.246,49.7326],[-2.246,49.7315],[-2.2468,49.7313],[-2.2468,49.7301],[-2.2496,49.7301],[-2.2493,49.7285],[-2.2532,49.7287],[-2.2546,49.7279],[-2.2565,49.7279],[-2.2571,49.729],[-2.2582,49.7285],[-2.2596,49.7285],[-2.261,49.7262],[-2.2624,49.7262],[-2.2632,49.7274],[-2.2632,49.729],[-2.2618,49.7301],[-2.2601,49.7301],[-2.2582,49.7315],[-2.2518,49.7324],[-2.2512,49.7332],[-2.2474,49.7337]]]]},"properties":{"name":"Alderney","id":"GG-AL","CNTRY":"Guernsey","TYPE":"Parish"},"id":"GG-AL"},
{"type":"Feature","geometry":{"type":"Polygon","coordinates":[[[-2.3862,49.4354],[-2.3838,49.4349],[-2.3829,49.4343],[-2.3829,49.4332],[-2.3818,49.4329],[-2.3818,49.4313],[-2.3812,49.431],[-2.3815,49.4296],[-2.3826,49.4299],[-2.3865,49.4299],[-2.3868,49.4293],[-2.3846,49.429],[-2.3846,49.4282],[-2.3885,49.4282],[-2.3885,49.4285],[-2.3929,49.4287],[-2.3929,49.4299],[-2.3907,49.4299],[-2.3907,49.4307],[-2.3932,49.4307],[-2.3957,49.431],[-2.3968,49.4318],[-2.3968,49.4329],[-2.3943,49.4332],[-2.3938,49.4346],[-2.3876,49.4346],[-2.3862,49.4354]]]},"properties":{"name":"Brecqhou","id":"GG-BQ","CNTRY":"Guernsey","TYPE":"Parish"},"id":"GG-BQ"},
{"type":"Feature","geometry":{"type":"Polygon","coordinates":[[[-2.5685,49.4671],[-2.5697,49.4629],[-2.5752,49.4569],[-2.5833,49.4516],[-2.5894,49.4453],[-2.5907,49.4464],[-2.6038,49.4456],[-2.6064,49.4475],[-2.6122,49.4476],[-2.6154,49.4488],[-2.6242,49.4545],[-2.6256,49.4626],[-2.6246,49.4651],[-2.6235,49.4646],[-2.6218,49.4632],[-2.619,49.4632],[-2.6171,49.4635],[-2.6168,49.464],[-2.6151,49.464],[-2.6146,49.4646],[-2.6124,49.4646],[-2.6124,49.4651],[-2.6099,49.4651],[-2.6082,49.466],[-2.6065,49.4696],[-2.6065,49.4712],[-2.6071,49.4721],[-2.609,49.4718],[-2.6104,49.4721],[-2.6118,49.4735],[-2.6149,49.4735],[-2.616,49.474],[-2.6163,49.4762],[-2.6129,49.476],[-2.6121,49.4754],[-2.6107,49.4754],[-2.6101,49.4749],[-2.6088,49.4749],[-2.6079,49.476],[-2.6063,49.4762],[-2.6051,49.474],[-2.6043,49.4738],[-2.6038,49.4762],[-2.6015,49.4754],[-2.6012,49.4768],[-2.5985,49.4757],[-2.5957,49.4757],[-2.5937,49.4765],[-2.5918,49.4768],[-2.5912,49.4787],[-2.5899,49.4801],[-2.589,49.4804],[-2.5882,49.4826],[-2.5874,49.4837],[-2.5874,49.4857],[-2.589,49.4863],[-2.5899,49.4871],[-2.5935,49.4868],[-2.5946,49.4876],[-2.5957,49.4874],[-2.596,49.4888],[-2.5946,49.4901],[-2.5937,49.4901],[-2.5929,49.4888],[-2.5912,49.4882],[-2.5904,49.4893],[-2.5876,49.489],[-2.5876,49.4907],[-2.5851,49.4907],[-2.5846,49.4899],[-2.5824,49.4899],[-2.5815,49.4888],[-2.5818,49.4871],[-2.5807,49.4871],[-2.5797,49.4831],[-2.5791,49.4825],[-2.5791,49.4807],[-2.5766,49.4787],[-2.5746,49.4787],[-2.5745,49.4745],[-2.5738,49.4736],[-2.5712,49.4736],[-2.5678,49.4699],[-2.5685,49.4689],[-2.5685,49.4671]]]},"properties":{"name":"Castel\r\n","id":"GG-CA","CNTRY":"Guernsey","TYPE":"Parish"},"id":"GG-CA"},
{"type":"Feature","geometry":{"type":"Polygon","coordinates":[[[-2.6089,49.4312],[-2.6085,49.4326],[-2.6043,49.433],[-2.5975,49.4358],[-2.5831,49.4365],[-2.5829,49.4344],[-2.5804,49.4335],[-2.5772,49.4342],[-2.5759,49.4335],[-2.5774,49.4298],[-2.5805,49.4285],[-2.5763,49.4281],[-2.576,49.4272],[-2.579,49.4265],[-2.5796,49.4243],[-2.581,49.4246],[-2.5826,49.4224],[-2.5818,49.4218],[-2.5824,49.4204],[-2.5843,49.4204],[-2.5851,49.419],[-2.5885,49.4188],[-2.591,49.4193],[-2.5904,49.4176],[-2.5899,49.4174],[-2.5901,49.416],[-2.5915,49.4165],[-2.5937,49.4168],[-2.5943,49.4179],[-2.5954,49.4182],[-2.5993,49.4182],[-2.6026,49.4185],[-2.6032,49.4193],[-2.6063,49.4185],[-2.6079,49.4193],[-2.6099,49.419],[-2.6113,49.4176],[-2.6121,49.4174],[-2.613,49.4208],[-2.6141,49.4216],[-2.6148,49.4243],[-2.6139,49.4263],[-2.6099,49.4287],[-2.6089,49.4312]]]},"properties":{"name":"Forest","id":"GG-FO","CNTRY":"Guernsey","TYPE":"Parish"},"id":"GG-FO"},
{"type":"Feature","geometry":{"type":"Polygon","coordinates":[[[-2.4485,49.4835],[-2.4476,49.4821],[-2.4476,49.4799],[-2.4479,49.4787],[-2.4476,49.4771],[-2.4465,49.476],[-2.4443,49.4751],[-2.4429,49.4718],[-2.4407,49.4701],[-2.4421,49.4693],[-2.4435,49.4679],[-2.4429,49.4657],[-2.4451,49.464],[-2.4485,49.4637],[-2.4507,49.4624],[-2.4524,49.4629],[-2.4535,49.4643],[-2.4535,49.4663],[-2.4546,49.4676],[-2.454,49.4693],[-2.4521,49.4712],[-2.4526,49.4724],[-2.4537,49.4729],[-2.4546,49.4754],[-2.456,49.4771],[-2.4585,49.4776],[-2.4585,49.4799],[-2.4557,49.4807],[-2.4526,49.4813],[-2.4513,49.4824],[-2.4496,49.4824],[-2.4485,49.4835]]]},"properties":{"name":"Herm\r\n","id":"GG-HM","CNTRY":"Guernsey","TYPE":"Parish"},"id":"GG-HM"},
{"type":"Feature","geometry":{"type":"MultiPolygon","coordinates":[[[[-2.461,49.4615],[-2.4596,49.461],[-2.4593,49.4599],[-2.4582,49.4593],[-2.4601,49.4571],[-2.4621,49.4562],[-2.4626,49.4554],[-2.4649,49.4557],[-2.4662,49.4579],[-2.466,49.4593],[-2.464,49.4607],[-2.461,49.4615]]],[[[-2.4635,49.4637],[-2.4626,49.4618],[-2.4654,49.4615],[-2.4662,49.4637],[-2.4635,49.4637]]]]},"properties":{"name":"Jethou\r\n","id":"GG-JT","CNTRY":"Guernsey","TYPE":"Parish"},"id":"GG-JT"},
{"type":"Feature","geometry":{"type":"Polygon","coordinates":[[[-2.5577,49.4497],[-2.5597,49.448],[-2.5598,49.445],[-2.5687,49.441],[-2.5688,49.439],[-2.5746,49.4366],[-2.5831,49.4365],[-2.5975,49.4358],[-2.5939,49.4411],[-2.5894,49.4453],[-2.5833,49.4516],[-2.5752,49.4569],[-2.5697,49.4629],[-2.5685,49.4671],[-2.5661,49.4674],[-2.5651,49.4622],[-2.5593,49.4553],[-2.5584,49.4504],[-2.5577,49.4497]]]},"properties":{"name":"Saint Andrew","id":"GG-AN","CNTRY":"Guernsey","TYPE":"Parish"},"id":"GG-AN"},
{"type":"Feature","geometry":{"type":"Polygon","coordinates":[[[-2.5796,49.4243],[-2.579,49.4265],[-2.576,49.4272],[-2.5763,49.4281],[-2.5805,49.4285],[-2.5774,49.4298],[-2.5759,49.4335],[-2.5772,49.4342],[-2.5804,49.4335],[-2.5829,49.4344],[-2.5831,49.4365],[-2.5746,49.4366],[-2.5688,49.439],[-2.5687,49.441],[-2.5598,49.445],[-2.5597,49.448],[-2.5577,49.4497],[-2.5552,49.4482],[-2.555,49.4463],[-2.5493,49.4463],[-2.5457,49.447],[-2.5435,49.4447],[-2.5428,49.4386],[-2.536,49.4354],[-2.5362,49.4343],[-2.5354,49.4335],[-2.5329,49.4329],[-2.5326,49.4313],[-2.5307,49.4301],[-2.531,49.4285],[-2.5293,49.4276],[-2.5288,49.4249],[-2.5274,49.424],[-2.5274,49.421],[-2.5287,49.4218],[-2.5304,49.4221],[-2.5313,49.4204],[-2.5313,49.419],[-2.5326,49.4193],[-2.5368,49.4188],[-2.5371,49.4179],[-2.5385,49.4171],[-2.5418,49.4171],[-2.5418,49.4182],[-2.5401,49.4185],[-2.5412,49.4193],[-2.5407,49.421],[-2.541,49.4226],[-2.539,49.4238],[-2.5396,49.4251],[-2.5418,49.4249],[-2.5435,49.4257],[-2.5446,49.4257],[-2.5471,49.4262],[-2.5496,49.4232],[-2.5515,49.4235],[-2.5518,49.4226],[-2.5529,49.4221],[-2.5549,49.4221],[-2.5565,49.4229],[-2.5568,49.4218],[-2.556,49.4207],[-2.556,49.4196],[-2.5571,49.419],[-2.5585,49.419],[-2.5587,49.4182],[-2.5599,49.4179],[-2.5615,49.416],[-2.5643,49.4162],[-2.564,49.4176],[-2.5662,49.4188],[-2.5674,49.4204],[-2.5668,49.4215],[-2.5674,49.4229],[-2.5699,49.4224],[-2.571,49.4235],[-2.5721,49.4226],[-2.5746,49.4235],[-2.5785,49.4238],[-2.5796,49.4243]]]},"properties":{"name":"Saint Martin\r\n","id":"GG-MA","CNTRY":"Guernsey","TYPE":"Parish"},"id":"GG-MA"},
{"type":"Feature","geometry":{"type":"Polygon","coordinates":[[[-2.534,49.4688],[-2.5357,49.4663],[-2.5357,49.4646],[-2.5335,49.4632],[-2.531,49.4629],[-2.5304,49.4621],[-2.529,49.4621],[-2.5282,49.4607],[-2.5282,49.4593],[-2.5257,49.4568],[-2.526,49.456],[-2.5282,49.4568],[-2.5282,49.4557],[-2.5293,49.4554],[-2.5304,49.4571],[-2.5313,49.4574],[-2.5332,49.4554],[-2.5313,49.4543],[-2.5282,49.454],[-2.5268,49.4535],[-2.5254,49.4543],[-2.5249,49.4521],[-2.5271,49.4518],[-2.5276,49.4524],[-2.5321,49.4524],[-2.5351,49.4521],[-2.5354,49.4512],[-2.5338,49.4501],[-2.5326,49.4501],[-2.531,49.4487],[-2.5293,49.4487],[-2.5293,49.4463],[-2.5288,49.4451],[-2.5304,49.4454],[-2.5326,49.4454],[-2.5332,49.4437],[-2.5324,49.4429],[-2.5329,49.4396],[-2.534,49.4393],[-2.5329,49.4365],[-2.536,49.4357],[-2.536,49.4354],[-2.5428,49.4386],[-2.5435,49.4447],[-2.5457,49.447],[-2.5493,49.4463],[-2.555,49.4463],[-2.5552,49.4482],[-2.5577,49.4497],[-2.5584,49.4504],[-2.5593,49.4553],[-2.5651,49.4622],[-2.5661,49.4674],[-2.5644,49.4718],[-2.5615,49.4727],[-2.5551,49.473],[-2.5538,49.4724],[-2.5485,49.4726],[-2.5461,49.471],[-2.534,49.4688]]]},"properties":{"name":"Saint Peter Port","id":"GG-PP","CNTRY":"Guernsey","TYPE":"Parish"},"id":"GG-PP"},
{"type":"Feature","geometry":{"type":"MultiPolygon","coordinates":[[[[-2.6229,49.4201],[-2.624,49.4235],[-2.6276,49.424],[-2.6299,49.4253],[-2.6324,49.4286],[-2.6343,49.4299],[-2.6356,49.4316],[-2.6382,49.4313],[-2.6391,49.4304],[-2.6417,49.4305],[-2.6417,49.4321],[-2.6478,49.4346],[-2.6506,49.4326],[-2.6529,49.4294],[-2.6494,49.428],[-2.6454,49.4249],[-2.646,49.4246],[-2.6476,49.4254],[-2.6488,49.4254],[-2.6507,49.4235],[-2.6518,49.4235],[-2.6535,49.4243],[-2.6557,49.4232],[-2.6565,49.4232],[-2.6578,49.4251],[-2.6596,49.4264],[-2.6572,49.4284],[-2.6538,49.4295],[-2.6539,49.4298],[-2.6589,49.4331],[-2.66,49.4331],[-2.6618,49.4341],[-2.6626,49.4354],[-2.6604,49.436],[-2.6593,49.4343],[-2.6571,49.4343],[-2.6576,49.4362],[-2.656,49.4371],[-2.6546,49.4371],[-2.6543,49.4379],[-2.6568,49.4379],[-2.6565,49.4388],[-2.6554,49.4393],[-2.6554,49.4407],[-2.6529,49.4404],[-2.6512,49.4415],[-2.6512,49.4437],[-2.6499,49.4468],[-2.6499,49.4482],[-2.6512,49.4501],[-2.6518,49.4535],[-2.6549,49.4538],[-2.656,49.4532],[-2.6574,49.4546],[-2.659,49.4546],[-2.6615,49.4551],[-2.661,49.4565],[-2.6596,49.4576],[-2.6585,49.4576],[-2.6588,49.4596],[-2.6571,49.4601],[-2.6565,49.459],[-2.6549,49.4588],[-2.6538,49.4576],[-2.6529,49.4576],[-2.6404,49.4541],[-2.6402,49.4514],[-2.6368,49.4466],[-2.6316,49.4466],[-2.6299,49.4441],[-2.6296,49.4388],[-2.6274,49.4378],[-2.6241,49.4388],[-2.6215,49.4365],[-2.6182,49.4357],[-2.6151,49.433],[-2.6123,49.4329],[-2.6117,49.4312],[-2.6089,49.4312],[-2.6099,49.4287],[-2.6139,49.4263],[-2.6148,49.4243],[-2.6141,49.4216],[-2.613,49.4208],[-2.6121,49.4174],[-2.6149,49.4185],[-2.6149,49.4193],[-2.6199,49.4188],[-2.6215,49.4201],[-2.6229,49.4201]]],[[[-2.6649,49.4651],[-2.6638,49.4629],[-2.6632,49.4588],[-2.664,49.4574],[-2.6663,49.4568],[-2.6674,49.4593],[-2.6693,49.4596],[-2.671,49.459],[-2.6721,49.4599],[-2.6735,49.4601],[-2.6737,49.4618],[-2.6726,49.4624],[-2.6735,49.4643],[-2.6688,49.4632],[-2.6679,49.4643],[-2.6668,49.4649],[-2.6649,49.4651]]],[[[-2.676,49.4626],[-2.6754,49.4615],[-2.6746,49.4615],[-2.6749,49.4599],[-2.676,49.4599],[-2.6762,49.4607],[-2.6776,49.4607],[-2.6782,49.4612],[-2.6776,49.4624],[-2.676,49.4626]]]]},"properties":{"name":"Saint Pierre du Bois","id":"GG-SB","CNTRY":"Guernsey","TYPE":"Parish"},"id":"GG-SB"},
{"type":"Feature","geometry":{"type":"MultiPolygon","coordinates":[[[[-2.534,49.4688],[-2.5461,49.471],[-2.5485,49.4726],[-2.5538,49.4724],[-2.5551,49.473],[-2.5615,49.4727],[-2.5598,49.4742],[-2.56,49.4795],[-2.5607,49.4805],[-2.5627,49.4805],[-2.5639,49.4812],[-2.5641,49.4843],[-2.5654,49.4864],[-2.5625,49.488],[-2.5586,49.4893],[-2.5529,49.4901],[-2.5496,49.4938],[-2.5482,49.494],[-2.5468,49.4932],[-2.546,49.4918],[-2.544,49.4915],[-2.5414,49.4905],[-2.5401,49.4895],[-2.5395,49.4875],[-2.5376,49.4887],[-2.5362,49.4888],[-2.5345,49.4873],[-2.5318,49.4865],[-2.5292,49.4865],[-2.5272,49.4853],[-2.523,49.4854],[-2.5215,49.4837],[-2.5171,49.4832],[-2.516,49.4818],[-2.5143,49.4815],[-2.5132,49.4821],[-2.5121,49.4815],[-2.511,49.4796],[-2.5121,49.4793],[-2.5121,49.4782],[-2.5135,49.4779],[-2.5132,49.4771],[-2.5113,49.4771],[-2.511,49.476],[-2.5132,49.4757],[-2.5146,49.4765],[-2.5176,49.4765],[-2.5196,49.4751],[-2.5229,49.4754],[-2.5232,49.4749],[-2.5257,49.4751],[-2.5268,49.4743],[-2.5271,49.4732],[-2.5296,49.4724],[-2.5321,49.4721],[-2.5324,49.471],[-2.5332,49.471],[-2.5332,49.4693],[-2.534,49.4688]]],[[[-2.5762,49.494],[-2.5762,49.4957],[-2.5738,49.4951],[-2.5729,49.494],[-2.5715,49.494],[-2.5715,49.4949],[-2.5729,49.496],[-2.5735,49.4974],[-2.5729,49.4979],[-2.5712,49.4976],[-2.5696,49.4982],[-2.5685,49.4974],[-2.5674,49.4974],[-2.5651,49.4985],[-2.5646,49.4974],[-2.5632,49.4971],[-2.5632,49.4963],[-2.5618,49.4954],[-2.559,49.4951],[-2.5579,49.4965],[-2.5585,49.4993],[-2.5574,49.4999],[-2.5518,49.499],[-2.5515,49.4982],[-2.5529,49.4971],[-2.5568,49.4928],[-2.5586,49.4922],[-2.5585,49.4915],[-2.5604,49.4909],[-2.5621,49.4891],[-2.5652,49.4889],[-2.5664,49.488],[-2.5704,49.4901],[-2.5721,49.4904],[-2.574,49.4925],[-2.5762,49.494]]]]},"properties":{"name":"Saint Sampson","id":"GG-SM","CNTRY":"Guernsey","TYPE":"Parish"},"id":"GG-SM"},
{"type":"Feature","geometry":{"type":"Polygon","coordinates":[[[-2.5975,49.4358],[-2.6043,49.433],[-2.6085,49.4326],[-2.6089,49.4312],[-2.6117,49.4312],[-2.6123,49.4329],[-2.6151,49.433],[-2.6182,49.4357],[-2.6215,49.4365],[-2.6241,49.4388],[-2.6274,49.4378],[-2.6296,49.4388],[-2.6299,49.4441],[-2.6316,49.4466],[-2.6368,49.4466],[-2.6402,49.4514],[-2.6404,49.4541],[-2.6529,49.4576],[-2.6474,49.4604],[-2.6476,49.4612],[-2.6499,49.4624],[-2.6507,49.4635],[-2.6488,49.4635],[-2.6476,49.464],[-2.6474,49.4626],[-2.646,49.4618],[-2.646,49.461],[-2.6451,49.4604],[-2.6437,49.4618],[-2.6421,49.4618],[-2.6418,49.4612],[-2.6401,49.461],[-2.6396,49.4599],[-2.636,49.4593],[-2.6349,49.4599],[-2.634,49.461],[-2.6329,49.4612],[-2.6318,49.4624],[-2.6332,49.4637],[-2.6332,49.4654],[-2.6324,49.4663],[-2.6301,49.466],[-2.6307,49.4671],[-2.6304,49.4682],[-2.6288,49.4679],[-2.6276,49.469],[-2.6263,49.4685],[-2.6249,49.4685],[-2.6257,49.4665],[-2.6237,49.4668],[-2.6226,49.466],[-2.6246,49.4651],[-2.6256,49.4626],[-2.6242,49.4545],[-2.6154,49.4488],[-2.6122,49.4476],[-2.6064,49.4475],[-2.6038,49.4456],[-2.5907,49.4464],[-2.5894,49.4453],[-2.5939,49.4411],[-2.5975,49.4358]]]},"properties":{"name":"Saint Saviour","id":"GG-SV","CNTRY":"Guernsey","TYPE":"Parish"},"id":"GG-SV"},
{"type":"Feature","geometry":{"type":"MultiPolygon","coordinates":[[[[-2.3671,49.4026],[-2.366,49.4024],[-2.3663,49.401],[-2.3671,49.3999],[-2.3688,49.3996],[-2.3688,49.4021],[-2.3671,49.4026]]],[[[-2.3688,49.4526],[-2.3657,49.4496],[-2.3643,49.4485],[-2.3643,49.4476],[-2.3626,49.4471],[-2.3629,49.4487],[-2.3615,49.4482],[-2.3618,49.4463],[-2.3612,49.4457],[-2.3582,49.4454],[-2.3579,49.4449],[-2.3535,49.444],[-2.3532,49.4421],[-2.3524,49.4388],[-2.351,49.4385],[-2.3518,49.4376],[-2.3482,49.4379],[-2.3465,49.4371],[-2.3451,49.4371],[-2.3443,49.4349],[-2.3435,49.4346],[-2.3429,49.4332],[-2.3415,49.4329],[-2.3413,49.4299],[-2.3432,49.4296],[-2.3435,49.4285],[-2.3426,49.4279],[-2.3429,49.4271],[-2.3449,49.4271],[-2.3471,49.4254],[-2.3465,49.4235],[-2.3485,49.4226],[-2.349,49.4246],[-2.3496,49.4254],[-2.3512,49.4257],[-2.3524,49.4249],[-2.3526,49.4226],[-2.3532,49.4221],[-2.3568,49.4221],[-2.3574,49.4235],[-2.3593,49.4235],[-2.3599,49.4224],[-2.3638,49.4199],[-2.364,49.419],[-2.3657,49.4182],[-2.3657,49.4157],[-2.3674,49.4157],[-2.3682,49.4149],[-2.3685,49.4124],[-2.3674,49.4113],[-2.3668,49.4085],[-2.3688,49.4085],[-2.3688,49.4096],[-2.3707,49.4093],[-2.374,49.4062],[-2.376,49.4071],[-2.3785,49.4076],[-2.3787,49.409],[-2.3801,49.4099],[-2.3812,49.4113],[-2.3838,49.4115],[-2.3857,49.4113],[-2.386,49.4126],[-2.3854,49.4135],[-2.3826,49.414],[-2.3804,49.4165],[-2.3768,49.4185],[-2.3749,49.4188],[-2.374,49.4204],[-2.3726,49.4199],[-2.369,49.4201],[-2.369,49.4212],[-2.3699,49.4218],[-2.3699,49.424],[-2.3724,49.424],[-2.3743,49.4262],[-2.3763,49.426],[-2.3774,49.4274],[-2.3785,49.4279],[-2.3782,49.429],[-2.3763,49.4287],[-2.3762,49.4299],[-2.3771,49.4307],[-2.3801,49.4304],[-2.3807,49.4318],[-2.3771,49.4324],[-2.3754,49.4349],[-2.374,49.4351],[-2.3735,49.4343],[-2.3712,49.4343],[-2.3701,49.4349],[-2.3707,49.4362],[-2.3715,49.4365],[-2.3712,49.4376],[-2.3715,49.4388],[-2.3699,49.4385],[-2.3688,49.4413],[-2.3671,49.4413],[-2.3674,49.4424],[-2.369,49.4443],[-2.3685,49.4463],[-2.3676,49.4468],[-2.3676,49.4482],[-2.3685,49.4482],[-2.3699,49.4493],[-2.3699,49.4524],[-2.3688,49.4526]]],[[[-2.3424,49.439],[-2.341,49.4374],[-2.3429,49.4368],[-2.344,49.4376],[-2.3435,49.439],[-2.3424,49.439]]]]},"properties":{"name":"Sark\r\n","id":"GG-SK","CNTRY":"Guernsey","TYPE":"Parish"},"id":"GG-SK"},
{"type":"Feature","geometry":{"type":"MultiPolygon","coordinates":[[[[-2.6229,49.4201],[-2.6246,49.4204],[-2.6271,49.4201],[-2.6282,49.4221],[-2.629,49.4212],[-2.6301,49.421],[-2.6329,49.4235],[-2.6349,49.4229],[-2.6354,49.4221],[-2.6385,49.4221],[-2.6399,49.4229],[-2.6401,49.424],[-2.6429,49.424],[-2.6443,49.4251],[-2.6454,49.4249],[-2.6494,49.428],[-2.6529,49.4294],[-2.6506,49.4326],[-2.6478,49.4346],[-2.6417,49.4321],[-2.6417,49.4305],[-2.6391,49.4304],[-2.6382,49.4313],[-2.6356,49.4316],[-2.6343,49.4299],[-2.6324,49.4286],[-2.6299,49.4253],[-2.6276,49.424],[-2.624,49.4235],[-2.6229,49.4201]]],[[[-2.6565,49.4232],[-2.6582,49.4229],[-2.6596,49.4232],[-2.6646,49.4232],[-2.6654,49.4246],[-2.6665,49.4243],[-2.6679,49.4246],[-2.6701,49.4265],[-2.6732,49.4274],[-2.6735,49.429],[-2.6751,49.4293],[-2.6749,49.4318],[-2.6757,49.4329],[-2.6751,49.4351],[-2.6729,49.4371],[-2.6718,49.4376],[-2.6704,49.4376],[-2.6704,49.4365],[-2.6696,49.436],[-2.6665,49.4374],[-2.6638,49.4354],[-2.6626,49.4354],[-2.6618,49.4341],[-2.66,49.4331],[-2.6589,49.4331],[-2.6539,49.4298],[-2.6538,49.4295],[-2.6572,49.4284],[-2.6596,49.4264],[-2.6578,49.4251],[-2.6565,49.4232]]]]},"properties":{"name":"Torteval","id":"GG-TV","CNTRY":"Guernsey","TYPE":"Parish"},"id":"GG-TV"},
{"type":"Feature","geometry":{"type":"MultiPolygon","coordinates":[[[[-2.4976,49.4965],[-2.4968,49.496],[-2.4965,49.4943],[-2.4971,49.4938],[-2.499,49.494],[-2.5004,49.4935],[-2.5001,49.496],[-2.4976,49.4965]]],[[[-2.4985,49.5018],[-2.4982,49.499],[-2.4993,49.499],[-2.5001,49.5001],[-2.5001,49.5018],[-2.4985,49.5018]]],[[[-2.5171,49.4832],[-2.5215,49.4837],[-2.523,49.4854],[-2.5272,49.4853],[-2.5292,49.4865],[-2.5318,49.4865],[-2.5345,49.4873],[-2.5362,49.4888],[-2.5376,49.4887],[-2.5395,49.4875],[-2.5401,49.4895],[-2.5414,49.4905],[-2.544,49.4915],[-2.5435,49.4935],[-2.5443,49.4938],[-2.5435,49.4949],[-2.5432,49.4968],[-2.5449,49.4971],[-2.5451,49.4982],[-2.5421,49.4987],[-2.5418,49.5018],[-2.5412,49.5026],[-2.5454,49.5035],[-2.5457,49.504],[-2.5474,49.5038],[-2.5476,49.5043],[-2.5493,49.5046],[-2.5496,49.506],[-2.549,49.5068],[-2.5457,49.5071],[-2.5432,49.5085],[-2.5412,49.5079],[-2.5401,49.5085],[-2.5385,49.5082],[-2.5379,49.5093],[-2.5371,49.5093],[-2.5351,49.5074],[-2.534,49.5074],[-2.5332,49.5088],[-2.5318,49.5085],[-2.5318,49.5096],[-2.5301,49.5093],[-2.5304,49.5076],[-2.5318,49.5065],[-2.5318,49.5054],[-2.5329,49.5054],[-2.5332,49.504],[-2.5315,49.5032],[-2.5304,49.5032],[-2.5301,49.504],[-2.5282,49.5038],[-2.5274,49.5021],[-2.5246,49.5021],[-2.5238,49.5026],[-2.5235,49.5038],[-2.5218,49.5038],[-2.5215,49.5065],[-2.519,49.5074],[-2.5199,49.5082],[-2.5199,49.509],[-2.5182,49.5099],[-2.5171,49.509],[-2.5157,49.5088],[-2.5154,49.5076],[-2.5146,49.5071],[-2.5154,49.5057],[-2.5135,49.5057],[-2.5107,49.5051],[-2.5099,49.5057],[-2.5085,49.5057],[-2.5074,49.5062],[-2.5071,49.5076],[-2.5049,49.5074],[-2.5046,49.5062],[-2.5038,49.506],[-2.5046,49.5046],[-2.5038,49.504],[-2.5038,49.5029],[-2.5029,49.5026],[-2.5038,49.5007],[-2.5026,49.5007],[-2.5015,49.4993],[-2.5013,49.4982],[-2.5018,49.4963],[-2.5013,49.4946],[-2.5024,49.4932],[-2.5026,49.491],[-2.501,49.491],[-2.5007,49.4899],[-2.5021,49.4885],[-2.5046,49.4885],[-2.5054,49.4899],[-2.5076,49.4896],[-2.5074,49.4888],[-2.5057,49.4882],[-2.506,49.4874],[-2.5076,49.4868],[-2.5068,49.4843],[-2.5074,49.4818],[-2.5082,49.4824],[-2.5115,49.4821],[-2.5121,49.4826],[-2.5151,49.4826],[-2.5157,49.4832],[-2.5171,49.4832]]],[[[-2.5496,49.4938],[-2.5529,49.4901],[-2.5586,49.4893],[-2.5625,49.488],[-2.5654,49.4864],[-2.5641,49.4843],[-2.5639,49.4812],[-2.5627,49.4805],[-2.5607,49.4805],[-2.56,49.4795],[-2.5598,49.4742],[-2.5615,49.4727],[-2.5644,49.4718],[-2.5661,49.4674],[-2.5685,49.4671],[-2.5685,49.4689],[-2.5678,49.4699],[-2.5712,49.4736],[-2.5738,49.4736],[-2.5745,49.4745],[-2.5746,49.4787],[-2.5766,49.4787],[-2.5791,49.4807],[-2.5791,49.4825],[-2.5797,49.4831],[-2.5807,49.4871],[-2.581,49.4904],[-2.579,49.4904],[-2.5762,49.491],[-2.5768,49.4915],[-2.5785,49.4915],[-2.5799,49.4921],[-2.5804,49.4932],[-2.5762,49.494],[-2.574,49.4925],[-2.5721,49.4904],[-2.5704,49.4901],[-2.5664,49.488],[-2.5652,49.4889],[-2.5621,49.4891],[-2.5604,49.4909],[-2.5585,49.4915],[-2.5586,49.4922],[-2.5568,49.4928],[-2.5529,49.4971],[-2.5532,49.4951],[-2.5496,49.4938]]]]},"properties":{"name":"Vale\r\n","id":"GG-VA","CNTRY":"Guernsey","TYPE":"Parish"},"id":"GG-VA"},
{"type":"Feature","geometry":{"type":"Polygon","coordinates":[[[-2.0376,49.1649],[-2.0374,49.1711],[-2.0416,49.1768],[-2.0446,49.1761],[-2.0491,49.179],[-2.05,49.1789],[-2.052,49.1799],[-2.0531,49.1794],[-2.0555,49.181],[-2.0565,49.1802],[-2.0585,49.1804],[-2.059,49.179],[-2.066,49.1753],[-2.0691,49.1749],[-2.0695,49.1755],[-2.0714,49.1755],[-2.0738,49.1774],[-2.0737,49.1785],[-2.0765,49.1787],[-2.0766,49.1798],[-2.0774,49.1801],[-2.0763,49.1807],[-2.0745,49.1805],[-2.0739,49.1812],[-2.0725,49.1809],[-2.0687,49.1832],[-2.0697,49.1915],[-2.0683,49.1923],[-2.0685,49.1932],[-2.0667,49.1932],[-2.0654,49.1923],[-2.0648,49.1933],[-2.0648,49.1962],[-2.0678,49.1995],[-2.0638,49.2002],[-2.0637,49.2011],[-2.0589,49.2006],[-2.0517,49.2028],[-2.0447,49.2014],[-2.0432,49.2008],[-2.0407,49.203],[-2.0363,49.2022],[-2.034,49.2027],[-2.0328,49.2016],[-2.0308,49.2017],[-2.0303,49.2026],[-2.0291,49.2027],[-2.0285,49.2012],[-2.0298,49.1985],[-2.0281,49.1982],[-2.0276,49.1974],[-2.0304,49.1949],[-2.0324,49.1885],[-2.0332,49.1837],[-2.0293,49.1696],[-2.0276,49.1679],[-2.0268,49.1679],[-2.0262,49.1668],[-2.0279,49.166],[-2.0285,49.1643],[-2.0301,49.1651],[-2.0307,49.1638],[-2.0321,49.1643],[-2.0335,49.1626],[-2.0354,49.1626],[-2.0376,49.1649]]]},"properties":{"name":"Grouville","id":"JE-GR","CNTRY":"Jersey","TYPE":"Parish"},"id":"JE-GR"},
{"type":"Feature","geometry":{"type":"Polygon","coordinates":[[[-2.159,49.1846],[-2.1601,49.1829],[-2.1624,49.1829],[-2.1632,49.184],[-2.1632,49.1849],[-2.159,49.1846]]]},"properties":{"name":"Saint Berlade","id":"JE-BR","CNTRY":"Jersey","TYPE":"Parish"},"id":"JE-BR"},
{"type":"Feature","geometry":{"type":"MultiPolygon","coordinates":[[[[-2.0476,49.149],[-2.0468,49.1482],[-2.0482,49.1479],[-2.0515,49.1479],[-2.0515,49.1488],[-2.0476,49.149]]],[[[-2.097,49.1763],[-2.0968,49.1769],[-2.0934,49.1784],[-2.0917,49.1783],[-2.0917,49.1774],[-2.0902,49.1767],[-2.0869,49.1767],[-2.0849,49.1781],[-2.083,49.1782],[-2.0833,49.1795],[-2.0774,49.1801],[-2.0766,49.1798],[-2.0765,49.1787],[-2.0737,49.1785],[-2.0738,49.1774],[-2.0714,49.1755],[-2.0695,49.1755],[-2.0691,49.1749],[-2.066,49.1753],[-2.059,49.179],[-2.0585,49.1804],[-2.0565,49.1802],[-2.0555,49.181],[-2.0531,49.1794],[-2.052,49.1799],[-2.05,49.1789],[-2.0491,49.179],[-2.0446,49.1761],[-2.0416,49.1768],[-2.0374,49.1711],[-2.0376,49.1649],[-2.0465,49.1682],[-2.051,49.169],[-2.0563,49.169],[-2.0568,49.1682],[-2.0615,49.1662],[-2.0674,49.166],[-2.0701,49.1624],[-2.0715,49.1624],[-2.0721,49.1632],[-2.0743,49.1632],[-2.0746,49.1626],[-2.0763,49.1624],[-2.0801,49.164],[-2.0812,49.1657],[-2.0846,49.1674],[-2.0851,49.1688],[-2.0896,49.1729],[-2.0918,49.1735],[-2.0946,49.1763],[-2.097,49.1763]]]]},"properties":{"name":"Saint Clement","id":"JE-CL","CNTRY":"Jersey","TYPE":"Parish"},"id":"JE-CL"},
{"type":"Feature","geometry":{"type":"MultiPolygon","coordinates":[[[[-2.1229,49.1776],[-2.1226,49.1763],[-2.1235,49.1754],[-2.1254,49.1754],[-2.1254,49.1746],[-2.1279,49.1749],[-2.1274,49.1765],[-2.1263,49.1765],[-2.1251,49.1785],[-2.1238,49.1793],[-2.1221,49.1793],[-2.1229,49.1776]]],[[[-2.1221,49.1746],[-2.1243,49.1735],[-2.1238,49.1724],[-2.1265,49.1732],[-2.1265,49.1738],[-2.1221,49.1746]]]]},"properties":{"name":"Saint Helier","id":"JE-HE","CNTRY":"Jersey","TYPE":"Parish"},"id":"JE-HE"},
{"type":"Feature","geometry":{"type":"Polygon","coordinates":[[[-2.1156,49.2177],[-2.1208,49.2183],[-2.1207,49.2174],[-2.1213,49.2189],[-2.1194,49.2232],[-2.121,49.2284],[-2.1203,49.2315],[-2.1213,49.2329],[-2.1248,49.2331],[-2.1292,49.2344],[-2.1326,49.2342],[-2.1384,49.235],[-2.1423,49.234],[-2.1426,49.2346],[-2.1499,49.2363],[-2.1478,49.2379],[-2.1485,49.2393],[-2.1503,49.2397],[-2.1529,49.2418],[-2.1547,49.2416],[-2.1606,49.2381],[-2.1606,49.2408],[-2.159,49.2428],[-2.158,49.2426],[-2.1569,49.2432],[-2.1536,49.2467],[-2.1545,49.2493],[-2.1571,49.2503],[-2.1588,49.2497],[-2.1599,49.2504],[-2.163,49.2509],[-2.164,49.2526],[-2.1702,49.2537],[-2.1713,49.2545],[-2.1707,49.2557],[-2.169,49.256],[-2.1682,49.2574],[-2.1665,49.2582],[-2.1601,49.2582],[-2.1613,49.261],[-2.1607,49.2626],[-2.1596,49.2626],[-2.1588,49.2612],[-2.156,49.2599],[-2.1543,49.2601],[-2.1532,49.261],[-2.1532,49.2621],[-2.1521,49.2624],[-2.1513,49.261],[-2.1499,49.261],[-2.1499,49.2601],[-2.146,49.2593],[-2.1451,49.2565],[-2.1432,49.2565],[-2.1415,49.256],[-2.1407,49.2551],[-2.1371,49.254],[-2.1332,49.254],[-2.1296,49.2549],[-2.1254,49.2537],[-2.1243,49.2546],[-2.1215,49.2551],[-2.1193,49.2537],[-2.1196,49.2515],[-2.1187,49.251],[-2.1146,49.2504],[-2.1121,49.2526],[-2.1087,49.2504],[-2.1074,49.2504],[-2.1073,49.2492],[-2.1087,49.2483],[-2.1109,49.2483],[-2.1117,49.2474],[-2.1117,49.2453],[-2.1109,49.2446],[-2.1113,49.2419],[-2.1128,49.2416],[-2.1125,49.2405],[-2.1136,49.2396],[-2.1109,49.2391],[-2.1094,49.2384],[-2.1089,49.2359],[-2.1103,49.2351],[-2.1095,49.2311],[-2.1104,49.2303],[-2.1101,49.2276],[-2.1077,49.2238],[-2.1088,49.2219],[-2.108,49.2195],[-2.1105,49.2188],[-2.1139,49.2187],[-2.1156,49.2177]]]},"properties":{"name":"Saint John","id":"JE-JO","CNTRY":"Jersey","TYPE":"Parish"},"id":"JE-JO"},
{"type":"Feature","geometry":{"type":"Polygon","coordinates":[[[-2.1207,49.2174],[-2.1233,49.2143],[-2.1232,49.2085],[-2.1253,49.2088],[-2.1266,49.2107],[-2.1276,49.2109],[-2.1288,49.2066],[-2.1337,49.2073],[-2.1332,49.2033],[-2.1342,49.2035],[-2.1353,49.2028],[-2.1355,49.1978],[-2.1376,49.196],[-2.1418,49.1963],[-2.1424,49.1968],[-2.1465,49.1965],[-2.1476,49.1971],[-2.149,49.1965],[-2.151,49.1968],[-2.1548,49.1963],[-2.1563,49.2052],[-2.1579,49.2061],[-2.1584,49.2073],[-2.162,49.2086],[-2.1622,49.2097],[-2.1598,49.2118],[-2.1591,49.2139],[-2.161,49.2206],[-2.1603,49.2216],[-2.1554,49.2223],[-2.1545,49.2235],[-2.1565,49.2235],[-2.1573,49.2248],[-2.1535,49.2257],[-2.1539,49.2274],[-2.1557,49.2278],[-2.156,49.2286],[-2.1545,49.2307],[-2.1536,49.2343],[-2.1499,49.2363],[-2.1426,49.2346],[-2.1423,49.234],[-2.1384,49.235],[-2.1326,49.2342],[-2.1292,49.2344],[-2.1248,49.2331],[-2.1213,49.2329],[-2.1203,49.2315],[-2.121,49.2284],[-2.1194,49.2232],[-2.1213,49.2189],[-2.1207,49.2174]]]},"properties":{"name":"Saint Lawrence","id":"JE-LA","CNTRY":"Jersey","TYPE":"Parish"},"id":"JE-LA"},
{"type":"Feature","geometry":{"type":"MultiPolygon","coordinates":[[[[-1.9268,49.2882],[-1.9262,49.2857],[-1.9246,49.2835],[-1.9274,49.2821],[-1.9276,49.2879],[-1.9268,49.2882]]],[[[-1.9293,49.2929],[-1.9274,49.2901],[-1.9318,49.2915],[-1.9315,49.2926],[-1.9293,49.2929]]]]},"properties":{"name":"Saint Martin","id":"JE-MT","CNTRY":"Jersey","TYPE":"Parish"},"id":"JE-MT"},
{"type":"Feature","geometry":{"type":"Polygon","coordinates":[[[-2.1499,49.2363],[-2.1536,49.2343],[-2.1545,49.2307],[-2.156,49.2286],[-2.1557,49.2278],[-2.1539,49.2274],[-2.1535,49.2257],[-2.1573,49.2248],[-2.1589,49.2257],[-2.1615,49.2254],[-2.1644,49.2241],[-2.1645,49.2228],[-2.1667,49.2233],[-2.1687,49.2221],[-2.1696,49.2224],[-2.1708,49.2254],[-2.1727,49.2249],[-2.1751,49.2252],[-2.1757,49.2281],[-2.1751,49.2291],[-2.176,49.23],[-2.1781,49.2304],[-2.1782,49.2324],[-2.1811,49.2346],[-2.18,49.2352],[-2.18,49.236],[-2.1814,49.2366],[-2.1804,49.2388],[-2.1844,49.2398],[-2.1873,49.2397],[-2.1913,49.2414],[-2.1941,49.2416],[-2.1994,49.2445],[-2.2011,49.2474],[-2.1985,49.2487],[-2.1954,49.2479],[-2.196,49.2487],[-2.1949,49.249],[-2.1946,49.2499],[-2.1929,49.2499],[-2.1915,49.2487],[-2.1888,49.2487],[-2.1876,49.2499],[-2.1862,49.2499],[-2.1854,49.2487],[-2.1835,49.2487],[-2.1832,49.2496],[-2.1818,49.2496],[-2.1804,49.251],[-2.1754,49.2504],[-2.1754,49.2518],[-2.1743,49.2529],[-2.1713,49.2545],[-2.1702,49.2537],[-2.164,49.2526],[-2.163,49.2509],[-2.1599,49.2504],[-2.1588,49.2497],[-2.1571,49.2503],[-2.1545,49.2493],[-2.1536,49.2467],[-2.1569,49.2432],[-2.158,49.2426],[-2.159,49.2428],[-2.1606,49.2408],[-2.1606,49.2381],[-2.1547,49.2416],[-2.1529,49.2418],[-2.1503,49.2397],[-2.1485,49.2393],[-2.1478,49.2379],[-2.1499,49.2363]]]},"properties":{"name":"Saint Mary","id":"JE-MY","CNTRY":"Jersey","TYPE":"Parish"},"id":"JE-MY"},
{"type":"Feature","geometry":{"type":"Polygon","coordinates":[[[-2.1811,49.2346],[-2.1858,49.2337],[-2.1859,49.2327],[-2.1884,49.2308],[-2.1905,49.2307],[-2.1913,49.2294],[-2.1922,49.2295],[-2.1909,49.2231],[-2.192,49.2226],[-2.192,49.2215],[-2.1946,49.219],[-2.1984,49.2174],[-2.199,49.2159],[-2.2053,49.2154],[-2.2111,49.2126],[-2.2131,49.2134],[-2.2132,49.2151],[-2.2148,49.2168],[-2.2271,49.2155],[-2.2285,49.2218],[-2.231,49.2246],[-2.2321,49.2249],[-2.2326,49.2268],[-2.2338,49.2276],[-2.2335,49.2285],[-2.2357,49.2296],[-2.2371,49.2315],[-2.2382,49.2315],[-2.2387,49.2332],[-2.2407,49.2343],[-2.2407,49.2368],[-2.2418,49.2379],[-2.2451,49.239],[-2.2454,49.2401],[-2.2482,49.2399],[-2.2493,49.2385],[-2.2518,49.2388],[-2.2512,49.241],[-2.2524,49.241],[-2.2526,49.2418],[-2.2512,49.2426],[-2.2512,49.2435],[-2.2535,49.2454],[-2.2532,49.2463],[-2.2551,49.2487],[-2.2546,49.2529],[-2.2537,49.2537],[-2.2518,49.254],[-2.2518,49.2551],[-2.2487,49.2565],[-2.2474,49.2588],[-2.2413,49.2588],[-2.239,49.2576],[-2.2371,49.2571],[-2.236,49.2562],[-2.2329,49.256],[-2.2313,49.2565],[-2.2307,49.2601],[-2.229,49.2601],[-2.2282,49.2612],[-2.2263,49.2615],[-2.226,49.2588],[-2.2215,49.2576],[-2.2204,49.2562],[-2.2146,49.2549],[-2.2135,49.254],[-2.2118,49.2546],[-2.2104,49.2537],[-2.2096,49.2521],[-2.2068,49.2521],[-2.2063,49.2504],[-2.2029,49.249],[-2.2026,49.2479],[-2.2011,49.2474],[-2.1994,49.2445],[-2.1941,49.2416],[-2.1913,49.2414],[-2.1873,49.2397],[-2.1844,49.2398],[-2.1804,49.2388],[-2.1814,49.2366],[-2.18,49.236],[-2.18,49.2352],[-2.1811,49.2346]]]},"properties":{"name":"Saint Ouen","id":"JE-OU","CNTRY":"Jersey","TYPE":"Parish"},"id":"JE-OU"},
{"type":"Feature","geometry":{"type":"Polygon","coordinates":[[[-2.1548,49.1963],[-2.1602,49.1949],[-2.1604,49.1961],[-2.1616,49.1958],[-2.1647,49.1964],[-2.1679,49.1979],[-2.1787,49.1987],[-2.1803,49.1996],[-2.1868,49.1998],[-2.1875,49.2003],[-2.1871,49.2019],[-2.1881,49.2021],[-2.1919,49.2009],[-2.1949,49.2016],[-2.1965,49.2028],[-2.2005,49.2027],[-2.2016,49.2032],[-2.2047,49.2033],[-2.2057,49.2027],[-2.208,49.203],[-2.2116,49.2046],[-2.2178,49.2022],[-2.2243,49.2008],[-2.2246,49.2021],[-2.2235,49.2024],[-2.2235,49.2051],[-2.2246,49.2076],[-2.2246,49.2093],[-2.2257,49.214],[-2.2271,49.2146],[-2.2271,49.2155],[-2.2148,49.2168],[-2.2132,49.2151],[-2.2131,49.2134],[-2.2111,49.2126],[-2.2053,49.2154],[-2.199,49.2159],[-2.1984,49.2174],[-2.1946,49.219],[-2.192,49.2215],[-2.192,49.2226],[-2.1909,49.2231],[-2.1922,49.2295],[-2.1913,49.2294],[-2.1905,49.2307],[-2.1884,49.2308],[-2.1859,49.2327],[-2.1858,49.2337],[-2.1811,49.2346],[-2.1782,49.2324],[-2.1781,49.2304],[-2.176,49.23],[-2.1751,49.2291],[-2.1757,49.2281],[-2.1751,49.2252],[-2.1727,49.2249],[-2.1708,49.2254],[-2.1696,49.2224],[-2.1687,49.2221],[-2.1667,49.2233],[-2.1645,49.2228],[-2.1644,49.2241],[-2.1615,49.2254],[-2.1589,49.2257],[-2.1573,49.2248],[-2.1565,49.2235],[-2.1545,49.2235],[-2.1554,49.2223],[-2.1603,49.2216],[-2.161,49.2206],[-2.1591,49.2139],[-2.1598,49.2118],[-2.1622,49.2097],[-2.162,49.2086],[-2.1584,49.2073],[-2.1579,49.2061],[-2.1563,49.2052],[-2.1548,49.1963]]]},"properties":{"name":"Saint Peter","id":"JE-PE","CNTRY":"Jersey","TYPE":"Parish"},"id":"JE-PE"},
{"type":"Feature","geometry":{"type":"Polygon","coordinates":[[[-2.0973,49.1763],[-2.0985,49.181],[-2.0967,49.1811],[-2.0962,49.1806],[-2.0955,49.1815],[-2.0936,49.1815],[-2.093,49.1855],[-2.094,49.1863],[-2.0935,49.1871],[-2.0922,49.1875],[-2.092,49.1888],[-2.0941,49.1898],[-2.0976,49.1887],[-2.0992,49.1909],[-2.0992,49.1937],[-2.0974,49.1953],[-2.0955,49.1996],[-2.0942,49.1995],[-2.0905,49.2031],[-2.0869,49.2043],[-2.085,49.2071],[-2.0847,49.209],[-2.0868,49.2103],[-2.086,49.2141],[-2.0825,49.214],[-2.081,49.2152],[-2.0786,49.2144],[-2.0773,49.2162],[-2.0735,49.2172],[-2.0729,49.2208],[-2.0717,49.2218],[-2.0729,49.2223],[-2.0726,49.2232],[-2.0702,49.2232],[-2.0698,49.2248],[-2.0683,49.2253],[-2.0675,49.2251],[-2.0675,49.224],[-2.0621,49.2223],[-2.0617,49.219],[-2.0644,49.2158],[-2.0636,49.2134],[-2.0581,49.2126],[-2.0568,49.2109],[-2.059,49.2093],[-2.0629,49.2087],[-2.065,49.2077],[-2.0647,49.2058],[-2.0525,49.2054],[-2.0499,49.2067],[-2.047,49.207],[-2.0447,49.2055],[-2.0414,49.2048],[-2.0407,49.203],[-2.0432,49.2008],[-2.0447,49.2014],[-2.0517,49.2028],[-2.0589,49.2006],[-2.0637,49.2011],[-2.0638,49.2002],[-2.0678,49.1995],[-2.0648,49.1962],[-2.0648,49.1933],[-2.0654,49.1923],[-2.0667,49.1932],[-2.0685,49.1932],[-2.0683,49.1923],[-2.0697,49.1915],[-2.0687,49.1832],[-2.0725,49.1809],[-2.0739,49.1812],[-2.0745,49.1805],[-2.0763,49.1807],[-2.0774,49.1801],[-2.0833,49.1795],[-2.083,49.1782],[-2.0849,49.1781],[-2.0869,49.1767],[-2.0902,49.1767],[-2.0917,49.1774],[-2.0917,49.1783],[-2.0934,49.1784],[-2.0968,49.1769],[-2.097,49.1763],[-2.0973,49.1763]]]},"properties":{"name":"Saint Saviour","id":"JE-SA","CNTRY":"Jersey","TYPE":"Parish"},"id":"JE-SA"},
{"type":"Feature","geometry":{"type":"Polygon","coordinates":[[[-2.0683,49.2253],[-2.0698,49.2248],[-2.0702,49.2232],[-2.0726,49.2232],[-2.0729,49.2223],[-2.0717,49.2218],[-2.0729,49.2208],[-2.0735,49.2172],[-2.0773,49.2162],[-2.0786,49.2144],[-2.081,49.2152],[-2.0825,49.214],[-2.086,49.2141],[-2.0868,49.2103],[-2.0847,49.209],[-2.085,49.2071],[-2.0866,49.2071],[-2.0884,49.21],[-2.0919,49.2099],[-2.0934,49.2093],[-2.0966,49.2103],[-2.0982,49.2093],[-2.102,49.2096],[-2.1019,49.2085],[-2.1033,49.2082],[-2.1033,49.2069],[-2.1087,49.2091],[-2.1089,49.2101],[-2.1076,49.2108],[-2.1098,49.2117],[-2.1123,49.2111],[-2.1132,49.2155],[-2.1142,49.2174],[-2.1156,49.2177],[-2.1139,49.2187],[-2.1105,49.2188],[-2.108,49.2195],[-2.1088,49.2219],[-2.1077,49.2238],[-2.1101,49.2276],[-2.1104,49.2303],[-2.1095,49.2311],[-2.1103,49.2351],[-2.1089,49.2359],[-2.1094,49.2384],[-2.1109,49.2391],[-2.1136,49.2396],[-2.1125,49.2405],[-2.1128,49.2416],[-2.1113,49.2419],[-2.1109,49.2446],[-2.1117,49.2453],[-2.1117,49.2474],[-2.1109,49.2483],[-2.1087,49.2483],[-2.1073,49.2492],[-2.1074,49.2504],[-2.1051,49.2507],[-2.1043,49.2521],[-2.1049,49.2543],[-2.1035,49.2543],[-2.1029,49.2554],[-2.0924,49.2546],[-2.0907,49.2537],[-2.091,49.2524],[-2.0901,49.2518],[-2.0896,49.2493],[-2.0876,49.2487],[-2.0862,49.2493],[-2.084,49.2476],[-2.0846,49.2454],[-2.0832,49.2446],[-2.0832,49.2435],[-2.0815,49.2426],[-2.0815,49.2412],[-2.0804,49.2407],[-2.0812,49.2393],[-2.0807,49.2382],[-2.0779,49.239],[-2.0768,49.2376],[-2.0729,49.2365],[-2.0707,49.2365],[-2.0699,49.2374],[-2.0676,49.2376],[-2.0676,49.239],[-2.0646,49.2385],[-2.064,49.2396],[-2.0604,49.2393],[-2.0582,49.2401],[-2.0574,49.2415],[-2.0554,49.2412],[-2.0551,49.2426],[-2.0529,49.2424],[-2.0532,49.2435],[-2.0512,49.2443],[-2.0507,49.2429],[-2.049,49.2424],[-2.0474,49.2401],[-2.0449,49.241],[-2.0426,49.2404],[-2.0424,49.2393],[-2.0435,49.2372],[-2.0494,49.2357],[-2.0506,49.2363],[-2.0549,49.2354],[-2.0617,49.2363],[-2.0635,49.2345],[-2.0656,49.2287],[-2.0686,49.2284],[-2.0683,49.2253]]]},"properties":{"name":"Trinity","id":"JE-TR","CNTRY":"Jersey","TYPE":"Parish"},"id":"JE-TR"}
]}