{"type":"FeatureCollection", "features": [
{"type":"Feature","geometry":{"type":"Polygon","coordinates":[[[-71.0825,4.9],[-71.0433,4.9295],[-71.0253,4.9531],[-70.9161,5.1381],[-70.8457,5.1752],[-70.6875,5.3212],[-70.6856,5.3622],[-70.675,5.3882],[-70.6261,5.4199],[-70.4447,5.5279],[-70.3515,5.5646],[-70.2753,5.5664],[-70.1663,5.5933],[-70.0953,5.6389],[-70.0692,5.6681],[-69.9658,5.8042],[-69.9278,5.9125],[-69.9032,5.9644],[-69.8554,6.0269],[-69.8434,6.0353],[-69.7972,6.0578],[-69.7668,6.0629],[-69.6474,6.0504],[-69.5492,6.0542],[-69.4689,6.0865],[-69.4295,6.1186],[-69.3713,6.1458],[-69.3161,6.1486],[-69.3007,6.1228],[-69.2707,6.091],[-69.2417,6.0841],[-69.1952,6.1004],[-69.1156,6.1792],[-69.0879,6.2031],[-69.0564,6.2161],[-69.0258,6.2149],[-68.8278,6.1864],[-68.712,6.157],[-68.6861,6.1415],[-68.6384,6.1355],[-68.477,6.1864],[-68.4193,6.1918],[-68.3195,6.1681],[-68.1552,6.2228],[-68.1036,6.2215],[-68.0353,6.2056],[-67.9979,6.2072],[-67.9575,6.2178],[-67.9181,6.2382],[-67.8312,6.3076],[-67.6934,6.2931],[-67.6353,6.2852],[-67.5636,6.2625],[-67.5345,6.2431],[-67.4963,6.2054],[-67.4545,6.1931],[-67.4892,6.1537],[-67.4925,6.1214],[-67.4696,6.0697],[-67.435,6.0386],[-67.414,5.9955],[-67.4263,5.9767],[-67.4617,5.9555],[-67.5319,5.8913],[-67.5971,5.8247],[-67.62,5.7922],[-67.6429,5.7314],[-67.6517,5.6832],[-67.6422,5.6122],[-67.6338,5.5783],[-67.6159,5.5482],[-67.6494,5.4783],[-67.6883,5.4486],[-67.7477,5.4122],[-67.7692,5.4068],[-67.8039,5.3833],[-67.8486,5.3065],[-67.8297,5.1314],[-67.8028,5.0394],[-67.8016,4.9732],[-67.8136,4.8312],[-67.8247,4.7367],[-67.8587,4.5612],[-67.7848,4.3348],[-67.8013,4.3001],[-67.8063,4.2318],[-67.7867,4.1665],[-67.7292,4.0875],[-67.7085,4.047],[-67.8036,4.0126],[-67.8224,3.9992],[-67.8789,3.9339],[-67.9275,3.8978],[-67.9453,3.9133],[-67.9477,3.9395],[-67.9618,3.9586],[-68.0433,3.9989],[-68.175,3.9989],[-68.3484,3.9787],[-68.3703,3.9675],[-68.5092,3.8445],[-68.5389,3.7959],[-68.588,3.78],[-68.7081,3.7889],[-68.7704,3.7709],[-68.8239,3.7186],[-68.8713,3.6772],[-68.9242,3.7],[-69.0425,3.6747],[-69.1945,3.6446],[-69.2004,3.6783],[-69.227,3.7],[-69.2709,3.7186],[-69.354,3.7065],[-69.3821,3.6826],[-69.4485,3.6738],[-69.4983,3.6995],[-69.5897,3.6943],[-69.6099,3.6726],[-69.6033,3.6382],[-69.6058,3.6134],[-69.6428,3.577],[-69.705,3.5464],[-69.7517,3.5386],[-69.8614,3.4956],[-69.9796,3.391],[-70.0292,3.391],[-70.057,3.4078],[-70.1393,3.3781],[-70.1721,3.3349],[-70.1414,3.2783],[-70.1349,3.2046],[-70.1786,3.1967],[-70.2183,3.1964],[-70.2593,3.1857],[-70.3094,3.1012],[-70.3164,3.0217],[-70.3065,2.9481],[-70.3813,2.8453],[-70.4064,2.8339],[-70.5012,2.8131],[-70.5179,2.8053],[-70.6595,2.8604],[-70.6747,2.8361],[-70.6851,2.793],[-70.7125,2.7683],[-70.8145,2.7736],[-70.8714,2.8046],[-70.9817,2.8375],[-71.0721,2.8212],[-71.0794,2.8732],[-71.0806,2.8861],[-71.0817,3.2795],[-71.0825,3.8964],[-71.0834,4.1534],[-71.0839,4.3761],[-71.0845,4.8911],[-71.0825,4.9]]]},"properties":{"name":"Vichada","id":"CO-VID","CNTRY":"Colombia","TYPE":"Department"},"id":"CO-VID"},
{"type":"Feature","geometry":{"type":"Polygon","coordinates":[[[-69.442,-1.0178],[-69.4665,-1.0712],[-69.4631,-1.1483],[-69.6261,-1.1703],[-69.6452,-1.0839],[-69.6435,-1.0617],[-69.7225,-0.9931],[-69.825,-1.0181],[-69.9142,-1.0575],[-69.9472,-1.0519],[-69.9542,-1.0315],[-69.9269,-0.9537],[-69.9319,-0.9167],[-70.0734,-0.9261],[-70.1064,-0.9478],[-70.1221,-0.9691],[-70.1235,-0.9896],[-70.1092,-1.0057],[-70.0804,-1.0132],[-70.0658,-1.0279],[-70.0735,-1.0512],[-70.0903,-1.0701],[-70.1107,-1.0787],[-70.1386,-1.0767],[-70.2615,-0.9783],[-70.2818,-0.9336],[-70.2753,-0.9118],[-70.2146,-0.871],[-70.2228,-0.8279],[-70.271,-0.782],[-70.2725,-0.7437],[-70.2403,-0.6919],[-70.2417,-0.5742],[-70.2054,-0.4387],[-70.2225,-0.4164],[-70.2715,-0.3904],[-70.3313,-0.4358],[-70.3137,-0.4651],[-70.3492,-0.4733],[-70.4158,-0.4514],[-70.4479,-0.421],[-70.4625,-0.3981],[-70.5015,-0.3575],[-70.7542,-0.2755],[-70.7712,-0.308],[-70.8442,-0.3376],[-70.8836,-0.2733],[-70.9246,-0.0882],[-70.9497,-0.0403],[-71.0002,0.0135],[-71.0385,-0.0024],[-71.1383,0.0293],[-71.345,0.1558],[-71.3689,0.1742],[-71.4147,0.1969],[-71.4884,0.2003],[-71.5069,0.1851],[-71.5384,0.1689],[-71.6308,0.2203],[-71.7103,0.2708],[-71.7831,0.3375],[-71.8459,0.3535],[-71.8808,0.4614],[-71.9472,0.5781],[-72.0145,0.6561],[-72.0338,0.673],[-72.0145,0.6958],[-71.7989,0.9017],[-71.7842,0.9596],[-71.771,0.9797],[-71.739,1.0045],[-71.6818,1.0151],[-71.6183,1.0775],[-71.5434,1.1807],[-71.5429,1.2343],[-71.5489,1.2884],[-71.4884,1.4397],[-71.4717,1.4686],[-71.4025,1.5167],[-71.2792,1.6564],[-71.2117,1.7473],[-71.114,1.8081],[-71.0838,1.8144],[-71.0383,1.8128],[-71.0167,1.8233],[-70.886,1.9257],[-70.7725,1.9163],[-70.7167,1.9153],[-70.6639,1.9204],[-70.3608,2.0042],[-70.1793,2.0742],[-70.1542,2.0733],[-70.1392,2.0097],[-70.1543,1.9871],[-70.1783,1.9751],[-70.1715,1.8843],[-70.1481,1.8508],[-70.0585,1.7764],[-70.0296,1.7665],[-69.9708,1.7603],[-69.8792,1.7378],[-69.8461,1.7105],[-69.8422,1.6981],[-69.8422,1.0722],[-69.7183,1.0725],[-69.6136,1.0781],[-69.4353,1.0384],[-69.3768,1.0565],[-69.3385,1.0729],[-69.2649,1.0339],[-69.2279,0.999],[-69.1403,0.8635],[-69.1593,0.7529],[-69.1278,0.644],[-69.2098,0.6163],[-69.2875,0.6229],[-69.3289,0.6564],[-69.4593,0.7366],[-69.6835,0.6772],[-69.7957,0.6015],[-69.9225,0.5978],[-69.9835,0.5979],[-70.0447,0.585],[-70.0525,0.1436],[-70.0581,-0.1575],[-70.0217,-0.2036],[-69.9335,-0.3043],[-69.7395,-0.4557],[-69.6886,-0.4668],[-69.6304,-0.4942],[-69.6065,-0.5199],[-69.5735,-0.6349],[-69.5963,-0.7005],[-69.6153,-0.7243],[-69.6126,-0.7558],[-69.5178,-0.9335],[-69.4808,-0.955],[-69.4342,-1.0012],[-69.442,-1.0178]]]},"properties":{"name":"Vaupés","id":"CO-VAU","CNTRY":"Colombia","TYPE":"Department"},"id":"CO-VAU"},
{"type":"Feature","geometry":{"type":"Polygon","coordinates":[[[-76.0911,3.215],[-76.1336,3.2206],[-76.2117,3.2524],[-76.3042,3.3047],[-76.3892,3.3206],[-76.4364,3.315],[-76.459,3.276],[-76.4421,3.2535],[-76.4398,3.2137],[-76.4625,3.1711],[-76.5842,3.117],[-76.629,3.1118],[-76.7189,3.0578],[-76.8523,2.99],[-76.9114,3.0564],[-76.97,3.0846],[-76.9925,3.0524],[-77.1717,3.069],[-77.33,3.185],[-77.3745,3.2495],[-77.4083,3.2881],[-77.4681,3.3301],[-77.45,3.3575],[-77.3639,3.4125],[-77.2442,3.5664],[-77.2117,3.5753],[-77.1411,3.6658],[-77.1285,3.7089],[-77.1257,3.7687],[-77.0327,3.9184],[-77.0831,3.9067],[-77.1126,3.8945],[-77.1886,3.8436],[-77.2654,3.8401],[-77.287,3.852],[-77.2977,3.9159],[-77.2859,3.9508],[-77.2601,3.9667],[-77.2145,3.972],[-77.1872,4.0603],[-77.2106,4.077],[-77.2606,4.0956],[-77.3127,4.0408],[-77.3291,3.9864],[-77.3444,3.9511],[-77.3663,3.926],[-77.4225,3.9986],[-77.4344,4.0314],[-77.4371,4.1421],[-77.4256,4.1787],[-77.3374,4.2172],[-77.2761,4.215],[-77.2482,4.2454],[-77.2258,4.2033],[-77.2077,4.1886],[-77.1464,4.1992],[-77.1142,4.1858],[-77.0142,4.1],[-76.8758,4.0536],[-76.8045,4.0092],[-76.7825,4.0003],[-76.7278,4.0022],[-76.5728,4.0517],[-76.461,4.1416],[-76.4474,4.1774],[-76.5167,4.2511],[-76.5311,4.29],[-76.5414,4.3625],[-76.5342,4.4079],[-76.5215,4.4267],[-76.4467,4.5661],[-76.3625,4.7567],[-76.3485,4.7731],[-76.2364,4.8653],[-76.1736,4.9014],[-76.1606,4.9304],[-76.152,4.971],[-76.1089,4.9785],[-76.0876,4.971],[-76.052,4.9411],[-75.9728,4.8639],[-75.8958,4.7525],[-75.765,4.7197],[-75.7047,4.6917],[-75.6929,4.6481],[-75.7046,4.6286],[-75.7497,4.6194],[-75.7977,4.6184],[-75.8479,4.6228],[-75.864,4.6085],[-75.8664,4.5854],[-75.8595,4.5511],[-75.7895,4.2414],[-75.7561,4.1253],[-75.7377,4.0929],[-75.7156,4.077],[-75.7156,4.0256],[-75.721,3.9962],[-75.7824,3.947],[-75.8201,3.9631],[-75.8403,3.9586],[-75.8628,3.9333],[-75.8903,3.8922],[-75.925,3.8228],[-75.9472,3.7],[-76.002,3.4853],[-76.0789,3.2247],[-76.0911,3.215]]]},"properties":{"name":"Valle del Cauca","id":"CO-VAC","CNTRY":"Colombia","TYPE":"Department"},"id":"CO-VAC"},
{"type":"Feature","geometry":{"type":"Polygon","coordinates":[[[-75.7156,4.077],[-75.7168,4.1037],[-75.7066,4.1554],[-75.6461,4.2464],[-75.6086,4.2914],[-75.5833,4.3489],[-75.5829,4.436],[-75.5717,4.4585],[-75.4725,4.5803],[-75.3932,4.6968],[-75.4003,4.7103],[-75.4336,4.7413],[-75.4378,4.761],[-75.3989,4.8119],[-75.3451,4.8541],[-75.3295,4.8728],[-75.329,4.895],[-75.3593,4.9464],[-75.3167,5.1028],[-75.3094,5.1234],[-75.2817,5.1545],[-75.1253,5.1686],[-75.1085,5.1796],[-75.0861,5.2263],[-75.0317,5.2747],[-75.005,5.2892],[-74.912,5.3109],[-74.8097,5.3082],[-74.7488,5.2903],[-74.7447,5.2795],[-74.7306,5.1156],[-74.7744,4.8345],[-74.8278,4.7181],[-74.8178,4.6092],[-74.8071,4.5404],[-74.7947,4.5126],[-74.8122,4.4589],[-74.8824,4.3257],[-74.8985,4.2813],[-74.8786,4.2656],[-74.6842,4.1903],[-74.6599,4.1876],[-74.6315,4.2006],[-74.6075,4.2389],[-74.5722,4.2507],[-74.5443,4.2425],[-74.5206,4.215],[-74.4875,4.165],[-74.4774,4.1415],[-74.4764,4.1112],[-74.5094,4.0433],[-74.516,3.8976],[-74.541,3.8351],[-74.6028,3.7875],[-74.7,3.6645],[-74.7389,3.6078],[-74.7932,3.5172],[-74.8001,3.4964],[-74.7898,3.4423],[-74.8756,3.3389],[-74.9422,3.2901],[-75.0003,3.2822],[-75.044,3.2935],[-75.0656,3.3183],[-75.0532,3.3472],[-75.0193,3.3831],[-75.0138,3.4237],[-75.0246,3.4454],[-75.0535,3.454],[-75.3256,3.4128],[-75.3531,3.4039],[-75.5025,3.3411],[-75.5175,3.3219],[-75.571,3.2302],[-75.5675,3.1971],[-75.5729,3.1752],[-75.6222,3.1631],[-75.6944,3.1604],[-75.7212,3.1497],[-75.799,3.0722],[-75.8625,3.0265],[-75.9015,3.0108],[-75.9617,2.9961],[-76.0127,2.9962],[-76.0569,3.0802],[-76.0961,3.1402],[-76.0911,3.215],[-76.0789,3.2247],[-76.002,3.4853],[-75.9472,3.7],[-75.925,3.8228],[-75.8903,3.8922],[-75.8628,3.9333],[-75.8403,3.9586],[-75.8201,3.9631],[-75.7824,3.947],[-75.721,3.9962],[-75.7156,4.0256],[-75.7156,4.077]]]},"properties":{"name":"Tolima","id":"CO-TOL","CNTRY":"Colombia","TYPE":"Department"},"id":"CO-TOL"},
{"type":"Feature","geometry":{"type":"Polygon","coordinates":[[[-75.7252,9.4213],[-75.6879,9.4114],[-75.6567,9.4259],[-75.6343,9.4482],[-75.5981,9.5228],[-75.5856,9.5831],[-75.5853,9.6064],[-75.6014,9.6656],[-75.6268,9.6989],[-75.6608,9.7603],[-75.6353,9.8247],[-75.5903,9.9795],[-75.5801,10.0457],[-75.5825,10.0886],[-75.5236,10.1064],[-75.4749,9.995],[-75.3832,9.8826],[-75.339,9.8638],[-75.3297,9.8378],[-75.3283,9.7453],[-75.2519,9.6908],[-74.9939,9.4797],[-74.9347,9.4064],[-74.9297,9.3561],[-74.9406,9.2786],[-74.9364,9.2506],[-74.8862,9.1454],[-74.845,9.0953],[-74.7864,9.0583],[-74.7206,9.0281],[-74.6631,8.9881],[-74.6342,8.9617],[-74.602,8.9108],[-74.5483,8.7911],[-74.5853,8.759],[-74.5856,8.5783],[-74.5618,8.4939],[-74.5475,8.4703],[-74.5744,8.3975],[-74.6153,8.3156],[-74.6375,8.289],[-74.7228,8.2761],[-74.7594,8.2597],[-74.7822,8.2899],[-74.7932,8.3657],[-74.8656,8.4299],[-75.007,8.4889],[-75.0538,8.44],[-75.1108,8.401],[-75.1859,8.381],[-75.1956,8.476],[-75.2202,8.4903],[-75.2817,8.4739],[-75.3108,8.4824],[-75.3394,8.6522],[-75.3977,8.8032],[-75.3963,8.8313],[-75.3192,8.8601],[-75.2438,8.8695],[-75.2135,8.8572],[-75.2003,8.9183],[-75.2017,8.9434],[-75.2395,9.0459],[-75.2983,9.0964],[-75.3388,9.1156],[-75.4147,9.1342],[-75.4336,9.1501],[-75.5264,9.2464],[-75.6553,9.3303],[-75.6739,9.3458],[-75.7086,9.3872],[-75.7252,9.4213]]]},"properties":{"name":"Sucre","id":"CO-SUC","CNTRY":"Colombia","TYPE":"Department"},"id":"CO-SUC"},
{"type":"Feature","geometry":{"type":"Polygon","coordinates":[[[-81.713,12.4903],[-81.7201,12.4963],[-81.7201,12.5453],[-81.7047,12.5803],[-81.6813,12.5858],[-81.691,12.5322],[-81.713,12.4903]]]},"properties":{"name":"San Andrés, Providencia y Santa Catalina","id":"CO-SAP","CNTRY":"Colombia","TYPE":"Department"},"id":"CO-SAP"},
{"type":"Feature","geometry":{"type":"Polygon","coordinates":[[[-73.9281,7.2922],[-73.9102,7.4467],[-73.869,7.5411],[-73.8275,7.6067],[-73.8086,7.768],[-73.8242,7.8461],[-73.842,7.8837],[-73.8714,7.9814],[-73.8725,8.0456],[-73.8522,8.1046],[-73.8142,8.1395],[-73.7874,8.1555],[-73.735,8.057],[-73.7153,8.0136],[-73.6811,7.9167],[-73.6886,7.8757],[-73.7317,7.8092],[-73.7408,7.7731],[-73.7279,7.7467],[-73.624,7.7393],[-73.5933,7.7033],[-73.5575,7.6861],[-73.5178,7.6465],[-73.5052,7.6115],[-73.4828,7.5925],[-73.3247,7.5442],[-73.2586,7.5497],[-73.2257,7.6043],[-73.2054,7.615],[-73.0165,7.6143],[-72.9921,7.6075],[-72.9075,7.4614],[-72.894,7.4349],[-72.8672,7.3632],[-72.8635,7.3164],[-72.8731,7.2011],[-72.8673,7.0402],[-72.6672,6.9556],[-72.645,6.9706],[-72.5728,6.9907],[-72.5565,6.9754],[-72.5592,6.8994],[-72.5458,6.8835],[-72.512,6.8883],[-72.4945,6.8408],[-72.4831,6.6945],[-72.4908,6.6386],[-72.5372,6.505],[-72.5649,6.4625],[-72.6072,6.4458],[-72.6597,6.4442],[-72.6782,6.5106],[-72.6909,6.539],[-72.7486,6.5749],[-72.7778,6.5703],[-72.7786,6.4697],[-72.7715,6.4348],[-72.7403,6.3808],[-72.7377,6.3305],[-72.7525,6.2886],[-72.7792,6.2396],[-72.9647,6.01],[-73.0378,5.938],[-73.1278,5.9532],[-73.1775,5.9445],[-73.2047,5.9311],[-73.2207,5.9133],[-73.2247,5.8838],[-73.2125,5.849],[-73.2165,5.8249],[-73.2336,5.8067],[-73.2893,5.7806],[-73.3194,5.7771],[-73.3529,5.7867],[-73.3744,5.8033],[-73.3895,5.8322],[-73.3961,5.8733],[-73.3922,5.8981],[-73.3656,5.9485],[-73.3556,5.9975],[-73.3672,6.0478],[-73.3864,6.0657],[-73.5034,6.1274],[-73.5342,6.0859],[-73.5933,5.9422],[-73.6167,5.8061],[-73.6333,5.7483],[-73.6577,5.7321],[-73.7197,5.7776],[-73.8511,5.7625],[-73.9702,5.7332],[-73.9899,5.7495],[-74.0085,5.7986],[-74.0253,5.815],[-74.1337,5.8758],[-74.2239,5.9594],[-74.2701,6.0579],[-74.2956,6.0672],[-74.3588,6.0408],[-74.3874,6.0491],[-74.4218,6.0809],[-74.4603,6.1386],[-74.5131,6.2239],[-74.5467,6.2633],[-74.5069,6.2803],[-74.4833,6.2978],[-74.389,6.403],[-74.3804,6.4239],[-74.4061,6.4659],[-74.4138,6.5514],[-74.4045,6.5856],[-74.3683,6.6305],[-74.3368,6.6316],[-74.2709,6.6621],[-74.1219,6.7786],[-74.1065,6.794],[-74.0614,6.8706],[-74.0099,6.9256],[-73.9307,6.9641],[-73.8854,7.0053],[-73.8839,7.0308],[-73.895,7.0706],[-73.9264,7.1182],[-73.9386,7.2445],[-73.9281,7.2922]]]},"properties":{"name":"Santander","id":"CO-SAN","CNTRY":"Colombia","TYPE":"Department"},"id":"CO-SAN"},
{"type":"Feature","geometry":{"type":"Polygon","coordinates":[[[-75.4003,4.7103],[-75.4634,4.674],[-75.4908,4.6729],[-75.5207,4.6811],[-75.5858,4.6911],[-75.6903,4.6985],[-75.7047,4.6917],[-75.765,4.7197],[-75.8958,4.7525],[-75.9728,4.8639],[-76.052,4.9411],[-76.0876,4.971],[-76.1089,4.9785],[-76.152,4.971],[-76.2103,5.0017],[-76.2392,5.0384],[-76.334,5.2461],[-76.3403,5.2765],[-76.2564,5.3642],[-76.2378,5.3764],[-76.0733,5.4547],[-75.9972,5.4822],[-75.9828,5.474],[-75.8772,5.4786],[-75.8836,5.3668],[-75.8665,5.3449],[-75.8015,5.3727],[-75.7333,5.3881],[-75.6492,5.3281],[-75.6727,5.2821],[-75.7076,5.2414],[-75.8067,5.1853],[-75.916,5.0836],[-75.9304,5.0493],[-75.8906,4.9414],[-75.8692,4.9236],[-75.8336,4.9239],[-75.7221,4.9503],[-75.6181,4.9122],[-75.52,4.9068],[-75.4792,4.8817],[-75.3989,4.8119],[-75.4378,4.761],[-75.4336,4.7413],[-75.4003,4.7103]]]},"properties":{"name":"Risaralda","id":"CO-RIS","CNTRY":"Colombia","TYPE":"Department"},"id":"CO-RIS"},
{"type":"Feature","geometry":{"type":"Polygon","coordinates":[[[-75.7047,4.6917],[-75.6903,4.6985],[-75.5858,4.6911],[-75.5207,4.6811],[-75.4908,4.6729],[-75.4634,4.674],[-75.4003,4.7103],[-75.3932,4.6968],[-75.4725,4.5803],[-75.5717,4.4585],[-75.5829,4.436],[-75.5833,4.3489],[-75.6086,4.2914],[-75.6461,4.2464],[-75.7066,4.1554],[-75.7168,4.1037],[-75.7156,4.077],[-75.7377,4.0929],[-75.7561,4.1253],[-75.7895,4.2414],[-75.8595,4.5511],[-75.8664,4.5854],[-75.864,4.6085],[-75.8479,4.6228],[-75.7977,4.6184],[-75.7497,4.6194],[-75.7046,4.6286],[-75.6929,4.6481],[-75.7047,4.6917]]]},"properties":{"name":"Quindio","id":"CO-QUI","CNTRY":"Colombia","TYPE":"Department"},"id":"CO-QUI"},
{"type":"Feature","geometry":{"type":"Polygon","coordinates":[[[-76.0664,1.0408],[-76.0522,1.0465],[-75.9345,1.0379],[-75.9106,1.0075],[-75.9139,0.9719],[-75.9025,0.9514],[-75.8354,0.8769],[-75.744,0.8438],[-75.6756,0.854],[-75.6331,0.8697],[-75.5406,0.8174],[-75.5275,0.7853],[-75.5045,0.762],[-75.4213,0.7396],[-75.3675,0.7431],[-75.3195,0.756],[-75.2794,0.7464],[-75.2511,0.7245],[-75.2115,0.617],[-75.2208,0.5821],[-75.2171,0.5514],[-75.1863,0.4875],[-75.1581,0.481],[-75.0999,0.5167],[-75.005,0.4726],[-74.9765,0.4308],[-74.9927,0.3835],[-74.9673,0.2676],[-74.8621,0.2232],[-74.8317,0.2161],[-74.7243,0.2007],[-74.7047,0.1857],[-74.6886,0.16],[-74.6508,0.05],[-74.688,0.0156],[-74.6661,-0.0629],[-74.5875,-0.1103],[-74.469,-0.1325],[-74.4499,-0.1147],[-74.4536,-0.0944],[-74.4372,-0.0797],[-74.3314,-0.1122],[-74.2862,-0.1475],[-74.2672,-0.1741],[-74.1806,-0.2236],[-74.106,-0.2444],[-74.0233,-0.3292],[-73.9567,-0.3655],[-73.9206,-0.3783],[-73.8355,-0.399],[-73.905,-0.42],[-74.1867,-0.5153],[-74.3161,-0.5625],[-74.3703,-0.5776],[-74.3939,-0.5433],[-74.5569,-0.4178],[-74.6075,-0.3836],[-74.6329,-0.4065],[-74.7088,-0.3616],[-74.7211,-0.2897],[-74.7492,-0.2356],[-74.7724,-0.2079],[-74.7919,-0.2003],[-74.8126,-0.2057],[-74.8603,-0.2325],[-74.9381,-0.1989],[-74.9606,-0.1705],[-75.0214,-0.123],[-75.137,-0.0453],[-75.205,-0.0369],[-75.2259,-0.096],[-75.2592,-0.1225],[-75.2858,-0.1197],[-75.3,-0.1022],[-75.3497,-0.0783],[-75.399,-0.0721],[-75.4345,-0.0594],[-75.5189,-0.0081],[-75.5754,0.0318],[-75.694,0.0431],[-75.7275,0.0356],[-75.7608,0.0468],[-75.9128,0.1634],[-76.0249,0.3201],[-76.0401,0.3376],[-76.1453,0.3708],[-76.2431,0.3956],[-76.4008,0.3923],[-76.4078,0.2717],[-76.4486,0.2469],[-76.5452,0.2192],[-76.5849,0.2308],[-76.612,0.2589],[-76.7167,0.2832],[-76.727,0.2631],[-76.7703,0.2489],[-76.8114,0.2414],[-76.8666,0.2394],[-77.0353,0.3062],[-77.0796,0.3596],[-77.0775,0.3888],[-77.0856,0.4778],[-77.1071,0.5514],[-77.0917,0.6272],[-77.0339,0.6431],[-76.9986,0.6625],[-76.9969,0.6861],[-77.0297,0.83],[-77.0763,0.9778],[-77.082,1.1678],[-77.0707,1.185],[-77.0108,1.2253],[-76.8978,1.292],[-76.8758,1.3009],[-76.8268,1.3105],[-76.7279,1.3313],[-76.6919,1.36],[-76.6653,1.4042],[-76.636,1.4216],[-76.5928,1.4178],[-76.5659,1.3933],[-76.5275,1.3178],[-76.5157,1.2696],[-76.5428,1.2103],[-76.5552,1.1129],[-76.529,1.0582],[-76.5046,1.0311],[-76.3917,0.984],[-76.3364,0.9719],[-76.2089,0.9711],[-76.1808,0.9772],[-76.0772,1.0155],[-76.0664,1.0408]]]},"properties":{"name":"Putumayo","id":"CO-PUT","CNTRY":"Colombia","TYPE":"Department"},"id":"CO-PUT"},
{"type":"Feature","geometry":{"type":"Polygon","coordinates":[[[-72.0538,7.0622],[-72.0927,7.0372],[-72.1206,7.0381],[-72.1797,7.0495],[-72.2003,7.042],[-72.3007,6.9846],[-72.3311,6.9244],[-72.3606,6.8983],[-72.3842,6.8907],[-72.512,6.8883],[-72.5458,6.8835],[-72.5592,6.8994],[-72.5565,6.9754],[-72.5728,6.9907],[-72.645,6.9706],[-72.6672,6.9556],[-72.8673,7.0402],[-72.8731,7.2011],[-72.8635,7.3164],[-72.8672,7.3632],[-72.894,7.4349],[-72.9075,7.4614],[-72.9921,7.6075],[-73.0165,7.6143],[-73.2054,7.615],[-73.2257,7.6043],[-73.2586,7.5497],[-73.3247,7.5442],[-73.4828,7.5925],[-73.5052,7.6115],[-73.5178,7.6465],[-73.5575,7.6861],[-73.5933,7.7033],[-73.4845,7.7167],[-73.4563,7.7239],[-73.4133,7.7464],[-73.3871,7.7708],[-73.3628,7.8088],[-73.302,7.9353],[-73.2961,7.9694],[-73.3197,8.0645],[-73.3532,8.141],[-73.3906,8.1931],[-73.4053,8.2285],[-73.4053,8.2522],[-73.3897,8.2699],[-73.3674,8.2729],[-73.339,8.2901],[-73.3308,8.331],[-73.3281,8.3778],[-73.3334,8.4325],[-73.3442,8.4508],[-73.3667,8.4614],[-73.4015,8.4586],[-73.4147,8.4404],[-73.411,8.3588],[-73.4389,8.3356],[-73.467,8.3442],[-73.4784,8.3689],[-73.5205,8.534],[-73.5125,8.6061],[-73.4911,8.6556],[-73.442,8.7078],[-73.4276,8.7443],[-73.4298,8.8033],[-73.4386,8.8539],[-73.435,8.9292],[-73.4111,9.0908],[-73.3942,9.1417],[-73.3781,9.1714],[-73.3456,9.1664],[-73.222,9.1711],[-73.1656,9.1958],[-73.1436,9.2239],[-73.01,9.302],[-72.9811,9.2608],[-72.9584,9.2011],[-72.9625,9.1781],[-72.8856,9.1192],[-72.7797,9.0803],[-72.6645,8.6411],[-72.4231,8.3897],[-72.3882,8.3694],[-72.3761,8.337],[-72.3367,8.152],[-72.325,8.089],[-72.3286,8.0618],[-72.3458,8.0477],[-72.3894,8.0476],[-72.4597,7.9206],[-72.4735,7.6563],[-72.4725,7.498],[-72.4193,7.4206],[-72.4017,7.4072],[-72.3239,7.3931],[-72.2625,7.3895],[-72.1547,7.3253],[-72.164,7.2895],[-72.1646,7.2625],[-72.1453,7.1986],[-72.0925,7.1036],[-72.0661,7.0624],[-72.0538,7.0622]]]},"properties":{"name":"Norde de Santander","id":"CO-NSA","CNTRY":"Colombia","TYPE":"Department"},"id":"CO-NSA"},
{"type":"Feature","geometry":{"type":"MultiPolygon","coordinates":[[[[-76.8268,1.3105],[-76.8758,1.3009],[-76.8978,1.292],[-77.0108,1.2253],[-77.0707,1.185],[-77.082,1.1678],[-77.0763,0.9778],[-77.0297,0.83],[-76.9969,0.6861],[-76.9986,0.6625],[-77.0339,0.6431],[-77.0917,0.6272],[-77.1071,0.5514],[-77.0856,0.4778],[-77.0775,0.3888],[-77.0796,0.3596],[-77.1917,0.3349],[-77.2189,0.3361],[-77.3795,0.3847],[-77.4221,0.4128],[-77.4511,0.5413],[-77.4435,0.6218],[-77.4638,0.6556],[-77.4933,0.6653],[-77.5359,0.6557],[-77.58,0.6861],[-77.6247,0.7108],[-77.647,0.7289],[-77.6593,0.7506],[-77.6617,0.7814],[-77.6563,0.8094],[-77.6783,0.8372],[-77.6986,0.8453],[-77.78,0.8279],[-77.8142,0.8084],[-77.8539,0.8138],[-77.8833,0.8258],[-77.9297,0.8753],[-77.9993,0.9043],[-78.0321,0.9006],[-78.07,0.9045],[-78.1,0.916],[-78.1753,0.9706],[-78.23,1.0181],[-78.2483,1.0299],[-78.3101,1.0439],[-78.3538,1.0687],[-78.4415,1.1545],[-78.4665,1.1926],[-78.5401,1.2095],[-78.5603,1.1986],[-78.5917,1.2431],[-78.6567,1.272],[-78.6775,1.2856],[-78.8097,1.4378],[-78.8587,1.5479],[-78.9282,1.5806],[-78.9854,1.5854],[-79.0308,1.5988],[-79.0503,1.6318],[-78.9721,1.7524],[-78.8807,1.8256],[-78.8449,1.8365],[-78.7613,1.8208],[-78.7325,1.8057],[-78.6211,1.7647],[-78.5875,1.7672],[-78.5497,1.8822],[-78.5461,1.9171],[-78.5963,2.0179],[-78.6194,2.0299],[-78.6542,2.0639],[-78.6806,2.1547],[-78.6869,2.1935],[-78.6425,2.2895],[-78.5825,2.4014],[-78.5653,2.4292],[-78.5568,2.3906],[-78.5411,2.4224],[-78.5229,2.4342],[-78.4653,2.4432],[-78.4556,2.5042],[-78.428,2.5083],[-78.3892,2.4786],[-78.3465,2.4378],[-78.265,2.5192],[-78.1225,2.4874],[-77.987,2.5225],[-77.9503,2.5578],[-77.9412,2.6106],[-77.9386,2.5924],[-77.916,2.5466],[-77.8892,2.5122],[-77.8311,2.4253],[-77.7967,2.3636],[-77.7584,2.2794],[-77.7458,2.2579],[-77.7049,2.2234],[-77.6783,2.2089],[-77.6292,2.1957],[-77.5756,2.1883],[-77.5085,2.1895],[-77.4021,2.2016],[-77.3837,2.1918],[-77.3239,2.0947],[-77.2422,1.9943],[-77.1737,1.9326],[-77.1825,1.9083],[-77.2054,1.874],[-77.2281,1.8625],[-77.2694,1.814],[-77.2791,1.6798],[-77.2103,1.6761],[-77.0717,1.6864],[-77.011,1.7053],[-76.9908,1.7076],[-76.8017,1.5902],[-76.7808,1.5604],[-76.7783,1.5336],[-76.7999,1.3587],[-76.8268,1.3105]]],[[[-78.1256,2.4995],[-78.134,2.5011],[-78.2149,2.5764],[-78.2129,2.6062],[-78.1913,2.6392],[-78.1494,2.6486],[-78.1331,2.6461],[-78.1015,2.5865],[-78.0921,2.5364],[-78.1256,2.4995]]]]},"properties":{"name":"Nariño","id":"CO-NAR","CNTRY":"Colombia","TYPE":"Department"},"id":"CO-NAR"},
{"type":"Feature","geometry":{"type":"Polygon","coordinates":[[[-71.0825,4.9],[-71.0845,4.8911],[-71.0839,4.3761],[-71.0834,4.1534],[-71.0825,3.8964],[-71.0817,3.2795],[-71.0806,2.8861],[-71.0794,2.8732],[-71.0925,2.8826],[-71.1408,2.8875],[-71.3006,2.8867],[-71.4211,2.8595],[-71.6033,2.8567],[-71.7389,2.8642],[-71.8027,2.846],[-72.0014,2.8156],[-72.0872,2.8328],[-72.355,2.8081],[-72.5253,2.7207],[-72.5717,2.6781],[-72.6015,2.6335],[-72.7916,2.5869],[-72.8335,2.6109],[-72.8986,2.5873],[-72.915,2.5725],[-72.9456,2.5037],[-72.9856,2.4547],[-73.1719,2.3911],[-73.3186,2.3583],[-73.3935,2.3495],[-73.611,2.3774],[-73.6377,2.2876],[-73.6489,1.9439],[-73.6521,1.6419],[-73.685,1.6536],[-73.744,1.6508],[-73.8539,1.6178],[-73.9003,1.6],[-73.9764,1.5894],[-74.0082,1.5953],[-74.1313,1.6847],[-74.1557,1.724],[-74.2195,1.7871],[-74.2808,1.8022],[-74.362,1.8125],[-74.4359,1.8278],[-74.4821,1.8467],[-74.5122,1.8672],[-74.5753,1.9439],[-74.6099,2.0059],[-74.6178,2.055],[-74.6164,2.1289],[-74.6261,2.1972],[-74.6713,2.3217],[-74.6761,2.3472],[-74.6911,2.5431],[-74.6827,2.571],[-74.6524,2.6143],[-74.6153,2.656],[-74.5954,2.7092],[-74.5958,2.7539],[-74.6078,2.7819],[-74.6411,2.8189],[-74.7603,2.9031],[-74.8022,2.9231],[-74.9325,2.9572],[-74.9066,3.0246],[-74.8808,3.0469],[-74.785,3.1153],[-74.7151,3.1611],[-74.6753,3.2117],[-74.6199,3.3083],[-74.6225,3.365],[-74.6317,3.41],[-74.5981,3.5357],[-74.5863,3.5585],[-74.5461,3.6075],[-74.4957,3.7297],[-74.4931,3.7088],[-74.4745,3.6985],[-74.4543,3.7026],[-74.4378,3.721],[-74.4026,3.8036],[-74.3845,3.8353],[-74.2417,3.9914],[-74.2165,4.0106],[-74.1865,4.0168],[-74.1503,4.015],[-74.1007,4.0256],[-74.0578,4.0528],[-73.9964,4.1061],[-73.8344,4.1889],[-73.77,4.1899],[-73.7432,4.2036],[-73.7475,4.2764],[-73.7903,4.3667],[-73.8197,4.374],[-73.8374,4.3975],[-73.8228,4.4342],[-73.7872,4.4889],[-73.7558,4.513],[-73.6289,4.4806],[-73.5821,4.451],[-73.5695,4.4158],[-73.5592,4.3578],[-73.5392,4.3024],[-73.5168,4.2836],[-73.467,4.2726],[-73.4454,4.2774],[-73.4203,4.2937],[-73.3694,4.3067],[-73.2064,4.2657],[-73.1267,4.3072],[-73.0564,4.6914],[-73.0488,4.7134],[-72.9856,4.6293],[-72.9639,4.5658],[-72.915,4.4983],[-72.7426,4.311],[-72.723,4.293],[-72.5937,4.3045],[-72.49,4.3161],[-72.3978,4.3294],[-72.3449,4.3667],[-72.3164,4.4041],[-72.2328,4.4358],[-72.1419,4.4465],[-72.1111,4.4363],[-72.0684,4.3917],[-72.0395,4.3892],[-71.9764,4.4183],[-71.89,4.4861],[-71.8686,4.5095],[-71.7628,4.5772],[-71.6753,4.6071],[-71.6267,4.6303],[-71.5595,4.6803],[-71.3383,4.7806],[-71.276,4.8034],[-71.248,4.8058],[-71.2096,4.8185],[-71.0923,4.8894],[-71.0825,4.9]]]},"properties":{"name":"Meta","id":"CO-MET","CNTRY":"Colombia","TYPE":"Department"},"id":"CO-MET"},
{"type":"Feature","geometry":{"type":"Polygon","coordinates":[[[-73.8753,8.9767],[-73.9264,8.9774],[-74.0066,8.9935],[-74.1473,9.0394],[-74.202,9.0933],[-74.2277,9.1346],[-74.3031,9.2018],[-74.3458,9.2283],[-74.4381,9.2693],[-74.4717,9.2689],[-74.572,9.3098],[-74.6401,9.3829],[-74.7033,9.4256],[-74.7465,9.4201],[-74.8058,9.446],[-74.8043,9.4932],[-74.7931,9.5618],[-74.8178,9.6672],[-74.8275,9.685],[-74.8745,9.8381],[-74.8801,9.9215],[-74.8706,9.9478],[-74.8089,9.98],[-74.802,10.0187],[-74.8552,10.093],[-74.8922,10.1031],[-74.9388,10.1249],[-74.9486,10.1561],[-74.9155,10.2648],[-74.8735,10.3658],[-74.8191,10.4886],[-74.7797,10.5317],[-74.7336,10.5618],[-74.7243,10.6052],[-74.7172,10.7733],[-74.72,10.9104],[-74.7865,11.0295],[-74.8099,11.0514],[-74.842,11.0716],[-74.8608,11.1255],[-74.8346,11.1056],[-74.505,10.9933],[-74.4508,10.9839],[-74.3797,10.9831],[-74.3417,10.9867],[-74.3272,10.9749],[-74.419,10.9658],[-74.4653,10.9713],[-74.5917,10.8777],[-74.6075,10.8236],[-74.5933,10.7833],[-74.5192,10.8128],[-74.4653,10.766],[-74.4578,10.7425],[-74.395,10.7422],[-74.3754,10.7554],[-74.3583,10.7834],[-74.3322,10.8636],[-74.2905,10.9675],[-74.2636,11.017],[-74.2299,11.1186],[-74.2389,11.1967],[-74.237,11.235],[-74.1889,11.3097],[-74.155,11.3314],[-74.0372,11.3564],[-74.0128,11.3553],[-73.9696,11.339],[-73.9513,11.3192],[-73.867,11.2847],[-73.7908,11.2657],[-73.6725,11.2653],[-73.6314,11.2713],[-73.5572,11.2739],[-73.5373,11.2713],[-73.5437,11.2286],[-73.5775,11.1725],[-73.596,11.156],[-73.6259,11.1129],[-73.6447,10.9785],[-73.6285,10.9169],[-73.6472,10.8924],[-73.6539,10.8701],[-73.6495,10.8399],[-73.6359,10.82],[-73.5616,10.7376],[-73.5956,10.6672],[-73.5975,10.6261],[-73.5899,10.5992],[-73.5524,10.5622],[-73.5403,10.5278],[-73.7372,10.4342],[-73.8914,10.3775],[-73.9457,10.3478],[-74.0401,10.1874],[-74.0736,10.069],[-73.9586,9.9181],[-73.8394,9.7528],[-73.7847,9.5984],[-73.9175,9.5906],[-74.024,9.5965],[-74.0521,9.5811],[-74.1155,9.4956],[-74.0943,9.477],[-74.0622,9.4638],[-74.0325,9.4378],[-73.9521,9.3119],[-73.9436,9.2822],[-73.8914,9.1695],[-73.8317,9.112],[-73.8108,9.0789],[-73.8317,9.0419],[-73.8753,8.9767]]]},"properties":{"name":"Magdalena","id":"CO-MAG","CNTRY":"Colombia","TYPE":"Department"},"id":"CO-MAG"},
{"type":"Feature","geometry":{"type":"Polygon","coordinates":[[[-72.9085,10.4267],[-72.9714,10.4344],[-73.0024,10.4318],[-73.0986,10.4111],[-73.1328,10.4092],[-73.1881,10.4463],[-73.1331,10.5153],[-73.1016,10.529],[-73.0894,10.5547],[-73.0781,10.6225],[-73.0929,10.6602],[-73.2599,10.8375],[-73.2946,10.8586],[-73.3247,10.8636],[-73.4508,10.8611],[-73.5397,10.8625],[-73.594,10.8725],[-73.6285,10.9169],[-73.6447,10.9785],[-73.6259,11.1129],[-73.596,11.156],[-73.5775,11.1725],[-73.5437,11.2286],[-73.5373,11.2713],[-73.5089,11.2697],[-73.3843,11.2739],[-73.345,11.2795],[-73.2844,11.2956],[-73.2063,11.349],[-73.1959,11.3765],[-73.1431,11.4245],[-73.0347,11.5028],[-72.7688,11.6878],[-72.7309,11.7068],[-72.5176,11.7875],[-72.4575,11.785],[-72.4162,11.7978],[-72.2586,11.8892],[-72.2327,11.9152],[-72.1387,12.1064],[-72.1458,12.2073],[-72.1689,12.2216],[-72.1579,12.2411],[-72.1386,12.2494],[-72.0286,12.2578],[-71.9648,12.252],[-72.0118,12.1926],[-71.9861,12.1571],[-71.963,12.1536],[-71.9378,12.1628],[-71.8642,12.2108],[-71.8097,12.3133],[-71.6929,12.3664],[-71.6314,12.4216],[-71.655,12.4389],[-71.7044,12.4345],[-71.6909,12.4593],[-71.6615,12.4639],[-71.5636,12.4536],[-71.5286,12.4461],[-71.2757,12.3461],[-71.2208,12.3021],[-71.1149,12.0986],[-71.1142,12.0489],[-71.1313,12.0174],[-71.1736,11.9845],[-71.2319,11.9514],[-71.2825,11.9186],[-71.3247,11.8531],[-71.4033,11.8128],[-71.6264,11.7556],[-71.7217,11.7219],[-71.7697,11.7008],[-71.9685,11.6662],[-72.0727,11.4955],[-72.2094,11.25],[-72.3176,11.1645],[-72.3499,11.1635],[-72.4721,11.1347],[-72.4913,11.1228],[-72.54,11.032],[-72.6336,10.8964],[-72.7047,10.7706],[-72.81,10.5906],[-72.8367,10.5545],[-72.9035,10.4445],[-72.9085,10.4267]]]},"properties":{"name":"La Guajira","id":"CO-LAG","CNTRY":"Colombia","TYPE":"Department"},"id":"CO-LAG"},
{"type":"Feature","geometry":{"type":"Polygon","coordinates":[[[-76.1528,1.5439],[-76.2011,1.5327],[-76.2467,1.5388],[-76.3515,1.6049],[-76.4247,1.6747],[-76.4354,1.6984],[-76.4275,1.7707],[-76.4331,1.8014],[-76.4765,1.8635],[-76.5228,1.8836],[-76.5789,1.8833],[-76.5983,1.9063],[-76.6125,2.0625],[-76.6115,2.1136],[-76.5824,2.1343],[-76.5391,2.1442],[-76.5064,2.1369],[-76.4433,2.1056],[-76.4026,2.0915],[-76.3628,2.0892],[-76.3357,2.0964],[-76.3206,2.1097],[-76.3207,2.1394],[-76.3289,2.1728],[-76.3495,2.2186],[-76.3677,2.274],[-76.3649,2.2939],[-76.2672,2.4047],[-76.2443,2.4174],[-76.1736,2.4021],[-76.1442,2.4061],[-76.1003,2.4335],[-76.05,2.5028],[-76.0178,2.5225],[-75.974,2.5082],[-75.9306,2.48],[-75.8825,2.44],[-75.8629,2.4346],[-75.7881,2.4542],[-75.7917,2.4753],[-75.8445,2.6128],[-75.8861,2.6809],[-75.9364,2.7908],[-75.9992,2.977],[-76.0127,2.9962],[-75.9617,2.9961],[-75.9015,3.0108],[-75.8625,3.0265],[-75.799,3.0722],[-75.7212,3.1497],[-75.6944,3.1604],[-75.6222,3.1631],[-75.5729,3.1752],[-75.5675,3.1971],[-75.571,3.2302],[-75.5175,3.3219],[-75.5025,3.3411],[-75.3531,3.4039],[-75.3256,3.4128],[-75.0535,3.454],[-75.0246,3.4454],[-75.0138,3.4237],[-75.0193,3.3831],[-75.0532,3.3472],[-75.0656,3.3183],[-75.044,3.2935],[-75.0003,3.2822],[-74.9422,3.2901],[-74.8756,3.3389],[-74.7898,3.4423],[-74.8001,3.4964],[-74.7932,3.5172],[-74.7389,3.6078],[-74.7,3.6645],[-74.6028,3.7875],[-74.541,3.8351],[-74.525,3.8101],[-74.4856,3.7883],[-74.4821,3.765],[-74.4957,3.7297],[-74.5461,3.6075],[-74.5863,3.5585],[-74.5981,3.5357],[-74.6317,3.41],[-74.6225,3.365],[-74.6199,3.3083],[-74.6753,3.2117],[-74.7151,3.1611],[-74.785,3.1153],[-74.8808,3.0469],[-74.9066,3.0246],[-74.9325,2.9572],[-75.0139,2.8549],[-75.0269,2.8261],[-75.0245,2.7886],[-74.9931,2.7375],[-74.9872,2.7056],[-75.0325,2.6492],[-75.1385,2.5619],[-75.1678,2.5544],[-75.2237,2.572],[-75.2558,2.5417],[-75.2689,2.522],[-75.2874,2.4324],[-75.329,2.3546],[-75.3731,2.3164],[-75.5326,2.1276],[-75.5511,2.07],[-75.6353,1.9569],[-75.7395,1.8336],[-75.93,1.5857],[-75.9622,1.5625],[-75.995,1.5625],[-76.1397,1.5514],[-76.1528,1.5439]]]},"properties":{"name":"Huila","id":"CO-HUI","CNTRY":"Colombia","TYPE":"Department"},"id":"CO-HUI"},
{"type":"Feature","geometry":{"type":"Polygon","coordinates":[[[-70.1542,2.0733],[-70.1793,2.0742],[-70.3608,2.0042],[-70.6639,1.9204],[-70.7167,1.9153],[-70.7725,1.9163],[-70.886,1.9257],[-71.0167,1.8233],[-71.0383,1.8128],[-71.0838,1.8144],[-71.114,1.8081],[-71.2117,1.7473],[-71.2792,1.6564],[-71.4025,1.5167],[-71.4717,1.4686],[-71.4884,1.4397],[-71.5489,1.2884],[-71.5429,1.2343],[-71.5434,1.1807],[-71.6183,1.0775],[-71.6818,1.0151],[-71.739,1.0045],[-71.771,0.9797],[-71.7842,0.9596],[-71.7989,0.9017],[-72.0145,0.6958],[-72.0338,0.673],[-72.0514,0.6725],[-72.0985,0.7094],[-72.1924,0.7424],[-72.236,0.7258],[-72.2803,0.8122],[-72.306,0.88],[-72.427,1.0417],[-72.4882,1.1014],[-72.5261,1.0942],[-72.5467,1.1],[-72.6301,1.1552],[-72.6512,1.1897],[-72.7166,1.2062],[-72.8033,1.1897],[-72.8488,1.1676],[-72.8854,1.1133],[-72.87,1.0678],[-72.8824,1.0472],[-73.0365,0.9309],[-73.0601,0.9254],[-73.0964,0.9281],[-73.1732,0.9605],[-73.1918,0.9925],[-73.2808,1.0686],[-73.3719,1.1308],[-73.4111,1.1706],[-73.4274,1.2001],[-73.4352,1.2624],[-73.4711,1.3395],[-73.507,1.3805],[-73.5495,1.4164],[-73.6269,1.5131],[-73.646,1.5438],[-73.655,1.5961],[-73.6521,1.6419],[-73.6489,1.9439],[-73.6377,2.2876],[-73.611,2.3774],[-73.3935,2.3495],[-73.3186,2.3583],[-73.1719,2.3911],[-72.9856,2.4547],[-72.9456,2.5037],[-72.915,2.5725],[-72.8986,2.5873],[-72.8335,2.6109],[-72.7916,2.5869],[-72.6015,2.6335],[-72.5717,2.6781],[-72.5253,2.7207],[-72.355,2.8081],[-72.0872,2.8328],[-72.0014,2.8156],[-71.8027,2.846],[-71.7389,2.8642],[-71.6033,2.8567],[-71.4211,2.8595],[-71.3006,2.8867],[-71.1408,2.8875],[-71.0925,2.8826],[-71.0794,2.8732],[-71.0721,2.8212],[-70.9817,2.8375],[-70.8714,2.8046],[-70.8145,2.7736],[-70.7125,2.7683],[-70.6851,2.793],[-70.6747,2.8361],[-70.6595,2.8604],[-70.5179,2.8053],[-70.5012,2.8131],[-70.5211,2.7839],[-70.6517,2.6958],[-70.8092,2.5992],[-70.8559,2.559],[-70.8345,2.5305],[-70.7709,2.53],[-70.6953,2.4356],[-70.6382,2.3124],[-70.4881,2.2413],[-70.3088,2.2429],[-70.1217,2.2784],[-70.0791,2.3034],[-70.0342,2.2822],[-70.0019,2.2274],[-70.0564,2.1621],[-70.0814,2.148],[-70.1381,2.1061],[-70.1542,2.0733]]]},"properties":{"name":"Guaviare","id":"CO-GUV","CNTRY":"Colombia","TYPE":"Department"},"id":"CO-GUV"},
{"type":"Feature","geometry":{"type":"Polygon","coordinates":[[[-67.7085,4.047],[-67.6806,3.9214],[-67.6352,3.7976],[-67.616,3.759],[-67.5999,3.7407],[-67.577,3.7324],[-67.5117,3.738],[-67.491,3.7243],[-67.4371,3.6484],[-67.4283,3.6081],[-67.3956,3.5125],[-67.3811,3.486],[-67.3629,3.4731],[-67.3066,3.4528],[-67.2929,3.3961],[-67.3464,3.3137],[-67.3697,3.3047],[-67.4356,3.2539],[-67.5,3.1907],[-67.8331,2.8767],[-67.8236,2.8271],[-67.7658,2.8325],[-67.6344,2.8095],[-67.6058,2.7933],[-67.5897,2.7642],[-67.5353,2.68],[-67.4856,2.6534],[-67.3252,2.474],[-67.2814,2.4389],[-67.2195,2.4131],[-67.1925,2.3925],[-67.1742,2.3365],[-67.1846,2.3161],[-67.2075,2.2949],[-67.217,2.2753],[-67.2115,2.2436],[-67.1753,2.1534],[-67.1606,2.1325],[-67.1132,2.0267],[-66.9917,1.6958],[-66.9264,1.4597],[-66.899,1.2841],[-66.8853,1.2211],[-67.0753,1.1725],[-67.0842,1.1939],[-67.0878,1.2864],[-67.0804,1.3853],[-67.0636,1.4383],[-67.0569,1.5202],[-67.0712,1.6204],[-67.1136,1.735],[-67.1608,1.8186],[-67.2066,1.8758],[-67.2282,1.8918],[-67.2647,1.947],[-67.3089,2.0328],[-67.3254,2.0885],[-67.3397,2.113],[-67.4226,2.1429],[-67.5058,2.107],[-67.586,2.0531],[-67.6664,1.9734],[-67.6872,1.9196],[-67.771,1.8188],[-67.8117,1.7843],[-67.8725,1.7552],[-67.9418,1.7425],[-67.9907,1.7538],[-68.0101,1.7685],[-68.0353,1.8014],[-68.0751,1.8721],[-68.0885,1.9271],[-68.1049,1.9518],[-68.124,1.9637],[-68.1745,1.9775],[-68.1964,1.9775],[-68.2267,1.9336],[-68.2572,1.8528],[-68.2328,1.7756],[-68.1826,1.7665],[-68.1531,1.7242],[-68.8289,1.7261],[-69.103,1.7275],[-69.3725,1.7281],[-69.4003,1.7444],[-69.5539,1.7839],[-69.7006,1.7453],[-69.785,1.7076],[-69.8461,1.7105],[-69.8792,1.7378],[-69.9708,1.7603],[-70.0296,1.7665],[-70.0585,1.7764],[-70.1481,1.8508],[-70.1715,1.8843],[-70.1783,1.9751],[-70.1543,1.9871],[-70.1392,2.0097],[-70.1542,2.0733],[-70.1381,2.1061],[-70.0814,2.148],[-70.0564,2.1621],[-70.0019,2.2274],[-70.0342,2.2822],[-70.0791,2.3034],[-70.1217,2.2784],[-70.3088,2.2429],[-70.4881,2.2413],[-70.6382,2.3124],[-70.6953,2.4356],[-70.7709,2.53],[-70.8345,2.5305],[-70.8559,2.559],[-70.8092,2.5992],[-70.6517,2.6958],[-70.5211,2.7839],[-70.5012,2.8131],[-70.4064,2.8339],[-70.3813,2.8453],[-70.3065,2.9481],[-70.3164,3.0217],[-70.3094,3.1012],[-70.2593,3.1857],[-70.2183,3.1964],[-70.1786,3.1967],[-70.1349,3.2046],[-70.1414,3.2783],[-70.1721,3.3349],[-70.1393,3.3781],[-70.057,3.4078],[-70.0292,3.391],[-69.9796,3.391],[-69.8614,3.4956],[-69.7517,3.5386],[-69.705,3.5464],[-69.6428,3.577],[-69.6058,3.6134],[-69.6033,3.6382],[-69.6099,3.6726],[-69.5897,3.6943],[-69.4983,3.6995],[-69.4485,3.6738],[-69.3821,3.6826],[-69.354,3.7065],[-69.2709,3.7186],[-69.227,3.7],[-69.2004,3.6783],[-69.1945,3.6446],[-69.0425,3.6747],[-68.9242,3.7],[-68.8713,3.6772],[-68.8239,3.7186],[-68.7704,3.7709],[-68.7081,3.7889],[-68.588,3.78],[-68.5389,3.7959],[-68.5092,3.8445],[-68.3703,3.9675],[-68.3484,3.9787],[-68.175,3.9989],[-68.0433,3.9989],[-67.9618,3.9586],[-67.9477,3.9395],[-67.9453,3.9133],[-67.9275,3.8978],[-67.8789,3.9339],[-67.8224,3.9992],[-67.8036,4.0126],[-67.7085,4.047]]]},"properties":{"name":"Guainia","id":"CO-GUA","CNTRY":"Colombia","TYPE":"Department"},"id":"CO-GUA"},
{"type":"Feature","geometry":{"type":"Polygon","coordinates":[[[-74.4957,3.7297],[-74.4713,3.75],[-74.4396,3.7937],[-74.4006,3.865],[-74.3806,3.9422],[-74.3832,4.0108],[-74.3268,4.0903],[-74.2767,4.092],[-74.2513,4.1014],[-74.1978,4.2319],[-74.1929,4.2685],[-74.2031,4.3325],[-74.2081,4.4022],[-74.1745,4.6358],[-74.0695,4.8181],[-74.0447,4.8221],[-73.9932,4.7949],[-73.9853,4.7469],[-73.9881,4.5797],[-74.0067,4.5497],[-74.0495,4.5035],[-74.0681,4.4739],[-74.0894,4.4261],[-74.095,4.4007],[-74.102,4.3011],[-74.1231,4.1958],[-74.1519,4.0783],[-74.1503,4.015],[-74.1865,4.0168],[-74.2165,4.0106],[-74.2417,3.9914],[-74.3845,3.8353],[-74.4026,3.8036],[-74.4378,3.721],[-74.4543,3.7026],[-74.4745,3.6985],[-74.4931,3.7088],[-74.4957,3.7297]]]},"properties":{"name":"Distrito Capital de Bogotá","id":"CO-DC","CNTRY":"Colombia","TYPE":"Capital District"},"id":"CO-DC"},
{"type":"Feature","geometry":{"type":"Polygon","coordinates":[[[-74.7488,5.2903],[-74.7211,5.3278],[-74.6917,5.3817],[-74.6609,5.4603],[-74.6681,5.505],[-74.6506,5.7217],[-74.6431,5.7348],[-74.6251,5.7496],[-74.5033,5.7755],[-74.4589,5.7621],[-74.4209,5.7557],[-74.3642,5.7828],[-74.324,5.8134],[-74.2977,5.7832],[-74.2811,5.6874],[-74.3283,5.6297],[-74.3181,5.5926],[-74.2333,5.4844],[-74.1664,5.4611],[-74.0367,5.364],[-74.0131,5.3624],[-73.96,5.3853],[-73.8956,5.451],[-73.8939,5.4802],[-73.8803,5.5164],[-73.8321,5.5504],[-73.7905,5.5598],[-73.7128,5.4828],[-73.6422,5.4645],[-73.5729,5.3818],[-73.5294,5.2433],[-73.4911,5.1696],[-73.474,5.0707],[-73.5103,5.0318],[-73.5261,5.0064],[-73.5433,4.9403],[-73.5358,4.9115],[-73.5022,4.8795],[-73.414,4.8218],[-73.3154,4.7813],[-73.2533,4.7375],[-73.2075,4.6775],[-73.185,4.6652],[-73.1345,4.6567],[-73.0911,4.6624],[-73.0488,4.7334],[-73.0488,4.7134],[-73.0564,4.6914],[-73.1267,4.3072],[-73.2064,4.2657],[-73.3694,4.3067],[-73.4203,4.2937],[-73.4454,4.2774],[-73.467,4.2726],[-73.5168,4.2836],[-73.5392,4.3024],[-73.5592,4.3578],[-73.5695,4.4158],[-73.5821,4.451],[-73.6289,4.4806],[-73.7558,4.513],[-73.7872,4.4889],[-73.8228,4.4342],[-73.8374,4.3975],[-73.8197,4.374],[-73.7903,4.3667],[-73.7475,4.2764],[-73.7432,4.2036],[-73.77,4.1899],[-73.8344,4.1889],[-73.9964,4.1061],[-74.0578,4.0528],[-74.1007,4.0256],[-74.1503,4.015],[-74.1519,4.0783],[-74.1231,4.1958],[-74.102,4.3011],[-74.095,4.4007],[-74.0894,4.4261],[-74.0681,4.4739],[-74.0495,4.5035],[-74.0067,4.5497],[-73.9881,4.5797],[-73.9853,4.7469],[-73.9932,4.7949],[-74.0447,4.8221],[-74.0695,4.8181],[-74.1745,4.6358],[-74.2081,4.4022],[-74.2031,4.3325],[-74.1929,4.2685],[-74.1978,4.2319],[-74.2513,4.1014],[-74.2767,4.092],[-74.3268,4.0903],[-74.3832,4.0108],[-74.3806,3.9422],[-74.4006,3.865],[-74.4396,3.7937],[-74.4713,3.75],[-74.4957,3.7297],[-74.4821,3.765],[-74.4856,3.7883],[-74.525,3.8101],[-74.541,3.8351],[-74.516,3.8976],[-74.5094,4.0433],[-74.4764,4.1112],[-74.4774,4.1415],[-74.4875,4.165],[-74.5206,4.215],[-74.5443,4.2425],[-74.5722,4.2507],[-74.6075,4.2389],[-74.6315,4.2006],[-74.6599,4.1876],[-74.6842,4.1903],[-74.8786,4.2656],[-74.8985,4.2813],[-74.8824,4.3257],[-74.8122,4.4589],[-74.7947,4.5126],[-74.8071,4.5404],[-74.8178,4.6092],[-74.8278,4.7181],[-74.7744,4.8345],[-74.7306,5.1156],[-74.7447,5.2795],[-74.7488,5.2903]]]},"properties":{"name":"Cundinamarca","id":"CO-CUN","CNTRY":"Colombia","TYPE":"Department"},"id":"CO-CUN"},
{"type":"Feature","geometry":{"type":"Polygon","coordinates":[[[-74.8275,8.1859],[-74.8581,8.1532],[-74.9009,8.0908],[-74.9364,8.0575],[-74.9817,8.0406],[-75.0658,8.0392],[-75.1779,8.0457],[-75.2056,8.0386],[-75.3167,7.9333],[-75.3353,7.8853],[-75.3579,7.8541],[-75.4421,7.8224],[-75.4622,7.7664],[-75.4726,7.7189],[-75.4895,7.704],[-75.5104,7.7107],[-75.5418,7.7382],[-75.5636,7.75],[-75.5946,7.7443],[-75.62,7.7196],[-75.6615,7.6526],[-75.6746,7.5785],[-75.8421,7.371],[-75.8732,7.3631],[-75.9944,7.3675],[-76.1897,7.3664],[-76.3103,7.36],[-76.3443,7.3656],[-76.4386,7.4878],[-76.4911,7.5728],[-76.5078,7.6367],[-76.5158,7.6889],[-76.5167,7.7467],[-76.5074,7.8501],[-76.4885,7.8824],[-76.4267,7.9433],[-76.4153,7.9822],[-76.4131,8.0325],[-76.4008,8.112],[-76.382,8.1807],[-76.3581,8.2306],[-76.2855,8.3075],[-76.2658,8.3214],[-76.2186,8.3708],[-76.2035,8.3971],[-76.1904,8.4563],[-76.1878,8.5317],[-76.1925,8.557],[-76.2074,8.5746],[-76.2689,8.6026],[-76.3206,8.6317],[-76.3542,8.6678],[-76.3682,8.6938],[-76.3818,8.7425],[-76.39,8.7997],[-76.3925,8.8561],[-76.4097,8.8933],[-76.4268,8.9064],[-76.3736,8.9161],[-76.3175,8.9386],[-76.2642,8.9953],[-76.1806,9.192],[-76.1726,9.2358],[-76.1106,9.3156],[-76.0897,9.3358],[-75.9186,9.4222],[-75.816,9.4386],[-75.7252,9.4213],[-75.7086,9.3872],[-75.6739,9.3458],[-75.6553,9.3303],[-75.5264,9.2464],[-75.4336,9.1501],[-75.4147,9.1342],[-75.3388,9.1156],[-75.2983,9.0964],[-75.2395,9.0459],[-75.2017,8.9434],[-75.2003,8.9183],[-75.2135,8.8572],[-75.2438,8.8695],[-75.3192,8.8601],[-75.3963,8.8313],[-75.3977,8.8032],[-75.3394,8.6522],[-75.3108,8.4824],[-75.2817,8.4739],[-75.2202,8.4903],[-75.1956,8.476],[-75.1859,8.381],[-75.1108,8.401],[-75.0538,8.44],[-75.007,8.4889],[-74.8656,8.4299],[-74.7932,8.3657],[-74.7822,8.2899],[-74.7594,8.2597],[-74.7682,8.2243],[-74.7839,8.2064],[-74.8275,8.1859]]]},"properties":{"name":"Córdoba","id":"CO-COR","CNTRY":"Colombia","TYPE":"Department"},"id":"CO-COR"},
{"type":"Feature","geometry":{"type":"MultiPolygon","coordinates":[[[[-77.3994,4.3222],[-77.3763,4.309],[-77.3562,4.263],[-77.3197,4.2517],[-77.3331,4.2395],[-77.5002,4.2097],[-77.5486,4.1962],[-77.5386,4.2325],[-77.4332,4.3317],[-77.3994,4.3222]]],[[[-76.8386,8.1332],[-76.8686,8.0867],[-76.9288,8.0686],[-76.986,8.0283],[-76.9989,8.0103],[-77.015,7.9222],[-77.0297,7.8853],[-77.0511,7.862],[-77.0743,7.8476],[-77.1106,7.8367],[-77.097,7.7447],[-77.0225,7.7283],[-76.9914,7.6897],[-76.89,7.5783],[-76.7061,7.3913],[-76.6456,7.3428],[-76.5861,7.3214],[-76.5214,7.2311],[-76.5078,7.1984],[-76.4979,7.158],[-76.5263,6.9879],[-76.5447,6.9776],[-76.599,7.0003],[-76.6703,7.0147],[-76.8124,7.0095],[-76.8287,6.9849],[-76.7981,6.909],[-76.8001,6.8724],[-76.847,6.8335],[-76.8829,6.8463],[-76.9208,6.8489],[-76.976,6.8305],[-76.9665,6.6991],[-76.9156,6.6665],[-76.8942,6.6467],[-76.8053,6.4581],[-76.7983,6.4206],[-76.7985,6.3121],[-76.7914,6.2889],[-76.7092,6.1733],[-76.6042,6.1686],[-76.5536,6.1803],[-76.3214,6.2214],[-76.2981,6.2181],[-76.2524,6.1935],[-76.2378,6.1764],[-76.2281,6.0449],[-76.2132,6.0047],[-76.1953,5.9887],[-76.1172,5.9706],[-76.1225,5.8939],[-76.1378,5.8647],[-76.1378,5.817],[-76.097,5.7256],[-76.0911,5.697],[-76.0938,5.6663],[-76.1117,5.6264],[-76.1031,5.6015],[-76.035,5.5175],[-75.9972,5.4822],[-76.0733,5.4547],[-76.2378,5.3764],[-76.2564,5.3642],[-76.3403,5.2765],[-76.334,5.2461],[-76.2392,5.0384],[-76.2103,5.0017],[-76.152,4.971],[-76.1606,4.9304],[-76.1736,4.9014],[-76.2364,4.8653],[-76.3485,4.7731],[-76.3625,4.7567],[-76.4467,4.5661],[-76.5215,4.4267],[-76.5342,4.4079],[-76.5414,4.3625],[-76.5311,4.29],[-76.5167,4.2511],[-76.4474,4.1774],[-76.461,4.1416],[-76.5728,4.0517],[-76.7278,4.0022],[-76.7825,4.0003],[-76.8045,4.0092],[-76.8758,4.0536],[-77.0142,4.1],[-77.1142,4.1858],[-77.1464,4.1992],[-77.2077,4.1886],[-77.2258,4.2033],[-77.2482,4.2454],[-77.2423,4.2609],[-77.2899,4.2711],[-77.3374,4.2693],[-77.3824,4.3422],[-77.3467,4.4429],[-77.3342,4.4711],[-77.3131,4.5465],[-77.3167,4.6481],[-77.3217,4.7195],[-77.3397,4.8164],[-77.3535,4.8675],[-77.3617,4.9406],[-77.3722,5.0828],[-77.3713,5.1549],[-77.3537,5.2028],[-77.3478,5.2406],[-77.3968,5.4562],[-77.4807,5.5042],[-77.5322,5.5189],[-77.5045,5.5842],[-77.4206,5.624],[-77.3825,5.6178],[-77.3592,5.6042],[-77.3269,5.6164],[-77.2506,5.709],[-77.2408,5.7582],[-77.245,5.7883],[-77.3389,5.9875],[-77.4081,6.0806],[-77.4757,6.1583],[-77.4889,6.1854],[-77.4758,6.2831],[-77.4073,6.2399],[-77.3853,6.2817],[-77.3558,6.3914],[-77.3404,6.5674],[-77.4082,6.6906],[-77.4438,6.712],[-77.4665,6.7143],[-77.6664,6.8767],[-77.6529,6.9772],[-77.6564,7.0009],[-77.6808,7.056],[-77.7933,7.1519],[-77.8897,7.2289],[-77.8075,7.4787],[-77.7757,7.4754],[-77.7486,7.4843],[-77.7322,7.5059],[-77.721,7.5365],[-77.7294,7.5689],[-77.7546,7.6122],[-77.7592,7.6333],[-77.7589,7.6931],[-77.744,7.72],[-77.6639,7.6795],[-77.6242,7.6033],[-77.6001,7.5392],[-77.5774,7.5262],[-77.331,7.7018],[-77.3301,7.7262],[-77.37,7.7785],[-77.3114,7.887],[-77.2952,7.9049],[-77.2156,7.9372],[-77.1983,7.9995],[-77.2154,8.0879],[-77.2736,8.1986],[-77.2961,8.2158],[-77.3625,8.285],[-77.3686,8.3642],[-77.375,8.3986],[-77.4058,8.4513],[-77.4291,8.4725],[-77.4686,8.4717],[-77.4758,8.5211],[-77.4522,8.557],[-77.4386,8.5667],[-77.3719,8.6461],[-77.3667,8.675],[-77.347,8.6622],[-77.3003,8.5783],[-77.2847,8.5165],[-77.241,8.4647],[-77.22,8.4511],[-77.1639,8.4342],[-77.1345,8.4102],[-77.0817,8.3261],[-76.9686,8.2383],[-76.9486,8.1592],[-76.8878,8.1217],[-76.8386,8.1332]]]]},"properties":{"name":"Chocó","id":"CO-CHO","CNTRY":"Colombia","TYPE":"Department"},"id":"CO-CHO"},
{"type":"Feature","geometry":{"type":"Polygon","coordinates":[[[-73.7874,8.1555],[-73.7603,8.2733],[-73.7548,8.3839],[-73.7657,8.4819],[-73.7906,8.5674],[-73.8319,8.6459],[-73.8258,8.7253],[-73.8397,8.8511],[-73.8652,8.8743],[-73.8817,8.909],[-73.8753,8.9767],[-73.8317,9.0419],[-73.8108,9.0789],[-73.8317,9.112],[-73.8914,9.1695],[-73.9436,9.2822],[-73.9521,9.3119],[-74.0325,9.4378],[-74.0622,9.4638],[-74.0943,9.477],[-74.1155,9.4956],[-74.0521,9.5811],[-74.024,9.5965],[-73.9175,9.5906],[-73.7847,9.5984],[-73.8394,9.7528],[-73.9586,9.9181],[-74.0736,10.069],[-74.0401,10.1874],[-73.9457,10.3478],[-73.8914,10.3775],[-73.7372,10.4342],[-73.5403,10.5278],[-73.5524,10.5622],[-73.5899,10.5992],[-73.5975,10.6261],[-73.5956,10.6672],[-73.5616,10.7376],[-73.6359,10.82],[-73.6495,10.8399],[-73.6539,10.8701],[-73.6472,10.8924],[-73.6285,10.9169],[-73.594,10.8725],[-73.5397,10.8625],[-73.4508,10.8611],[-73.3247,10.8636],[-73.2946,10.8586],[-73.2599,10.8375],[-73.0929,10.6602],[-73.0781,10.6225],[-73.0894,10.5547],[-73.1016,10.529],[-73.1331,10.5153],[-73.1881,10.4463],[-73.1328,10.4092],[-73.0986,10.4111],[-73.0024,10.4318],[-72.9714,10.4344],[-72.9085,10.4267],[-72.915,10.3506],[-72.9389,10.1165],[-72.9565,10.0821],[-72.9775,10.0019],[-72.9865,9.9049],[-73.0047,9.7683],[-73.0817,9.6095],[-73.1175,9.5614],[-73.2451,9.4085],[-73.3639,9.2258],[-73.3781,9.1714],[-73.3942,9.1417],[-73.4111,9.0908],[-73.435,8.9292],[-73.4386,8.8539],[-73.4298,8.8033],[-73.4276,8.7443],[-73.442,8.7078],[-73.4911,8.6556],[-73.5125,8.6061],[-73.5205,8.534],[-73.4784,8.3689],[-73.467,8.3442],[-73.4389,8.3356],[-73.411,8.3588],[-73.4147,8.4404],[-73.4015,8.4586],[-73.3667,8.4614],[-73.3442,8.4508],[-73.3334,8.4325],[-73.3281,8.3778],[-73.3308,8.331],[-73.339,8.2901],[-73.3674,8.2729],[-73.3897,8.2699],[-73.4053,8.2522],[-73.4053,8.2285],[-73.3906,8.1931],[-73.3532,8.141],[-73.3197,8.0645],[-73.2961,7.9694],[-73.302,7.9353],[-73.3628,7.8088],[-73.3871,7.7708],[-73.4133,7.7464],[-73.4563,7.7239],[-73.4845,7.7167],[-73.5933,7.7033],[-73.624,7.7393],[-73.7279,7.7467],[-73.7408,7.7731],[-73.7317,7.8092],[-73.6886,7.8757],[-73.6811,7.9167],[-73.7153,8.0136],[-73.735,8.057],[-73.7874,8.1555]]]},"properties":{"name":"Cesar","id":"CO-CES","CNTRY":"Colombia","TYPE":"Department"},"id":"CO-CES"},
{"type":"Feature","geometry":{"type":"Polygon","coordinates":[[[-76.0664,1.0408],[-76.0772,1.0155],[-76.1808,0.9772],[-76.2089,0.9711],[-76.3364,0.9719],[-76.3917,0.984],[-76.5046,1.0311],[-76.529,1.0582],[-76.5552,1.1129],[-76.5428,1.2103],[-76.5157,1.2696],[-76.5275,1.3178],[-76.5659,1.3933],[-76.5928,1.4178],[-76.636,1.4216],[-76.6653,1.4042],[-76.6919,1.36],[-76.7279,1.3313],[-76.8268,1.3105],[-76.7999,1.3587],[-76.7783,1.5336],[-76.7808,1.5604],[-76.8017,1.5902],[-76.9908,1.7076],[-77.011,1.7053],[-77.0717,1.6864],[-77.2103,1.6761],[-77.2791,1.6798],[-77.2694,1.814],[-77.2281,1.8625],[-77.2054,1.874],[-77.1825,1.9083],[-77.1737,1.9326],[-77.2422,1.9943],[-77.3239,2.0947],[-77.3837,2.1918],[-77.4021,2.2016],[-77.5085,2.1895],[-77.5756,2.1883],[-77.6292,2.1957],[-77.6783,2.2089],[-77.7049,2.2234],[-77.7458,2.2579],[-77.7584,2.2794],[-77.7967,2.3636],[-77.8311,2.4253],[-77.8892,2.5122],[-77.916,2.5466],[-77.9386,2.5924],[-77.9412,2.6106],[-77.9375,2.6509],[-77.9036,2.6043],[-77.8974,2.578],[-77.861,2.56],[-77.7877,2.5694],[-77.7454,2.6104],[-77.7646,2.6426],[-77.7811,2.7564],[-77.7142,2.8667],[-77.5661,3.0503],[-77.5478,3.0596],[-77.4176,3.2607],[-77.4083,3.2881],[-77.3745,3.2495],[-77.33,3.185],[-77.1717,3.069],[-76.9925,3.0524],[-76.97,3.0846],[-76.9114,3.0564],[-76.8523,2.99],[-76.7189,3.0578],[-76.629,3.1118],[-76.5842,3.117],[-76.4625,3.1711],[-76.4398,3.2137],[-76.4421,3.2535],[-76.459,3.276],[-76.4364,3.315],[-76.3892,3.3206],[-76.3042,3.3047],[-76.2117,3.2524],[-76.1336,3.2206],[-76.0911,3.215],[-76.0961,3.1402],[-76.0569,3.0802],[-76.0127,2.9962],[-75.9992,2.977],[-75.9364,2.7908],[-75.8861,2.6809],[-75.8445,2.6128],[-75.7917,2.4753],[-75.7881,2.4542],[-75.8629,2.4346],[-75.8825,2.44],[-75.9306,2.48],[-75.974,2.5082],[-76.0178,2.5225],[-76.05,2.5028],[-76.1003,2.4335],[-76.1442,2.4061],[-76.1736,2.4021],[-76.2443,2.4174],[-76.2672,2.4047],[-76.3649,2.2939],[-76.3677,2.274],[-76.3495,2.2186],[-76.3289,2.1728],[-76.3207,2.1394],[-76.3206,2.1097],[-76.3357,2.0964],[-76.3628,2.0892],[-76.4026,2.0915],[-76.4433,2.1056],[-76.5064,2.1369],[-76.5391,2.1442],[-76.5824,2.1343],[-76.6115,2.1136],[-76.6125,2.0625],[-76.5983,1.9063],[-76.5789,1.8833],[-76.5228,1.8836],[-76.4765,1.8635],[-76.4331,1.8014],[-76.4275,1.7707],[-76.4354,1.6984],[-76.4247,1.6747],[-76.3515,1.6049],[-76.2467,1.5388],[-76.2011,1.5327],[-76.1528,1.5439],[-76.1522,1.5011],[-76.2,1.3995],[-76.2342,1.337],[-76.2679,1.3038],[-76.2738,1.2726],[-76.2556,1.1692],[-76.1972,1.1308],[-76.1378,1.1097],[-76.1115,1.0956],[-76.0664,1.0408]]]},"properties":{"name":"Cauca","id":"CO-CAU","CNTRY":"Colombia","TYPE":"Department"},"id":"CO-CAU"},
{"type":"Feature","geometry":{"type":"Polygon","coordinates":[[[-73.0488,4.7334],[-73.0807,4.7869],[-73.0839,4.8071],[-73.0453,4.9411],[-73.0279,4.9702],[-73.002,4.9915],[-72.968,4.999],[-72.9377,5.0164],[-72.9094,5.0482],[-72.906,5.0679],[-72.9167,5.0906],[-72.9674,5.137],[-72.9772,5.157],[-72.9502,5.2335],[-72.824,5.3908],[-72.7736,5.3539],[-72.7431,5.3192],[-72.6456,5.3328],[-72.515,5.4272],[-72.497,5.4495],[-72.4331,5.5414],[-72.3972,5.5639],[-72.3783,5.5524],[-72.2981,5.5858],[-72.254,5.6936],[-72.2553,5.7171],[-72.3022,5.7975],[-72.4106,5.8442],[-72.3942,5.9125],[-72.3804,5.9274],[-72.3522,6.0467],[-72.4025,6.1008],[-72.3967,6.2272],[-72.387,6.2811],[-72.3717,6.3064],[-72.3339,6.341],[-72.3393,6.2976],[-72.3284,6.238],[-72.2474,6.1311],[-72.1625,6.0928],[-72.1012,6.0834],[-72.0286,6.1272],[-71.9727,6.1696],[-71.7563,6.215],[-71.6227,6.2223],[-71.5939,6.1997],[-71.4983,6.2011],[-71.3331,6.2487],[-71.275,6.277],[-71.2194,6.2913],[-71.1911,6.28],[-70.9889,6.2359],[-70.8828,6.228],[-70.7447,6.2237],[-70.6839,6.2236],[-70.5371,6.2332],[-70.4916,6.2527],[-70.4387,6.2828],[-70.3873,6.2992],[-70.2095,6.2957],[-70.1307,6.2608],[-70.0706,6.2067],[-69.9045,6.0728],[-69.8434,6.0353],[-69.8554,6.0269],[-69.9032,5.9644],[-69.9278,5.9125],[-69.9658,5.8042],[-70.0692,5.6681],[-70.0953,5.6389],[-70.1663,5.5933],[-70.2753,5.5664],[-70.3515,5.5646],[-70.4447,5.5279],[-70.6261,5.4199],[-70.675,5.3882],[-70.6856,5.3622],[-70.6875,5.3212],[-70.8457,5.1752],[-70.9161,5.1381],[-71.0253,4.9531],[-71.0433,4.9295],[-71.0825,4.9],[-71.0923,4.8894],[-71.2096,4.8185],[-71.248,4.8058],[-71.276,4.8034],[-71.3383,4.7806],[-71.5595,4.6803],[-71.6267,4.6303],[-71.6753,4.6071],[-71.7628,4.5772],[-71.8686,4.5095],[-71.89,4.4861],[-71.9764,4.4183],[-72.0395,4.3892],[-72.0684,4.3917],[-72.1111,4.4363],[-72.1419,4.4465],[-72.2328,4.4358],[-72.3164,4.4041],[-72.3449,4.3667],[-72.3978,4.3294],[-72.49,4.3161],[-72.5937,4.3045],[-72.723,4.293],[-72.7426,4.311],[-72.915,4.4983],[-72.9639,4.5658],[-72.9856,4.6293],[-73.0488,4.7134],[-73.0488,4.7334]]]},"properties":{"name":"Casanare","id":"CO-CAS","CNTRY":"Colombia","TYPE":"Department"},"id":"CO-CAS"},
{"type":"Feature","geometry":{"type":"Polygon","coordinates":[[[-72.0338,0.673],[-72.0145,0.6561],[-71.9472,0.5781],[-71.8808,0.4614],[-71.8459,0.3535],[-71.7831,0.3375],[-71.7103,0.2708],[-71.6308,0.2203],[-71.5384,0.1689],[-71.5069,0.1851],[-71.5015,0.1451],[-71.5136,0.1164],[-71.5528,0.07],[-71.6519,-0.0361],[-71.7354,-0.1049],[-71.7533,-0.1286],[-71.8,-0.217],[-71.8195,-0.2462],[-71.8565,-0.2733],[-71.9003,-0.2706],[-71.9856,-0.2492],[-72.013,-0.2494],[-72.0392,-0.2619],[-72.1728,-0.3917],[-72.1933,-0.4144],[-72.2218,-0.4672],[-72.2469,-0.5364],[-72.2439,-0.593],[-72.2753,-0.6197],[-72.2999,-0.6314],[-72.3215,-0.6314],[-72.3962,-0.595],[-72.4078,-0.5608],[-72.4486,-0.564],[-72.5311,-0.6521],[-72.5495,-0.6878],[-72.5792,-0.686],[-72.6682,-0.6323],[-72.7353,-0.5532],[-72.7851,-0.5603],[-72.8146,-0.5906],[-72.8394,-0.5978],[-72.8967,-0.5978],[-72.9244,-0.5904],[-72.9368,-0.5649],[-72.9615,-0.5347],[-72.9842,-0.5213],[-73.0203,-0.5213],[-73.0514,-0.5537],[-73.0767,-0.6041],[-73.1886,-0.6135],[-73.2245,-0.5969],[-73.3108,-0.5314],[-73.4731,-0.5347],[-73.5642,-0.5241],[-73.6081,-0.4578],[-73.6986,-0.4031],[-73.7528,-0.4039],[-73.8355,-0.399],[-73.9206,-0.3783],[-73.9567,-0.3655],[-74.0233,-0.3292],[-74.106,-0.2444],[-74.1806,-0.2236],[-74.2672,-0.1741],[-74.2862,-0.1475],[-74.3314,-0.1122],[-74.4372,-0.0797],[-74.4536,-0.0944],[-74.4499,-0.1147],[-74.469,-0.1325],[-74.5875,-0.1103],[-74.6661,-0.0629],[-74.688,0.0156],[-74.6508,0.05],[-74.6886,0.16],[-74.7047,0.1857],[-74.7243,0.2007],[-74.8317,0.2161],[-74.8621,0.2232],[-74.9673,0.2676],[-74.9927,0.3835],[-74.9765,0.4308],[-75.005,0.4726],[-75.0999,0.5167],[-75.1581,0.481],[-75.1863,0.4875],[-75.2171,0.5514],[-75.2208,0.5821],[-75.2115,0.617],[-75.2511,0.7245],[-75.2794,0.7464],[-75.3195,0.756],[-75.3675,0.7431],[-75.4213,0.7396],[-75.5045,0.762],[-75.5275,0.7853],[-75.5406,0.8174],[-75.6331,0.8697],[-75.6756,0.854],[-75.744,0.8438],[-75.8354,0.8769],[-75.9025,0.9514],[-75.9139,0.9719],[-75.9106,1.0075],[-75.9345,1.0379],[-76.0522,1.0465],[-76.0664,1.0408],[-76.1115,1.0956],[-76.1378,1.1097],[-76.1972,1.1308],[-76.2556,1.1692],[-76.2738,1.2726],[-76.2679,1.3038],[-76.2342,1.337],[-76.2,1.3995],[-76.1522,1.5011],[-76.1528,1.5439],[-76.1397,1.5514],[-75.995,1.5625],[-75.9622,1.5625],[-75.93,1.5857],[-75.7395,1.8336],[-75.6353,1.9569],[-75.5511,2.07],[-75.5326,2.1276],[-75.3731,2.3164],[-75.329,2.3546],[-75.2874,2.4324],[-75.2689,2.522],[-75.2558,2.5417],[-75.2237,2.572],[-75.1678,2.5544],[-75.1385,2.5619],[-75.0325,2.6492],[-74.9872,2.7056],[-74.9931,2.7375],[-75.0245,2.7886],[-75.0269,2.8261],[-75.0139,2.8549],[-74.9325,2.9572],[-74.8022,2.9231],[-74.7603,2.9031],[-74.6411,2.8189],[-74.6078,2.7819],[-74.5958,2.7539],[-74.5954,2.7092],[-74.6153,2.656],[-74.6524,2.6143],[-74.6827,2.571],[-74.6911,2.5431],[-74.6761,2.3472],[-74.6713,2.3217],[-74.6261,2.1972],[-74.6164,2.1289],[-74.6178,2.055],[-74.6099,2.0059],[-74.5753,1.9439],[-74.5122,1.8672],[-74.4821,1.8467],[-74.4359,1.8278],[-74.362,1.8125],[-74.2808,1.8022],[-74.2195,1.7871],[-74.1557,1.724],[-74.1313,1.6847],[-74.0082,1.5953],[-73.9764,1.5894],[-73.9003,1.6],[-73.8539,1.6178],[-73.744,1.6508],[-73.685,1.6536],[-73.6521,1.6419],[-73.655,1.5961],[-73.646,1.5438],[-73.6269,1.5131],[-73.5495,1.4164],[-73.507,1.3805],[-73.4711,1.3395],[-73.4352,1.2624],[-73.4274,1.2001],[-73.4111,1.1706],[-73.3719,1.1308],[-73.2808,1.0686],[-73.1918,0.9925],[-73.1732,0.9605],[-73.0964,0.9281],[-73.0601,0.9254],[-73.0365,0.9309],[-72.8824,1.0472],[-72.87,1.0678],[-72.8854,1.1133],[-72.8488,1.1676],[-72.8033,1.1897],[-72.7166,1.2062],[-72.6512,1.1897],[-72.6301,1.1552],[-72.5467,1.1],[-72.5261,1.0942],[-72.4882,1.1014],[-72.427,1.0417],[-72.306,0.88],[-72.2803,0.8122],[-72.236,0.7258],[-72.1924,0.7424],[-72.0985,0.7094],[-72.0514,0.6725],[-72.0338,0.673]]]},"properties":{"name":"Caquetá","id":"CO-CAQ","CNTRY":"Colombia","TYPE":"Department"},"id":"CO-CAQ"},
{"type":"Feature","geometry":{"type":"Polygon","coordinates":[[[-75.3989,4.8119],[-75.4792,4.8817],[-75.52,4.9068],[-75.6181,4.9122],[-75.7221,4.9503],[-75.8336,4.9239],[-75.8692,4.9236],[-75.8906,4.9414],[-75.9304,5.0493],[-75.916,5.0836],[-75.8067,5.1853],[-75.7076,5.2414],[-75.6727,5.2821],[-75.6492,5.3281],[-75.7333,5.3881],[-75.8015,5.3727],[-75.8665,5.3449],[-75.8836,5.3668],[-75.8772,5.4786],[-75.8031,5.5179],[-75.7197,5.532],[-75.6115,5.5214],[-75.5947,5.5341],[-75.5987,5.6072],[-75.6135,5.7001],[-75.612,5.7286],[-75.5792,5.7239],[-75.3842,5.665],[-75.2767,5.6567],[-75.2564,5.6482],[-75.1903,5.5922],[-75.1595,5.5779],[-75.0625,5.6458],[-75.02,5.7035],[-74.9728,5.7147],[-74.8439,5.7292],[-74.6906,5.7739],[-74.6618,5.769],[-74.6434,5.7491],[-74.6431,5.7348],[-74.6506,5.7217],[-74.6681,5.505],[-74.6609,5.4603],[-74.6917,5.3817],[-74.7211,5.3278],[-74.7488,5.2903],[-74.8097,5.3082],[-74.912,5.3109],[-75.005,5.2892],[-75.0317,5.2747],[-75.0861,5.2263],[-75.1085,5.1796],[-75.1253,5.1686],[-75.2817,5.1545],[-75.3094,5.1234],[-75.3167,5.1028],[-75.3593,4.9464],[-75.329,4.895],[-75.3295,4.8728],[-75.3451,4.8541],[-75.3989,4.8119]]]},"properties":{"name":"Caldas","id":"CO-CAL","CNTRY":"Colombia","TYPE":"Department"},"id":"CO-CAL"},
{"type":"Feature","geometry":{"type":"Polygon","coordinates":[[[-72.512,6.8883],[-72.3842,6.8907],[-72.3606,6.8983],[-72.3311,6.9244],[-72.3007,6.9846],[-72.2003,7.042],[-72.1797,7.0495],[-72.1206,7.0381],[-72.0927,7.0372],[-72.0538,7.0622],[-71.9924,7.0162],[-71.9268,7.0097],[-71.9868,6.9151],[-71.9947,6.8856],[-72.0056,6.7997],[-72.0125,6.7786],[-72.0583,6.6978],[-72.1153,6.5658],[-72.1258,6.5078],[-72.1507,6.4865],[-72.2503,6.4356],[-72.3339,6.341],[-72.3717,6.3064],[-72.387,6.2811],[-72.3967,6.2272],[-72.4025,6.1008],[-72.3522,6.0467],[-72.3804,5.9274],[-72.3942,5.9125],[-72.4106,5.8442],[-72.3022,5.7975],[-72.2553,5.7171],[-72.254,5.6936],[-72.2981,5.5858],[-72.3783,5.5524],[-72.3972,5.5639],[-72.4331,5.5414],[-72.497,5.4495],[-72.515,5.4272],[-72.6456,5.3328],[-72.7431,5.3192],[-72.7736,5.3539],[-72.824,5.3908],[-72.9502,5.2335],[-72.9772,5.157],[-72.9674,5.137],[-72.9167,5.0906],[-72.906,5.0679],[-72.9094,5.0482],[-72.9377,5.0164],[-72.968,4.999],[-73.002,4.9915],[-73.0279,4.9702],[-73.0453,4.9411],[-73.0839,4.8071],[-73.0807,4.7869],[-73.0488,4.7334],[-73.0911,4.6624],[-73.1345,4.6567],[-73.185,4.6652],[-73.2075,4.6775],[-73.2533,4.7375],[-73.3154,4.7813],[-73.414,4.8218],[-73.5022,4.8795],[-73.5358,4.9115],[-73.5433,4.9403],[-73.5261,5.0064],[-73.5103,5.0318],[-73.474,5.0707],[-73.4911,5.1696],[-73.5294,5.2433],[-73.5729,5.3818],[-73.6422,5.4645],[-73.7128,5.4828],[-73.7905,5.5598],[-73.8321,5.5504],[-73.8803,5.5164],[-73.8939,5.4802],[-73.8956,5.451],[-73.96,5.3853],[-74.0131,5.3624],[-74.0367,5.364],[-74.1664,5.4611],[-74.2333,5.4844],[-74.3181,5.5926],[-74.3283,5.6297],[-74.2811,5.6874],[-74.2977,5.7832],[-74.324,5.8134],[-74.3642,5.7828],[-74.4209,5.7557],[-74.4589,5.7621],[-74.5033,5.7755],[-74.6251,5.7496],[-74.6431,5.7348],[-74.6434,5.7491],[-74.6618,5.769],[-74.6478,5.8406],[-74.6136,5.9631],[-74.5965,5.9803],[-74.6008,6.1461],[-74.5736,6.2297],[-74.5467,6.2633],[-74.5131,6.2239],[-74.4603,6.1386],[-74.4218,6.0809],[-74.3874,6.0491],[-74.3588,6.0408],[-74.2956,6.0672],[-74.2701,6.0579],[-74.2239,5.9594],[-74.1337,5.8758],[-74.0253,5.815],[-74.0085,5.7986],[-73.9899,5.7495],[-73.9702,5.7332],[-73.8511,5.7625],[-73.7197,5.7776],[-73.6577,5.7321],[-73.6333,5.7483],[-73.6167,5.8061],[-73.5933,5.9422],[-73.5342,6.0859],[-73.5034,6.1274],[-73.3864,6.0657],[-73.3672,6.0478],[-73.3556,5.9975],[-73.3656,5.9485],[-73.3922,5.8981],[-73.3961,5.8733],[-73.3895,5.8322],[-73.3744,5.8033],[-73.3529,5.7867],[-73.3194,5.7771],[-73.2893,5.7806],[-73.2336,5.8067],[-73.2165,5.8249],[-73.2125,5.849],[-73.2247,5.8838],[-73.2207,5.9133],[-73.2047,5.9311],[-73.1775,5.9445],[-73.1278,5.9532],[-73.0378,5.938],[-72.9647,6.01],[-72.7792,6.2396],[-72.7525,6.2886],[-72.7377,6.3305],[-72.7403,6.3808],[-72.7715,6.4348],[-72.7786,6.4697],[-72.7778,6.5703],[-72.7486,6.5749],[-72.6909,6.539],[-72.6782,6.5106],[-72.6597,6.4442],[-72.6072,6.4458],[-72.5649,6.4625],[-72.5372,6.505],[-72.4908,6.6386],[-72.4831,6.6945],[-72.4945,6.8408],[-72.512,6.8883]]]},"properties":{"name":"Boyacá","id":"CO-BOY","CNTRY":"Colombia","TYPE":"Department"},"id":"CO-BOY"},
{"type":"Feature","geometry":{"type":"MultiPolygon","coordinates":[[[[-73.7874,8.1555],[-73.8142,8.1395],[-73.8522,8.1046],[-73.8725,8.0456],[-73.8714,7.9814],[-73.842,7.8837],[-73.8242,7.8461],[-73.8086,7.768],[-73.8275,7.6067],[-73.869,7.5411],[-73.9102,7.4467],[-73.9281,7.2922],[-74.0855,7.135],[-74.2221,7.0157],[-74.2601,7.0063],[-74.325,7.0111],[-74.3828,7.1833],[-74.3861,7.2128],[-74.3795,7.3086],[-74.3743,7.3326],[-74.3553,7.3689],[-74.321,7.4149],[-74.3236,7.4497],[-74.3361,7.475],[-74.355,7.4828],[-74.3746,7.47],[-74.3961,7.4421],[-74.4314,7.3754],[-74.4842,7.3345],[-74.565,7.4172],[-74.59,7.4532],[-74.5901,7.4767],[-74.523,7.6433],[-74.4998,7.7537],[-74.5213,7.7799],[-74.5258,7.8281],[-74.5258,7.9244],[-74.54,7.9676],[-74.5828,8.0081],[-74.6622,8.0561],[-74.7228,8.0975],[-74.8275,8.1859],[-74.7839,8.2064],[-74.7682,8.2243],[-74.7594,8.2597],[-74.7228,8.2761],[-74.6375,8.289],[-74.6153,8.3156],[-74.5744,8.3975],[-74.5475,8.4703],[-74.5618,8.4939],[-74.5856,8.5783],[-74.5853,8.759],[-74.5483,8.7911],[-74.602,8.9108],[-74.6342,8.9617],[-74.6631,8.9881],[-74.7206,9.0281],[-74.7864,9.0583],[-74.845,9.0953],[-74.8862,9.1454],[-74.9364,9.2506],[-74.9406,9.2786],[-74.9297,9.3561],[-74.9347,9.4064],[-74.9939,9.4797],[-75.2519,9.6908],[-75.3283,9.7453],[-75.3297,9.8378],[-75.339,9.8638],[-75.3832,9.8826],[-75.4749,9.995],[-75.5236,10.1064],[-75.5825,10.0886],[-75.5717,10.1345],[-75.534,10.1824],[-75.5317,10.2369],[-75.5471,10.4179],[-75.4853,10.4467],[-75.4867,10.491],[-75.504,10.5501],[-75.4761,10.5928],[-75.4089,10.6586],[-75.2881,10.7245],[-75.2614,10.7214],[-75.2518,10.7065],[-75.2328,10.65],[-75.2289,10.5883],[-75.2422,10.5306],[-75.2339,10.4882],[-75.1111,10.4003],[-74.992,10.3289],[-74.9155,10.2648],[-74.9486,10.1561],[-74.9388,10.1249],[-74.8922,10.1031],[-74.8552,10.093],[-74.802,10.0187],[-74.8089,9.98],[-74.8706,9.9478],[-74.8801,9.9215],[-74.8745,9.8381],[-74.8275,9.685],[-74.8178,9.6672],[-74.7931,9.5618],[-74.8043,9.4932],[-74.8058,9.446],[-74.7465,9.4201],[-74.7033,9.4256],[-74.6401,9.3829],[-74.572,9.3098],[-74.4717,9.2689],[-74.4381,9.2693],[-74.3458,9.2283],[-74.3031,9.2018],[-74.2277,9.1346],[-74.202,9.0933],[-74.1473,9.0394],[-74.0066,8.9935],[-73.9264,8.9774],[-73.8753,8.9767],[-73.8817,8.909],[-73.8652,8.8743],[-73.8397,8.8511],[-73.8258,8.7253],[-73.8319,8.6459],[-73.7906,8.5674],[-73.7657,8.4819],[-73.7548,8.3839],[-73.7603,8.2733],[-73.7874,8.1555]]],[[[-75.2508,10.7461],[-75.2682,10.7531],[-75.2641,10.799],[-75.244,10.8003],[-75.2508,10.7461]]]]},"properties":{"name":"Bolívar","id":"CO-BOL","CNTRY":"Colombia","TYPE":"Department"},"id":"CO-BOL"},
{"type":"Feature","geometry":{"type":"Polygon","coordinates":[[[-75.244,10.8003],[-75.2228,10.8056],[-75.0395,10.9058],[-75.0231,10.9665],[-74.9211,11.0689],[-74.8608,11.1255],[-74.842,11.0716],[-74.8099,11.0514],[-74.7865,11.0295],[-74.72,10.9104],[-74.7172,10.7733],[-74.7243,10.6052],[-74.7336,10.5618],[-74.7797,10.5317],[-74.8191,10.4886],[-74.8735,10.3658],[-74.9155,10.2648],[-74.992,10.3289],[-75.1111,10.4003],[-75.2339,10.4882],[-75.2422,10.5306],[-75.2289,10.5883],[-75.2328,10.65],[-75.2518,10.7065],[-75.2266,10.7292],[-75.2356,10.762],[-75.2508,10.7461],[-75.244,10.8003]]]},"properties":{"name":"Atlántico","id":"CO-ATL","CNTRY":"Colombia","TYPE":"Department"},"id":"CO-ATL"},
{"type":"Feature","geometry":{"type":"Polygon","coordinates":[[[-69.8434,6.0353],[-69.9045,6.0728],[-70.0706,6.2067],[-70.1307,6.2608],[-70.2095,6.2957],[-70.3873,6.2992],[-70.4387,6.2828],[-70.4916,6.2527],[-70.5371,6.2332],[-70.6839,6.2236],[-70.7447,6.2237],[-70.8828,6.228],[-70.9889,6.2359],[-71.1911,6.28],[-71.2194,6.2913],[-71.275,6.277],[-71.3331,6.2487],[-71.4983,6.2011],[-71.5939,6.1997],[-71.6227,6.2223],[-71.7563,6.215],[-71.9727,6.1696],[-72.0286,6.1272],[-72.1012,6.0834],[-72.1625,6.0928],[-72.2474,6.1311],[-72.3284,6.238],[-72.3393,6.2976],[-72.3339,6.341],[-72.2503,6.4356],[-72.1507,6.4865],[-72.1258,6.5078],[-72.1153,6.5658],[-72.0583,6.6978],[-72.0125,6.7786],[-72.0056,6.7997],[-71.9947,6.8856],[-71.9868,6.9151],[-71.9268,7.0097],[-71.8769,6.9865],[-71.8328,6.9872],[-71.8047,7.0031],[-71.7019,7.0464],[-71.6453,7.0606],[-71.6014,7.0579],[-71.4639,7.0234],[-71.3325,7.0224],[-71.2624,6.9874],[-71.1813,6.9635],[-71.025,6.9845],[-70.9708,7.0083],[-70.9082,7.0482],[-70.8865,7.0751],[-70.8575,7.0825],[-70.7197,7.0981],[-70.5525,7.0583],[-70.4417,7.0111],[-70.3861,6.9831],[-70.3439,6.9525],[-70.2947,6.9385],[-70.2623,6.9457],[-70.2218,6.974],[-70.1585,6.9825],[-70.1192,6.9758],[-69.7247,6.4867],[-69.4295,6.1186],[-69.4689,6.0865],[-69.5492,6.0542],[-69.6474,6.0504],[-69.7668,6.0629],[-69.7972,6.0578],[-69.8434,6.0353]]]},"properties":{"name":"Arauca","id":"CO-ARA","CNTRY":"Colombia","TYPE":"Department"},"id":"CO-ARA"},
{"type":"Feature","geometry":{"type":"Polygon","coordinates":[[[-74.6618,5.769],[-74.6906,5.7739],[-74.8439,5.7292],[-74.9728,5.7147],[-75.02,5.7035],[-75.0625,5.6458],[-75.1595,5.5779],[-75.1903,5.5922],[-75.2564,5.6482],[-75.2767,5.6567],[-75.3842,5.665],[-75.5792,5.7239],[-75.612,5.7286],[-75.6135,5.7001],[-75.5987,5.6072],[-75.5947,5.5341],[-75.6115,5.5214],[-75.7197,5.532],[-75.8031,5.5179],[-75.8772,5.4786],[-75.9828,5.474],[-75.9972,5.4822],[-76.035,5.5175],[-76.1031,5.6015],[-76.1117,5.6264],[-76.0938,5.6663],[-76.0911,5.697],[-76.097,5.7256],[-76.1378,5.817],[-76.1378,5.8647],[-76.1225,5.8939],[-76.1172,5.9706],[-76.1953,5.9887],[-76.2132,6.0047],[-76.2281,6.0449],[-76.2378,6.1764],[-76.2524,6.1935],[-76.2981,6.2181],[-76.3214,6.2214],[-76.5536,6.1803],[-76.6042,6.1686],[-76.7092,6.1733],[-76.7914,6.2889],[-76.7985,6.3121],[-76.7983,6.4206],[-76.8053,6.4581],[-76.8942,6.6467],[-76.9156,6.6665],[-76.9665,6.6991],[-76.976,6.8305],[-76.9208,6.8489],[-76.8829,6.8463],[-76.847,6.8335],[-76.8001,6.8724],[-76.7981,6.909],[-76.8287,6.9849],[-76.8124,7.0095],[-76.6703,7.0147],[-76.599,7.0003],[-76.5447,6.9776],[-76.5263,6.9879],[-76.4979,7.158],[-76.5078,7.1984],[-76.5214,7.2311],[-76.5861,7.3214],[-76.6456,7.3428],[-76.7061,7.3913],[-76.89,7.5783],[-76.9914,7.6897],[-77.0225,7.7283],[-77.097,7.7447],[-77.1106,7.8367],[-77.0743,7.8476],[-77.0511,7.862],[-77.0297,7.8853],[-77.015,7.9222],[-76.9989,8.0103],[-76.986,8.0283],[-76.9288,8.0686],[-76.8686,8.0867],[-76.8386,8.1332],[-76.8325,8.0864],[-76.8367,8.0265],[-76.8929,8.0467],[-76.9167,8.0315],[-76.9275,7.9856],[-76.9239,7.936],[-76.872,7.9095],[-76.817,7.905],[-76.7579,7.9192],[-76.7445,7.9358],[-76.7319,8.0392],[-76.7533,8.1975],[-76.7653,8.3407],[-76.7738,8.4112],[-76.8218,8.4822],[-76.8767,8.5214],[-76.9282,8.5372],[-76.9283,8.5683],[-76.8847,8.6222],[-76.8181,8.6339],[-76.6739,8.6766],[-76.4324,8.8766],[-76.4268,8.9064],[-76.4097,8.8933],[-76.3925,8.8561],[-76.39,8.7997],[-76.3818,8.7425],[-76.3682,8.6938],[-76.3542,8.6678],[-76.3206,8.6317],[-76.2689,8.6026],[-76.2074,8.5746],[-76.1925,8.557],[-76.1878,8.5317],[-76.1904,8.4563],[-76.2035,8.3971],[-76.2186,8.3708],[-76.2658,8.3214],[-76.2855,8.3075],[-76.3581,8.2306],[-76.382,8.1807],[-76.4008,8.112],[-76.4131,8.0325],[-76.4153,7.9822],[-76.4267,7.9433],[-76.4885,7.8824],[-76.5074,7.8501],[-76.5167,7.7467],[-76.5158,7.6889],[-76.5078,7.6367],[-76.4911,7.5728],[-76.4386,7.4878],[-76.3443,7.3656],[-76.3103,7.36],[-76.1897,7.3664],[-75.9944,7.3675],[-75.8732,7.3631],[-75.8421,7.371],[-75.6746,7.5785],[-75.6615,7.6526],[-75.62,7.7196],[-75.5946,7.7443],[-75.5636,7.75],[-75.5418,7.7382],[-75.5104,7.7107],[-75.4895,7.704],[-75.4726,7.7189],[-75.4622,7.7664],[-75.4421,7.8224],[-75.3579,7.8541],[-75.3353,7.8853],[-75.3167,7.9333],[-75.2056,8.0386],[-75.1779,8.0457],[-75.0658,8.0392],[-74.9817,8.0406],[-74.9364,8.0575],[-74.9009,8.0908],[-74.8581,8.1532],[-74.8275,8.1859],[-74.7228,8.0975],[-74.6622,8.0561],[-74.5828,8.0081],[-74.54,7.9676],[-74.5258,7.9244],[-74.5258,7.8281],[-74.5213,7.7799],[-74.4998,7.7537],[-74.523,7.6433],[-74.5901,7.4767],[-74.59,7.4532],[-74.565,7.4172],[-74.4842,7.3345],[-74.4314,7.3754],[-74.3961,7.4421],[-74.3746,7.47],[-74.355,7.4828],[-74.3361,7.475],[-74.3236,7.4497],[-74.321,7.4149],[-74.3553,7.3689],[-74.3743,7.3326],[-74.3795,7.3086],[-74.3861,7.2128],[-74.3828,7.1833],[-74.325,7.0111],[-74.2601,7.0063],[-74.2221,7.0157],[-74.0855,7.135],[-73.9281,7.2922],[-73.9386,7.2445],[-73.9264,7.1182],[-73.895,7.0706],[-73.8839,7.0308],[-73.8854,7.0053],[-73.9307,6.9641],[-74.0099,6.9256],[-74.0614,6.8706],[-74.1065,6.794],[-74.1219,6.7786],[-74.2709,6.6621],[-74.3368,6.6316],[-74.3683,6.6305],[-74.4045,6.5856],[-74.4138,6.5514],[-74.4061,6.4659],[-74.3804,6.4239],[-74.389,6.403],[-74.4833,6.2978],[-74.5069,6.2803],[-74.5467,6.2633],[-74.5736,6.2297],[-74.6008,6.1461],[-74.5965,5.9803],[-74.6136,5.9631],[-74.6478,5.8406],[-74.6618,5.769]]]},"properties":{"name":"Antioquia","id":"CO-ANT","CNTRY":"Colombia","TYPE":"Department"},"id":"CO-ANT"},
{"type":"Feature","geometry":{"type":"Polygon","coordinates":[[[-74.3703,-0.5776],[-74.3161,-0.5625],[-74.1867,-0.5153],[-73.905,-0.42],[-73.8355,-0.399],[-73.7528,-0.4039],[-73.6986,-0.4031],[-73.6081,-0.4578],[-73.5642,-0.5241],[-73.4731,-0.5347],[-73.3108,-0.5314],[-73.2245,-0.5969],[-73.1886,-0.6135],[-73.0767,-0.6041],[-73.0514,-0.5537],[-73.0203,-0.5213],[-72.9842,-0.5213],[-72.9615,-0.5347],[-72.9368,-0.5649],[-72.9244,-0.5904],[-72.8967,-0.5978],[-72.8394,-0.5978],[-72.8146,-0.5906],[-72.7851,-0.5603],[-72.7353,-0.5532],[-72.6682,-0.6323],[-72.5792,-0.686],[-72.5495,-0.6878],[-72.5311,-0.6521],[-72.4486,-0.564],[-72.4078,-0.5608],[-72.3962,-0.595],[-72.3215,-0.6314],[-72.2999,-0.6314],[-72.2753,-0.6197],[-72.2439,-0.593],[-72.2469,-0.5364],[-72.2218,-0.4672],[-72.1933,-0.4144],[-72.1728,-0.3917],[-72.0392,-0.2619],[-72.013,-0.2494],[-71.9856,-0.2492],[-71.9003,-0.2706],[-71.8565,-0.2733],[-71.8195,-0.2462],[-71.8,-0.217],[-71.7533,-0.1286],[-71.7354,-0.1049],[-71.6519,-0.0361],[-71.5528,0.07],[-71.5136,0.1164],[-71.5015,0.1451],[-71.5069,0.1851],[-71.4884,0.2003],[-71.4147,0.1969],[-71.3689,0.1742],[-71.345,0.1558],[-71.1383,0.0293],[-71.0385,-0.0024],[-71.0002,0.0135],[-70.9497,-0.0403],[-70.9246,-0.0882],[-70.8836,-0.2733],[-70.8442,-0.3376],[-70.7712,-0.308],[-70.7542,-0.2755],[-70.5015,-0.3575],[-70.4625,-0.3981],[-70.4479,-0.421],[-70.4158,-0.4514],[-70.3492,-0.4733],[-70.3137,-0.4651],[-70.3313,-0.4358],[-70.2715,-0.3904],[-70.2225,-0.4164],[-70.2054,-0.4387],[-70.2417,-0.5742],[-70.2403,-0.6919],[-70.2725,-0.7437],[-70.271,-0.782],[-70.2228,-0.8279],[-70.2146,-0.871],[-70.2753,-0.9118],[-70.2818,-0.9336],[-70.2615,-0.9783],[-70.1386,-1.0767],[-70.1107,-1.0787],[-70.0903,-1.0701],[-70.0735,-1.0512],[-70.0658,-1.0279],[-70.0804,-1.0132],[-70.1092,-1.0057],[-70.1235,-0.9896],[-70.1221,-0.9691],[-70.1064,-0.9478],[-70.0734,-0.9261],[-69.9319,-0.9167],[-69.9269,-0.9537],[-69.9542,-1.0315],[-69.9472,-1.0519],[-69.9142,-1.0575],[-69.825,-1.0181],[-69.7225,-0.9931],[-69.6435,-1.0617],[-69.6452,-1.0839],[-69.6261,-1.1703],[-69.4631,-1.1483],[-69.4665,-1.0712],[-69.442,-1.0178],[-69.4314,-1.041],[-69.412,-1.1319],[-69.39,-1.2461],[-69.3786,-1.3379],[-69.391,-1.3815],[-69.4526,-1.526],[-69.5225,-1.9142],[-69.5942,-2.3111],[-69.6353,-2.5344],[-69.7931,-3.4192],[-69.882,-3.9203],[-69.9433,-4.2123],[-69.9567,-4.2094],[-69.9886,-4.176],[-70.0408,-4.1406],[-70.1231,-4.0724],[-70.1443,-4.0318],[-70.1627,-3.9749],[-70.1819,-3.9374],[-70.2345,-3.8713],[-70.3231,-3.7991],[-70.3622,-3.7878],[-70.4065,-3.8025],[-70.4794,-3.85],[-70.5008,-3.8593],[-70.528,-3.8592],[-70.6077,-3.8295],[-70.7242,-3.7797],[-70.5658,-3.5336],[-70.4122,-3.2947],[-70.0675,-2.7555],[-70.0985,-2.6983],[-70.1207,-2.7017],[-70.1946,-2.644],[-70.2188,-2.5703],[-70.2954,-2.5013],[-70.3356,-2.4924],[-70.3777,-2.5117],[-70.5645,-2.4933],[-70.5824,-2.4839],[-70.6497,-2.4013],[-70.6576,-2.3582],[-70.859,-2.2253],[-70.9764,-2.2783],[-71.1011,-2.3119],[-71.1881,-2.3605],[-71.3617,-2.3469],[-71.4122,-2.2812],[-71.5202,-2.2346],[-71.5767,-2.2367],[-71.6743,-2.225],[-71.6842,-2.1961],[-71.6832,-2.1665],[-71.6932,-2.1479],[-71.7219,-2.1592],[-71.8085,-2.2308],[-71.8714,-2.3203],[-71.8898,-2.3778],[-71.9314,-2.379],[-71.9822,-2.3694],[-72.07,-2.4078],[-72.2275,-2.4989],[-72.2995,-2.4914],[-72.4508,-2.4414],[-72.5901,-2.4072],[-72.6833,-2.44],[-72.8147,-2.49],[-72.882,-2.5064],[-72.9025,-2.4536],[-72.9346,-2.4],[-72.975,-2.4017],[-73.0031,-2.4105],[-73.0739,-2.3714],[-73.1047,-2.3469],[-73.1153,-2.3287],[-73.1318,-2.2462],[-73.1013,-2.2319],[-73.0778,-2.2003],[-73.0582,-2.1456],[-73.0904,-1.9236],[-73.1328,-1.8491],[-73.197,-1.8064],[-73.2389,-1.8455],[-73.2969,-1.8735],[-73.4164,-1.8167],[-73.4906,-1.7669],[-73.5075,-1.7483],[-73.487,-1.6544],[-73.477,-1.6366],[-73.4471,-1.6103],[-73.477,-1.5525],[-73.52,-1.4936],[-73.5428,-1.4681],[-73.5557,-1.3753],[-73.6536,-1.2844],[-73.7131,-1.2792],[-73.7522,-1.2897],[-73.841,-1.2651],[-73.868,-1.2086],[-74.0778,-1.0728],[-74.2154,-1.0349],[-74.2407,-1.0129],[-74.2828,-0.9303],[-74.2642,-0.8989],[-74.2478,-0.8536],[-74.3161,-0.7817],[-74.3389,-0.7064],[-74.3703,-0.5776]]]},"properties":{"name":"Amazonas","id":"CO-AMA","CNTRY":"Colombia","TYPE":"Department"},"id":"CO-AMA"}
]}