{"type":"FeatureCollection", "features": [
{"type":"Feature","geometry":{"type":"MultiPolygon","coordinates":[[[[12.4828,-5.9826],[12.439,-6.0237],[12.4249,-5.9918],[12.4828,-5.9826]]],[[[15.15,-4.424],[15.2508,-4.5761],[15.3228,-4.6464],[15.3583,-4.6622],[15.3942,-4.6506],[15.4097,-4.6164],[15.4044,-4.5686],[15.4442,-4.533],[15.4933,-4.5261],[15.5894,-4.5536],[15.66,-4.5439],[15.6881,-4.572],[15.6553,-4.6306],[15.7353,-4.6675],[15.7539,-4.7125],[15.7311,-4.7692],[15.7197,-4.8547],[15.6875,-4.8781],[15.6264,-4.8867],[15.6147,-4.91],[15.6367,-4.9456],[15.7217,-5.0075],[15.8086,-5.0322],[15.86,-5.0261],[15.8828,-4.9939],[15.8922,-4.9086],[16.0025,-5],[16.2773,-5.0028],[16.2514,-5.0744],[16.25,-5.1278],[16.2617,-5.2172],[16.2211,-5.4083],[16.2378,-5.6081],[16.23,-5.6769],[16.1861,-5.7833],[16.1131,-5.8331],[16.0928,-5.8736],[15.8569,-5.8808],[15.6701,-5.8701],[15.5259,-5.8769],[14.963,-5.8733],[14.6991,-5.881],[14.5951,-5.9102],[14.5091,-5.8904],[14.4586,-5.9012],[14.366,-5.8961],[14.2952,-5.8823],[14.2316,-5.8893],[14.1773,-5.8616],[14.0789,-5.8661],[14.0381,-5.8842],[13.9863,-5.8416],[13.9514,-5.8579],[13.8949,-5.8553],[13.8293,-5.8751],[13.573,-5.8741],[13.5069,-5.8687],[13.3957,-5.8705],[13.3591,-5.9007],[13.2478,-5.8652],[13.1842,-5.875],[13.1227,-5.9009],[13.0796,-5.8727],[13.0181,-5.8768],[12.8944,-5.9466],[12.8264,-5.9721],[12.7539,-5.9774],[12.6997,-6.0097],[12.621,-6.0176],[12.5423,-6.0552],[12.4532,-6.0803],[12.4357,-6.0365],[12.4676,-6.0293],[12.494,-5.9776],[12.4204,-5.9799],[12.394,-5.9979],[12.3354,-5.926],[12.294,-5.8921],[12.226,-5.8115],[12.2066,-5.7693],[12.2657,-5.7433],[12.5351,-5.7338],[12.5374,-5.1371],[12.494,-5.1211],[12.4793,-5.0693],[12.5291,-5.0679],[12.629,-5.022],[12.6396,-4.9509],[12.7176,-4.9495],[12.73,-4.903],[12.8002,-4.8461],[12.794,-4.8266],[12.8395,-4.7552],[12.8799,-4.7323],[12.9235,-4.7323],[13.059,-4.6786],[13.1097,-4.6686],[13.1024,-4.6009],[13.1265,-4.5866],[13.2098,-4.669],[13.2329,-4.6798],[13.2846,-4.7714],[13.3727,-4.7986],[13.3874,-4.8473],[13.4214,-4.8746],[13.4882,-4.8702],[13.4966,-4.8419],[13.5506,-4.8137],[13.5944,-4.8138],[13.6352,-4.7395],[13.6902,-4.7684],[13.6849,-4.7117],[13.7292,-4.7091],[13.7142,-4.6755],[13.7151,-4.6189],[13.7502,-4.5578],[13.7282,-4.4877],[13.7303,-4.4578],[13.7816,-4.4252],[13.8192,-4.4225],[13.8528,-4.4482],[13.8835,-4.5012],[13.9597,-4.5182],[14.001,-4.4739],[14.0258,-4.4248],[14.1532,-4.3937],[14.1785,-4.3996],[14.2567,-4.3579],[14.2903,-4.325],[14.3583,-4.3142],[14.3667,-4.2895],[14.4072,-4.2793],[14.3873,-4.3412],[14.4388,-4.4126],[14.4823,-4.437],[14.4119,-4.5138],[14.3817,-4.5249],[14.3493,-4.5641],[14.3816,-4.596],[14.3854,-4.6378],[14.4291,-4.6551],[14.4097,-4.724],[14.403,-4.861],[14.4162,-4.8975],[14.4899,-4.8482],[14.5576,-4.8653],[14.592,-4.9034],[14.6462,-4.9232],[14.6905,-4.9172],[14.7394,-4.8758],[14.8497,-4.8178],[14.9124,-4.6822],[14.9827,-4.6165],[15.0376,-4.5468],[15.1073,-4.4935],[15.15,-4.424]]]]},"properties":{"name":"Kongo Central","id":"CD-BC","CNTRY":"Democratic Republic of the Congo","TYPE":"Province"},"id":"CD-BC"},
{"type":"Feature","geometry":{"type":"Polygon","coordinates":[[[26.9122,5.0801],[26.9784,4.9728],[27.0355,4.856],[27.0355,4.8179],[26.9927,4.8012],[27.0164,4.7392],[27.0117,4.6844],[26.9879,4.62],[26.9689,4.5269],[27.0212,4.5031],[27.1472,4.4745],[27.2422,4.4912],[27.2945,4.4816],[27.209,4.2049],[27.197,4.1023],[27.2185,4.0187],[27.2636,3.9662],[27.266,3.8731],[27.3373,3.8206],[27.3801,3.5722],[27.361,3.4958],[27.304,3.4337],[27.2636,3.3387],[27.2612,3.2981],[27.3016,3.2479],[27.3658,3.2407],[27.4252,3.2981],[27.4823,3.3076],[27.5227,3.3004],[27.5655,3.3243],[27.6249,3.3315],[27.67,3.31],[27.6867,3.267],[27.6653,3.1141],[27.6795,3.0568],[27.575,3.0137],[27.5631,2.966],[27.6439,2.9349],[27.6605,2.9038],[27.6677,2.8465],[27.5441,2.8369],[27.4466,2.77],[27.3658,2.7509],[27.247,2.8417],[27.1899,2.8967],[27.1329,2.9038],[27.0782,2.7843],[27.0283,2.7389],[26.9713,2.7007],[26.8976,2.5716],[26.9261,2.5453],[27.0426,2.5716],[27.1234,2.5692],[27.1662,2.5429],[27.1709,2.4903],[27.159,2.421],[27.1828,2.3756],[27.1828,2.3134],[27.1567,2.2441],[27.1281,2.1939],[27.0901,2.1508],[27.0616,2.0982],[27.0397,1.9444],[26.9803,1.9587],[26.9399,2.0496],[26.9233,2.1214],[26.8947,2.15],[26.7854,2.1596],[26.7498,2.1859],[26.6975,2.1716],[26.6618,2.1381],[26.6214,2.1357],[26.6,2.0759],[26.5358,2.0472],[26.4983,2.0568],[26.4626,2.1118],[26.4151,2.0663],[26.3604,2.0711],[26.32,2.119],[26.3367,2.2863],[26.3224,2.3748],[26.2701,2.382],[26.2083,2.3365],[26.1536,2.3294],[26.0705,2.2887],[26.0015,2.2744],[25.9778,2.2409],[25.9326,2.2146],[25.8875,2.2433],[25.8399,2.2552],[25.771,2.2505],[25.7068,2.2218],[25.6688,2.1883],[25.5999,2.1763],[25.5119,2.1811],[25.4216,2.217],[25.3836,2.2457],[25.2529,2.3078],[25.2029,2.3126],[25.1316,2.2481],[25.0912,2.2385],[25.0175,2.2648],[24.9439,2.2576],[24.5084,2.2815],[24.3706,2.2624],[24.3302,2.2744],[24.102,2.217],[24.0759,2.1979],[24.0521,2.1405],[24.0093,2.1261],[23.9689,2.0927],[23.9047,2.0974],[23.7455,2.1453],[23.6765,2.1931],[23.5919,2.2085],[23.5752,2.2587],[23.5752,2.3973],[23.5491,2.4595],[23.4968,2.5073],[23.4421,2.5169],[23.3827,2.5766],[23.3542,2.5647],[23.3304,2.5025],[23.2686,2.4929],[23.164,2.5479],[23.0928,2.5623],[23.0143,2.6053],[22.9383,2.6579],[22.8978,2.7248],[22.8883,2.7965],[22.9264,2.8156],[22.9644,2.8563],[22.9739,2.8969],[23.0428,3.0039],[23.0452,3.0446],[23,3.0828],[22.9073,3.0876],[22.8669,3.0446],[22.8336,3.0278],[22.7885,3.0493],[22.7743,3.0947],[22.741,3.1473],[22.5627,3.1807],[22.6274,3.2815],[22.6293,3.3694],[22.6408,3.4057],[22.675,3.4477],[22.7396,3.4936],[22.8917,3.57],[22.9659,3.5872],[23.0534,3.6197],[23.1351,3.698],[23.1789,3.7534],[23.2378,3.7935],[23.3177,3.761],[23.3671,3.7209],[23.4127,3.7133],[23.504,3.7572],[23.5268,3.7916],[23.5192,3.8355],[23.4222,3.8546],[23.3766,3.826],[23.2758,3.8604],[23.1446,3.889],[23.0895,3.8852],[23.0172,3.8642],[22.8689,3.8584],[22.7986,3.8718],[22.7853,3.9368],[22.8176,4.0151],[22.7605,4.0475],[22.7035,4.1201],[22.5286,4.1411],[22.483,4.1543],[22.5504,4.2154],[22.5421,4.2684],[22.5693,4.3225],[22.6194,4.3505],[22.59,4.3893],[22.5992,4.4717],[22.6271,4.4847],[22.699,4.4717],[22.7064,4.5157],[22.7337,4.556],[22.7395,4.6249],[22.7624,4.6507],[22.7834,4.7044],[22.8091,4.7251],[22.8456,4.7017],[22.9026,4.7571],[22.8877,4.7845],[22.9067,4.8179],[22.9837,4.8233],[23.0128,4.7534],[23.0801,4.7155],[23.1133,4.708],[23.1716,4.7382],[23.2084,4.6922],[23.263,4.6638],[23.2805,4.6256],[23.3312,4.6022],[23.4209,4.5889],[23.431,4.6502],[23.4649,4.6735],[23.5007,4.6733],[23.5821,4.733],[23.6199,4.7406],[23.7092,4.7823],[23.7707,4.7796],[23.8335,4.8294],[23.8512,4.8108],[23.8922,4.8327],[23.9499,4.8094],[23.9762,4.8562],[24.0389,4.8772],[24.0903,4.9103],[24.1605,4.8949],[24.1911,4.9307],[24.2983,5.0029],[24.3753,5.0084],[24.382,5.0966],[24.407,5.1112],[24.5343,5.0805],[24.5653,5.0362],[24.6136,5.0305],[24.6328,4.9751],[24.6739,4.9695],[24.6581,4.9195],[24.7209,4.9239],[24.7348,4.9062],[24.7916,4.9069],[24.8229,4.9393],[24.8785,4.9377],[24.8908,4.9617],[24.9337,4.9611],[24.9533,4.9863],[25,5],[25.1364,5],[25.2017,5.0174],[25.3179,5.0362],[25.3512,5.1141],[25.322,5.195],[25.3677,5.3156],[25.4292,5.3206],[25.4975,5.3641],[25.5113,5.3439],[25.5815,5.3752],[25.6239,5.3214],[25.6587,5.328],[25.7089,5.2971],[25.7492,5.2367],[25.7834,5.2515],[25.8201,5.2459],[25.8207,5.2171],[25.8838,5.2187],[25.9174,5.1748],[25.9852,5.2397],[26.0109,5.2082],[26.0679,5.1941],[26.0996,5.2082],[26.1364,5.264],[26.1601,5.2321],[26.2081,5.237],[26.2856,5.1693],[26.342,5.1469],[26.391,5.1475],[26.459,5.0951],[26.4637,5.0585],[26.5268,5.0442],[26.6383,5.0814],[26.6697,5.0773],[26.75,5.1035],[26.7725,5.1017],[26.8081,5.0491],[26.8315,5.0592],[26.8722,5.0337],[26.9122,5.0801]]]},"properties":{"name":"Bas-Uélé","id":"CD-BU","CNTRY":"Democratic Republic of the Congo","TYPE":"Province"},"id":"CD-BU"},
{"type":"Feature","geometry":{"type":"Polygon","coordinates":[[[19.906,2.0169],[19.849,1.9218],[19.1983,1.5738],[19.2072,1.3639],[19.4318,1.4572],[19.5352,1.5344],[19.6828,1.6187],[19.8361,1.6618],[19.9145,1.6904],[20.0019,1.7335],[20.1071,1.764],[20.198,1.7748],[20.2818,1.7496],[20.4066,1.6976],[20.4779,1.6797],[20.6329,1.7012],[20.6793,1.7192],[20.6953,1.703],[20.6936,1.633],[20.6454,1.4791],[20.6454,1.4038],[20.6632,1.3535],[20.6953,1.3051],[20.7042,1.2333],[20.6918,1.201],[20.5581,1.2513],[20.5367,1.2351],[20.4458,1.0916],[20.4386,1.0073],[20.4173,0.9139],[20.4083,0.826],[20.4404,0.7327],[20.4262,0.6735],[20.3656,0.591],[20.362,0.5443],[20.3156,0.4581],[20.3049,0.3835],[20.3477,0.3279],[20.4315,0.2686],[20.4992,0.2005],[20.5581,0.1681],[20.5723,0.1269],[20.5492,0.0982],[20.4921,0.0802],[20.4654,0.0569],[20.4743,0.0156],[20.5634,0.0156],[20.5777,-0.0041],[20.5634,-0.0418],[20.5313,-0.0669],[20.4244,-0.0867],[20.3763,-0.1208],[20.3442,-0.1746],[20.3442,-0.2285],[20.3174,-0.2554],[20.2586,-0.2679],[20.223,-0.2356],[20.2158,-0.18],[20.2265,-0.1477],[20.2087,-0.1226],[20.1641,-0.1082],[20.0999,-0.119],[20.0857,-0.1495],[20.0483,-0.1585],[19.9894,-0.11],[19.9484,-0.1208],[19.9003,-0.0975],[19.8557,-0.11],[19.8326,-0.1513],[19.8557,-0.18],[19.9092,-0.1836],[19.9609,-0.2482],[20.0393,-0.311],[20.0714,-0.3469],[20.1392,-0.5134],[20.2604,-0.648],[20.2586,-0.7162],[20.2105,-0.8293],[20.1677,-0.8939],[20.1463,-0.9477],[20.1534,-1.0015],[20.1231,-1.0482],[20.0697,-1.0823],[19.8058,-1.1684],[19.7434,-1.172],[19.706,-1.154],[19.6846,-1.1217],[19.6882,-1.0159],[19.6721,-0.9854],[19.6294,-0.9656],[19.6026,-0.9962],[19.5955,-1.1666],[19.5723,-1.2061],[19.5313,-1.2366],[19.485,-1.3281],[19.4318,-1.4067],[19.3962,-1.3475],[19.3659,-1.2757],[19.3445,-1.1825],[19.3142,-1.1161],[19.2857,-1.0766],[19.2108,-1.0335],[19.209,-0.9725],[19.1894,-0.8792],[19.1573,-0.8182],[19.0985,-0.75],[18.9933,-0.8218],[18.9345,-0.8146],[18.8168,-0.8218],[18.7651,-0.8595],[18.742,-0.942],[18.7901,-1.0264],[18.8489,-1.0802],[18.8739,-1.1376],[18.8728,-1.1825],[18.8104,-1.1609],[18.7766,-1.134],[18.7427,-1.134],[18.732,-1.1717],[18.7659,-1.2076],[18.7623,-1.2435],[18.6322,-1.247],[18.5858,-1.2596],[18.5198,-1.2542],[18.4022,-1.1789],[18.3487,-1.134],[18.2703,-1.0874],[18.215,-1.0766],[18.1705,-1.0981],[18.1419,-1.1322],[18.1259,-1.1843],[18.0118,-1.3027],[17.9173,-1.3565],[17.7052,-1.4336],[17.6129,-1.4534],[17.456,-1.5269],[17.2385,-1.6973],[17.1637,-1.7651],[17.0906,-1.7974],[17.0282,-1.7974],[16.9604,-1.7813],[16.8374,-1.7741],[16.7965,-1.7938],[16.7982,-1.8225],[16.9248,-1.8692],[16.9426,-1.9122],[16.9373,-1.975],[16.9177,-2.0055],[16.7536,-2.0306],[16.6699,-2.0288],[16.6075,-1.9983],[16.5825,-1.9571],[16.5328,-1.8329],[16.589,-1.7452],[16.7958,-1.3308],[16.8458,-1.2636],[16.8966,-1.2135],[16.9768,-1.1514],[17.0412,-1.1231],[17.1114,-1.0743],[17.1642,-1.0516],[17.2375,-1.0471],[17.3412,-0.9905],[17.4925,-0.839],[17.6836,-0.5953],[17.7097,-0.5407],[17.7418,-0.381],[17.7374,-0.3185],[17.7153,-0.2328],[17.7137,-0.1281],[17.7714,0],[17.758,0.0181],[17.7752,0.1076],[17.8212,0.2156],[17.8548,0.26],[17.9232,0.3158],[17.96,0.3887],[17.9551,0.4899],[17.8862,0.5723],[17.8744,0.6597],[17.8915,0.685],[17.8849,0.7388],[17.8953,0.7751],[17.8831,0.8382],[17.8449,0.9192],[17.8501,1.0124],[17.8831,1.0841],[17.9151,1.1149],[17.9418,1.1645],[17.9763,1.3382],[18.0237,1.4532],[18.0679,1.5214],[18.0784,1.6542],[18.088,1.678],[18.0582,1.821],[18.0675,1.8805],[18.0925,1.9621],[18.0842,2.0048],[18.5336,2.0028],[18.5849,1.9913],[18.6776,1.9281],[18.7247,1.9325],[18.7406,1.9528],[18.9103,2.0203],[19.0558,2.115],[19.1057,2.1365],[19.1884,2.1393],[19.2897,2.1178],[19.4922,2.0389],[19.6048,2.0231],[19.906,2.0169]]]},"properties":{"name":"Équateur","id":"CD-EQ","CNTRY":"Democratic Republic of the Congo","TYPE":"Province"},"id":"CD-EQ"},
{"type":"Feature","geometry":{"type":"Polygon","coordinates":[[[29.5797,-8.3768],[28.9019,-8.4746],[28.9482,-8.5687],[28.9639,-8.6365],[28.9431,-8.7188],[28.8966,-8.7949],[28.7475,-8.9839],[28.6472,-9.0716],[28.4829,-9.171],[28.394,-9.2451],[28.3636,-9.3081],[28.3614,-9.3764],[28.4169,-9.42],[28.4639,-9.4032],[28.5066,-9.3538],[28.5339,-9.3831],[28.5156,-9.4438],[28.5699,-9.4911],[28.5855,-9.5798],[28.6151,-9.6019],[28.6293,-9.6667],[28.624,-9.73],[28.6682,-9.7563],[28.697,-9.8062],[28.6713,-9.8211],[28.6539,-9.897],[28.6249,-9.9572],[28.6364,-10.0221],[28.6244,-10.0728],[28.6218,-10.157],[28.5772,-10.2306],[28.6364,-10.3061],[28.6217,-10.3758],[28.6428,-10.4373],[28.6341,-10.5184],[28.6712,-10.5606],[28.6659,-10.6191],[28.6968,-10.6626],[28.6621,-10.719],[28.61,-10.7258],[28.6035,-10.7678],[28.5535,-10.8324],[28.5378,-10.9431],[28.5082,-10.975],[28.5077,-11.0309],[28.476,-11.1054],[28.4962,-11.1505],[28.4816,-11.2204],[28.4868,-11.2442],[28.4482,-11.3253],[28.4585,-11.3712],[28.4267,-11.385],[28.4192,-11.4461],[28.394,-11.4747],[28.3986,-11.5039],[28.3813,-11.5853],[28.431,-11.6458],[28.4145,-11.7259],[28.4471,-11.7694],[28.4387,-11.8307],[28.4818,-11.8271],[28.5039,-11.8794],[28.5766,-11.9108],[28.6147,-11.9128],[28.64,-11.9522],[28.721,-11.9907],[28.7594,-11.9904],[28.7784,-12.0554],[28.8325,-12.1011],[28.8555,-12.1382],[28.947,-12.2119],[28.9988,-12.2875],[29.0048,-12.3226],[29.0468,-12.3847],[29.1073,-12.3793],[29.1294,-12.3953],[29.191,-12.3706],[29.2669,-12.3642],[29.2956,-12.409],[29.3661,-12.4128],[29.4749,-12.4714],[29.5268,-12.4438],[29.5342,-12.402],[29.4957,-12.394],[29.4562,-12.3335],[29.4676,-12.2733],[29.4893,-12.2386],[29.5752,-12.1929],[29.6671,-12.2072],[29.7232,-12.1903],[29.7621,-12.1603],[29.807,-12.1565],[29.809,-13.4551],[29.7769,-13.437],[29.7124,-13.4557],[29.6797,-13.4308],[29.6465,-13.4374],[29.6106,-13.4088],[29.6046,-13.3634],[29.6523,-13.3504],[29.6537,-13.2887],[29.6823,-13.2647],[29.6703,-13.2265],[29.6351,-13.2384],[29.589,-13.2138],[29.5281,-13.2277],[29.4418,-13.3139],[29.3161,-13.332],[29.2992,-13.3753],[29.2481,-13.3929],[29.1827,-13.443],[29.1604,-13.4013],[29.1215,-13.3698],[29.0873,-13.3775],[29.0201,-13.4177],[28.9759,-13.3761],[28.9456,-13.3044],[28.9416,-13.272],[28.9035,-13.162],[28.8469,-13.1452],[28.8459,-13.081],[28.8271,-13.0109],[28.791,-12.9643],[28.7558,-12.9384],[28.7263,-12.8765],[28.6527,-12.8188],[28.6047,-12.8425],[28.5885,-12.8846],[28.544,-12.8563],[28.5286,-12.8009],[28.4655,-12.7341],[28.456,-12.6986],[28.5089,-12.6792],[28.5232,-12.6341],[28.4899,-12.5932],[28.4454,-12.5633],[28.4416,-12.5162],[28.4037,-12.5009],[28.3149,-12.419],[28.2352,-12.4227],[28.1742,-12.3828],[28.1244,-12.4354],[28.0866,-12.3589],[27.9894,-12.3387],[27.9533,-12.3141],[27.9177,-12.2405],[27.8656,-12.2441],[27.8184,-12.23],[27.8174,-12.2596],[27.7581,-12.2893],[27.7116,-12.2814],[27.6563,-12.2871],[27.6313,-12.2754],[27.6132,-12.2241],[27.5646,-12.2099],[27.5149,-12.1573],[27.4973,-12.0669],[27.4674,-12.0345],[27.4722,-11.9597],[27.4632,-11.9278],[27.3969,-11.8763],[27.2906,-11.8098],[27.232,-11.7867],[27.2263,-11.6558],[27.2058,-11.5684],[27.157,-11.5999],[27.1194,-11.5953],[27.0284,-11.6113],[27.0248,-11.6519],[27.0486,-11.6985],[27.0082,-11.7674],[26.9987,-11.8167],[27.0075,-11.8469],[26.9712,-11.8801],[26.9535,-11.9193],[26.8836,-11.9846],[26.8278,-11.9933],[26.7981,-11.9669],[26.7547,-11.9737],[26.7182,-12.0088],[26.6915,-11.9922],[26.6016,-11.9715],[26.5591,-11.9792],[26.4866,-11.9291],[26.4444,-11.9152],[26.4087,-11.92],[26.3301,-11.9661],[26.212,-11.9276],[26.1918,-11.939],[25.9896,-11.9406],[25.9871,-11.8981],[25.9597,-11.8775],[25.9189,-11.8745],[25.8901,-11.813],[25.8627,-11.8021],[25.8236,-11.8281],[25.7187,-11.8157],[25.6774,-11.7816],[25.655,-11.7332],[25.6251,-11.6598],[25.6836,-11.6106],[25.7221,-11.5122],[25.7763,-11.4574],[25.7592,-11.3856],[25.7606,-11.3335],[25.8191,-11.2632],[25.7963,-11.1604],[25.802,-11.135],[25.8946,-11.0223],[25.9046,-10.9851],[25.936,-10.9527],[25.9788,-10.9527],[26.0672,-10.9725],[26.1072,-10.971],[26.1599,-10.9034],[26.2013,-10.8921],[26.237,-10.9076],[26.2541,-10.9598],[26.3196,-11.0852],[26.3496,-11.0556],[26.3681,-10.9964],[26.4209,-10.9217],[26.5421,-10.8964],[26.5663,-10.8541],[26.6063,-10.754],[26.5749,-10.6975],[26.5321,-10.6722],[26.5549,-10.6129],[26.4851,-10.5508],[26.4694,-10.493],[26.5806,-10.4648],[26.8245,-10.4704],[26.873,-10.4916],[26.9215,-10.5777],[27.0156,-10.5734],[27.0897,-10.5508],[27.151,-10.5057],[27.1682,-10.4789],[27.1725,-10.4097],[27.1453,-10.3758],[27.0341,-10.2798],[26.997,-10.2346],[26.997,-10.1908],[27.0826,-10.0707],[27.0997,-10.0368],[27.0854,-9.9915],[27.0498,-9.9605],[27.007,-9.9449],[26.91,-9.9746],[26.7774,-9.9732],[26.602,-9.9435],[26.5464,-9.9209],[26.3824,-9.8815],[26.2911,-9.8915],[26.2698,-9.8617],[26.2698,-9.8236],[26.3253,-9.7288],[26.3353,-9.6538],[26.3382,-9.6156],[26.3767,-9.5576],[26.4366,-9.5108],[26.4694,-9.4698],[26.4979,-9.2956],[26.4737,-9.2247],[26.4951,-9.1854],[26.5763,-9.1131],[26.6576,-9.0224],[26.7161,-8.8607],[26.7275,-8.8125],[26.7289,-8.7415],[26.7532,-8.6947],[26.8088,-8.6933],[26.8302,-8.7728],[26.8758,-8.7756],[26.9158,-8.7501],[27.007,-8.655],[27.0626,-8.6096],[27.0712,-8.5855],[27.0427,-8.5557],[27.0284,-8.513],[27.0327,-8.4773],[27.1639,-8.3211],[27.1967,-8.2699],[27.2532,-8.2301],[27.3915,-8.1875],[27.45,-8.1534],[27.5612,-8.1108],[27.6582,-8.1094],[27.7109,-8.1676],[27.778,-8.2032],[27.8293,-8.2188],[27.8592,-8.2671],[27.8992,-8.2827],[27.9519,-8.2756],[27.9862,-8.3281],[28.0033,-8.3807],[28.0523,-8.4077],[28.078,-8.375],[28.1265,-8.358],[28.2178,-8.2926],[28.2748,-8.2926],[28.3304,-8.277],[28.4203,-8.206],[28.4459,-8.1477],[28.4416,-8.1008],[28.5187,-7.9843],[28.5201,-7.9132],[28.4773,-7.8691],[28.3789,-7.8065],[28.386,-7.7568],[28.4474,-7.734],[28.4588,-7.6777],[28.5073,-7.6578],[28.5543,-7.6578],[28.6014,-7.6748],[28.6199,-7.7019],[28.6285,-7.7716],[28.6684,-7.8555],[28.6749,-7.9067],[28.732,-7.9536],[28.8219,-7.9962],[28.8575,-7.9834],[28.906,-7.8654],[28.9787,-7.891],[29.0928,-7.8967],[29.1142,-7.8612],[29.1128,-7.8157],[29.1456,-7.783],[29.2354,-7.7972],[29.2625,-7.7659],[29.3081,-7.7616],[29.3509,-7.7773],[29.4194,-7.7645],[29.4579,-7.8029],[29.4793,-7.847],[29.5121,-7.8754],[29.5506,-7.8555],[29.5836,-7.8612],[29.6065,-7.9195],[29.6564,-7.9792],[29.6678,-8.0303],[29.655,-8.0844],[29.5893,-8.1327],[29.5694,-8.1597],[29.5722,-8.2151],[29.5323,-8.3122],[29.5797,-8.3768]]]},"properties":{"name":"Haut-Katanga","id":"CD-HK","CNTRY":"Democratic Republic of the Congo","TYPE":"Province"},"id":"CD-HK"},
{"type":"Feature","geometry":{"type":"Polygon","coordinates":[[[26.1175,-6.3263],[26.1109,-6.3568],[26.0671,-6.4101],[25.953,-6.4934],[25.9321,-6.5618],[25.9378,-6.6322],[26.0253,-6.674],[26.0367,-6.7291],[26.0633,-6.7633],[26.0824,-6.8375],[26.05,-6.8641],[26.069,-6.9135],[26.1299,-6.9762],[26.2211,-6.9951],[26.2516,-7.0389],[26.2991,-7.0541],[26.4303,-7.0693],[26.4817,-7.092],[26.4835,-7.1338],[26.4626,-7.168],[26.3911,-7.2295],[26.3683,-7.2884],[26.3702,-7.3492],[26.4063,-7.3966],[26.4577,-7.4422],[26.5984,-7.501],[26.663,-7.5541],[26.7847,-7.5788],[26.8456,-7.6509],[26.9388,-7.6585],[27.1479,-7.649],[27.205,-7.6357],[27.224,-7.6092],[27.2297,-7.5352],[27.2582,-7.5143],[27.3076,-7.556],[27.3457,-7.5579],[27.4236,-7.52],[27.475,-7.539],[27.5073,-7.5162],[27.5586,-7.5124],[27.6271,-7.6073],[27.6537,-7.6661],[27.6537,-7.7078],[27.6347,-7.7419],[27.6404,-7.8064],[27.6689,-7.8709],[27.7564,-7.8955],[27.8058,-7.8728],[27.8305,-7.8842],[27.8477,-7.9353],[27.8248,-8.0263],[27.7925,-8.0718],[27.7526,-8.1002],[27.7109,-8.1676],[27.6582,-8.1094],[27.5612,-8.1108],[27.45,-8.1534],[27.3915,-8.1875],[27.2532,-8.2301],[27.1967,-8.2699],[27.1639,-8.3211],[27.0327,-8.4773],[27.0284,-8.513],[27.0427,-8.5557],[27.0712,-8.5855],[27.0626,-8.6096],[27.007,-8.655],[26.9158,-8.7501],[26.8758,-8.7756],[26.8302,-8.7728],[26.8088,-8.6933],[26.7532,-8.6947],[26.7289,-8.7415],[26.7275,-8.8125],[26.7161,-8.8607],[26.6576,-9.0224],[26.5763,-9.1131],[26.4951,-9.1854],[26.4737,-9.2247],[26.4979,-9.2956],[26.4694,-9.4698],[26.4366,-9.5108],[26.3767,-9.5576],[26.3382,-9.6156],[26.3353,-9.6538],[26.2765,-9.6945],[26.2082,-9.724],[26.0685,-9.7388],[26.0388,-9.6975],[25.9526,-9.6945],[25.81,-9.6474],[25.7328,-9.6002],[25.6437,-9.5088],[25.5753,-9.497],[25.5159,-9.5059],[25.4892,-9.5472],[25.504,-9.6415],[25.5456,-9.7771],[25.5278,-9.8125],[25.3703,-9.8567],[25.1267,-9.9686],[25.0703,-9.9833],[25.0465,-10.0069],[25.0614,-10.0628],[25.0108,-10.1099],[24.9633,-10.1276],[24.9158,-10.1158],[24.8682,-10.0599],[24.7999,-10.0746],[24.7108,-10.0157],[24.5949,-10.0982],[24.5444,-10.0893],[24.5236,-10.0422],[24.4701,-9.998],[24.4137,-10.0893],[24.375,-10.054],[24.375,-10.0127],[24.274,-10.0187],[24.1938,-10.0098],[24.1344,-10.0187],[24.0958,-9.9833],[24.1106,-9.9509],[24.0839,-9.9038],[24.0334,-9.8684],[24.0275,-9.8154],[24.1047,-9.7152],[24.1344,-9.6622],[24.1285,-9.5855],[24.1374,-9.5353],[24.1612,-9.4822],[24.1522,-9.3908],[24.1701,-9.3465],[24.2324,-9.3347],[24.3364,-9.2934],[24.4642,-9.32],[24.5533,-9.3112],[24.5711,-9.2875],[24.5177,-9.2433],[24.4582,-9.2285],[24.3602,-9.1517],[24.3156,-9.1045],[24.2948,-9.0336],[24.2473,-8.9775],[24.0928,-8.948],[24.0334,-8.8445],[23.9413,-8.7973],[23.8403,-8.7854],[23.7601,-8.7854],[23.7066,-8.7588],[23.7066,-8.6731],[23.6769,-8.5696],[23.6799,-8.4442],[23.6977,-8.385],[23.7244,-8.1897],[23.6947,-8.0536],[23.665,-7.9914],[23.7149,-7.9398],[23.722,-7.8865],[23.7506,-7.851],[23.8076,-7.8794],[23.8397,-7.9256],[23.9359,-7.8758],[23.9645,-7.819],[23.9181,-7.6981],[23.9217,-7.5949],[23.9359,-7.4882],[23.9716,-7.4134],[24.018,-7.3387],[24.1891,-7.1144],[24.2782,-7.0717],[24.4493,-7.0824],[24.5206,-7.0467],[24.6276,-7.0218],[24.7132,-6.9719],[24.7916,-6.9043],[24.8451,-6.8223],[24.92,-6.751],[24.9912,-6.7225],[25.0911,-6.6975],[25.2087,-6.7011],[25.2622,-6.7546],[25.3442,-6.8152],[25.4191,-6.7724],[25.4512,-6.7261],[25.469,-6.6583],[25.4512,-6.6049],[25.3121,-6.505],[25.2907,-6.4658],[25.3121,-6.3588],[25.3371,-6.3303],[25.3798,-6.316],[25.4975,-6.3338],[25.6401,-6.3018],[25.7578,-6.2447],[25.8255,-6.1769],[25.8968,-6.1805],[25.936,-6.2661],[25.9681,-6.2768],[25.9895,-6.2375],[26.0287,-6.2411],[26.0394,-6.2839],[26.1175,-6.3263]]]},"properties":{"name":"Haut-Lomami","id":"CD-HL","CNTRY":"Democratic Republic of the Congo","TYPE":"Province"},"id":"CD-HL"},
{"type":"Feature","geometry":{"type":"Polygon","coordinates":[[[30.5586,3.596],[30.3971,3.5714],[30.3686,3.4931],[30.3971,3.4338],[30.3629,3.3459],[30.3458,3.2504],[30.3039,3.1816],[30.1746,3.0688],[30.1518,3.0095],[30.1537,2.9139],[30.2146,2.8623],[30.1937,2.8394],[30.1784,2.7859],[30.1784,2.7208],[30.2184,2.6597],[30.2051,2.5946],[30.1404,2.4818],[30.1138,2.3766],[30.0682,2.3671],[30.0434,2.3097],[30.0054,2.2607],[29.9484,2.2531],[29.8742,2.1498],[29.9065,2.102],[29.8875,2.0388],[29.8381,2.056],[29.8001,2.0943],[29.7639,2.1593],[29.7164,2.1823],[29.6536,2.1938],[29.6099,2.2186],[29.6194,2.2645],[29.6518,2.3009],[29.6536,2.4195],[29.6365,2.4692],[29.6004,2.4941],[29.5301,2.4845],[29.4597,2.4501],[29.3932,2.4271],[29.3266,2.4233],[29.2886,2.4539],[29.2696,2.5151],[29.2448,2.5457],[29.2087,2.5342],[29.1688,2.4424],[29.0433,2.4348],[28.9901,2.4137],[28.9919,2.3449],[28.9729,2.3124],[28.9083,2.2875],[28.8208,2.2971],[28.7162,2.3468],[28.6896,2.32],[28.7562,2.2779],[28.7771,2.2397],[28.7695,2.2014],[28.7277,2.1957],[28.6478,2.2301],[28.6265,2.2856],[28.5847,2.3258],[28.5333,2.3181],[28.4364,2.2607],[28.3869,2.2913],[28.3717,2.3296],[28.3318,2.32],[28.3223,2.1995],[28.3356,2.0847],[28.3166,1.9432],[28.2766,1.8647],[28.2367,1.8341],[28.1835,1.7117],[28.1492,1.6906],[28.1074,1.7155],[28.0351,1.7346],[27.9439,1.7423],[27.9039,1.7786],[27.7861,1.8494],[27.7176,1.8475],[27.613,1.8169],[27.5788,1.8303],[27.5503,1.8054],[27.5617,1.7442],[27.6016,1.7059],[27.6206,1.6619],[27.6263,1.5854],[27.672,1.5835],[27.7347,1.6103],[27.7784,1.5969],[27.8032,1.5624],[27.7842,1.4553],[27.7537,1.4438],[27.6663,1.4667],[27.5978,1.4533],[27.5541,1.5471],[27.518,1.5662],[27.4628,1.5643],[27.4426,1.5454],[27.4319,1.5612],[27.4058,1.5852],[27.2251,1.5876],[27.237,1.6474],[27.275,1.6474],[27.3012,1.6832],[27.3202,1.7502],[27.3677,1.798],[27.3677,1.8296],[27.3439,1.875],[27.3986,1.9181],[27.3653,2.009],[27.2798,2.0401],[27.2394,2.0353],[27.2275,2.0113],[27.2275,1.9468],[27.2132,1.9133],[27.1752,1.9037],[27.1063,1.9085],[27.0397,1.9444],[27.0616,2.0982],[27.0901,2.1508],[27.1281,2.1939],[27.1567,2.2441],[27.1828,2.3134],[27.1828,2.3756],[27.159,2.421],[27.1709,2.4903],[27.1662,2.5429],[27.1234,2.5692],[27.0426,2.5716],[26.9261,2.5453],[26.8976,2.5716],[26.9713,2.7007],[27.0283,2.7389],[27.0782,2.7843],[27.1329,2.9038],[27.1899,2.8967],[27.247,2.8417],[27.3658,2.7509],[27.4466,2.77],[27.5441,2.8369],[27.6677,2.8465],[27.6605,2.9038],[27.6439,2.9349],[27.5631,2.966],[27.575,3.0137],[27.6795,3.0568],[27.6653,3.1141],[27.6867,3.267],[27.67,3.31],[27.6249,3.3315],[27.5655,3.3243],[27.5227,3.3004],[27.4823,3.3076],[27.4252,3.2981],[27.3658,3.2407],[27.3016,3.2479],[27.2612,3.2981],[27.2636,3.3387],[27.304,3.4337],[27.361,3.4958],[27.3801,3.5722],[27.3373,3.8206],[27.266,3.8731],[27.2636,3.9662],[27.2185,4.0187],[27.197,4.1023],[27.209,4.2049],[27.2945,4.4816],[27.2422,4.4912],[27.1472,4.4745],[27.0212,4.5031],[26.9689,4.5269],[26.9879,4.62],[27.0117,4.6844],[27.0164,4.7392],[26.9927,4.8012],[27.0355,4.8179],[27.0355,4.856],[26.9784,4.9728],[26.9122,5.0801],[26.9351,5.1342],[27.0291,5.187],[27.1122,5.2067],[27.1574,5.1996],[27.2318,5.1523],[27.3181,5.1264],[27.3407,5.1108],[27.4316,5.0777],[27.4634,5.0162],[27.5192,4.9747],[27.5327,4.926],[27.5739,4.8893],[27.6575,4.8913],[27.684,4.8684],[27.7137,4.7859],[27.7587,4.7907],[27.7874,4.7363],[27.773,4.6843],[27.7838,4.5971],[27.8322,4.5849],[27.8683,4.5479],[27.9302,4.5439],[27.9392,4.5681],[28.0199,4.5454],[28.0419,4.5478],[28.0319,4.4777],[28.0752,4.4107],[28.1082,4.441],[28.1427,4.4208],[28.1321,4.3939],[28.1753,4.3753],[28.2011,4.3475],[28.2688,4.3537],[28.3511,4.3496],[28.3673,4.283],[28.412,4.2717],[28.4579,4.2853],[28.4837,4.3107],[28.5101,4.3691],[28.5771,4.3745],[28.6021,4.4144],[28.6622,4.4196],[28.7099,4.5098],[28.7126,4.5322],[28.7866,4.5582],[28.8055,4.5317],[28.8064,4.4904],[28.83,4.4737],[28.9754,4.4753],[29.0094,4.4926],[29.0344,4.4823],[29.0774,4.4286],[29.1333,4.406],[29.2046,4.3383],[29.2455,4.3448],[29.2635,4.393],[29.2957,4.379],[29.3383,4.4013],[29.3581,4.4615],[29.4087,4.4833],[29.4379,4.5239],[29.4395,4.5591],[29.4718,4.5923],[29.4635,4.6664],[29.4986,4.6895],[29.5245,4.6545],[29.5533,4.6661],[29.5954,4.6481],[29.6147,4.6609],[29.708,4.6163],[29.7392,4.5708],[29.7684,4.5828],[29.8208,4.5373],[29.7956,4.4371],[29.7984,4.3683],[29.8397,4.3367],[29.8932,4.3462],[29.9418,4.3148],[29.9636,4.2774],[29.9441,4.2416],[29.9873,4.2266],[30.0381,4.1888],[30.0493,4.1464],[30.0789,4.1127],[30.1263,4.1134],[30.1557,4.097],[30.1586,4.055],[30.2011,4.0073],[30.2019,3.9638],[30.2226,3.9374],[30.2736,3.9564],[30.2993,3.931],[30.387,3.9085],[30.4446,3.8842],[30.4728,3.8594],[30.5204,3.8692],[30.5537,3.8586],[30.5525,3.8214],[30.5696,3.7725],[30.5849,3.6802],[30.5586,3.596]]]},"properties":{"name":"Haut-Uélé","id":"CD-HU","CNTRY":"Democratic Republic of the Congo","TYPE":"Province"},"id":"CD-HU"},
{"type":"Feature","geometry":{"type":"Polygon","coordinates":[[[27.4426,1.5454],[27.4628,1.5643],[27.518,1.5662],[27.5541,1.5471],[27.5978,1.4533],[27.6663,1.4667],[27.7537,1.4438],[27.7842,1.4553],[27.8032,1.5624],[27.7784,1.5969],[27.7347,1.6103],[27.672,1.5835],[27.6263,1.5854],[27.6206,1.6619],[27.6016,1.7059],[27.5617,1.7442],[27.5503,1.8054],[27.5788,1.8303],[27.613,1.8169],[27.7176,1.8475],[27.7861,1.8494],[27.9039,1.7786],[27.9439,1.7423],[28.0351,1.7346],[28.1074,1.7155],[28.1492,1.6906],[28.1835,1.7117],[28.2367,1.8341],[28.2766,1.8647],[28.3166,1.9432],[28.3356,2.0847],[28.3223,2.1995],[28.3318,2.32],[28.3717,2.3296],[28.3869,2.2913],[28.4364,2.2607],[28.5333,2.3181],[28.5847,2.3258],[28.6265,2.2856],[28.6478,2.2301],[28.7277,2.1957],[28.7695,2.2014],[28.7771,2.2397],[28.7562,2.2779],[28.6896,2.32],[28.7162,2.3468],[28.8208,2.2971],[28.9083,2.2875],[28.9729,2.3124],[28.9919,2.3449],[28.9901,2.4137],[29.0433,2.4348],[29.1688,2.4424],[29.2087,2.5342],[29.2448,2.5457],[29.2696,2.5151],[29.2886,2.4539],[29.3266,2.4233],[29.3932,2.4271],[29.4597,2.4501],[29.5301,2.4845],[29.6004,2.4941],[29.6365,2.4692],[29.6536,2.4195],[29.6518,2.3009],[29.6194,2.2645],[29.6099,2.2186],[29.6536,2.1938],[29.7164,2.1823],[29.7639,2.1593],[29.8001,2.0943],[29.8381,2.056],[29.8875,2.0388],[29.9065,2.102],[29.8742,2.1498],[29.9484,2.2531],[30.0054,2.2607],[30.0434,2.3097],[30.0682,2.3671],[30.1138,2.3766],[30.1404,2.4818],[30.2051,2.5946],[30.2184,2.6597],[30.1784,2.7208],[30.1784,2.7859],[30.1937,2.8394],[30.2146,2.8623],[30.1537,2.9139],[30.1518,3.0095],[30.1746,3.0688],[30.3039,3.1816],[30.3458,3.2504],[30.3629,3.3459],[30.3971,3.4338],[30.3686,3.4931],[30.3971,3.5714],[30.5586,3.596],[30.5919,3.5943],[30.6674,3.6364],[30.7346,3.6243],[30.7551,3.6665],[30.7839,3.6566],[30.7993,3.5904],[30.8621,3.5631],[30.8461,3.5083],[30.8536,3.4864],[30.9369,3.5091],[30.9378,3.4046],[30.8875,3.3415],[30.8926,3.3149],[30.8411,3.2394],[30.8021,3.1357],[30.7807,3.0229],[30.858,2.9619],[30.8902,2.8585],[30.8842,2.8144],[30.8266,2.7294],[30.7867,2.6457],[30.778,2.6039],[30.7501,2.5865],[30.7619,2.5103],[30.7409,2.4504],[30.8325,2.4174],[30.882,2.341],[30.9319,2.3351],[30.9544,2.4006],[31.0077,2.4011],[31.073,2.3464],[31.0693,2.3055],[31.1249,2.2666],[31.203,2.2945],[31.2031,2.2211],[31.2484,2.1999],[31.3057,2.1571],[31.3056,2.1165],[31.1996,1.9672],[31.0281,1.7497],[30.75,1.5275],[30.5497,1.2662],[30.5198,1.2662],[30.4755,1.2127],[30.39,1.1905],[30.36,1.2052],[30.3356,1.1539],[30.2926,1.1758],[30.2355,1.135],[30.2195,1.0185],[30.1554,0.8881],[30.0945,0.8859],[30.0228,0.8671],[29.9695,0.8158],[29.9113,0.8131],[29.8847,0.8475],[29.8552,0.9241],[29.7972,0.9174],[29.7354,0.8647],[29.6769,0.8861],[29.5853,0.8814],[29.5742,0.8586],[29.5301,0.8485],[29.4759,0.8552],[29.4084,0.8102],[29.3371,0.684],[29.3069,0.66],[29.2685,0.6066],[29.1601,0.6582],[29.1231,0.6515],[29.0588,0.597],[29.0112,0.5711],[28.9561,0.5731],[28.8468,0.5616],[28.7346,0.5711],[28.6737,0.5654],[28.5939,0.5243],[28.553,0.5166],[28.4669,0.5874],[28.4393,0.6238],[28.3784,0.6736],[28.2939,0.7004],[28.1712,0.6889],[28.0219,0.6382],[27.9857,0.6737],[27.9405,0.7838],[27.9405,0.8364],[27.9738,0.8771],[27.9786,0.9273],[27.9287,0.9249],[27.9001,0.9488],[27.9167,1.0517],[27.7837,1.0637],[27.7432,1.0828],[27.7741,1.2575],[27.7646,1.3005],[27.7337,1.3316],[27.6553,1.3484],[27.5697,1.3436],[27.4961,1.4464],[27.4723,1.5014],[27.4426,1.5454]]]},"properties":{"name":"Ituri","id":"CD-IT","CNTRY":"Democratic Republic of the Congo","TYPE":"Province"},"id":"CD-IT"},
{"type":"Feature","geometry":{"type":"Polygon","coordinates":[[[23.6026,-5.7622],[23.4956,-5.7622],[23.359,-5.7503],[23.2134,-5.7533],[23.1451,-5.7444],[23.0648,-5.7712],[22.9727,-5.8188],[22.952,-5.8545],[22.9787,-5.8931],[22.9638,-5.9735],[22.9668,-6.0419],[23.0114,-6.1697],[23.0737,-6.2173],[23.0678,-6.3422],[23.1391,-6.4016],[23.1362,-6.4611],[23.1153,-6.5235],[23.0797,-6.5977],[23.0678,-6.675],[23.0381,-6.7789],[23.0737,-6.868],[23.1094,-6.8888],[23.1629,-6.8769],[23.1926,-6.9215],[23.2847,-6.9654],[23.255,-7.007],[23.2312,-7.096],[23.2223,-7.1643],[23.2342,-7.2562],[23.255,-7.3304],[23.252,-7.4283],[23.2223,-7.5825],[23.2164,-7.6743],[23.1832,-7.7959],[23.1495,-7.8001],[23.0395,-7.8949],[22.9712,-7.9068],[22.8969,-7.8949],[22.7959,-7.8416],[22.7394,-7.8534],[22.6622,-7.9038],[22.6563,-7.8149],[22.6147,-7.7734],[22.5523,-7.7823],[22.5345,-7.8238],[22.4959,-7.8534],[22.3919,-7.8475],[22.3503,-7.8682],[22.2196,-7.9038],[22.1512,-7.8949],[22.1066,-7.8505],[22.0799,-7.7882],[22.0294,-7.7082],[21.9522,-7.729],[21.8571,-7.6964],[21.8041,-7.7039],[21.8282,-7.6221],[21.8484,-7.5999],[21.8533,-7.5538],[21.8363,-7.52],[21.8569,-7.475],[21.8557,-7.4425],[21.8198,-7.3276],[21.7806,-7.2839],[21.6743,-7.1123],[21.526,-6.9623],[21.4385,-6.8977],[21.429,-6.8749],[21.4537,-6.8292],[21.5545,-6.7874],[21.5849,-6.7399],[21.621,-6.7114],[21.6629,-6.7323],[21.699,-6.7209],[21.7123,-6.6791],[21.6838,-6.6353],[21.602,-6.5973],[21.5545,-6.5954],[21.5545,-6.5441],[21.6077,-6.4775],[21.623,-6.4071],[21.6096,-6.2911],[21.5792,-6.1621],[21.5887,-6.0555],[21.6058,-5.9794],[21.7218,-5.7985],[21.7541,-5.8099],[21.7979,-5.8804],[21.8359,-5.8918],[21.8701,-5.8727],[21.9367,-5.7775],[21.9595,-5.7261],[21.9652,-5.6557],[21.9576,-5.5852],[21.8854,-5.4975],[21.8758,-5.4594],[21.8454,-5.4499],[21.7693,-5.4823],[21.7085,-5.4594],[21.68,-5.4213],[21.6306,-5.2956],[21.6496,-5.2574],[21.6781,-5.1144],[21.7047,-5.082],[21.7465,-5.0782],[21.8074,-5.0992],[21.8454,-5.0572],[21.8758,-5.0534],[21.9006,-5.0897],[22.0051,-5.103],[22.0413,-5.1316],[22.0793,-5.1182],[22.1287,-5.0363],[22.123,-4.9542],[22.0755,-4.9161],[22.0988,-4.8838],[22.1576,-4.8569],[22.2182,-4.764],[22.2414,-4.7049],[22.2735,-4.662],[22.3073,-4.6495],[22.3947,-4.6441],[22.4303,-4.594],[22.4589,-4.535],[22.523,-4.4366],[22.5409,-4.3471],[22.5355,-4.2219],[22.6708,-4.3034],[22.7231,-4.3511],[22.7754,-4.425],[22.8847,-4.5419],[22.9418,-4.5443],[23.0107,-4.5347],[23.0725,-4.5419],[23.1034,-4.5634],[23.1723,-4.7327],[23.1771,-4.8066],[23.1129,-4.8448],[22.956,-4.9139],[22.9632,-4.9568],[22.9513,-4.9878],[22.9133,-5.014],[22.9204,-5.045],[22.9584,-5.0903],[23.0274,-5.138],[23.1106,-5.238],[23.1367,-5.2881],[23.1676,-5.319],[23.2246,-5.3214],[23.2721,-5.2952],[23.3482,-5.2809],[23.4029,-5.2833],[23.4979,-5.35],[23.6382,-5.3548],[23.6857,-5.3691],[23.719,-5.4191],[23.7451,-5.5168],[23.7166,-5.5906],[23.6026,-5.7622]]]},"properties":{"name":"Kasaï Central","id":"CD-KC","CNTRY":"Democratic Republic of the Congo","TYPE":"Province"},"id":"CD-KC"},
{"type":"Feature","geometry":{"type":"Polygon","coordinates":[[[24.0096,-5.8396],[24.0017,-5.9073],[24.0106,-6.0412],[24.1413,-6.0828],[24.1651,-6.1363],[24.1472,-6.1869],[24.1086,-6.2285],[24.0403,-6.2315],[24.0076,-6.2552],[24.0106,-6.3028],[24.0849,-6.3772],[24.0849,-6.4247],[24.0195,-6.4247],[23.966,-6.4366],[23.8591,-6.4009],[23.8264,-6.4068],[23.7937,-6.4425],[23.7759,-6.5554],[23.7551,-6.6179],[23.7521,-6.7337],[23.7105,-6.7663],[23.6778,-6.7604],[23.5857,-6.7871],[23.5412,-6.7753],[23.4283,-6.6416],[23.4461,-6.5733],[23.4164,-6.5525],[23.3688,-6.5525],[23.3124,-6.5733],[23.2708,-6.6029],[23.1846,-6.6357],[23.1609,-6.6029],[23.1668,-6.5643],[23.1549,-6.5198],[23.1153,-6.5235],[23.1362,-6.4611],[23.1391,-6.4016],[23.0678,-6.3422],[23.0737,-6.2173],[23.0114,-6.1697],[22.9668,-6.0419],[22.9638,-5.9735],[22.9787,-5.8931],[22.952,-5.8545],[22.9727,-5.8188],[23.0648,-5.7712],[23.1451,-5.7444],[23.2134,-5.7533],[23.359,-5.7503],[23.4956,-5.7622],[23.6026,-5.7622],[23.7095,-5.795],[23.7482,-5.7712],[23.8076,-5.786],[23.8581,-5.8158],[23.9383,-5.8128],[24.0096,-5.8396]]]},"properties":{"name":"Kasaï-Oriental","id":"CD-KE","CNTRY":"Democratic Republic of the Congo","TYPE":"Province"},"id":"CD-KE"},
{"type":"Feature","geometry":{"type":"Polygon","coordinates":[[[19.6989,-6.3732],[19.7139,-6.5874],[19.935,-6.8512],[19.9706,-6.9367],[19.9775,-6.9987],[19.5438,-6.9994],[19.5628,-7.0574],[19.5332,-7.0881],[19.4956,-7.1778],[19.5051,-7.2091],[19.4871,-7.3135],[19.4944,-7.368],[19.5447,-7.457],[19.4859,-7.5026],[19.4939,-7.533],[19.4736,-7.5668],[19.381,-7.5687],[19.3686,-7.5829],[19.3979,-7.651],[19.4093,-7.7009],[19.3867,-7.7827],[19.3616,-7.8119],[19.3567,-7.9127],[19.373,-7.9953],[18.8002,-8],[18.7781,-7.9637],[18.7795,-7.9216],[18.5323,-7.9204],[18.5273,-8],[18.3911,-8],[18.3757,-8.0273],[18.3042,-8.0138],[18.2939,-7.9882],[18.217,-7.9895],[18.1532,-8.0085],[18.1352,-8.0348],[18.0982,-8.0402],[18.1004,-8.0991],[18,-8.0976],[17.982,-8.1127],[17.9399,-8.0824],[17.8849,-8.079],[17.8252,-8.0915],[17.7968,-8.1109],[17.7211,-8.0969],[17.6113,-8.1285],[17.5603,-8.1274],[17.5055,-8.0828],[17.5172,-8.0465],[17.4838,-8],[17.4878,-7.951],[17.4423,-7.9274],[17.455,-7.8834],[17.4248,-7.8696],[17.3867,-7.8209],[17.3884,-7.7924],[17.3214,-7.7585],[17.3311,-7.7169],[17.2909,-7.6896],[17.3012,-7.6287],[17.2375,-7.5959],[17.198,-7.533],[17.1999,-7.4994],[17.1562,-7.4751],[17.1881,-7.4446],[17.1451,-7.4055],[17.1102,-7.4227],[17.1167,-7.3645],[17.0765,-7.3428],[17.0306,-7.2979],[17.0055,-7.3001],[16.9886,-7.2308],[16.9537,-7.2034],[16.9703,-7.1702],[16.9282,-7.0741],[16.968,-7.0744],[16.9827,-7.0233],[16.9729,-6.9861],[16.9387,-6.966],[16.9378,-6.87],[16.8763,-6.8469],[16.8717,-6.8053],[16.8368,-6.7713],[16.8308,-6.7154],[16.7938,-6.6826],[16.7766,-6.594],[16.7513,-6.5792],[16.7629,-6.5285],[16.7272,-6.5009],[16.7345,-6.474],[16.6935,-6.4102],[16.6875,-6.361],[16.7249,-6.3388],[16.7095,-6.2908],[16.7104,-6.2357],[16.7309,-6.194],[16.6897,-6.1397],[16.6455,-6.1274],[16.6479,-6.0998],[16.6067,-6.0857],[16.6077,-6.0406],[16.5892,-5.9667],[16.5997,-5.9186],[16.5117,-5.8784],[16.4434,-5.8962],[16.3844,-5.8676],[16.0928,-5.8736],[16.1131,-5.8331],[16.1861,-5.7833],[16.23,-5.6769],[16.2378,-5.6081],[16.2211,-5.4083],[16.2617,-5.2172],[16.25,-5.1278],[16.2514,-5.0744],[16.2773,-5.0028],[16.2761,-4.9119],[16.2581,-4.7947],[16.3206,-4.7139],[16.4294,-4.5194],[16.4925,-4.507],[16.5911,-4.5562],[16.6215,-4.5447],[16.6253,-4.4436],[16.6595,-4.4111],[16.7546,-4.3882],[16.8192,-4.392],[16.9048,-4.3844],[16.9467,-4.4016],[16.9942,-4.4932],[17.0341,-4.5256],[17.0797,-4.5352],[17.171,-4.5371],[17.2185,-4.4455],[17.3646,-4.371],[17.4178,-4.3309],[17.4615,-4.2832],[17.511,-4.2565],[17.5756,-4.2565],[17.6194,-4.2699],[17.6384,-4.3252],[17.665,-4.3539],[17.7658,-4.3138],[17.8057,-4.3061],[17.8171,-4.3405],[17.8,-4.3787],[17.7525,-4.4131],[17.6973,-4.4378],[17.6745,-4.4779],[17.6878,-4.5161],[17.684,-4.5581],[17.6213,-4.6458],[17.5395,-4.8023],[17.5205,-4.8652],[17.5262,-4.9434],[17.5167,-5.0311],[17.5376,-5.1207],[17.5319,-5.1855],[17.4768,-5.2831],[17.4768,-5.4242],[17.4863,-5.4947],[17.5243,-5.5728],[17.5414,-5.708],[17.6023,-5.7347],[17.7753,-5.7271],[17.8133,-5.6909],[17.8894,-5.6566],[17.9179,-5.6642],[17.9559,-5.7099],[18.0035,-5.729],[18.0396,-5.7214],[18.0833,-5.7442],[18.1232,-5.8337],[18.129,-5.889],[18.1632,-5.8908],[18.1898,-5.8394],[18.243,-5.847],[18.2925,-5.8699],[18.3305,-5.8623],[18.4028,-5.8128],[18.4332,-5.8242],[18.5149,-5.8908],[18.5587,-5.9118],[18.5492,-5.9917],[18.5796,-6.007],[18.6671,-6.0032],[18.7108,-6.0203],[18.7036,-6.1079],[18.7188,-6.1345],[18.791,-6.1402],[18.8233,-6.1269],[18.8576,-6.1459],[18.869,-6.2372],[18.9089,-6.2639],[18.9336,-6.3],[18.9907,-6.3057],[19.042,-6.2829],[19.1162,-6.2182],[19.1561,-6.203],[19.1922,-6.1706],[19.2113,-6.1307],[19.3349,-6.1364],[19.3634,-6.1497],[19.3653,-6.1897],[19.3101,-6.2601],[19.2949,-6.2924],[19.3006,-6.3381],[19.3444,-6.418],[19.3976,-6.3952],[19.4223,-6.3457],[19.466,-6.3153],[19.5136,-6.3248],[19.6163,-6.3761],[19.6989,-6.3732]]]},"properties":{"name":"Kwango","id":"CD-KG","CNTRY":"Democratic Republic of the Congo","TYPE":"Province"},"id":"CD-KG"},
{"type":"Feature","geometry":{"type":"Polygon","coordinates":[[[20.0436,-4.2987],[20.0531,-4.3712],[20.1159,-4.4762],[20.1216,-4.522],[20.0702,-4.6067],[20.0569,-4.6544],[20.0569,-4.7231],[20.095,-4.9005],[20.1672,-5.0645],[20.1862,-5.1941],[20.1805,-5.2723],[20.152,-5.4247],[20.1463,-5.5048],[20.1672,-5.6152],[20.1843,-5.6419],[20.171,-5.7105],[20.1806,-5.7514],[20.1222,-5.7882],[20.1186,-5.8596],[20.0615,-5.8632],[20.033,-5.9453],[19.9867,-6.0024],[19.8851,-6.0095],[19.6854,-6.1808],[19.6989,-6.3732],[19.6163,-6.3761],[19.5136,-6.3248],[19.466,-6.3153],[19.4223,-6.3457],[19.3976,-6.3952],[19.3444,-6.418],[19.3006,-6.3381],[19.2949,-6.2924],[19.3101,-6.2601],[19.3653,-6.1897],[19.3634,-6.1497],[19.3349,-6.1364],[19.2113,-6.1307],[19.1922,-6.1706],[19.1561,-6.203],[19.1162,-6.2182],[19.042,-6.2829],[18.9907,-6.3057],[18.9336,-6.3],[18.9089,-6.2639],[18.869,-6.2372],[18.8576,-6.1459],[18.8233,-6.1269],[18.791,-6.1402],[18.7188,-6.1345],[18.7036,-6.1079],[18.7108,-6.0203],[18.6671,-6.0032],[18.5796,-6.007],[18.5492,-5.9917],[18.5587,-5.9118],[18.5149,-5.8908],[18.4332,-5.8242],[18.4028,-5.8128],[18.3305,-5.8623],[18.2925,-5.8699],[18.243,-5.847],[18.1898,-5.8394],[18.1632,-5.8908],[18.129,-5.889],[18.1232,-5.8337],[18.0833,-5.7442],[18.0396,-5.7214],[18.0035,-5.729],[17.9559,-5.7099],[17.9179,-5.6642],[17.8894,-5.6566],[17.8133,-5.6909],[17.7753,-5.7271],[17.6023,-5.7347],[17.5414,-5.708],[17.5243,-5.5728],[17.4863,-5.4947],[17.4768,-5.4242],[17.4768,-5.2831],[17.5319,-5.1855],[17.5376,-5.1207],[17.5167,-5.0311],[17.5262,-4.9434],[17.5205,-4.8652],[17.5395,-4.8023],[17.6213,-4.6458],[17.684,-4.5581],[17.6878,-4.5161],[17.6745,-4.4779],[17.6973,-4.4378],[17.7525,-4.4131],[17.8,-4.3787],[17.8171,-4.3405],[17.8057,-4.3061],[17.7658,-4.3138],[17.665,-4.3539],[17.6384,-4.3252],[17.6194,-4.2699],[17.5756,-4.2565],[17.511,-4.2565],[17.4615,-4.2832],[17.4178,-4.3309],[17.3646,-4.371],[17.2185,-4.4455],[17.171,-4.5371],[17.0797,-4.5352],[17.0341,-4.5256],[16.9942,-4.4932],[16.9467,-4.4016],[16.9048,-4.3844],[16.8192,-4.392],[16.7546,-4.3882],[16.6595,-4.4111],[16.6253,-4.4436],[16.6215,-4.5447],[16.5911,-4.5562],[16.4925,-4.507],[16.5144,-4.4628],[16.5494,-4.3533],[16.5336,-4.3206],[16.5433,-4.2911],[16.6746,-4.1727],[16.7602,-4.1326],[16.7982,-4.104],[16.861,-4.0887],[16.9408,-4.0104],[16.9865,-4.0047],[17.034,-4.0314],[17.131,-4.0372],[17.1728,-4.0009],[17.2158,-3.9333],[17.2291,-3.8588],[17.2899,-3.7404],[17.3185,-3.7041],[17.3261,-3.6544],[17.2766,-3.5168],[17.3394,-3.4385],[17.3603,-3.3392],[17.3508,-3.2111],[17.4402,-3.2207],[17.5048,-3.257],[17.5447,-3.3009],[17.6189,-3.3239],[17.674,-3.3315],[17.7919,-3.3907],[17.8509,-3.4328],[17.9212,-3.429],[17.9669,-3.4061],[18.0315,-3.3965],[18.0829,-3.4041],[18.1551,-3.4385],[18.2198,-3.4137],[18.2787,-3.4252],[18.3262,-3.4844],[18.3814,-3.5226],[18.5335,-3.5952],[18.775,-3.6525],[18.9404,-3.7079],[19.0834,-3.7717],[19.2165,-3.8156],[19.4104,-3.9264],[19.5492,-4.0162],[19.6291,-4.0524],[19.8763,-4.1288],[19.9314,-4.1613],[20.0056,-4.2376],[20.0436,-4.2987]]]},"properties":{"name":"Kwilu","id":"CD-KL","CNTRY":"Democratic Republic of the Congo","TYPE":"Province"},"id":"CD-KL"},
{"type":"Feature","geometry":{"type":"Polygon","coordinates":[[[15.9023,-3.9498],[15.96,-3.9856],[16.1164,-3.9747],[16.2067,-3.9958],[16.3192,-4.0656],[16.3944,-4.0992],[16.4639,-4.2111],[16.5069,-4.2345],[16.5433,-4.2911],[16.5336,-4.3206],[16.5494,-4.3533],[16.5144,-4.4628],[16.4925,-4.507],[16.4294,-4.5194],[16.3206,-4.7139],[16.2581,-4.7947],[16.2761,-4.9119],[16.2773,-5.0028],[16.0025,-5],[15.8922,-4.9086],[15.8828,-4.9939],[15.86,-5.0261],[15.8086,-5.0322],[15.7217,-5.0075],[15.6367,-4.9456],[15.6147,-4.91],[15.6264,-4.8867],[15.6875,-4.8781],[15.7197,-4.8547],[15.7311,-4.7692],[15.7539,-4.7125],[15.7353,-4.6675],[15.6553,-4.6306],[15.6881,-4.572],[15.66,-4.5439],[15.5894,-4.5536],[15.4933,-4.5261],[15.4442,-4.533],[15.4044,-4.5686],[15.4097,-4.6164],[15.3942,-4.6506],[15.3583,-4.6622],[15.3228,-4.6464],[15.2508,-4.5761],[15.15,-4.424],[15.1785,-4.3946],[15.1943,-4.3476],[15.2661,-4.3162],[15.3022,-4.2817],[15.3972,-4.2998],[15.4638,-4.2695],[15.5039,-4.201],[15.5,-4.1492],[15.5144,-4.1066],[15.5615,-4.047],[15.7138,-3.9941],[15.8565,-3.973],[15.9023,-3.9498]]]},"properties":{"name":"Kinshasa City","id":"CD-KN","CNTRY":"Democratic Republic of the Congo","TYPE":"City"},"id":"CD-KN"},
{"type":"Feature","geometry":{"type":"Polygon","coordinates":[[[21.0238,-2.4872],[21.0559,-2.514],[21.211,-2.5176],[21.4142,-2.4746],[21.4124,-2.3258],[21.4356,-2.3222],[21.7297,-2.4961],[21.7996,-2.532],[21.8403,-2.5319],[21.8777,-2.5749],[21.9865,-2.6484],[22.0043,-2.6911],[22.1148,-2.8578],[22.1701,-2.9062],[22.1986,-2.9456],[22.1826,-2.985],[22.1398,-3.0263],[22.1077,-3.0782],[22.1006,-3.1732],[22.072,-3.2395],[22.0364,-3.2825],[21.9883,-3.4043],[21.9312,-3.5082],[21.9348,-3.5745],[21.9686,-3.6067],[22.0649,-3.5834],[22.1095,-3.5888],[22.1433,-3.6264],[22.1558,-3.6945],[22.1344,-3.8281],[22.1023,-3.8675],[21.9847,-3.9516],[21.9936,-3.9803],[22.0756,-4.0053],[22.1166,-4.0286],[22.1737,-4.0393],[22.2218,-4.0196],[22.2735,-4.0178],[22.3163,-4.0357],[22.3555,-4.0733],[22.3804,-4.1199],[22.5355,-4.2219],[22.5409,-4.3471],[22.523,-4.4366],[22.4589,-4.535],[22.4303,-4.594],[22.3947,-4.6441],[22.3073,-4.6495],[22.2735,-4.662],[22.2414,-4.7049],[22.2182,-4.764],[22.1576,-4.8569],[22.0988,-4.8838],[22.0755,-4.9161],[22.123,-4.9542],[22.1287,-5.0363],[22.0793,-5.1182],[22.0413,-5.1316],[22.0051,-5.103],[21.9006,-5.0897],[21.8758,-5.0534],[21.8454,-5.0572],[21.8074,-5.0992],[21.7465,-5.0782],[21.7047,-5.082],[21.6781,-5.1144],[21.6496,-5.2574],[21.6306,-5.2956],[21.68,-5.4213],[21.7085,-5.4594],[21.7693,-5.4823],[21.8454,-5.4499],[21.8758,-5.4594],[21.8854,-5.4975],[21.9576,-5.5852],[21.9652,-5.6557],[21.9595,-5.7261],[21.9367,-5.7775],[21.8701,-5.8727],[21.8359,-5.8918],[21.7979,-5.8804],[21.7541,-5.8099],[21.7218,-5.7985],[21.6058,-5.9794],[21.5887,-6.0555],[21.5792,-6.1621],[21.6096,-6.2911],[21.623,-6.4071],[21.6077,-6.4775],[21.5545,-6.5441],[21.5545,-6.5954],[21.602,-6.5973],[21.6838,-6.6353],[21.7123,-6.6791],[21.699,-6.7209],[21.6629,-6.7323],[21.621,-6.7114],[21.5849,-6.7399],[21.5545,-6.7874],[21.4537,-6.8292],[21.429,-6.8749],[21.4385,-6.8977],[21.526,-6.9623],[21.6743,-7.1123],[21.7806,-7.2839],[20.5417,-7.2814],[20.5362,-7.2193],[20.5516,-7.1127],[20.5753,-7.0696],[20.5895,-7.006],[20.6185,-6.9756],[20.6272,-6.9134],[20.317,-6.913],[20.3017,-6.998],[19.9775,-6.9987],[19.9706,-6.9367],[19.935,-6.8512],[19.7139,-6.5874],[19.6989,-6.3732],[19.6854,-6.1808],[19.8851,-6.0095],[19.9867,-6.0024],[20.033,-5.9453],[20.0615,-5.8632],[20.1186,-5.8596],[20.1222,-5.7882],[20.1806,-5.7514],[20.171,-5.7105],[20.1843,-5.6419],[20.1672,-5.6152],[20.1463,-5.5048],[20.152,-5.4247],[20.1805,-5.2723],[20.1862,-5.1941],[20.1672,-5.0645],[20.095,-4.9005],[20.0569,-4.7231],[20.0569,-4.6544],[20.0702,-4.6067],[20.1216,-4.522],[20.1159,-4.4762],[20.0531,-4.3712],[20.0436,-4.2987],[20.1486,-4.3243],[20.2484,-4.3906],[20.2573,-4.412],[20.3571,-4.4156],[20.3999,-4.3333],[20.432,-4.3136],[20.5211,-4.2993],[20.6013,-4.2384],[20.6406,-4.1937],[20.6602,-4.1418],[20.6637,-4.0075],[20.6424,-3.8267],[20.6388,-3.3869],[20.6513,-3.2561],[20.7261,-2.9998],[20.7814,-2.8833],[20.8545,-2.774],[20.9293,-2.5858],[20.9917,-2.4997],[21.0238,-2.4872]]]},"properties":{"name":"Kasaï","id":"CD-KS","CNTRY":"Democratic Republic of the Congo","TYPE":"Province"},"id":"CD-KS"},
{"type":"Feature","geometry":{"type":"Polygon","coordinates":[[[26.1175,-6.3263],[26.0394,-6.2839],[26.0287,-6.2411],[25.9895,-6.2375],[25.9681,-6.2768],[25.936,-6.2661],[25.8968,-6.1805],[25.8255,-6.1769],[25.7578,-6.2447],[25.6401,-6.3018],[25.4975,-6.3338],[25.3798,-6.316],[25.3371,-6.3303],[25.3121,-6.3588],[25.2907,-6.4658],[25.3121,-6.505],[25.4512,-6.6049],[25.469,-6.6583],[25.4512,-6.7261],[25.4191,-6.7724],[25.3442,-6.8152],[25.2622,-6.7546],[25.2087,-6.7011],[25.0911,-6.6975],[24.9912,-6.7225],[24.92,-6.751],[24.8451,-6.8223],[24.7916,-6.9043],[24.7132,-6.9719],[24.6276,-7.0218],[24.5206,-7.0467],[24.4493,-7.0824],[24.2782,-7.0717],[24.1891,-7.1144],[24.018,-7.3387],[23.9716,-7.4134],[23.9359,-7.4882],[23.9217,-7.5949],[23.9181,-7.6981],[23.9645,-7.819],[23.9359,-7.8758],[23.8397,-7.9256],[23.8076,-7.8794],[23.7506,-7.851],[23.722,-7.8865],[23.7149,-7.9398],[23.665,-7.9914],[23.6056,-7.9618],[23.5699,-7.9588],[23.5283,-7.9854],[23.4748,-7.9943],[23.4154,-7.9795],[23.2401,-7.9706],[23.1985,-7.941],[23.1659,-7.8462],[23.1832,-7.7959],[23.2164,-7.6743],[23.2223,-7.5825],[23.252,-7.4283],[23.255,-7.3304],[23.2342,-7.2562],[23.2223,-7.1643],[23.2312,-7.096],[23.255,-7.007],[23.2847,-6.9654],[23.1926,-6.9215],[23.1629,-6.8769],[23.1094,-6.8888],[23.0737,-6.868],[23.0381,-6.7789],[23.0678,-6.675],[23.0797,-6.5977],[23.1153,-6.5235],[23.1549,-6.5198],[23.1668,-6.5643],[23.1609,-6.6029],[23.1846,-6.6357],[23.2708,-6.6029],[23.3124,-6.5733],[23.3688,-6.5525],[23.4164,-6.5525],[23.4461,-6.5733],[23.4283,-6.6416],[23.5412,-6.7753],[23.5857,-6.7871],[23.6778,-6.7604],[23.7105,-6.7663],[23.7521,-6.7337],[23.7551,-6.6179],[23.7759,-6.5554],[23.7937,-6.4425],[23.8264,-6.4068],[23.8591,-6.4009],[23.966,-6.4366],[24.0195,-6.4247],[24.0849,-6.4247],[24.0849,-6.3772],[24.0106,-6.3028],[24.0076,-6.2552],[24.0403,-6.2315],[24.1086,-6.2285],[24.1472,-6.1869],[24.1651,-6.1363],[24.1413,-6.0828],[24.0106,-6.0412],[24.0017,-5.9073],[24.0096,-5.8396],[24.075,-5.8247],[24.1463,-5.8188],[24.173,-5.786],[24.179,-5.7325],[24.1701,-5.6819],[24.0869,-5.6343],[24.0542,-5.5479],[24.0364,-5.4765],[24.0601,-5.4259],[24.1344,-5.4021],[24.2087,-5.4021],[24.277,-5.4348],[24.3691,-5.4229],[24.4285,-5.3693],[24.4701,-5.411],[24.5087,-5.414],[24.5414,-5.3872],[24.5622,-5.3217],[24.5533,-5.2561],[24.5325,-5.2115],[24.5444,-5.1638],[24.5682,-5.137],[24.5771,-5.0834],[24.7435,-4.9791],[24.8445,-4.9493],[24.8445,-4.8897],[24.8623,-4.8718],[24.9871,-4.8629],[25.0186,-4.9225],[25.0275,-4.9731],[25.0483,-5.0059],[25.2533,-5.0327],[25.4642,-5.0148],[26.2573,-5.0228],[26.2497,-5.0609],[26.1926,-5.1467],[26.1641,-5.2649],[26.1375,-5.3335],[26.1261,-5.4173],[26.1299,-5.4829],[26.1565,-5.5629],[26.1584,-5.6067],[26.1242,-5.6506],[26.1147,-5.702],[26.1337,-5.7572],[26.1812,-5.7915],[26.185,-5.8657],[26.2136,-6.0143],[26.2155,-6.0866],[26.1869,-6.216],[26.1432,-6.2636],[26.1175,-6.3263]]]},"properties":{"name":"Lomami","id":"CD-LO","CNTRY":"Democratic Republic of the Congo","TYPE":"Province"},"id":"CD-LO"},
{"type":"Feature","geometry":{"type":"Polygon","coordinates":[[[23.1832,-7.7959],[23.1659,-7.8462],[23.1985,-7.941],[23.2401,-7.9706],[23.4154,-7.9795],[23.4748,-7.9943],[23.5283,-7.9854],[23.5699,-7.9588],[23.6056,-7.9618],[23.665,-7.9914],[23.6947,-8.0536],[23.7244,-8.1897],[23.6977,-8.385],[23.6799,-8.4442],[23.6769,-8.5696],[23.7066,-8.6731],[23.7066,-8.7588],[23.7601,-8.7854],[23.8403,-8.7854],[23.9413,-8.7973],[24.0334,-8.8445],[24.0928,-8.948],[24.2473,-8.9775],[24.2948,-9.0336],[24.3156,-9.1045],[24.3602,-9.1517],[24.4582,-9.2285],[24.5177,-9.2433],[24.5711,-9.2875],[24.5533,-9.3112],[24.4642,-9.32],[24.3364,-9.2934],[24.2324,-9.3347],[24.1701,-9.3465],[24.1522,-9.3908],[24.1612,-9.4822],[24.1374,-9.5353],[24.1285,-9.5855],[24.1344,-9.6622],[24.1047,-9.7152],[24.0275,-9.8154],[24.0334,-9.8684],[24.0839,-9.9038],[24.1106,-9.9509],[24.0958,-9.9833],[24.1344,-10.0187],[24.1938,-10.0098],[24.274,-10.0187],[24.375,-10.0127],[24.375,-10.054],[24.4137,-10.0893],[24.4701,-9.998],[24.5236,-10.0422],[24.5444,-10.0893],[24.5949,-10.0982],[24.7108,-10.0157],[24.7999,-10.0746],[24.8682,-10.0599],[24.9158,-10.1158],[24.9633,-10.1276],[25.0108,-10.1099],[25.0614,-10.0628],[25.0465,-10.0069],[25.0703,-9.9833],[25.1267,-9.9686],[25.3703,-9.8567],[25.5278,-9.8125],[25.5456,-9.7771],[25.504,-9.6415],[25.4892,-9.5472],[25.5159,-9.5059],[25.5753,-9.497],[25.6437,-9.5088],[25.7328,-9.6002],[25.81,-9.6474],[25.9526,-9.6945],[26.0388,-9.6975],[26.0685,-9.7388],[26.2082,-9.724],[26.2765,-9.6945],[26.3353,-9.6538],[26.3253,-9.7288],[26.2698,-9.8236],[26.2698,-9.8617],[26.2911,-9.8915],[26.3824,-9.8815],[26.5464,-9.9209],[26.602,-9.9435],[26.7774,-9.9732],[26.91,-9.9746],[27.007,-9.9449],[27.0498,-9.9605],[27.0854,-9.9915],[27.0997,-10.0368],[27.0826,-10.0707],[26.997,-10.1908],[26.997,-10.2346],[27.0341,-10.2798],[27.1453,-10.3758],[27.1725,-10.4097],[27.1682,-10.4789],[27.151,-10.5057],[27.0897,-10.5508],[27.0156,-10.5734],[26.9215,-10.5777],[26.873,-10.4916],[26.8245,-10.4704],[26.5806,-10.4648],[26.4694,-10.493],[26.4851,-10.5508],[26.5549,-10.6129],[26.5321,-10.6722],[26.5749,-10.6975],[26.6063,-10.754],[26.5663,-10.8541],[26.5421,-10.8964],[26.4209,-10.9217],[26.3681,-10.9964],[26.3496,-11.0556],[26.3196,-11.0852],[26.2541,-10.9598],[26.237,-10.9076],[26.2013,-10.8921],[26.1599,-10.9034],[26.1072,-10.971],[26.0672,-10.9725],[25.9788,-10.9527],[25.936,-10.9527],[25.9046,-10.9851],[25.8946,-11.0223],[25.802,-11.135],[25.7963,-11.1604],[25.8191,-11.2632],[25.7606,-11.3335],[25.7592,-11.3856],[25.7763,-11.4574],[25.7221,-11.5122],[25.6836,-11.6106],[25.6251,-11.6598],[25.655,-11.7332],[25.5937,-11.7364],[25.5774,-11.7616],[25.4975,-11.7851],[25.4838,-11.7723],[25.4944,-11.7125],[25.4775,-11.6877],[25.4274,-11.6761],[25.3367,-11.627],[25.305,-11.5659],[25.3267,-11.4991],[25.3042,-11.4697],[25.3024,-11.4159],[25.2782,-11.3702],[25.3113,-11.3485],[25.2955,-11.3092],[25.3353,-11.2831],[25.3198,-11.256],[25.3518,-11.1959],[25.3038,-11.1914],[25.2258,-11.2275],[25.1373,-11.2379],[25.0705,-11.2548],[24.9856,-11.2504],[24.8735,-11.2621],[24.8531,-11.293],[24.7382,-11.306],[24.6659,-11.3581],[24.6343,-11.4039],[24.5986,-11.4186],[24.5835,-11.4564],[24.5506,-11.4464],[24.5229,-11.4621],[24.4715,-11.4608],[24.3827,-11.4092],[24.319,-11.4076],[24.2957,-11.3744],[24.3496,-11.3664],[24.3932,-11.286],[24.4009,-11.1946],[24.3867,-11.1757],[24.383,-11.0925],[24.3203,-11.0527],[24.1869,-11.0291],[24.1643,-11.045],[24.131,-11.0238],[24.146,-10.9771],[24.1216,-10.9449],[24.1304,-10.9219],[24.0585,-10.8894],[23.9796,-10.8968],[23.9446,-10.955],[23.8896,-10.9882],[23.8723,-11.0174],[23.8155,-11.0279],[23.7455,-10.9923],[23.6721,-11.0082],[23.6291,-10.9906],[23.5853,-10.9932],[23.5056,-10.9463],[23.4355,-10.9382],[23.289,-11.031],[23.2032,-11.1022],[23.1522,-11.0933],[23.084,-11.1239],[23.0143,-11.1001],[22.9586,-11.0983],[22.8673,-11.0619],[22.8108,-11.0832],[22.7934,-11.1114],[22.7233,-11.11],[22.6536,-11.0827],[22.5854,-11.036],[22.5101,-11.0424],[22.489,-11.0684],[22.4949,-11.1205],[22.437,-11.1748],[22.3513,-11.1765],[22.2901,-11.251],[22.259,-11.2271],[22.2637,-11.166],[22.2209,-11.1044],[22.22,-11.0354],[22.2061,-10.9451],[22.182,-10.9074],[22.1808,-10.852],[22.2316,-10.8126],[22.3016,-10.7922],[22.3339,-10.7577],[22.3141,-10.6762],[22.3165,-10.5437],[22.2777,-10.5163],[22.3228,-10.4203],[22.328,-10.3851],[22.3068,-10.3277],[22.2821,-10.3018],[22.2802,-10.2608],[22.2362,-10.2094],[22.2227,-10.1587],[22.225,-10.0709],[22.1982,-9.9989],[22.1914,-9.9269],[22.1302,-9.8942],[22.0731,-9.8775],[22.0446,-9.8365],[22.0124,-9.8158],[21.9398,-9.7126],[21.9342,-9.6868],[21.8759,-9.6532],[21.8682,-9.5657],[21.8299,-9.4973],[21.8348,-9.465],[21.7929,-9.4204],[21.8152,-9.3374],[21.8605,-9.2411],[21.8609,-9.1722],[21.8428,-9.0812],[21.8662,-8.9268],[21.8684,-8.8682],[21.9045,-8.7665],[21.9226,-8.6],[21.9597,-8.497],[21.9193,-8.3565],[21.9362,-8.3245],[21.8961,-8.2911],[21.8779,-8.1972],[21.8139,-8.0561],[21.788,-8.0311],[21.7455,-7.928],[21.7707,-7.8936],[21.768,-7.7774],[21.8041,-7.7039],[21.8571,-7.6964],[21.9522,-7.729],[22.0294,-7.7082],[22.0799,-7.7882],[22.1066,-7.8505],[22.1512,-7.8949],[22.2196,-7.9038],[22.3503,-7.8682],[22.3919,-7.8475],[22.4959,-7.8534],[22.5345,-7.8238],[22.5523,-7.7823],[22.6147,-7.7734],[22.6563,-7.8149],[22.6622,-7.9038],[22.7394,-7.8534],[22.7959,-7.8416],[22.8969,-7.8949],[22.9712,-7.9068],[23.0395,-7.8949],[23.1495,-7.8001],[23.1832,-7.7959]]]},"properties":{"name":"Lualaba","id":"CD-LU","CNTRY":"Democratic Republic of the Congo","TYPE":"Province"},"id":"CD-LU"},
{"type":"Feature","geometry":{"type":"Polygon","coordinates":[[[24.9871,-4.8629],[24.9724,-4.826],[24.8869,-4.7259],[24.8566,-4.6364],[24.9065,-4.5899],[24.9742,-4.4987],[24.9956,-4.4397],[24.9974,-4.3717],[25.0206,-4.2339],[24.9778,-4.1021],[24.9368,-4.0395],[24.7461,-3.7906],[24.7621,-3.7351],[24.7942,-3.6832],[24.7817,-3.556],[24.8102,-3.4647],[24.878,-3.4217],[24.9208,-3.3536],[24.9796,-3.2838],[25.0224,-3.1834],[25.0188,-3.1225],[25.0285,-3.0242],[25.0484,-2.9411],[25.0912,-2.8693],[25.1111,-2.8077],[25.1126,-2.746],[25.0912,-2.6413],[25.007,-2.5539],[25.032,-2.5245],[25.0266,-2.433],[24.9678,-2.3882],[24.8858,-2.3828],[24.7896,-2.3918],[24.7272,-2.3739],[24.6826,-2.3219],[24.6897,-2.2358],[24.6808,-2.1823],[24.6398,-2.0873],[24.6113,-2.0496],[24.6019,-2.002],[24.6038,-2.002],[24.9485,-1.99],[25.0683,-1.9949],[25.1296,-1.982],[25.1796,-1.9963],[25.2081,-2.0322],[25.2045,-2.068],[25.3097,-2.0917],[25.397,-2.0895],[25.5004,-1.9676],[25.5646,-1.9461],[25.6731,-1.8764],[25.7003,-1.88],[25.7544,-1.8561],[25.8128,-1.86],[25.8381,-1.8136],[25.8422,-1.7103],[25.8608,-1.6319],[25.8497,-1.5142],[25.858,-1.3902],[25.9333,-1.4847],[25.9986,-1.4917],[26.0369,-1.4361],[26.0231,-1.3903],[26.0697,-1.3675],[26.0767,-1.3225],[26.0527,-1.2516],[26.106,-1.131],[26.0699,-1.0468],[26.0699,-1.0028],[26.1022,-0.9683],[26.1617,-0.9525],[26.2486,-0.8956],[26.2524,-0.8439],[26.2315,-0.7807],[26.2353,-0.6429],[26.2676,-0.5396],[26.26,-0.4975],[26.1877,-0.4439],[26.1421,-0.4228],[26.1231,-0.3826],[26.1535,-0.329],[26.1573,-0.2812],[26.0527,-0.1682],[26.0242,-0.0476],[26.0508,-0.0093],[26.1003,-0.0074],[26.1668,-0.0457],[26.3103,-0.1925],[26.3342,-0.25],[26.385,-0.2878],[26.4214,-0.2994],[26.4369,-0.3453],[26.4658,-0.3714],[26.5681,-0.3658],[26.6372,-0.3117],[26.7147,-0.3008],[26.7817,-0.2533],[26.8283,-0.2597],[26.8408,-0.2],[26.8853,-0.2308],[26.9092,-0.2256],[26.9475,-0.257],[26.9969,-0.2617],[27.0656,-0.3172],[27.0722,-0.3556],[27.1133,-0.3822],[27.1319,-0.4125],[27.1792,-0.433],[27.2867,-0.4447],[27.3394,-0.4681],[27.3586,-0.4961],[27.4103,-0.5028],[27.4744,-0.4789],[27.4901,-0.5299],[27.6631,-0.5892],[27.7297,-0.6045],[27.7759,-0.594],[27.8321,-0.6078],[27.7997,-0.7709],[27.7694,-0.866],[27.7427,-0.9037],[27.6945,-0.936],[27.5929,-0.9396],[27.5306,-0.9217],[27.4628,-0.9199],[27.3273,-0.9611],[27.2899,-0.9952],[27.2738,-1.058],[27.2917,-1.128],[27.322,-1.1675],[27.3095,-1.2034],[27.2507,-1.2177],[27.2596,-1.2572],[27.363,-1.3272],[27.3666,-1.4025],[27.3844,-1.4438],[27.4949,-1.5284],[27.5323,-1.593],[27.5751,-1.6468],[27.6304,-1.6863],[27.682,-1.7491],[27.7337,-1.7904],[27.7498,-1.8406],[27.748,-2.0056],[27.5893,-2.0128],[27.4753,-1.9877],[27.404,-1.9859],[27.3968,-2.0343],[27.4485,-2.0451],[27.4646,-2.115],[27.404,-2.1634],[27.363,-2.1849],[27.2899,-2.2531],[27.2578,-2.2728],[27.0867,-2.219],[27.026,-2.1598],[26.9512,-2.1455],[26.9048,-2.1562],[26.8781,-2.1795],[26.8603,-2.3104],[26.8193,-2.3696],[26.8175,-2.4306],[26.8407,-2.465],[26.8674,-2.5349],[26.8852,-2.6299],[26.9262,-2.6909],[26.9316,-2.7465],[26.9234,-2.7931],[26.9555,-2.854],[26.9787,-2.9257],[27.0517,-2.9651],[27.0999,-3.096],[27.1159,-3.1748],[27.1141,-3.2268],[27.1409,-3.2895],[27.09,-3.3387],[27.1018,-3.4134],[27.1286,-3.4731],[27.087,-3.7447],[27.1107,-3.8402],[27.1761,-3.8999],[27.3425,-3.9477],[27.399,-3.9805],[27.4643,-4.0044],[27.5237,-4.0074],[27.601,-4.0312],[27.7465,-4.0223],[27.8119,-4.0372],[27.8238,-4.0819],[27.8565,-4.1237],[28.005,-4.1416],[28.0198,-4.1983],[28.1506,-4.243],[28.1952,-4.1416],[28.2397,-4.1475],[28.2665,-4.2132],[28.3645,-4.2908],[28.4002,-4.3444],[28.4923,-4.4279],[28.5339,-4.4756],[28.5487,-4.5561],[28.5933,-4.6426],[28.7329,-4.8721],[28.7686,-4.9734],[28.802,-5.032],[26.2573,-5.0228],[25.4642,-5.0148],[25.2533,-5.0327],[25.0483,-5.0059],[25.0275,-4.9731],[25.0186,-4.9225],[24.9871,-4.8629]]]},"properties":{"name":"Maniema","id":"CD-MA","CNTRY":"Democratic Republic of the Congo","TYPE":"Province"},"id":"CD-MA"},
{"type":"Feature","geometry":{"type":"Polygon","coordinates":[[[21.0238,-2.4872],[20.9917,-2.4997],[20.9293,-2.5858],[20.8545,-2.774],[20.7814,-2.8833],[20.7261,-2.9998],[20.6513,-3.2561],[20.6388,-3.3869],[20.6424,-3.8267],[20.6637,-4.0075],[20.6602,-4.1418],[20.6406,-4.1937],[20.6013,-4.2384],[20.5211,-4.2993],[20.432,-4.3136],[20.3999,-4.3333],[20.3571,-4.4156],[20.2573,-4.412],[20.2484,-4.3906],[20.1486,-4.3243],[20.0436,-4.2987],[20.0056,-4.2376],[19.9314,-4.1613],[19.8763,-4.1288],[19.6291,-4.0524],[19.5492,-4.0162],[19.4104,-3.9264],[19.2165,-3.8156],[19.0834,-3.7717],[18.9404,-3.7079],[18.775,-3.6525],[18.5335,-3.5952],[18.3814,-3.5226],[18.3262,-3.4844],[18.2787,-3.4252],[18.2198,-3.4137],[18.1551,-3.4385],[18.0829,-3.4041],[18.0315,-3.3965],[17.9669,-3.4061],[17.9212,-3.429],[17.8509,-3.4328],[17.7919,-3.3907],[17.674,-3.3315],[17.6189,-3.3239],[17.5447,-3.3009],[17.5048,-3.257],[17.4402,-3.2207],[17.3508,-3.2111],[17.3603,-3.3392],[17.3394,-3.4385],[17.2766,-3.5168],[17.3261,-3.6544],[17.3185,-3.7041],[17.2899,-3.7404],[17.2291,-3.8588],[17.2158,-3.9333],[17.1728,-4.0009],[17.131,-4.0372],[17.034,-4.0314],[16.9865,-4.0047],[16.9408,-4.0104],[16.861,-4.0887],[16.7982,-4.104],[16.7602,-4.1326],[16.6746,-4.1727],[16.5433,-4.2911],[16.5069,-4.2345],[16.4639,-4.2111],[16.3944,-4.0992],[16.3192,-4.0656],[16.2067,-3.9958],[16.1164,-3.9747],[15.96,-3.9856],[15.9023,-3.9498],[15.92,-3.9273],[15.9437,-3.8411],[16.001,-3.7386],[16.0581,-3.6089],[16.1129,-3.5363],[16.1324,-3.4768],[16.1871,-3.3955],[16.2224,-3.2963],[16.1841,-3.2505],[16.1927,-3.1989],[16.1783,-3.1021],[16.1954,-3.016],[16.1792,-2.9277],[16.1802,-2.875],[16.2044,-2.7929],[16.2067,-2.7264],[16.2329,-2.6687],[16.2374,-2.6248],[16.1843,-2.3829],[16.1915,-2.225],[16.242,-2.1226],[16.3592,-2.0383],[16.4368,-1.9564],[16.5328,-1.8329],[16.5825,-1.9571],[16.6075,-1.9983],[16.6699,-2.0288],[16.7536,-2.0306],[16.9177,-2.0055],[16.9373,-1.975],[16.9426,-1.9122],[16.9248,-1.8692],[16.7982,-1.8225],[16.7965,-1.7938],[16.8374,-1.7741],[16.9604,-1.7813],[17.0282,-1.7974],[17.0906,-1.7974],[17.1637,-1.7651],[17.2385,-1.6973],[17.456,-1.5269],[17.6129,-1.4534],[17.7052,-1.4336],[17.9173,-1.3565],[18.0118,-1.3027],[18.1259,-1.1843],[18.1419,-1.1322],[18.1705,-1.0981],[18.215,-1.0766],[18.2703,-1.0874],[18.3487,-1.134],[18.4022,-1.1789],[18.5198,-1.2542],[18.5858,-1.2596],[18.6322,-1.247],[18.7623,-1.2435],[18.7659,-1.2076],[18.732,-1.1717],[18.7427,-1.134],[18.7766,-1.134],[18.8104,-1.1609],[18.8728,-1.1825],[18.8739,-1.1376],[18.8489,-1.0802],[18.7901,-1.0264],[18.742,-0.942],[18.7651,-0.8595],[18.8168,-0.8218],[18.9345,-0.8146],[18.9933,-0.8218],[19.0985,-0.75],[19.1573,-0.8182],[19.1894,-0.8792],[19.209,-0.9725],[19.2108,-1.0335],[19.2857,-1.0766],[19.3142,-1.1161],[19.3445,-1.1825],[19.3659,-1.2757],[19.3962,-1.3475],[19.4318,-1.4067],[19.4807,-1.5363],[19.5145,-1.7156],[19.5163,-1.7946],[19.5627,-1.8179],[19.6019,-1.7946],[19.6768,-1.7156],[19.7017,-1.6385],[19.7249,-1.5972],[19.7552,-1.5847],[19.8479,-1.6887],[19.9067,-1.8627],[19.9673,-1.8986],[20.1153,-1.9201],[20.2418,-2.017],[20.4094,-2.1192],[20.4718,-2.0977],[20.5502,-2.0421],[20.5966,-2.0295],[20.6465,-1.9936],[20.6982,-1.9936],[20.8194,-2.1533],[20.905,-2.2376],[21.028,-2.4276],[21.0238,-2.4872]]]},"properties":{"name":"Mai-Ndombe","id":"CD-MN","CNTRY":"Democratic Republic of the Congo","TYPE":"Province"},"id":"CD-MN"},
{"type":"Feature","geometry":{"type":"Polygon","coordinates":[[[22.3501,1.7727],[22.0555,1.7763],[21.9515,1.7524],[21.895,1.7225],[21.8594,1.6477],[21.8623,1.5371],[21.8861,1.3218],[21.9099,1.2919],[21.9247,1.1992],[21.9455,1.1544],[21.9871,1.1185],[22.0406,1.0945],[22.0792,1.0557],[22.1179,0.969],[22.0822,0.9391],[22.0168,0.963],[21.9218,0.9361],[21.8921,0.8972],[21.8416,0.8703],[21.791,0.8673],[21.7554,0.8972],[21.7138,0.9121],[21.6692,0.8762],[21.6544,0.756],[21.6009,0.7321],[21.5028,0.759],[21.3602,0.8338],[21.2741,0.8607],[21.176,0.9175],[21.0839,0.9265],[21.0364,0.9444],[20.9978,0.9983],[21.0275,1.1179],[21.0245,1.1567],[20.9978,1.1986],[20.9503,1.2046],[20.8819,1.1747],[20.8106,1.1926],[20.6918,1.201],[20.7042,1.2333],[20.6953,1.3051],[20.6632,1.3535],[20.6454,1.4038],[20.6454,1.4791],[20.6936,1.633],[20.6953,1.703],[20.6793,1.7192],[20.6329,1.7012],[20.4779,1.6797],[20.4066,1.6976],[20.2818,1.7496],[20.198,1.7748],[20.1071,1.764],[20.0019,1.7335],[19.9145,1.6904],[19.8361,1.6618],[19.6828,1.6187],[19.5352,1.5344],[19.4318,1.4572],[19.2072,1.3639],[19.1983,1.5738],[19.849,1.9218],[19.906,2.0169],[19.9577,2.0671],[19.9666,2.1281],[19.9898,2.1729],[20.0276,2.212],[20.0721,2.2819],[20.1203,2.3358],[20.1256,2.3644],[20.2379,2.4254],[20.3841,2.4541],[20.4376,2.4541],[20.5017,2.4236],[20.7567,2.4469],[20.8101,2.472],[20.8832,2.5527],[20.9028,2.6065],[20.885,2.6961],[20.8137,2.7929],[20.7816,2.8574],[20.7299,2.9184],[20.7335,3.2105],[20.7852,3.2747],[20.8952,3.1553],[20.9635,3.1224],[21.0259,3.1045],[21.0675,3.0507],[21.118,2.9522],[21.1596,2.9313],[21.1566,2.9999],[21.1744,3.1911],[21.4448,3.0059],[21.525,2.9701],[21.6528,2.9462],[21.7449,2.9432],[21.8904,2.9193],[21.9891,2.9253],[22.0901,2.9611],[22.1822,2.9761],[22.2921,3.0149],[22.3842,3.0268],[22.4436,3.0149],[22.5001,2.991],[22.5179,3.0239],[22.5179,3.0776],[22.5446,3.1194],[22.5627,3.1807],[22.741,3.1473],[22.7743,3.0947],[22.7885,3.0493],[22.8336,3.0278],[22.8669,3.0446],[22.9073,3.0876],[23,3.0828],[23.0452,3.0446],[23.0428,3.0039],[22.9739,2.8969],[22.9644,2.8563],[22.9264,2.8156],[22.8883,2.7965],[22.8978,2.7248],[22.9383,2.6579],[23.0143,2.6053],[23.0928,2.5623],[23.164,2.5479],[23.2686,2.4929],[23.3304,2.5025],[23.3542,2.5647],[23.3827,2.5766],[23.4421,2.5169],[23.4968,2.5073],[23.5491,2.4595],[23.5752,2.3973],[23.5752,2.2587],[23.5919,2.2085],[23.5443,2.1941],[23.4754,2.2061],[23.3684,2.2874],[23.3304,2.2778],[23.3043,2.2467],[23.2971,2.2013],[23.328,2.1702],[23.3185,2.1104],[23.2876,2.0913],[23.2282,2.0913],[23.1498,2.1272],[23.1165,2.1774],[23.0594,2.2061],[23.0072,2.2037],[22.943,2.1272],[22.8669,2.0626],[22.7719,2.0435],[22.7338,2.0841],[22.6982,2.0937],[22.615,2.1487],[22.5247,2.1965],[22.4486,2.2013],[22.3797,2.1869],[22.3797,2.1272],[22.4011,2.0793],[22.4415,2.0339],[22.4795,1.9717],[22.4748,1.9191],[22.4534,1.8689],[22.3501,1.7727]]]},"properties":{"name":"Mongala","id":"CD-MO","CNTRY":"Democratic Republic of the Congo","TYPE":"Province"},"id":"CD-MO"},
{"type":"Feature","geometry":{"type":"Polygon","coordinates":[[[29.2875,-1.6177],[29.2424,-1.6134],[29.1212,-1.6295],[29.0606,-1.6618],[28.9875,-1.73],[28.9091,-1.7425],[28.8556,-1.7318],[28.8235,-1.7605],[28.7665,-1.7874],[28.6684,-1.8789],[28.6292,-1.904],[28.5615,-1.9147],[28.5169,-1.8986],[28.4367,-1.8986],[28.3868,-1.938],[28.3476,-2.0098],[28.2032,-2.0152],[28.1693,-2.0528],[28.1318,-2.069],[28.0802,-2.008],[28.0089,-2.0026],[27.9233,-2.017],[27.868,-2.0349],[27.7718,-2.0313],[27.748,-2.0056],[27.7498,-1.8406],[27.7337,-1.7904],[27.682,-1.7491],[27.6304,-1.6863],[27.5751,-1.6468],[27.5323,-1.593],[27.4949,-1.5284],[27.3844,-1.4438],[27.3666,-1.4025],[27.363,-1.3272],[27.2596,-1.2572],[27.2507,-1.2177],[27.3095,-1.2034],[27.322,-1.1675],[27.2917,-1.128],[27.2738,-1.058],[27.2899,-0.9952],[27.3273,-0.9611],[27.4628,-0.9199],[27.5306,-0.9217],[27.5929,-0.9396],[27.6945,-0.936],[27.7427,-0.9037],[27.7694,-0.866],[27.7997,-0.7709],[27.8321,-0.6078],[27.8872,-0.6078],[27.9576,-0.5715],[27.9785,-0.5313],[27.9804,-0.493],[27.9595,-0.449],[27.9537,-0.3858],[27.9842,-0.3552],[28.0964,-0.3035],[28.1344,-0.2633],[28.1458,-0.2173],[28.1111,-0.13],[28.0886,0.0194],[28.1044,0.1092],[28.1344,0.1269],[28.1433,0.1583],[28.1186,0.1892],[28.1214,0.2214],[28.0686,0.2578],[28.0517,0.3161],[28.055,0.3694],[28.0447,0.4264],[28.0194,0.4619],[27.9042,0.4839],[27.8775,0.4806],[27.8256,0.5014],[27.8375,0.5511],[27.9117,0.5779],[28.0219,0.6382],[28.1712,0.6889],[28.2939,0.7004],[28.3784,0.6736],[28.4393,0.6238],[28.4669,0.5874],[28.553,0.5166],[28.5939,0.5243],[28.6737,0.5654],[28.7346,0.5711],[28.8468,0.5616],[28.9561,0.5731],[29.0112,0.5711],[29.0588,0.597],[29.1231,0.6515],[29.1601,0.6582],[29.2685,0.6066],[29.3069,0.66],[29.3371,0.684],[29.4084,0.8102],[29.4759,0.8552],[29.5301,0.8485],[29.5742,0.8586],[29.5853,0.8814],[29.6769,0.8861],[29.7354,0.8647],[29.7972,0.9174],[29.8552,0.9241],[29.8847,0.8475],[29.9113,0.8131],[29.9695,0.8158],[29.9616,0.7818],[29.9752,0.7458],[29.9544,0.644],[29.9719,0.6012],[29.9787,0.5197],[29.8719,0.3879],[29.8229,0.1748],[29.7687,0.1662],[29.7348,0.1271],[29.7165,0.0763],[29.7295,-0.0908],[29.6507,-0.4605],[29.6703,-0.4718],[29.6663,-0.5412],[29.6825,-0.5606],[29.6251,-0.7028],[29.6249,-0.7899],[29.6394,-0.8271],[29.6254,-0.8593],[29.6367,-0.8972],[29.5807,-0.9023],[29.5818,-1.0173],[29.589,-1.0503],[29.5715,-1.1836],[29.6067,-1.2191],[29.5915,-1.2678],[29.6056,-1.3144],[29.5889,-1.3858],[29.5194,-1.4199],[29.4543,-1.5016],[29.3834,-1.5024],[29.3616,-1.5146],[29.3124,-1.5944],[29.2875,-1.6177]]]},"properties":{"name":"Nord-Kivu","id":"CD-NK","CNTRY":"Democratic Republic of the Congo","TYPE":"Province"},"id":"CD-NK"},
{"type":"Feature","geometry":{"type":"Polygon","coordinates":[[[22.483,4.1543],[22.5286,4.1411],[22.7035,4.1201],[22.7605,4.0475],[22.8176,4.0151],[22.7853,3.9368],[22.7986,3.8718],[22.8689,3.8584],[23.0172,3.8642],[23.0895,3.8852],[23.1446,3.889],[23.2758,3.8604],[23.3766,3.826],[23.4222,3.8546],[23.5192,3.8355],[23.5268,3.7916],[23.504,3.7572],[23.4127,3.7133],[23.3671,3.7209],[23.3177,3.761],[23.2378,3.7935],[23.1789,3.7534],[23.1351,3.698],[23.0534,3.6197],[22.9659,3.5872],[22.8917,3.57],[22.7396,3.4936],[22.675,3.4477],[22.6408,3.4057],[22.6293,3.3694],[22.6274,3.2815],[22.5627,3.1807],[22.5446,3.1194],[22.5179,3.0776],[22.5179,3.0239],[22.5001,2.991],[22.4436,3.0149],[22.3842,3.0268],[22.2921,3.0149],[22.1822,2.9761],[22.0901,2.9611],[21.9891,2.9253],[21.8904,2.9193],[21.7449,2.9432],[21.6528,2.9462],[21.525,2.9701],[21.4448,3.0059],[21.1744,3.1911],[21.1566,2.9999],[21.1596,2.9313],[21.118,2.9522],[21.0675,3.0507],[21.0259,3.1045],[20.9635,3.1224],[20.8952,3.1553],[20.7852,3.2747],[20.7335,3.2105],[20.6183,3.1055],[20.5271,2.9869],[20.432,2.8818],[20.3864,2.855],[20.3046,2.8761],[20.2095,2.9793],[20.1829,3.0787],[20.2057,3.1379],[20.2437,3.1896],[20.278,3.2641],[20.2742,3.3291],[20.2399,3.3807],[20.219,3.5068],[20.1354,3.608],[20.1335,3.6768],[20.1487,3.7341],[20.2057,3.8105],[20.1677,3.8544],[20.0783,3.8712],[19.9966,3.9075],[19.9452,3.94],[19.9129,3.9801],[19.9129,4.0508],[19.8996,4.0947],[19.8368,4.1176],[19.6676,4.087],[19.5801,4.0908],[19.4813,4.0527],[19.4566,3.9935],[19.3919,3.9916],[19.2816,4.0584],[19.2835,4.1023],[19.4489,4.4287],[19.4756,4.5203],[19.5136,4.5814],[19.5155,4.6329],[19.4699,4.6749],[19.4356,4.6863],[19.3406,4.6806],[19.1949,4.7321],[19.136,4.7817],[19.0884,4.7989],[19.0303,4.8024],[19.0594,4.8439],[19.0765,4.8949],[19.1361,4.9406],[19.2025,4.9422],[19.2413,5.0069],[19.3589,5.073],[19.4034,5.1211],[19.4299,5.13],[19.5075,5.1252],[19.5549,5.1457],[19.6021,5.1315],[19.6964,5.133],[19.7756,5.1019],[19.8252,5.0934],[19.8483,5.0742],[19.8738,5.0171],[19.9151,4.9796],[19.9718,4.979],[20.024,4.9659],[20.0922,4.9064],[20.1568,4.8759],[20.1963,4.8273],[20.2808,4.7752],[20.3431,4.7511],[20.3845,4.6945],[20.4534,4.6274],[20.4613,4.5991],[20.4503,4.545],[20.462,4.5029],[20.5087,4.4762],[20.5329,4.4425],[20.6062,4.4034],[20.7282,4.421],[20.7945,4.414],[20.8655,4.4458],[20.9697,4.4281],[21.0244,4.4021],[21.0753,4.3924],[21.1189,4.3361],[21.2113,4.287],[21.2505,4.3293],[21.2822,4.3379],[21.3344,4.2939],[21.4278,4.2607],[21.4686,4.2689],[21.5648,4.2473],[21.6506,4.3091],[21.6768,4.2956],[21.7345,4.3039],[21.7718,4.2701],[21.8046,4.27],[21.8593,4.24],[21.9595,4.2238],[22.0067,4.2389],[22.0313,4.2217],[22.0953,4.2117],[22.1638,4.1541],[22.2664,4.1144],[22.3402,4.1136],[22.4452,4.1245],[22.483,4.1543]]]},"properties":{"name":"Nord-Ubangi","id":"CD-NU","CNTRY":"Democratic Republic of the Congo","TYPE":"Province"},"id":"CD-NU"},
{"type":"Feature","geometry":{"type":"Polygon","coordinates":[[[24.4116,-1.7145],[24.466,-1.7553],[24.4998,-1.8585],[24.5719,-1.9462],[24.6019,-2.002],[24.6113,-2.0496],[24.6398,-2.0873],[24.6808,-2.1823],[24.6897,-2.2358],[24.6826,-2.3219],[24.7272,-2.3739],[24.7896,-2.3918],[24.8858,-2.3828],[24.9678,-2.3882],[25.0266,-2.433],[25.032,-2.5245],[25.007,-2.5539],[25.0912,-2.6413],[25.1126,-2.746],[25.1111,-2.8077],[25.0912,-2.8693],[25.0484,-2.9411],[25.0285,-3.0242],[25.0188,-3.1225],[25.0224,-3.1834],[24.9796,-3.2838],[24.9208,-3.3536],[24.878,-3.4217],[24.8102,-3.4647],[24.7817,-3.556],[24.7942,-3.6832],[24.7621,-3.7351],[24.7461,-3.7906],[24.9368,-4.0395],[24.9778,-4.1021],[25.0206,-4.2339],[24.9974,-4.3717],[24.9956,-4.4397],[24.9742,-4.4987],[24.9065,-4.5899],[24.8566,-4.6364],[24.8869,-4.7259],[24.9724,-4.826],[24.9871,-4.8629],[24.8623,-4.8718],[24.8445,-4.8897],[24.8445,-4.9493],[24.7435,-4.9791],[24.5771,-5.0834],[24.5682,-5.137],[24.5444,-5.1638],[24.5325,-5.2115],[24.5533,-5.2561],[24.5622,-5.3217],[24.5414,-5.3872],[24.5087,-5.414],[24.4701,-5.411],[24.4285,-5.3693],[24.3691,-5.4229],[24.277,-5.4348],[24.2087,-5.4021],[24.1344,-5.4021],[24.0601,-5.4259],[24.0364,-5.4765],[24.0542,-5.5479],[24.0869,-5.6343],[24.1701,-5.6819],[24.179,-5.7325],[24.173,-5.786],[24.1463,-5.8188],[24.075,-5.8247],[24.0096,-5.8396],[23.9383,-5.8128],[23.8581,-5.8158],[23.8076,-5.786],[23.7482,-5.7712],[23.7095,-5.795],[23.6026,-5.7622],[23.7166,-5.5906],[23.7451,-5.5168],[23.719,-5.4191],[23.6857,-5.3691],[23.6382,-5.3548],[23.4979,-5.35],[23.4029,-5.2833],[23.3482,-5.2809],[23.2721,-5.2952],[23.2246,-5.3214],[23.1676,-5.319],[23.1367,-5.2881],[23.1106,-5.238],[23.0274,-5.138],[22.9584,-5.0903],[22.9204,-5.045],[22.9133,-5.014],[22.9513,-4.9878],[22.9632,-4.9568],[22.956,-4.9139],[23.1129,-4.8448],[23.1771,-4.8066],[23.1723,-4.7327],[23.1034,-4.5634],[23.0725,-4.5419],[23.0107,-4.5347],[22.9418,-4.5443],[22.8847,-4.5419],[22.7754,-4.425],[22.7231,-4.3511],[22.6708,-4.3034],[22.5355,-4.2219],[22.3804,-4.1199],[22.3555,-4.0733],[22.3163,-4.0357],[22.2735,-4.0178],[22.2218,-4.0196],[22.1737,-4.0393],[22.1166,-4.0286],[22.0756,-4.0053],[21.9936,-3.9803],[21.9847,-3.9516],[22.1023,-3.8675],[22.1344,-3.8281],[22.1558,-3.6945],[22.1433,-3.6264],[22.1095,-3.5888],[22.0649,-3.5834],[21.9686,-3.6067],[21.9348,-3.5745],[21.9312,-3.5082],[21.9883,-3.4043],[22.0364,-3.2825],[22.072,-3.2395],[22.1006,-3.1732],[22.1077,-3.0782],[22.1398,-3.0263],[22.1826,-2.985],[22.1986,-2.9456],[22.1701,-2.9062],[22.1148,-2.8578],[22.0043,-2.6911],[21.9865,-2.6484],[21.8777,-2.5749],[21.8403,-2.5319],[21.9,-2.4963],[21.9989,-2.3643],[22.0712,-2.3165],[22.0959,-2.349],[22.1168,-2.4121],[22.1643,-2.4638],[22.2062,-2.458],[22.2252,-2.4179],[22.2157,-2.3012],[22.151,-2.0544],[22.1453,-1.9243],[22.1643,-1.8612],[22.191,-1.8249],[22.2575,-1.8325],[22.3279,-1.8555],[22.3773,-1.8937],[22.4514,-1.9148],[22.499,-1.9033],[22.5351,-1.8708],[22.5674,-1.7732],[22.5922,-1.7636],[22.6169,-1.8019],[22.7158,-1.8363],[22.7576,-1.8708],[22.9135,-1.8899],[23.0828,-1.9263],[23.1455,-1.9549],[23.2386,-2.0564],[23.2862,-2.0774],[23.3737,-2.0238],[23.4878,-2.0334],[23.5395,-2.02],[23.5794,-1.9722],[23.5832,-1.8669],[23.5756,-1.8267],[23.5984,-1.8038],[23.6631,-1.8267],[23.7201,-1.8076],[23.7562,-1.7751],[23.8057,-1.756],[23.9217,-1.7445],[23.9711,-1.7158],[24.0281,-1.712],[24.1498,-1.7311],[24.3761,-1.7311],[24.4116,-1.7145]]]},"properties":{"name":"Sankuru","id":"CD-SA","CNTRY":"Democratic Republic of the Congo","TYPE":"Province"},"id":"CD-SA"},
{"type":"Feature","geometry":{"type":"Polygon","coordinates":[[[29.2875,-1.6177],[29.2654,-1.6383],[29.2445,-1.7042],[29.2019,-1.7509],[29.1398,-1.8483],[29.1297,-1.925],[29.1763,-2.0958],[29.1686,-2.148],[29.0878,-2.2802],[29.0094,-2.2907],[28.9592,-2.3747],[28.8926,-2.3813],[28.8705,-2.4191],[28.8732,-2.4653],[28.8909,-2.4831],[28.8568,-2.5299],[28.895,-2.5716],[28.9029,-2.6374],[28.8957,-2.6637],[28.9643,-2.7041],[28.9982,-2.7092],[29.0336,-2.7588],[29.0016,-2.7835],[29.006,-2.8166],[29.0501,-2.82],[29.0929,-2.8761],[29.0967,-2.9206],[29.1677,-2.9597],[29.1678,-2.9964],[29.203,-3.0229],[29.236,-3.0254],[29.2592,-3.068],[29.2606,-3.1149],[29.2285,-3.1587],[29.2222,-3.1978],[29.2397,-3.2689],[29.2009,-3.3087],[29.2041,-3.362],[29.2327,-3.4882],[29.2455,-3.6422],[29.2318,-3.7905],[29.2446,-3.8754],[29.2642,-3.9426],[29.3478,-4.0413],[29.3677,-4.1],[29.3788,-4.1759],[29.3943,-4.5054],[29.3864,-4.5407],[29.3356,-4.6514],[29.3272,-4.6989],[29.3371,-4.8536],[29.3823,-5.0341],[28.802,-5.032],[28.7686,-4.9734],[28.7329,-4.8721],[28.5933,-4.6426],[28.5487,-4.5561],[28.5339,-4.4756],[28.4923,-4.4279],[28.4002,-4.3444],[28.3645,-4.2908],[28.2665,-4.2132],[28.2397,-4.1475],[28.1952,-4.1416],[28.1506,-4.243],[28.0198,-4.1983],[28.005,-4.1416],[27.8565,-4.1237],[27.8238,-4.0819],[27.8119,-4.0372],[27.7465,-4.0223],[27.601,-4.0312],[27.5237,-4.0074],[27.4643,-4.0044],[27.399,-3.9805],[27.3425,-3.9477],[27.1761,-3.8999],[27.1107,-3.8402],[27.087,-3.7447],[27.1286,-3.4731],[27.1018,-3.4134],[27.09,-3.3387],[27.1409,-3.2895],[27.1141,-3.2268],[27.1159,-3.1748],[27.0999,-3.096],[27.0517,-2.9651],[26.9787,-2.9257],[26.9555,-2.854],[26.9234,-2.7931],[26.9316,-2.7465],[26.9262,-2.6909],[26.8852,-2.6299],[26.8674,-2.5349],[26.8407,-2.465],[26.8175,-2.4306],[26.8193,-2.3696],[26.8603,-2.3104],[26.8781,-2.1795],[26.9048,-2.1562],[26.9512,-2.1455],[27.026,-2.1598],[27.0867,-2.219],[27.2578,-2.2728],[27.2899,-2.2531],[27.363,-2.1849],[27.404,-2.1634],[27.4646,-2.115],[27.4485,-2.0451],[27.3968,-2.0343],[27.404,-1.9859],[27.4753,-1.9877],[27.5893,-2.0128],[27.748,-2.0056],[27.7718,-2.0313],[27.868,-2.0349],[27.9233,-2.017],[28.0089,-2.0026],[28.0802,-2.008],[28.1318,-2.069],[28.1693,-2.0528],[28.2032,-2.0152],[28.3476,-2.0098],[28.3868,-1.938],[28.4367,-1.8986],[28.5169,-1.8986],[28.5615,-1.9147],[28.6292,-1.904],[28.6684,-1.8789],[28.7665,-1.7874],[28.8235,-1.7605],[28.8556,-1.7318],[28.9091,-1.7425],[28.9875,-1.73],[29.0606,-1.6618],[29.1212,-1.6295],[29.2424,-1.6134],[29.2875,-1.6177]]]},"properties":{"name":"Sud-Kivu","id":"CD-SK","CNTRY":"Democratic Republic of the Congo","TYPE":"Province"},"id":"CD-SK"},
{"type":"Feature","geometry":{"type":"Polygon","coordinates":[[[19.906,2.0169],[19.6048,2.0231],[19.4922,2.0389],[19.2897,2.1178],[19.1884,2.1393],[19.1057,2.1365],[19.0558,2.115],[18.9103,2.0203],[18.7406,1.9528],[18.7247,1.9325],[18.6776,1.9281],[18.5849,1.9913],[18.5336,2.0028],[18.0842,2.0048],[18.0653,2.027],[18.0888,2.0895],[18.0946,2.2382],[18.106,2.2666],[18.1538,2.3045],[18.1853,2.345],[18.2269,2.4404],[18.2417,2.507],[18.3388,2.5989],[18.3434,2.6224],[18.4205,2.7523],[18.4455,2.8224],[18.4395,2.8825],[18.4679,2.9582],[18.5169,3.014],[18.5328,3.0703],[18.5848,3.0976],[18.6256,3.1589],[18.6418,3.209],[18.6347,3.2605],[18.6498,3.3305],[18.6325,3.3861],[18.6399,3.4486],[18.6184,3.5334],[18.6109,3.6325],[18.5871,3.7514],[18.5978,3.803],[18.6017,3.8958],[18.6523,3.9779],[18.6488,4.0764],[18.6184,4.1667],[18.5508,4.2891],[18.549,4.3163],[18.6068,4.3577],[18.6374,4.3466],[18.7171,4.3561],[18.7739,4.3977],[18.8111,4.4608],[18.8318,4.5583],[18.8844,4.6142],[18.906,4.656],[19.0097,4.7533],[19.0303,4.8024],[19.0884,4.7989],[19.136,4.7817],[19.1949,4.7321],[19.3406,4.6806],[19.4356,4.6863],[19.4699,4.6749],[19.5155,4.6329],[19.5136,4.5814],[19.4756,4.5203],[19.4489,4.4287],[19.2835,4.1023],[19.2816,4.0584],[19.3919,3.9916],[19.4566,3.9935],[19.4813,4.0527],[19.5801,4.0908],[19.6676,4.087],[19.8368,4.1176],[19.8996,4.0947],[19.9129,4.0508],[19.9129,3.9801],[19.9452,3.94],[19.9966,3.9075],[20.0783,3.8712],[20.1677,3.8544],[20.2057,3.8105],[20.1487,3.7341],[20.1335,3.6768],[20.1354,3.608],[20.219,3.5068],[20.2399,3.3807],[20.2742,3.3291],[20.278,3.2641],[20.2437,3.1896],[20.2057,3.1379],[20.1829,3.0787],[20.2095,2.9793],[20.3046,2.8761],[20.3864,2.855],[20.432,2.8818],[20.5271,2.9869],[20.6183,3.1055],[20.7335,3.2105],[20.7299,2.9184],[20.7816,2.8574],[20.8137,2.7929],[20.885,2.6961],[20.9028,2.6065],[20.8832,2.5527],[20.8101,2.472],[20.7567,2.4469],[20.5017,2.4236],[20.4376,2.4541],[20.3841,2.4541],[20.2379,2.4254],[20.1256,2.3644],[20.1203,2.3358],[20.0721,2.2819],[20.0276,2.212],[19.9898,2.1729],[19.9666,2.1281],[19.9577,2.0671],[19.906,2.0169]]]},"properties":{"name":"Sud-Ubangi","id":"CD-SU","CNTRY":"Democratic Republic of the Congo","TYPE":"Province"},"id":"CD-SU"},
{"type":"Feature","geometry":{"type":"Polygon","coordinates":[[[28.802,-5.032],[29.3823,-5.0341],[29.4386,-5.2026],[29.5298,-5.4151],[29.5756,-5.5558],[29.5987,-5.6643],[29.6074,-5.7684],[29.6002,-5.8555],[29.5782,-5.9629],[29.5793,-6.1468],[29.5949,-6.2523],[29.655,-6.4134],[29.7466,-6.5535],[29.7916,-6.609],[29.9063,-6.7084],[30.085,-6.8361],[30.1837,-6.9403],[30.2386,-7.0218],[30.3589,-7.2478],[30.4229,-7.4182],[30.5402,-7.6613],[30.6516,-7.9807],[30.6798,-8],[30.7387,-8.1098],[30.7743,-8.2243],[30.1233,-8.3121],[30,-8.3162],[29.5797,-8.3768],[29.5323,-8.3122],[29.5722,-8.2151],[29.5694,-8.1597],[29.5893,-8.1327],[29.655,-8.0844],[29.6678,-8.0303],[29.6564,-7.9792],[29.6065,-7.9195],[29.5836,-7.8612],[29.5506,-7.8555],[29.5121,-7.8754],[29.4793,-7.847],[29.4579,-7.8029],[29.4194,-7.7645],[29.3509,-7.7773],[29.3081,-7.7616],[29.2625,-7.7659],[29.2354,-7.7972],[29.1456,-7.783],[29.1128,-7.8157],[29.1142,-7.8612],[29.0928,-7.8967],[28.9787,-7.891],[28.906,-7.8654],[28.8575,-7.9834],[28.8219,-7.9962],[28.732,-7.9536],[28.6749,-7.9067],[28.6684,-7.8555],[28.6285,-7.7716],[28.6199,-7.7019],[28.6014,-7.6748],[28.5543,-7.6578],[28.5073,-7.6578],[28.4588,-7.6777],[28.4474,-7.734],[28.386,-7.7568],[28.3789,-7.8065],[28.4773,-7.8691],[28.5201,-7.9132],[28.5187,-7.9843],[28.4416,-8.1008],[28.4459,-8.1477],[28.4203,-8.206],[28.3304,-8.277],[28.2748,-8.2926],[28.2178,-8.2926],[28.1265,-8.358],[28.078,-8.375],[28.0523,-8.4077],[28.0033,-8.3807],[27.9862,-8.3281],[27.9519,-8.2756],[27.8992,-8.2827],[27.8592,-8.2671],[27.8293,-8.2188],[27.778,-8.2032],[27.7109,-8.1676],[27.7526,-8.1002],[27.7925,-8.0718],[27.8248,-8.0263],[27.8477,-7.9353],[27.8305,-7.8842],[27.8058,-7.8728],[27.7564,-7.8955],[27.6689,-7.8709],[27.6404,-7.8064],[27.6347,-7.7419],[27.6537,-7.7078],[27.6537,-7.6661],[27.6271,-7.6073],[27.5586,-7.5124],[27.5073,-7.5162],[27.475,-7.539],[27.4236,-7.52],[27.3457,-7.5579],[27.3076,-7.556],[27.2582,-7.5143],[27.2297,-7.5352],[27.224,-7.6092],[27.205,-7.6357],[27.1479,-7.649],[26.9388,-7.6585],[26.8456,-7.6509],[26.7847,-7.5788],[26.663,-7.5541],[26.5984,-7.501],[26.4577,-7.4422],[26.4063,-7.3966],[26.3702,-7.3492],[26.3683,-7.2884],[26.3911,-7.2295],[26.4626,-7.168],[26.4835,-7.1338],[26.4817,-7.092],[26.4303,-7.0693],[26.2991,-7.0541],[26.2516,-7.0389],[26.2211,-6.9951],[26.1299,-6.9762],[26.069,-6.9135],[26.05,-6.8641],[26.0824,-6.8375],[26.0633,-6.7633],[26.0367,-6.7291],[26.0253,-6.674],[25.9378,-6.6322],[25.9321,-6.5618],[25.953,-6.4934],[26.0671,-6.4101],[26.1109,-6.3568],[26.1175,-6.3263],[26.1432,-6.2636],[26.1869,-6.216],[26.2155,-6.0866],[26.2136,-6.0143],[26.185,-5.8657],[26.1812,-5.7915],[26.1337,-5.7572],[26.1147,-5.702],[26.1242,-5.6506],[26.1584,-5.6067],[26.1565,-5.5629],[26.1299,-5.4829],[26.1261,-5.4173],[26.1375,-5.3335],[26.1641,-5.2649],[26.1926,-5.1467],[26.2497,-5.0609],[26.2573,-5.0228],[28.802,-5.032]]]},"properties":{"name":"Tanganyika","id":"CD-TA","CNTRY":"Democratic Republic of the Congo","TYPE":"Province"},"id":"CD-TA"},
{"type":"Feature","geometry":{"type":"Polygon","coordinates":[[[28.0219,0.6382],[27.9117,0.5779],[27.8375,0.5511],[27.8256,0.5014],[27.8775,0.4806],[27.9042,0.4839],[28.0194,0.4619],[28.0447,0.4264],[28.055,0.3694],[28.0517,0.3161],[28.0686,0.2578],[28.1214,0.2214],[28.1186,0.1892],[28.1433,0.1583],[28.1344,0.1269],[28.1044,0.1092],[28.0886,0.0194],[28.1111,-0.13],[28.1458,-0.2173],[28.1344,-0.2633],[28.0964,-0.3035],[27.9842,-0.3552],[27.9537,-0.3858],[27.9595,-0.449],[27.9804,-0.493],[27.9785,-0.5313],[27.9576,-0.5715],[27.8872,-0.6078],[27.8321,-0.6078],[27.7759,-0.594],[27.7297,-0.6045],[27.6631,-0.5892],[27.4901,-0.5299],[27.4744,-0.4789],[27.4103,-0.5028],[27.3586,-0.4961],[27.3394,-0.4681],[27.2867,-0.4447],[27.1792,-0.433],[27.1319,-0.4125],[27.1133,-0.3822],[27.0722,-0.3556],[27.0656,-0.3172],[26.9969,-0.2617],[26.9475,-0.257],[26.9092,-0.2256],[26.8853,-0.2308],[26.8408,-0.2],[26.8283,-0.2597],[26.7817,-0.2533],[26.7147,-0.3008],[26.6372,-0.3117],[26.5681,-0.3658],[26.4658,-0.3714],[26.4369,-0.3453],[26.4214,-0.2994],[26.385,-0.2878],[26.3342,-0.25],[26.3103,-0.1925],[26.1668,-0.0457],[26.1003,-0.0074],[26.0508,-0.0093],[26.0242,-0.0476],[26.0527,-0.1682],[26.1573,-0.2812],[26.1535,-0.329],[26.1231,-0.3826],[26.1421,-0.4228],[26.1877,-0.4439],[26.26,-0.4975],[26.2676,-0.5396],[26.2353,-0.6429],[26.2315,-0.7807],[26.2524,-0.8439],[26.2486,-0.8956],[26.1617,-0.9525],[26.1022,-0.9683],[26.0699,-1.0028],[26.0699,-1.0468],[26.106,-1.131],[26.0527,-1.2516],[26.0767,-1.3225],[26.0697,-1.3675],[26.0231,-1.3903],[26.0369,-1.4361],[25.9986,-1.4917],[25.9333,-1.4847],[25.858,-1.3902],[25.8497,-1.5142],[25.8608,-1.6319],[25.8422,-1.7103],[25.8381,-1.8136],[25.8128,-1.86],[25.7544,-1.8561],[25.7003,-1.88],[25.6731,-1.8764],[25.5646,-1.9461],[25.5004,-1.9676],[25.397,-2.0895],[25.3097,-2.0917],[25.2045,-2.068],[25.2081,-2.0322],[25.1796,-1.9963],[25.1296,-1.982],[25.0683,-1.9949],[24.9485,-1.99],[24.6038,-2.002],[24.5738,-1.9462],[24.5016,-1.8585],[24.466,-1.7553],[24.4116,-1.7145],[24.4033,-1.6472],[24.4109,-1.4546],[24.3717,-1.372],[24.336,-1.3398],[24.0758,-1.3147],[24.0195,-1.3458],[23.9792,-1.3816],[23.9317,-1.372],[23.8841,-1.329],[23.7891,-1.2141],[23.7273,-1.1615],[23.6774,-1.1567],[23.656,-1.1328],[23.675,-1.0921],[23.6658,-1.0436],[23.5256,-0.9748],[23.4967,-0.9797],[23.3731,-0.9031],[23.309,-0.8385],[23.2899,-0.7739],[23.3161,-0.7308],[23.3731,-0.6638],[23.4326,-0.6567],[23.5252,-0.6184],[23.5276,-0.5801],[23.4611,-0.5275],[23.4466,-0.4377],[23.2692,-0.4953],[23.2431,-0.4858],[23.2281,-0.4358],[23.1901,-0.3839],[23.1355,-0.3576],[22.9667,-0.3576],[23.0641,-0.2882],[23.1408,-0.2767],[23.2876,-0.2786],[23.328,-0.2475],[23.3446,-0.1973],[23.3304,-0.1542],[23.2947,-0.1039],[23.1735,-0.0034],[23.0808,0.0612],[23.0523,0.1425],[22.962,0.2741],[22.9406,0.3244],[22.9453,0.3579],[22.98,0.4018],[22.9456,0.4783],[22.9353,0.5708],[22.8722,0.6544],[22.8525,0.6964],[22.8581,0.8019],[22.8156,0.8964],[22.8147,0.9964],[22.7764,1.0472],[22.7283,1.1683],[22.6736,1.2375],[22.6497,1.3183],[22.6242,1.3617],[22.5975,1.3683],[22.5428,1.43],[22.4339,1.4897],[22.2864,1.5033],[22.2979,1.5957],[22.2955,1.6603],[22.3121,1.7009],[22.3478,1.7225],[22.3501,1.7727],[22.4534,1.8689],[22.4748,1.9191],[22.4795,1.9717],[22.4415,2.0339],[22.4011,2.0793],[22.3797,2.1272],[22.3797,2.1869],[22.4486,2.2013],[22.5247,2.1965],[22.615,2.1487],[22.6982,2.0937],[22.7338,2.0841],[22.7719,2.0435],[22.8669,2.0626],[22.943,2.1272],[23.0072,2.2037],[23.0594,2.2061],[23.1165,2.1774],[23.1498,2.1272],[23.2282,2.0913],[23.2876,2.0913],[23.3185,2.1104],[23.328,2.1702],[23.2971,2.2013],[23.3043,2.2467],[23.3304,2.2778],[23.3684,2.2874],[23.4754,2.2061],[23.5443,2.1941],[23.5919,2.2085],[23.6765,2.1931],[23.7455,2.1453],[23.9047,2.0974],[23.9689,2.0927],[24.0093,2.1261],[24.0521,2.1405],[24.0759,2.1979],[24.102,2.217],[24.3302,2.2744],[24.3706,2.2624],[24.5084,2.2815],[24.9439,2.2576],[25.0175,2.2648],[25.0912,2.2385],[25.1316,2.2481],[25.2029,2.3126],[25.2529,2.3078],[25.3836,2.2457],[25.4216,2.217],[25.5119,2.1811],[25.5999,2.1763],[25.6688,2.1883],[25.7068,2.2218],[25.771,2.2505],[25.8399,2.2552],[25.8875,2.2433],[25.9326,2.2146],[25.9778,2.2409],[26.0015,2.2744],[26.0705,2.2887],[26.1536,2.3294],[26.2083,2.3365],[26.2701,2.382],[26.3224,2.3748],[26.3367,2.2863],[26.32,2.119],[26.3604,2.0711],[26.4151,2.0663],[26.4626,2.1118],[26.4983,2.0568],[26.5358,2.0472],[26.6,2.0759],[26.6214,2.1357],[26.6618,2.1381],[26.6975,2.1716],[26.7498,2.1859],[26.7854,2.1596],[26.8947,2.15],[26.9233,2.1214],[26.9399,2.0496],[26.9803,1.9587],[27.0397,1.9444],[27.1063,1.9085],[27.1752,1.9037],[27.2132,1.9133],[27.2275,1.9468],[27.2275,2.0113],[27.2394,2.0353],[27.2798,2.0401],[27.3653,2.009],[27.3986,1.9181],[27.3439,1.875],[27.3677,1.8296],[27.3677,1.798],[27.3202,1.7502],[27.3012,1.6832],[27.275,1.6474],[27.237,1.6474],[27.2251,1.5876],[27.4058,1.5852],[27.4319,1.5612],[27.4723,1.5014],[27.4961,1.4464],[27.5697,1.3436],[27.6553,1.3484],[27.7337,1.3316],[27.7646,1.3005],[27.7741,1.2575],[27.7432,1.0828],[27.7837,1.0637],[27.9167,1.0517],[27.9001,0.9488],[27.9287,0.9249],[27.9786,0.9273],[27.9738,0.8771],[27.9405,0.8364],[27.9405,0.7838],[27.9857,0.6737],[28.0219,0.6382]]]},"properties":{"name":"Tshopo","id":"CD-TO","CNTRY":"Democratic Republic of the Congo","TYPE":"Province"},"id":"CD-TO"},
{"type":"Feature","geometry":{"type":"Polygon","coordinates":[[[22.3501,1.7727],[22.3478,1.7225],[22.3121,1.7009],[22.2955,1.6603],[22.2979,1.5957],[22.2864,1.5033],[22.4339,1.4897],[22.5428,1.43],[22.5975,1.3683],[22.6242,1.3617],[22.6497,1.3183],[22.6736,1.2375],[22.7283,1.1683],[22.7764,1.0472],[22.8147,0.9964],[22.8156,0.8964],[22.8581,0.8019],[22.8525,0.6964],[22.8722,0.6544],[22.9353,0.5708],[22.9456,0.4783],[22.98,0.4018],[22.9453,0.3579],[22.9406,0.3244],[22.962,0.2741],[23.0523,0.1425],[23.0808,0.0612],[23.1735,-0.0034],[23.2947,-0.1039],[23.3304,-0.1542],[23.3446,-0.1973],[23.328,-0.2475],[23.2876,-0.2786],[23.1408,-0.2767],[23.0641,-0.2882],[22.9667,-0.3576],[23.1355,-0.3576],[23.1901,-0.3839],[23.2281,-0.4358],[23.2431,-0.4858],[23.2692,-0.4953],[23.4466,-0.4377],[23.4611,-0.5275],[23.5276,-0.5801],[23.5252,-0.6184],[23.4326,-0.6567],[23.3731,-0.6638],[23.3161,-0.7308],[23.2899,-0.7739],[23.309,-0.8385],[23.3731,-0.9031],[23.4967,-0.9797],[23.5256,-0.9748],[23.6658,-1.0436],[23.675,-1.0921],[23.656,-1.1328],[23.6774,-1.1567],[23.7273,-1.1615],[23.7891,-1.2141],[23.8841,-1.329],[23.9317,-1.372],[23.9792,-1.3816],[24.0195,-1.3458],[24.0758,-1.3147],[24.336,-1.3398],[24.3717,-1.372],[24.4109,-1.4546],[24.4033,-1.6472],[24.4116,-1.7145],[24.3761,-1.7311],[24.1498,-1.7311],[24.0281,-1.712],[23.9711,-1.7158],[23.9217,-1.7445],[23.8057,-1.756],[23.7562,-1.7751],[23.7201,-1.8076],[23.6631,-1.8267],[23.5984,-1.8038],[23.5756,-1.8267],[23.5832,-1.8669],[23.5794,-1.9722],[23.5395,-2.02],[23.4878,-2.0334],[23.3737,-2.0238],[23.2862,-2.0774],[23.2386,-2.0564],[23.1455,-1.9549],[23.0828,-1.9263],[22.9135,-1.8899],[22.7576,-1.8708],[22.7158,-1.8363],[22.6169,-1.8019],[22.5922,-1.7636],[22.5674,-1.7732],[22.5351,-1.8708],[22.499,-1.9033],[22.4514,-1.9148],[22.3773,-1.8937],[22.3279,-1.8555],[22.2575,-1.8325],[22.191,-1.8249],[22.1643,-1.8612],[22.1453,-1.9243],[22.151,-2.0544],[22.2157,-2.3012],[22.2252,-2.4179],[22.2062,-2.458],[22.1643,-2.4638],[22.1168,-2.4121],[22.0959,-2.349],[22.0712,-2.3165],[21.9989,-2.3643],[21.9,-2.4963],[21.8403,-2.5319],[21.7996,-2.532],[21.7297,-2.4961],[21.4356,-2.3222],[21.4124,-2.3258],[21.4142,-2.4746],[21.211,-2.5176],[21.0559,-2.514],[21.0238,-2.4872],[21.028,-2.4276],[20.905,-2.2376],[20.8194,-2.1533],[20.6982,-1.9936],[20.6465,-1.9936],[20.5966,-2.0295],[20.5502,-2.0421],[20.4718,-2.0977],[20.4094,-2.1192],[20.2418,-2.017],[20.1153,-1.9201],[19.9673,-1.8986],[19.9067,-1.8627],[19.8479,-1.6887],[19.7552,-1.5847],[19.7249,-1.5972],[19.7017,-1.6385],[19.6768,-1.7156],[19.6019,-1.7946],[19.5627,-1.8179],[19.5163,-1.7946],[19.5145,-1.7156],[19.4807,-1.5363],[19.4318,-1.4067],[19.485,-1.3281],[19.5313,-1.2366],[19.5723,-1.2061],[19.5955,-1.1666],[19.6026,-0.9962],[19.6294,-0.9656],[19.6721,-0.9854],[19.6882,-1.0159],[19.6846,-1.1217],[19.706,-1.154],[19.7434,-1.172],[19.8058,-1.1684],[20.0697,-1.0823],[20.1231,-1.0482],[20.1534,-1.0015],[20.1463,-0.9477],[20.1677,-0.8939],[20.2105,-0.8293],[20.2586,-0.7162],[20.2604,-0.648],[20.1392,-0.5134],[20.0714,-0.3469],[20.0393,-0.311],[19.9609,-0.2482],[19.9092,-0.1836],[19.8557,-0.18],[19.8326,-0.1513],[19.8557,-0.11],[19.9003,-0.0975],[19.9484,-0.1208],[19.9894,-0.11],[20.0483,-0.1585],[20.0857,-0.1495],[20.0999,-0.119],[20.1641,-0.1082],[20.2087,-0.1226],[20.2265,-0.1477],[20.2158,-0.18],[20.223,-0.2356],[20.2586,-0.2679],[20.3174,-0.2554],[20.3442,-0.2285],[20.3442,-0.1746],[20.3763,-0.1208],[20.4244,-0.0867],[20.5313,-0.0669],[20.5634,-0.0418],[20.5777,-0.0041],[20.5634,0.0156],[20.4743,0.0156],[20.4654,0.0569],[20.4921,0.0802],[20.5492,0.0982],[20.5723,0.1269],[20.5581,0.1681],[20.4992,0.2005],[20.4315,0.2686],[20.3477,0.3279],[20.3049,0.3835],[20.3156,0.4581],[20.362,0.5443],[20.3656,0.591],[20.4262,0.6735],[20.4404,0.7327],[20.4083,0.826],[20.4173,0.9139],[20.4386,1.0073],[20.4458,1.0916],[20.5367,1.2351],[20.5581,1.2513],[20.6918,1.201],[20.8106,1.1926],[20.8819,1.1747],[20.9503,1.2046],[20.9978,1.1986],[21.0245,1.1567],[21.0275,1.1179],[20.9978,0.9983],[21.0364,0.9444],[21.0839,0.9265],[21.176,0.9175],[21.2741,0.8607],[21.3602,0.8338],[21.5028,0.759],[21.6009,0.7321],[21.6544,0.756],[21.6692,0.8762],[21.7138,0.9121],[21.7554,0.8972],[21.791,0.8673],[21.8416,0.8703],[21.8921,0.8972],[21.9218,0.9361],[22.0168,0.963],[22.0822,0.9391],[22.1179,0.969],[22.0792,1.0557],[22.0406,1.0945],[21.9871,1.1185],[21.9455,1.1544],[21.9247,1.1992],[21.9099,1.2919],[21.8861,1.3218],[21.8623,1.5371],[21.8594,1.6477],[21.895,1.7225],[21.9515,1.7524],[22.0555,1.7763],[22.3501,1.7727]]]},"properties":{"name":"Tshuapa","id":"CD-TU","CNTRY":"Democratic Republic of the Congo","TYPE":"Province"},"id":"CD-TU"}
]}