{"type":"FeatureCollection", "features": [
{"type":"Feature","geometry":{"type":"Polygon","coordinates":[[[-84.1557,10.7856],[-84.1628,10.585],[-84.1622,10.4153],[-84.1629,10.2893],[-84.165,10.1726],[-84.1605,10.0713],[-84.1802,10.0069],[-84.1955,9.9936],[-84.1883,9.9707],[-84.215,9.9645],[-84.2471,9.9361],[-84.2641,9.9296],[-84.3038,9.9265],[-84.3527,9.9176],[-84.3829,9.9312],[-84.4626,9.9225],[-84.5346,9.8752],[-84.5627,9.8307],[-84.5758,9.8305],[-84.5951,9.8417],[-84.6022,9.8616],[-84.6758,9.8701],[-84.6823,9.9009],[-84.6627,9.914],[-84.6423,9.9491],[-84.6103,9.9508],[-84.5819,9.9822],[-84.5592,9.9906],[-84.5566,10.0267],[-84.5721,10.0422],[-84.6258,10.0449],[-84.6333,10.0774],[-84.6477,10.0839],[-84.6693,10.1254],[-84.669,10.1821],[-84.6807,10.1899],[-84.6563,10.2389],[-84.662,10.2585],[-84.6847,10.2843],[-84.695,10.2879],[-84.7455,10.2674],[-84.779,10.2905],[-84.7965,10.3158],[-84.7708,10.3631],[-84.784,10.3831],[-84.7794,10.4358],[-84.7408,10.4347],[-84.741,10.4545],[-84.7568,10.4594],[-84.7683,10.4753],[-84.7861,10.4737],[-84.7867,10.4976],[-84.8028,10.4999],[-84.8399,10.5238],[-84.8637,10.5489],[-84.8922,10.5644],[-84.9329,10.5648],[-84.9448,10.5821],[-84.9781,10.6085],[-84.9996,10.6346],[-85.0197,10.7028],[-85.0447,10.7138],[-85.0967,10.7292],[-85.1356,10.7296],[-85.1547,10.7555],[-85.1737,10.7676],[-85.2124,10.7734],[-85.2701,10.7656],[-85.2994,10.7765],[-85.3102,10.8227],[-85.3596,10.8453],[-85.3763,10.8602],[-85.3946,10.9038],[-85.432,10.9612],[-85.426,10.9713],[-85.3928,10.9833],[-85.3749,11.0027],[-85.3593,11.0382],[-85.3352,11.0385],[-85.3149,11.0463],[-85.299,11.0269],[-85.2706,11.0154],[-85.2595,11.0765],[-85.2069,11.0497],[-84.9888,10.9721],[-84.9141,10.9413],[-84.7945,11.0105],[-84.681,11.0793],[-84.6077,11.0384],[-84.5722,11.0499],[-84.5621,11.0316],[-84.5075,11.0113],[-84.4881,11.0007],[-84.4544,10.9643],[-84.4261,10.9548],[-84.3993,10.973],[-84.3787,10.9779],[-84.3638,10.9926],[-84.3448,10.9733],[-84.3522,10.9523],[-84.3266,10.913],[-84.306,10.912],[-84.2843,10.8886],[-84.2509,10.8821],[-84.2267,10.8691],[-84.2182,10.8367],[-84.2288,10.8019],[-84.1751,10.7836],[-84.1557,10.7856]]]},"properties":{"name":"Alajuela","id":"CR-A","CNTRY":"Costa Rica","TYPE":"Province"},"id":"CR-A"},
{"type":"Feature","geometry":{"type":"Polygon","coordinates":[[[-83.9424,10.1498],[-83.7816,10.0636],[-83.7133,10.0351],[-83.611,9.9869],[-83.4443,9.986],[-83.3116,9.9869],[-83.3311,9.9714],[-83.3357,9.9494],[-83.3498,9.9466],[-83.3451,9.9041],[-83.3377,9.8869],[-83.3393,9.8572],[-83.3316,9.8373],[-83.3506,9.8161],[-83.424,9.7166],[-83.4312,9.6709],[-83.5261,9.5864],[-83.5124,9.5577],[-83.5123,9.5301],[-83.5038,9.4998],[-83.526,9.51],[-83.5587,9.5376],[-83.5916,9.5478],[-83.6268,9.5679],[-83.6386,9.5817],[-83.6619,9.5846],[-83.6911,9.5571],[-83.7036,9.5631],[-83.7243,9.558],[-83.7406,9.572],[-83.7628,9.5771],[-83.7734,9.6041],[-83.8264,9.6218],[-83.8393,9.6313],[-83.8491,9.6718],[-83.89,9.6773],[-83.9141,9.6878],[-83.9475,9.7106],[-83.947,9.7358],[-83.9723,9.7468],[-83.9936,9.7894],[-84.0278,9.7702],[-84.0578,9.7655],[-84.0848,9.7719],[-84.0818,9.7951],[-84.0571,9.8057],[-84.0271,9.826],[-83.996,9.8799],[-84.0009,9.8936],[-84.0273,9.8916],[-84.0259,9.9064],[-83.9985,9.9314],[-83.9906,9.9508],[-83.9145,9.9571],[-83.8956,9.975],[-83.8792,9.9691],[-83.8613,9.9747],[-83.8673,10.0321],[-83.8904,10.0615],[-83.9222,10.0787],[-83.9337,10.1281],[-83.9424,10.1498]]]},"properties":{"name":"Cartago","id":"CR-C","CNTRY":"Costa Rica","TYPE":"Province"},"id":"CR-C"},
{"type":"Feature","geometry":{"type":"Polygon","coordinates":[[[-85.2595,11.0765],[-85.2706,11.0154],[-85.299,11.0269],[-85.3149,11.0463],[-85.3352,11.0385],[-85.3593,11.0382],[-85.3749,11.0027],[-85.3928,10.9833],[-85.426,10.9713],[-85.432,10.9612],[-85.3946,10.9038],[-85.3763,10.8602],[-85.3596,10.8453],[-85.3102,10.8227],[-85.2994,10.7765],[-85.2701,10.7656],[-85.2124,10.7734],[-85.1737,10.7676],[-85.1547,10.7555],[-85.1356,10.7296],[-85.0967,10.7292],[-85.0447,10.7138],[-85.0197,10.7028],[-84.9996,10.6346],[-84.9781,10.6085],[-84.9448,10.5821],[-84.9329,10.5648],[-84.8922,10.5644],[-84.8637,10.5489],[-84.8399,10.5238],[-84.8028,10.4999],[-84.7867,10.4976],[-84.7861,10.4737],[-84.8146,10.4687],[-84.8528,10.5105],[-84.889,10.5348],[-84.903,10.5515],[-84.9618,10.5535],[-84.9831,10.5481],[-84.9381,10.5109],[-84.9178,10.516],[-84.8885,10.494],[-84.8591,10.4873],[-84.8447,10.4772],[-84.8426,10.4571],[-84.8196,10.4536],[-84.7794,10.4358],[-84.784,10.3831],[-84.7708,10.3631],[-84.7965,10.3158],[-84.8132,10.3295],[-84.836,10.3361],[-84.8539,10.3278],[-84.8702,10.3057],[-84.8771,10.2699],[-84.8945,10.2238],[-84.889,10.1879],[-84.9094,10.1829],[-84.9312,10.1631],[-84.9274,10.1434],[-84.94,10.1208],[-84.9533,10.1205],[-84.975,10.1334],[-85.0278,10.1542],[-85.051,10.1668],[-85.0703,10.1662],[-85.0669,10.1298],[-85.0864,10.1462],[-85.0851,10.1606],[-85.1154,10.1725],[-85.1441,10.1567],[-85.173,10.1673],[-85.2112,10.1748],[-85.2273,10.1879],[-85.2352,10.2107],[-85.2304,10.227],[-85.247,10.2355],[-85.2458,10.175],[-85.251,10.1663],[-85.244,10.1396],[-85.2449,10.1044],[-85.2207,10.0821],[-85.1985,10.0729],[-85.1768,10.0444],[-85.1648,10.0159],[-85.1777,9.9833],[-85.1894,9.9716],[-85.2827,9.9532],[-85.2986,9.9381],[-85.2877,9.915],[-85.2237,9.8996],[-85.2006,9.8585],[-85.1788,9.8555],[-85.1993,9.8099],[-85.1955,9.7836],[-85.2072,9.7581],[-85.235,9.728],[-85.2729,9.7537],[-85.275,9.7804],[-85.3113,9.8065],[-85.3335,9.8118],[-85.3646,9.8373],[-85.4367,9.8571],[-85.4603,9.8569],[-85.4704,9.8464],[-85.4939,9.8655],[-85.5132,9.8578],[-85.5242,9.8745],[-85.5722,9.8726],[-85.5982,9.886],[-85.6293,9.8855],[-85.6466,9.9013],[-85.6728,9.9004],[-85.6684,9.9247],[-85.685,9.9591],[-85.7079,9.9904],[-85.7473,10.0289],[-85.7536,10.0471],[-85.79,10.0892],[-85.8035,10.1362],[-85.822,10.1761],[-85.8378,10.1974],[-85.8393,10.2225],[-85.8509,10.2479],[-85.8543,10.2879],[-85.8372,10.3061],[-85.8583,10.341],[-85.8745,10.3515],[-85.8502,10.3662],[-85.8337,10.3974],[-85.8007,10.4077],[-85.7949,10.4279],[-85.7774,10.4466],[-85.7818,10.471],[-85.7977,10.4837],[-85.7992,10.5015],[-85.7775,10.5397],[-85.7504,10.5273],[-85.7105,10.5561],[-85.6987,10.5724],[-85.6558,10.5906],[-85.6496,10.6053],[-85.6311,10.6191],[-85.6343,10.6341],[-85.654,10.6409],[-85.6759,10.631],[-85.6718,10.6561],[-85.653,10.6711],[-85.6658,10.7201],[-85.659,10.7608],[-85.6864,10.7994],[-85.7514,10.8106],[-85.7643,10.7982],[-85.7958,10.81],[-85.7898,10.8316],[-85.7953,10.8477],[-85.816,10.8447],[-85.8553,10.8507],[-85.8626,10.8685],[-85.9278,10.897],[-85.8855,10.9117],[-85.863,10.9308],[-85.8692,10.946],[-85.8209,10.9403],[-85.8164,10.9162],[-85.8004,10.9068],[-85.786,10.9329],[-85.7253,10.9306],[-85.704,10.9401],[-85.6894,10.9694],[-85.7231,11.0016],[-85.7564,11.0224],[-85.7379,11.0434],[-85.7168,11.0294],[-85.6949,11.0253],[-85.6751,11.0346],[-85.673,11.0601],[-85.6984,11.0739],[-85.6609,11.1382],[-85.6098,11.2168],[-85.5587,11.2082],[-85.5206,11.1625],[-85.4147,11.1241],[-85.3577,11.1244],[-85.2595,11.0765]]]},"properties":{"name":"Guanacaste","id":"CR-G","CNTRY":"Costa Rica","TYPE":"Province"},"id":"CR-G"},
{"type":"Feature","geometry":{"type":"Polygon","coordinates":[[[-83.7592,10.7702],[-83.7438,10.7631],[-83.7484,10.7432],[-83.7126,10.7124],[-83.7066,10.6987],[-83.7669,10.6998],[-83.779,10.6884],[-83.8024,10.685],[-83.8213,10.6596],[-83.8358,10.6604],[-83.8432,10.6446],[-83.8455,10.614],[-83.8335,10.5945],[-83.8463,10.5654],[-83.8467,10.5456],[-83.8272,10.4906],[-83.8314,10.4581],[-83.8584,10.4508],[-83.877,10.4239],[-83.8796,10.4094],[-83.8702,10.383],[-83.8555,10.3639],[-83.8489,10.3074],[-83.8676,10.2733],[-83.8754,10.2476],[-83.9056,10.2048],[-83.9248,10.1917],[-83.9731,10.1592],[-83.9819,10.1478],[-83.9828,10.1007],[-83.9912,10.09],[-84.021,10.0862],[-84.0285,10.0626],[-84.0103,10.0346],[-84.0182,10.0047],[-84.0311,9.9899],[-84.0624,9.9744],[-84.1146,9.964],[-84.1343,9.9688],[-84.1525,9.9626],[-84.1883,9.9707],[-84.1955,9.9936],[-84.1802,10.0069],[-84.1605,10.0713],[-84.165,10.1726],[-84.1629,10.2893],[-84.1622,10.4153],[-84.1628,10.585],[-84.1557,10.7856],[-84.1331,10.7877],[-84.1267,10.7697],[-84.0964,10.7729],[-84.0642,10.7651],[-84.0567,10.7791],[-84.0386,10.7754],[-84.0251,10.7893],[-84.0081,10.764],[-83.9766,10.7462],[-83.9683,10.7292],[-83.9433,10.7221],[-83.936,10.7084],[-83.9013,10.7207],[-83.8669,10.7183],[-83.8319,10.7465],[-83.8154,10.7452],[-83.7927,10.7684],[-83.7592,10.7702]]]},"properties":{"name":"Heredia","id":"CR-H","CNTRY":"Costa Rica","TYPE":"Province"},"id":"CR-H"},
{"type":"Feature","geometry":{"type":"Polygon","coordinates":[[[-82.9302,9.0738],[-82.9542,9.0697],[-82.9782,9.0997],[-82.9885,9.157],[-83.0028,9.1647],[-83.0544,9.1756],[-83.0529,9.1973],[-83.0653,9.2222],[-83.0671,9.2539],[-83.1424,9.287],[-83.1641,9.3173],[-83.1792,9.3304],[-83.2158,9.3244],[-83.2325,9.3281],[-83.254,9.3518],[-83.2788,9.3566],[-83.3048,9.3802],[-83.325,9.3907],[-83.3431,9.3789],[-83.3497,9.3547],[-83.3696,9.3562],[-83.3954,9.3408],[-83.4072,9.3624],[-83.4251,9.3692],[-83.4487,9.3861],[-83.4803,9.4539],[-83.4871,9.485],[-83.5038,9.4998],[-83.5123,9.5301],[-83.5124,9.5577],[-83.5261,9.5864],[-83.4312,9.6709],[-83.424,9.7166],[-83.3506,9.8161],[-83.3316,9.8373],[-83.3393,9.8572],[-83.3377,9.8869],[-83.3451,9.9041],[-83.3498,9.9466],[-83.3357,9.9494],[-83.3311,9.9714],[-83.3116,9.9869],[-83.4443,9.986],[-83.611,9.9869],[-83.7133,10.0351],[-83.7816,10.0636],[-83.9424,10.1498],[-83.9248,10.1917],[-83.9056,10.2048],[-83.8754,10.2476],[-83.8676,10.2733],[-83.8489,10.3074],[-83.8555,10.3639],[-83.8702,10.383],[-83.8796,10.4094],[-83.877,10.4239],[-83.8584,10.4508],[-83.8314,10.4581],[-83.8272,10.4906],[-83.8467,10.5456],[-83.8463,10.5654],[-83.8335,10.5945],[-83.8455,10.614],[-83.8432,10.6446],[-83.8358,10.6604],[-83.8213,10.6596],[-83.8024,10.685],[-83.779,10.6884],[-83.7669,10.6998],[-83.7066,10.6987],[-83.7126,10.7124],[-83.7484,10.7432],[-83.7438,10.7631],[-83.7592,10.7702],[-83.7189,10.7893],[-83.704,10.7861],[-83.6779,10.7938],[-83.6646,10.8203],[-83.674,10.8472],[-83.671,10.8778],[-83.6812,10.896],[-83.6725,10.9319],[-83.6347,10.8942],[-83.611,10.8493],[-83.5919,10.7864],[-83.6112,10.7834],[-83.6221,10.8204],[-83.6381,10.8224],[-83.6191,10.7654],[-83.6202,10.7454],[-83.6011,10.7404],[-83.5878,10.7555],[-83.5578,10.6681],[-83.5248,10.5942],[-83.4882,10.5035],[-83.4286,10.4002],[-83.3837,10.3371],[-83.3588,10.3125],[-83.3176,10.2608],[-83.2936,10.2257],[-83.2782,10.2151],[-83.179,10.0892],[-83.1626,10.0737],[-83.1146,10.0087],[-83.0937,9.9957],[-83.0644,10.0092],[-83.0317,9.9953],[-83.0343,9.9707],[-83.0134,9.9345],[-82.9947,9.9162],[-82.975,9.8869],[-82.9297,9.8313],[-82.9108,9.8027],[-82.8657,9.7467],[-82.8483,9.7349],[-82.819,9.7281],[-82.7973,9.6728],[-82.7805,9.6548],[-82.7505,9.6526],[-82.7303,9.6414],[-82.6679,9.631],[-82.6558,9.6362],[-82.629,9.6327],[-82.6238,9.6154],[-82.6037,9.5888],[-82.5631,9.567],[-82.6049,9.5539],[-82.5992,9.532],[-82.6117,9.5023],[-82.6442,9.4965],[-82.6574,9.5128],[-82.6939,9.5087],[-82.7058,9.5299],[-82.7329,9.5555],[-82.7454,9.5781],[-82.7668,9.5833],[-82.7922,9.6025],[-82.8103,9.5955],[-82.8357,9.6164],[-82.8537,9.6155],[-82.8788,9.59],[-82.8841,9.5521],[-82.8709,9.5397],[-82.8745,9.5237],[-82.8582,9.5165],[-82.845,9.4973],[-82.9243,9.4794],[-82.9376,9.4734],[-82.9384,9.3503],[-82.9363,9.3364],[-82.9362,9.1037],[-82.9302,9.0738]]]},"properties":{"name":"Limón","id":"CR-L","CNTRY":"Costa Rica","TYPE":"Province"},"id":"CR-L"},
{"type":"Feature","geometry":{"type":"Polygon","coordinates":[[[-84.7861,10.4737],[-84.7683,10.4753],[-84.7568,10.4594],[-84.741,10.4545],[-84.7408,10.4347],[-84.7794,10.4358],[-84.8196,10.4536],[-84.8426,10.4571],[-84.8447,10.4772],[-84.8591,10.4873],[-84.8885,10.494],[-84.9178,10.516],[-84.9381,10.5109],[-84.9831,10.5481],[-84.9618,10.5535],[-84.903,10.5515],[-84.889,10.5348],[-84.8528,10.5105],[-84.8146,10.4687],[-84.7861,10.4737]]]},"properties":{"name":"Lake Arenal","id":"CR-LA","CNTRY":"Costa Rica","TYPE":"Lake"},"id":"CR-LA"},
{"type":"Feature","geometry":{"type":"MultiPolygon","coordinates":[[[[-84.7965,10.3158],[-84.779,10.2905],[-84.7455,10.2674],[-84.695,10.2879],[-84.6847,10.2843],[-84.662,10.2585],[-84.6563,10.2389],[-84.6807,10.1899],[-84.669,10.1821],[-84.6693,10.1254],[-84.6477,10.0839],[-84.6333,10.0774],[-84.6258,10.0449],[-84.5721,10.0422],[-84.5566,10.0267],[-84.5592,9.9906],[-84.5819,9.9822],[-84.6103,9.9508],[-84.6423,9.9491],[-84.6627,9.914],[-84.6823,9.9009],[-84.6758,9.8701],[-84.6022,9.8616],[-84.5951,9.8417],[-84.5758,9.8305],[-84.5869,9.8056],[-84.5697,9.8061],[-84.5615,9.7832],[-84.5407,9.7729],[-84.559,9.7568],[-84.59,9.7536],[-84.5928,9.7241],[-84.5847,9.7006],[-84.5822,9.6638],[-84.5586,9.6386],[-84.5531,9.6021],[-84.5394,9.5857],[-84.5138,9.5774],[-84.4473,9.584],[-84.4323,9.5616],[-84.3952,9.6088],[-84.4036,9.6286],[-84.3961,9.6412],[-84.3728,9.6379],[-84.324,9.6413],[-84.3068,9.6537],[-84.2832,9.6391],[-84.2552,9.6293],[-84.2251,9.6304],[-84.2034,9.6193],[-84.1717,9.6304],[-84.1502,9.6282],[-84.1368,9.6124],[-84.1405,9.5811],[-84.1173,9.5595],[-84.0976,9.5678],[-84.0757,9.5588],[-84.0766,9.5042],[-84.059,9.4971],[-84.0454,9.4762],[-84.008,9.4526],[-83.9986,9.4288],[-83.9833,9.4322],[-83.974,9.4091],[-83.9545,9.3916],[-83.9359,9.3951],[-83.9216,9.4135],[-83.9055,9.41],[-83.8905,9.3678],[-83.8655,9.3454],[-83.8427,9.3397],[-83.8533,9.3169],[-83.8501,9.2666],[-83.823,9.2442],[-83.7893,9.2271],[-83.7633,9.2227],[-83.7408,9.2497],[-83.7073,9.2263],[-83.6657,9.1488],[-83.6227,9.1319],[-83.6061,9.1092],[-83.5588,9.0898],[-83.5456,9.08],[-83.5243,9.0823],[-83.4982,9.0986],[-83.4904,9.1354],[-83.4757,9.1502],[-83.4675,9.1721],[-83.4751,9.1947],[-83.4962,9.1944],[-83.5207,9.2094],[-83.5083,9.2316],[-83.5076,9.2595],[-83.4776,9.2897],[-83.4628,9.3207],[-83.4251,9.3692],[-83.4072,9.3624],[-83.3954,9.3408],[-83.3696,9.3562],[-83.3497,9.3547],[-83.3431,9.3789],[-83.325,9.3907],[-83.3048,9.3802],[-83.2788,9.3566],[-83.254,9.3518],[-83.2325,9.3281],[-83.2158,9.3244],[-83.1792,9.3304],[-83.1641,9.3173],[-83.1424,9.287],[-83.0671,9.2539],[-83.0653,9.2222],[-83.0529,9.1973],[-83.0544,9.1756],[-83.0028,9.1647],[-82.9885,9.157],[-82.9782,9.0997],[-82.9542,9.0697],[-82.9302,9.0738],[-82.8991,9.0883],[-82.8867,9.0873],[-82.8686,9.0576],[-82.8163,9.025],[-82.8008,9.008],[-82.7635,8.9986],[-82.7416,8.9815],[-82.7345,8.9592],[-82.7146,8.9418],[-82.7157,8.9252],[-82.7459,8.9092],[-82.7696,8.8788],[-82.8052,8.8716],[-82.8185,8.8604],[-82.8525,8.854],[-82.8799,8.8328],[-82.8695,8.7966],[-82.9111,8.7693],[-82.9171,8.745],[-82.8966,8.712],[-82.8674,8.6935],[-82.8521,8.6602],[-82.8278,8.6268],[-82.8353,8.6119],[-82.8244,8.5724],[-82.8384,8.546],[-82.8334,8.5059],[-82.838,8.4853],[-82.8589,8.4495],[-82.9001,8.432],[-82.9282,8.4346],[-82.9731,8.3847],[-82.9933,8.3668],[-83.0501,8.3396],[-83.0438,8.3153],[-83.0253,8.3096],[-82.9903,8.2771],[-82.9722,8.2818],[-82.9378,8.2696],[-82.9297,8.2414],[-82.9315,8.211],[-82.9079,8.1937],[-82.9086,8.1563],[-82.8912,8.1111],[-82.8903,8.081],[-82.8979,8.0344],[-82.9196,8.0564],[-82.9084,8.0771],[-82.9074,8.108],[-82.9271,8.1405],[-82.942,8.183],[-82.9776,8.2354],[-82.9964,8.2536],[-83.0154,8.2613],[-83.068,8.3013],[-83.1179,8.3297],[-83.1413,8.3499],[-83.1501,8.3742],[-83.1443,8.3922],[-83.1113,8.4187],[-83.0989,8.4525],[-83.1177,8.4843],[-83.1456,8.516],[-83.1377,8.5436],[-83.1586,8.5619],[-83.1829,8.5947],[-83.1763,8.6178],[-83.1597,8.6019],[-83.1647,8.5799],[-83.1406,8.5857],[-83.1438,8.6016],[-83.1633,8.6258],[-83.1835,8.6182],[-83.2145,8.6235],[-83.2231,8.6345],[-83.2526,8.6352],[-83.2577,8.6507],[-83.2832,8.6541],[-83.2962,8.6482],[-83.3094,8.6645],[-83.3341,8.6773],[-83.3348,8.7168],[-83.3793,8.7313],[-83.4087,8.7291],[-83.4272,8.7106],[-83.4712,8.7191],[-83.4744,8.693],[-83.4426,8.6612],[-83.435,8.6471],[-83.4379,8.6253],[-83.4043,8.5908],[-83.3746,8.5719],[-83.361,8.5739],[-83.3337,8.5638],[-83.3117,8.5393],[-83.2883,8.5318],[-83.2938,8.4913],[-83.2731,8.4661],[-83.2881,8.4478],[-83.2756,8.4237],[-83.2838,8.402],[-83.2804,8.3866],[-83.295,8.3712],[-83.3832,8.4049],[-83.4394,8.432],[-83.487,8.4415],[-83.5212,8.4425],[-83.5678,8.438],[-83.5927,8.4561],[-83.6159,8.4875],[-83.6372,8.4998],[-83.7084,8.5762],[-83.7287,8.577],[-83.7439,8.608],[-83.7345,8.6329],[-83.72,8.6457],[-83.7152,8.6725],[-83.694,8.6853],[-83.6556,8.6934],[-83.6393,8.7738],[-83.6525,8.7878],[-83.6274,8.8144],[-83.5923,8.838],[-83.58,8.8318],[-83.5625,8.8534],[-83.5749,8.8621],[-83.592,8.8559],[-83.6092,8.8649],[-83.6289,8.8648],[-83.6213,8.8906],[-83.5979,8.8928],[-83.6163,8.9142],[-83.6127,8.9527],[-83.6263,8.9952],[-83.6219,9.0147],[-83.6286,9.0435],[-83.6839,9.0788],[-83.7176,9.1241],[-83.7445,9.1477],[-83.7664,9.1569],[-83.7671,9.1723],[-83.7821,9.1884],[-83.8366,9.2142],[-83.8663,9.2475],[-83.9025,9.2759],[-83.9825,9.3221],[-84.0472,9.3483],[-84.0871,9.368],[-84.1302,9.3808],[-84.1488,9.3751],[-84.167,9.4034],[-84.1758,9.4334],[-84.203,9.4577],[-84.214,9.4498],[-84.2551,9.471],[-84.4185,9.5084],[-84.4776,9.5259],[-84.5358,9.5168],[-84.5556,9.5403],[-84.5766,9.5495],[-84.6165,9.5769],[-84.6233,9.5967],[-84.6427,9.6186],[-84.6602,9.6248],[-84.6559,9.6403],[-84.6732,9.6585],[-84.6765,9.6916],[-84.6607,9.716],[-84.6375,9.7369],[-84.6316,9.7531],[-84.6368,9.7782],[-84.7037,9.8641],[-84.731,9.8858],[-84.7138,9.9132],[-84.7374,9.9344],[-84.7449,9.9627],[-84.7775,9.9689],[-84.849,9.9642],[-84.8525,9.9847],[-84.916,10.0277],[-84.9324,10.0334],[-84.9457,10.0534],[-84.97,10.0592],[-84.9688,10.0844],[-84.9983,10.0951],[-85.0231,10.1209],[-85.052,10.1345],[-85.0669,10.1298],[-85.0703,10.1662],[-85.051,10.1668],[-85.0278,10.1542],[-84.975,10.1334],[-84.9533,10.1205],[-84.94,10.1208],[-84.9274,10.1434],[-84.9312,10.1631],[-84.9094,10.1829],[-84.889,10.1879],[-84.8945,10.2238],[-84.8771,10.2699],[-84.8702,10.3057],[-84.8539,10.3278],[-84.836,10.3361],[-84.8132,10.3295],[-84.7965,10.3158]]],[[[-85.1524,10.1124],[-85.1182,10.1054],[-85.1276,10.0937],[-85.1055,10.0777],[-85.1241,10.07],[-85.1663,10.0677],[-85.1889,10.0843],[-85.1941,10.1034],[-85.174,10.1191],[-85.1524,10.1124]]],[[[-85.235,9.728],[-85.2072,9.7581],[-85.1955,9.7836],[-85.1993,9.8099],[-85.1788,9.8555],[-85.2006,9.8585],[-85.2237,9.8996],[-85.2877,9.915],[-85.2986,9.9381],[-85.2827,9.9532],[-85.1894,9.9716],[-85.1777,9.9833],[-85.1648,10.0159],[-85.1158,9.9727],[-85.0913,9.9718],[-85.0726,9.9605],[-85.056,9.9711],[-85.0318,9.9564],[-85.0135,9.9339],[-84.9628,9.9352],[-84.9251,9.9189],[-84.9193,9.8997],[-84.9357,9.8845],[-84.919,9.8482],[-84.9284,9.8316],[-84.9139,9.8227],[-84.896,9.8287],[-84.8682,9.824],[-84.8833,9.8076],[-84.9004,9.8039],[-84.9225,9.7791],[-84.9369,9.7547],[-84.9522,9.7546],[-84.9611,9.723],[-84.9941,9.7418],[-85.016,9.725],[-85.0166,9.7117],[-84.9994,9.6995],[-85.013,9.6852],[-85.0341,9.6783],[-85.069,9.6477],[-85.0948,9.5684],[-85.1176,9.5629],[-85.1339,9.5689],[-85.1458,9.5848],[-85.1481,9.6138],[-85.2035,9.6712],[-85.2217,9.712],[-85.235,9.728]]]]},"properties":{"name":"Puntarenas","id":"CR-P","CNTRY":"Costa Rica","TYPE":"Province"},"id":"CR-P"},
{"type":"Feature","geometry":{"type":"Polygon","coordinates":[[[-83.9424,10.1498],[-83.9337,10.1281],[-83.9222,10.0787],[-83.8904,10.0615],[-83.8673,10.0321],[-83.8613,9.9747],[-83.8792,9.9691],[-83.8956,9.975],[-83.9145,9.9571],[-83.9906,9.9508],[-83.9985,9.9314],[-84.0259,9.9064],[-84.0273,9.8916],[-84.0009,9.8936],[-83.996,9.8799],[-84.0271,9.826],[-84.0571,9.8057],[-84.0818,9.7951],[-84.0848,9.7719],[-84.0578,9.7655],[-84.0278,9.7702],[-83.9936,9.7894],[-83.9723,9.7468],[-83.947,9.7358],[-83.9475,9.7106],[-83.9141,9.6878],[-83.89,9.6773],[-83.8491,9.6718],[-83.8393,9.6313],[-83.8264,9.6218],[-83.7734,9.6041],[-83.7628,9.5771],[-83.7406,9.572],[-83.7243,9.558],[-83.7036,9.5631],[-83.6911,9.5571],[-83.6619,9.5846],[-83.6386,9.5817],[-83.6268,9.5679],[-83.5916,9.5478],[-83.5587,9.5376],[-83.526,9.51],[-83.5038,9.4998],[-83.4871,9.485],[-83.4803,9.4539],[-83.4487,9.3861],[-83.4251,9.3692],[-83.4628,9.3207],[-83.4776,9.2897],[-83.5076,9.2595],[-83.5083,9.2316],[-83.5207,9.2094],[-83.4962,9.1944],[-83.4751,9.1947],[-83.4675,9.1721],[-83.4757,9.1502],[-83.4904,9.1354],[-83.4982,9.0986],[-83.5243,9.0823],[-83.5456,9.08],[-83.5588,9.0898],[-83.6061,9.1092],[-83.6227,9.1319],[-83.6657,9.1488],[-83.7073,9.2263],[-83.7408,9.2497],[-83.7633,9.2227],[-83.7893,9.2271],[-83.823,9.2442],[-83.8501,9.2666],[-83.8533,9.3169],[-83.8427,9.3397],[-83.8655,9.3454],[-83.8905,9.3678],[-83.9055,9.41],[-83.9216,9.4135],[-83.9359,9.3951],[-83.9545,9.3916],[-83.974,9.4091],[-83.9833,9.4322],[-83.9986,9.4288],[-84.008,9.4526],[-84.0454,9.4762],[-84.059,9.4971],[-84.0766,9.5042],[-84.0757,9.5588],[-84.0976,9.5678],[-84.1173,9.5595],[-84.1405,9.5811],[-84.1368,9.6124],[-84.1502,9.6282],[-84.1717,9.6304],[-84.2034,9.6193],[-84.2251,9.6304],[-84.2552,9.6293],[-84.2832,9.6391],[-84.3068,9.6537],[-84.324,9.6413],[-84.3728,9.6379],[-84.3961,9.6412],[-84.4036,9.6286],[-84.3952,9.6088],[-84.4323,9.5616],[-84.4473,9.584],[-84.5138,9.5774],[-84.5394,9.5857],[-84.5531,9.6021],[-84.5586,9.6386],[-84.5822,9.6638],[-84.5847,9.7006],[-84.5928,9.7241],[-84.59,9.7536],[-84.559,9.7568],[-84.5407,9.7729],[-84.5615,9.7832],[-84.5697,9.8061],[-84.5869,9.8056],[-84.5758,9.8305],[-84.5627,9.8307],[-84.5346,9.8752],[-84.4626,9.9225],[-84.3829,9.9312],[-84.3527,9.9176],[-84.3038,9.9265],[-84.2641,9.9296],[-84.2471,9.9361],[-84.215,9.9645],[-84.1883,9.9707],[-84.1525,9.9626],[-84.1343,9.9688],[-84.1146,9.964],[-84.0624,9.9744],[-84.0311,9.9899],[-84.0182,10.0047],[-84.0103,10.0346],[-84.0285,10.0626],[-84.021,10.0862],[-83.9912,10.09],[-83.9828,10.1007],[-83.9819,10.1478],[-83.9731,10.1592],[-83.9248,10.1917],[-83.9424,10.1498]]]},"properties":{"name":"San José","id":"CR-SJ","CNTRY":"Costa Rica","TYPE":"Province"},"id":"CR-SJ"}
]}