{"type":"FeatureCollection", "features": [
{"type":"Feature","geometry":{"type":"Polygon","coordinates":[[[42.3935,11.6271],[42.4111,11.6075],[42.4709,11.5685],[42.5061,11.5529],[42.5191,11.5693],[42.5299,11.5443],[42.5207,11.5318],[42.6029,11.4662],[42.624,11.4651],[42.639,11.4846],[42.6857,11.4757],[42.6899,11.5024],[42.6649,11.5149],[42.661,11.5301],[42.6754,11.5321],[42.6849,11.5488],[42.6957,11.5412],[42.7207,11.5538],[42.7829,11.5668],[42.8032,11.5876],[42.8471,11.5868],[42.8693,11.5907],[42.884,11.5849],[42.9112,11.5924],[42.9361,11.5932],[42.9361,11.5315],[43.1366,11.5335],[43.1405,11.5262],[43.1857,11.5319],[43.2012,11.5101],[43.2085,11.5179],[43.2379,11.4929],[43.239,11.4785],[43.2586,11.4608],[43.2226,11.4043],[43.0711,11.4753],[43.032,11.4692],[42.9144,11.4468],[42.8576,11.3426],[42.6745,11.2358],[42.6616,11.2345],[42.4996,11.2318],[42.3518,11.3713],[42.3356,11.5639],[42.3772,11.614],[42.3935,11.6271]]]},"properties":{"name":"Arta","id":"DJ-AR","CNTRY":"Djibouti","TYPE":"Region"},"id":"DJ-AR"},
{"type":"Feature","geometry":{"type":"Polygon","coordinates":[[[42.6091,11.0826],[42.6089,11.1954],[42.6745,11.2358],[42.8576,11.3426],[42.9144,11.4468],[43.032,11.4692],[43.0711,11.4753],[43.2226,11.4043],[43.1253,11.2473],[43.0884,11.1904],[43.0013,11.0515],[42.9859,11.0219],[42.9616,10.9844],[42.9199,10.9793],[42.8853,10.97],[42.8639,10.9719],[42.8585,10.981],[42.7902,10.9885],[42.7828,11.0063],[42.7862,11.0203],[42.7601,11.0732],[42.7206,11.0668],[42.6887,11.0563],[42.6802,11.0669],[42.6334,11.096],[42.6091,11.0826]]]},"properties":{"name":"Ali Sabieh","id":"DJ-AS","CNTRY":"Djibouti","TYPE":"Region"},"id":"DJ-AS"},
{"type":"Feature","geometry":{"type":"Polygon","coordinates":[[[42.3935,11.6271],[42.3772,11.614],[42.3356,11.5639],[42.3518,11.3713],[42.4996,11.2318],[42.6616,11.2345],[42.6745,11.2358],[42.6089,11.1954],[42.6091,11.0826],[42.6053,11.0711],[42.5504,11.0554],[42.507,11.0401],[42.4218,10.9817],[42.3641,10.9981],[42.3487,10.9858],[42.3152,10.9923],[42.2835,10.9843],[42.2684,10.9713],[42.1985,10.9642],[42.1901,10.9739],[42.1644,10.9757],[42.1462,10.9712],[42.1099,10.9708],[42.1049,10.958],[42.0868,10.958],[42.0742,10.9347],[42.046,10.9368],[42.0186,10.9229],[41.9813,10.9265],[41.9642,10.9135],[41.9523,10.9126],[41.9376,10.9323],[41.855,10.9519],[41.8243,10.9544],[41.8165,10.9658],[41.7953,10.9679],[41.7895,10.9842],[41.8026,11.0034],[41.8092,11.0595],[41.812,11.1359],[41.8149,11.1547],[41.8169,11.2541],[41.8129,11.3175],[41.8075,11.3523],[41.8013,11.3699],[41.774,11.4809],[41.7711,11.5135],[41.798,11.5613],[41.7969,11.5773],[41.8133,11.6108],[41.8108,11.6374],[41.8408,11.7342],[41.8993,11.7655],[41.9041,11.7849],[41.9575,11.8109],[41.9995,11.8743],[42.147,11.8463],[42.1856,11.8312],[42.3618,11.6557],[42.3935,11.6271]]]},"properties":{"name":"Dikhil","id":"DJ-DI","CNTRY":"Djibouti","TYPE":"Region"},"id":"DJ-DI"},
{"type":"Feature","geometry":{"type":"Polygon","coordinates":[[[43.1857,11.5319],[43.1405,11.5262],[43.1366,11.5335],[42.9361,11.5315],[42.9361,11.5932],[42.9579,11.5949],[42.9832,11.5907],[43.0279,11.5951],[43.046,11.5924],[43.071,11.596],[43.0943,11.5807],[43.1415,11.5912],[43.1515,11.5976],[43.1699,11.554],[43.1857,11.5319]]]},"properties":{"name":"Djibouti","id":"DJ-DJ","CNTRY":"Djibouti","TYPE":"City"},"id":"DJ-DJ"},
{"type":"Feature","geometry":{"type":"Polygon","coordinates":[[[43.0879,11.8429],[43.0668,11.8554],[43.0492,11.8717],[43.0317,11.9062],[43.0291,11.9205],[43.0154,11.9472],[42.9822,11.9797],[42.8915,12.0787],[42.8207,12.1535],[42.8155,12.1678],[42.7843,12.188],[42.7615,12.1932],[42.7361,12.2068],[42.6938,12.2485],[42.6717,12.2999],[42.6613,12.3155],[42.6723,12.3357],[42.6938,12.348],[42.6963,12.3602],[42.7162,12.385],[42.7467,12.3854],[42.7636,12.413],[42.8029,12.417],[42.8233,12.4357],[42.8179,12.4619],[42.7972,12.4764],[42.7998,12.5073],[42.8282,12.5457],[42.8408,12.5443],[42.8618,12.5702],[42.8657,12.5933],[42.8798,12.5973],[42.8896,12.6188],[42.9157,12.6142],[42.9264,12.6247],[42.9487,12.6294],[42.9652,12.6466],[43.1296,12.7121],[43.1412,12.7076],[43.1476,12.6778],[43.1663,12.6318],[43.1826,12.617],[43.2122,12.5742],[43.2488,12.5321],[43.2722,12.4924],[43.2929,12.4729],[43.3021,12.4565],[43.3215,12.4568],[43.3262,12.4271],[43.3338,12.4065],[43.3485,12.3954],[43.3568,12.3799],[43.3674,12.3329],[43.3751,12.2704],[43.3838,12.2646],[43.4082,12.2196],[43.4099,12.1871],[43.406,12.1796],[43.4174,12.1268],[43.4148,12.0851],[43.4082,12.0585],[43.3726,11.984],[43.3626,11.9771],[43.3057,11.9793],[43.2904,11.959],[43.2443,11.961],[43.2124,11.9579],[43.1776,11.9482],[43.1399,11.9015],[43.1207,11.889],[43.1113,11.8707],[43.0879,11.8429]]]},"properties":{"name":"Obock","id":"DJ-OB","CNTRY":"Djibouti","TYPE":"Region"},"id":"DJ-OB"},
{"type":"Feature","geometry":{"type":"Polygon","coordinates":[[[42.6963,12.3602],[42.6938,12.348],[42.6723,12.3357],[42.6613,12.3155],[42.6717,12.2999],[42.6938,12.2485],[42.7361,12.2068],[42.7615,12.1932],[42.7843,12.188],[42.8155,12.1678],[42.8207,12.1535],[42.8915,12.0787],[42.9822,11.9797],[43.0154,11.9472],[43.0291,11.9205],[43.0317,11.9062],[43.0492,11.8717],[43.0668,11.8554],[43.0879,11.8429],[43.0735,11.8354],[43.0482,11.8085],[43.0015,11.8101],[42.9765,11.8051],[42.9585,11.7801],[42.9432,11.7701],[42.9235,11.7801],[42.8896,11.7799],[42.8712,11.7857],[42.8565,11.7726],[42.8379,11.7715],[42.8196,11.7518],[42.7832,11.749],[42.7732,11.7396],[42.7621,11.7157],[42.7513,11.704],[42.7449,11.6762],[42.7207,11.6635],[42.699,11.6351],[42.6935,11.6201],[42.691,11.5868],[42.6726,11.5579],[42.6593,11.5649],[42.6488,11.5568],[42.6324,11.5582],[42.6062,11.5746],[42.5829,11.5629],[42.5554,11.5863],[42.5262,11.5915],[42.5191,11.5693],[42.5061,11.5529],[42.4709,11.5685],[42.4111,11.6075],[42.3935,11.6271],[42.3618,11.6557],[42.1856,11.8312],[42.147,11.8463],[41.9995,11.8743],[42.038,11.9299],[42.075,11.9762],[42.1057,12.0331],[42.1238,12.0754],[42.1324,12.0834],[42.1596,12.0885],[42.1706,12.1296],[42.184,12.146],[42.2033,12.1809],[42.2296,12.2103],[42.2546,12.2478],[42.317,12.3085],[42.3402,12.3811],[42.3943,12.4532],[42.4186,12.482],[42.4558,12.5187],[42.5153,12.5054],[42.5431,12.4937],[42.5884,12.4611],[42.6452,12.3987],[42.6963,12.3602]]]},"properties":{"name":"Tadjourah","id":"DJ-TA","CNTRY":"Djibouti","TYPE":"Region"},"id":"DJ-TA"}
]}