{"type":"FeatureCollection", "features": [
{"type":"Feature","geometry":{"type":"Polygon","coordinates":[[[-6.5912,62.3867],[-6.5678,62.4007],[-6.5344,62.3929],[-6.51,62.3716],[-6.5107,62.3565],[-6.4913,62.3404],[-6.4706,62.3291],[-6.4724,62.3075],[-6.454,62.3097],[-6.4437,62.3268],[-6.3996,62.3079],[-6.4233,62.2941],[-6.4251,62.2795],[-6.512,62.2924],[-6.5293,62.3211],[-6.5518,62.3471],[-6.5448,62.3607],[-6.5523,62.3721],[-6.5833,62.379],[-6.5912,62.3867]]]},"properties":{"name":"Norðoyar","id":"FO-NO","NAME_ALT":"Norðoyar","CNTRY":"Faroe Islands","TYPE":"Region"},"id":"FO-NO"},
{"type":"Feature","geometry":{"type":"Polygon","coordinates":[[[-6.7379,61.6905],[-6.7622,61.6912],[-6.7612,61.7101],[-6.7439,61.7031],[-6.7379,61.6905]]]},"properties":{"name":"Sandoy","id":"FO-SA","NAME_ALT":"Sandoyar","CNTRY":"Faroe Islands","TYPE":"Region"},"id":"FO-SA"},
{"type":"Feature","geometry":{"type":"Polygon","coordinates":[[[-6.6941,62.1444],[-6.6613,62.138],[-6.6201,62.115],[-6.6456,62.1068],[-6.6706,62.1058],[-6.6732,62.0908],[-6.6833,62.0799],[-6.6772,62.0702],[-6.6978,62.0618],[-6.7339,62.0951],[-6.7389,62.1071],[-6.7202,62.1148],[-6.7299,62.1432],[-6.7709,62.1781],[-6.7957,62.1872],[-6.8237,62.202],[-6.8311,62.1947],[-6.7794,62.1674],[-6.7532,62.1446],[-6.7505,62.1217],[-6.7633,62.1066],[-6.7739,62.1016],[-6.7911,62.115],[-6.8142,62.1263],[-6.8291,62.1295],[-6.8606,62.1556],[-6.8965,62.1664],[-6.9256,62.1627],[-6.9561,62.1826],[-6.9621,62.1895],[-6.9901,62.1949],[-7.0025,62.2152],[-7.036,62.2425],[-7.0603,62.2695],[-7.069,62.2876],[-7.0823,62.3038],[-7.1118,62.3032],[-7.0981,62.3255],[-7.0735,62.3154],[-7.0384,62.3204],[-7.0167,62.33],[-7.0123,62.3368],[-6.9568,62.3431],[-6.9355,62.3303],[-6.9012,62.3209],[-6.9569,62.2971],[-6.9467,62.2828],[-6.9055,62.287],[-6.8923,62.2926],[-6.8472,62.2977],[-6.826,62.2914],[-6.8413,62.2843],[-6.8494,62.2668],[-6.8071,62.2749],[-6.7695,62.265],[-6.7559,62.2556],[-6.7631,62.2447],[-6.797,62.2325],[-6.7725,62.2236],[-6.7431,62.23],[-6.727,62.2288],[-6.7043,62.218],[-6.6292,62.2053],[-6.6257,62.1872],[-6.6334,62.1839],[-6.6848,62.1956],[-6.7403,62.2009],[-6.7447,62.1885],[-6.7298,62.1782],[-6.7117,62.1775],[-6.685,62.1672],[-6.659,62.1625],[-6.6276,62.1499],[-6.6426,62.1469],[-6.6937,62.1491],[-6.6941,62.1444]]]},"properties":{"name":"Eysturoy","id":"FO-OS","NAME_ALT":"Eysturoyar","CNTRY":"Faroe Islands","TYPE":"Region"},"id":"FO-OS"},
{"type":"Feature","geometry":{"type":"Polygon","coordinates":[[[-6.61,61.9603],[-6.6214,61.9515],[-6.6382,61.9598],[-6.6725,61.9888],[-6.6636,62.0111],[-6.6273,61.9888],[-6.6285,61.9787],[-6.611,61.9665],[-6.61,61.9603]]]},"properties":{"name":"Streymoy","id":"FO-ST","NAME_ALT":"Streymoyar","CNTRY":"Faroe Islands","TYPE":"Region"},"id":"FO-ST"},
{"type":"Feature","geometry":{"type":"Polygon","coordinates":[[[-6.6698,61.4157],[-6.6756,61.3949],[-6.7111,61.4056],[-6.7474,61.4137],[-6.7597,61.4214],[-6.7678,61.4355],[-6.8207,61.4581],[-6.8387,61.4682],[-6.8492,61.4683],[-6.8969,61.5144],[-6.885,61.5335],[-6.9154,61.5461],[-6.9186,61.5555],[-6.9331,61.569],[-6.9603,61.5783],[-6.9686,61.5842],[-6.9679,61.5947],[-6.9933,61.6099],[-6.9893,61.6202],[-6.9998,61.6299],[-6.9722,61.6399],[-6.9743,61.6518],[-6.9162,61.6575],[-6.8932,61.6491],[-6.916,61.6378],[-6.8913,61.634],[-6.8883,61.6285],[-6.9189,61.6165],[-6.9391,61.6024],[-6.8848,61.6083],[-6.8516,61.6087],[-6.8348,61.6013],[-6.8268,61.5858],[-6.8044,61.5828],[-6.7955,61.5861],[-6.7507,61.5813],[-6.754,61.5692],[-6.7372,61.5628],[-6.7472,61.5496],[-6.7682,61.5513],[-6.7776,61.5473],[-6.7927,61.5572],[-6.8304,61.5674],[-6.8334,61.5637],[-6.7937,61.5498],[-6.7889,61.5445],[-6.7537,61.5392],[-6.7312,61.5255],[-6.7229,61.511],[-6.7556,61.5104],[-6.7288,61.4941],[-6.7567,61.4768],[-6.7953,61.4795],[-6.7721,61.4626],[-6.7564,61.462],[-6.7253,61.4672],[-6.7132,61.4646],[-6.7228,61.4488],[-6.692,61.4516],[-6.6886,61.433],[-6.6698,61.4157]]]},"properties":{"name":"Suðuroy","id":"FO-SU","NAME_ALT":"Suðuroyar","CNTRY":"Faroe Islands","TYPE":"Region"},"id":"FO-SU"},
{"type":"Feature","geometry":{"type":"Polygon","coordinates":[[[-7.5395,62.1036],[-7.5234,62.0944],[-7.5651,62.0984],[-7.6209,62.101],[-7.642,62.1053],[-7.626,62.1131],[-7.5968,62.1216],[-7.5792,62.1212],[-7.5395,62.1036]]]},"properties":{"name":"Vágar","id":"FO-VG","NAME_ALT":"Vága","CNTRY":"Faroe Islands","TYPE":"Region"},"id":"FO-VG"}
]}