{"type":"FeatureCollection", "features": [
{"type":"Feature","geometry":{"type":"MultiPolygon","coordinates":[[[[179.9038,-16.2311],[179.8512,-16.2909],[179.7981,-16.3696],[179.781,-16.403],[179.7385,-16.4592],[179.6939,-16.4773],[179.5979,-16.5398],[179.5823,-16.567],[179.5715,-16.6256],[179.5236,-16.659],[179.4888,-16.7076],[179.4861,-16.766],[179.5203,-16.7496],[179.5481,-16.766],[179.5852,-16.7294],[179.6326,-16.7102],[179.6409,-16.6873],[179.6711,-16.6769],[179.6984,-16.6495],[179.7227,-16.6044],[179.7567,-16.5768],[179.8141,-16.5463],[179.8511,-16.5086],[179.9395,-16.4633],[179.9535,-16.4996],[179.8901,-16.6147],[179.8486,-16.6624],[179.8919,-16.676],[179.9038,-16.7177],[179.9497,-16.7301],[179.9419,-16.7526],[179.8963,-16.7382],[179.8757,-16.7695],[179.8579,-16.7519],[179.802,-16.7177],[179.7808,-16.725],[179.7263,-16.7177],[179.6999,-16.7353],[179.6438,-16.7457],[179.6333,-16.7659],[179.5969,-16.7888],[179.4714,-16.8012],[179.4382,-16.8139],[179.4038,-16.8023],[179.2969,-16.8068],[179.3234,-16.7712],[179.3547,-16.7585],[179.3514,-16.7314],[179.308,-16.7177],[179.2664,-16.6899],[179.172,-16.7226],[179.1229,-16.7587],[179.1234,-16.7896],[179.0957,-16.8071],[179.0654,-16.7989],[179.0444,-16.8238],[179.0199,-16.8952],[179.0454,-16.8801],[179.0656,-16.8935],[179.0269,-16.9231],[178.9675,-16.9063],[178.9453,-16.8775],[178.8838,-16.8577],[178.8213,-16.9026],[178.801,-16.9777],[178.7627,-17.0051],[178.7053,-16.9988],[178.6807,-16.9583],[178.6704,-16.899],[178.6275,-16.8377],[178.6364,-16.8071],[178.6023,-16.7797],[178.5407,-16.8092],[178.5116,-16.8142],[178.4856,-16.7934],[178.4836,-16.7599],[178.5065,-16.7304],[178.5402,-16.704],[178.568,-16.704],[178.5856,-16.6651],[178.5527,-16.659],[178.5339,-16.629],[178.5718,-16.6155],[178.6188,-16.6452],[178.6501,-16.6495],[178.6809,-16.6681],[178.7176,-16.6495],[178.7733,-16.6033],[178.7977,-16.6066],[178.8486,-16.5463],[178.8555,-16.567],[178.8862,-16.5523],[178.9309,-16.5126],[178.917,-16.4706],[178.9427,-16.4604],[178.9651,-16.4706],[179.0542,-16.454],[179.1367,-16.4298],[179.1776,-16.4298],[179.1913,-16.408],[179.2404,-16.3981],[179.2983,-16.4091],[179.3293,-16.408],[179.3587,-16.3881],[179.3965,-16.4057],[179.3977,-16.3478],[179.4178,-16.3539],[179.4314,-16.319],[179.4582,-16.3199],[179.4712,-16.274],[179.4861,-16.2652],[179.5544,-16.2726],[179.5632,-16.2374],[179.6028,-16.2521],[179.6248,-16.2483],[179.7644,-16.1814],[179.7727,-16.2194],[179.793,-16.2265],[179.8145,-16.2077],[179.856,-16.2311],[179.9107,-16.1799],[179.9832,-16.1491],[180,-16.1491],[180,-16.169],[179.938,-16.2243],[179.9038,-16.2311]]],[[[179.9175,-16.6555],[179.9102,-16.6321],[179.945,-16.6187],[179.9358,-16.6541],[179.9175,-16.6555]]],[[[179.9411,-17.0019],[179.9175,-16.9988],[179.8942,-16.9675],[179.8953,-16.9391],[179.9312,-16.9094],[179.9673,-16.8583],[180,-16.7853],[180,-16.9628],[179.9668,-16.9933],[179.9411,-17.0019]]],[[[178.2947,-16.7921],[178.334,-16.7934],[178.3337,-16.8289],[178.283,-16.8224],[178.2947,-16.7921]]]]},"properties":{"name":"Northern","id":"FJ-N","TYPE":"Division","CNTRY":"Fiji"},"id":"FJ-N"},
{"type":"Feature","geometry":{"type":"MultiPolygon","coordinates":[[[[178.7851,-17.7402],[178.7582,-17.7299],[178.7394,-17.6733],[178.7511,-17.6434],[178.7979,-17.6186],[178.8168,-17.6289],[178.8355,-17.6932],[178.8229,-17.7291],[178.7851,-17.7402]]],[[[178.5376,-18.9005],[178.5083,-18.9264],[178.4719,-18.9072],[178.4959,-18.863],[178.5265,-18.8766],[178.5376,-18.9005]]],[[[179.0408,-17.6562],[178.9974,-17.608],[179.026,-17.6106],[179.0408,-17.6562]]],[[[178.7795,-17.7661],[178.7727,-17.7804],[178.7347,-17.7676],[178.7419,-17.7496],[178.7795,-17.7661]]],[[[179.7975,-19.1684],[179.802,-19.1843],[179.7459,-19.1901],[179.7566,-19.1277],[179.7886,-19.1305],[179.7975,-19.1684]]],[[[178.3826,-18.9249],[178.4227,-18.9397],[178.4303,-18.9553],[178.4856,-18.9651],[178.4966,-19.0133],[178.4167,-19.0478],[178.3415,-19.0478],[178.3483,-19.0204],[178.3073,-18.9972],[178.2815,-19.0074],[178.2385,-19.041],[178.1951,-19.0475],[178.1743,-19.0759],[178.195,-19.1056],[178.1975,-19.1393],[178.1702,-19.157],[178.1482,-19.1275],[178.1287,-19.1297],[178.1066,-19.1545],[178.076,-19.1547],[178.0371,-19.1428],[178.0037,-19.1575],[177.9512,-19.1297],[177.9815,-19.1013],[178.0298,-19.0938],[178.0412,-19.0615],[178.0632,-19.0564],[178.1195,-19.0704],[178.1497,-19.0341],[178.1721,-19.0353],[178.1764,-18.9993],[178.1907,-18.9772],[178.2261,-18.9641],[178.2659,-18.9621],[178.2937,-18.9726],[178.3019,-18.944],[178.345,-18.9249],[178.3826,-18.9249]]],[[[179.8918,-18.6096],[179.921,-18.6226],[179.8828,-18.6625],[179.8716,-18.6288],[179.8307,-18.5893],[179.8882,-18.5669],[179.9434,-18.5564],[179.9447,-18.5806],[179.9208,-18.586],[179.8918,-18.6096]]],[[[179.3125,-17.9474],[179.3608,-18.026],[179.363,-18.0798],[179.3503,-18.1188],[179.3109,-18.0898],[179.2974,-18.0504],[179.2783,-18.0276],[179.2495,-18.0322],[179.2503,-17.9513],[179.2721,-17.9345],[179.3125,-17.9474]]],[[[179.4308,-17.8411],[179.4168,-17.8455],[179.395,-17.8064],[179.3967,-17.7804],[179.4308,-17.794],[179.4308,-17.8411]]],[[[179.4178,-17.3757],[179.3835,-17.3906],[179.3814,-17.3152],[179.3688,-17.2868],[179.3787,-17.2494],[179.4378,-17.2418],[179.4483,-17.2491],[179.4499,-17.3161],[179.4178,-17.3757]]]]},"properties":{"name":"Eastern","id":"FJ-E","TYPE":"Division","CNTRY":"Fiji"},"id":"FJ-E"},
{"type":"Feature","geometry":{"type":"Polygon","coordinates":[[[177.1248,-12.4861],[177.1136,-12.5114],[177.0734,-12.5169],[177.0436,-12.5085],[177.0597,-12.4753],[177.1248,-12.4861]]]},"properties":{"name":"Rotuma","id":"FJ-R","TYPE":"Dependency","CNTRY":"Fiji"},"id":"FJ-R"},
{"type":"Feature","geometry":{"type":"MultiPolygon","coordinates":[[[[174.6278,-21.7026],[174.5969,-21.6984],[174.594,-21.6687],[174.6266,-21.6765],[174.6278,-21.7026]]],[[[177.4934,-16.8027],[177.4714,-16.8344],[177.4297,-16.8344],[177.4372,-16.7934],[177.4754,-16.7966],[177.5586,-16.7214],[177.5799,-16.6782],[177.594,-16.7],[177.5565,-16.7538],[177.4934,-16.8027]]],[[[177.2927,-17.0724],[177.2717,-17.1127],[177.1902,-17.1559],[177.186,-17.1203],[177.2025,-17.111],[177.2112,-17.0808],[177.2406,-17.0568],[177.2659,-17.0808],[177.2927,-17.0724]]],[[[177.4026,-16.9311],[177.3731,-16.9029],[177.4129,-16.8913],[177.4026,-16.9311]]],[[[178.4483,-17.5503],[178.4468,-17.6018],[178.4269,-17.6642],[178.3223,-17.6435],[178.2826,-17.6222],[178.2613,-17.6555],[178.2131,-17.6682],[178.1392,-17.6682],[178.0979,-17.6423],[178.0506,-17.5785],[178.0239,-17.5809],[178.0326,-17.6294],[178.0091,-17.6689],[178.0051,-17.7348],[178.0245,-17.738],[178.0817,-17.6882],[178.0981,-17.7107],[178.0371,-17.7591],[177.9909,-17.8078],[177.9713,-17.8629],[177.993,-17.8926],[177.9865,-17.9225],[178.0076,-17.9533],[177.9805,-17.9939],[177.9353,-18.0005],[177.858,-17.981],[177.8152,-17.9854],[177.7994,-18.0019],[177.7692,-18.0577],[177.7824,-18.107],[177.8261,-18.123],[177.7973,-18.1702],[177.7834,-18.2232],[177.645,-18.1911],[177.5916,-18.1667],[177.5676,-18.1701],[177.5369,-18.1568],[177.4745,-18.1578],[177.4372,-18.136],[177.3667,-18.1191],[177.3359,-18.1056],[177.3136,-18.0739],[177.2858,-18.009],[177.263,-17.9938],[177.2516,-17.9522],[177.2715,-17.9042],[177.259,-17.8793],[177.2821,-17.8517],[177.3273,-17.8486],[177.3714,-17.8234],[177.3703,-17.7497],[177.416,-17.7599],[177.4353,-17.7433],[177.4206,-17.6783],[177.3957,-17.663],[177.3889,-17.6406],[177.4204,-17.6223],[177.4343,-17.5979],[177.4651,-17.588],[177.4675,-17.5553],[177.4896,-17.5589],[177.5151,-17.5051],[177.5396,-17.5121],[177.5813,-17.4781],[177.6221,-17.4547],[177.6311,-17.4392],[177.6631,-17.4439],[177.7101,-17.4179],[177.7488,-17.4303],[177.7609,-17.4015],[177.8333,-17.3665],[177.8363,-17.4213],[177.876,-17.3893],[177.9266,-17.4059],[177.9784,-17.3967],[178.0422,-17.3569],[178.0814,-17.3483],[178.1138,-17.3532],[178.1511,-17.3469],[178.1808,-17.3293],[178.1901,-17.3006],[178.2627,-17.3356],[178.2865,-17.3837],[178.2795,-17.4074],[178.2454,-17.4439],[178.2586,-17.4689],[178.3037,-17.4303],[178.3483,-17.4401],[178.3757,-17.4713],[178.3743,-17.4914],[178.4036,-17.5224],[178.4483,-17.5503]]],[[[177.1492,-17.2453],[177.156,-17.267],[177.1377,-17.2948],[177.1013,-17.3006],[177.1052,-17.2597],[177.1492,-17.2453]]],[[[177.6563,-18.5407],[177.627,-18.5437],[177.619,-18.5119],[177.6351,-18.486],[177.6541,-18.5041],[177.6563,-18.5407]]]]},"properties":{"name":"Western","id":"FJ-W","TYPE":"Division","CNTRY":"Fiji"},"id":"FJ-W"},
{"type":"Feature","geometry":{"type":"MultiPolygon","coordinates":[[[[178.4483,-17.5503],[178.4963,-17.5651],[178.5303,-17.6083],[178.573,-17.6179],[178.6023,-17.65],[178.6033,-17.6746],[178.5806,-17.71],[178.5677,-17.755],[178.6023,-17.7866],[178.5989,-17.8194],[178.6206,-17.8235],[178.636,-17.8637],[178.6227,-17.8902],[178.5911,-17.8976],[178.5949,-17.926],[178.6262,-17.9714],[178.6543,-17.9784],[178.677,-18.0114],[178.6984,-18.0193],[178.6984,-18.0431],[178.6636,-18.0882],[178.613,-18.1124],[178.5597,-18.127],[178.555,-18.0992],[178.5271,-18.09],[178.4856,-18.1087],[178.4702,-18.1419],[178.4031,-18.1013],[178.3784,-18.1272],[178.3484,-18.1169],[178.3093,-18.1402],[178.277,-18.1463],[178.2566,-18.1777],[178.2142,-18.2011],[178.1683,-18.2485],[178.1355,-18.2594],[178.1131,-18.2394],[178.0389,-18.2649],[177.9784,-18.2527],[177.9458,-18.2687],[177.9211,-18.2607],[177.8941,-18.2731],[177.8594,-18.2658],[177.8272,-18.2345],[177.7834,-18.2232],[177.7973,-18.1702],[177.8261,-18.123],[177.7824,-18.107],[177.7692,-18.0577],[177.7994,-18.0019],[177.8152,-17.9854],[177.858,-17.981],[177.9353,-18.0005],[177.9805,-17.9939],[178.0076,-17.9533],[177.9865,-17.9225],[177.993,-17.8926],[177.9713,-17.8629],[177.9909,-17.8078],[178.0371,-17.7591],[178.0981,-17.7107],[178.0817,-17.6882],[178.0245,-17.738],[178.0051,-17.7348],[178.0091,-17.6689],[178.0326,-17.6294],[178.0239,-17.5809],[178.0506,-17.5785],[178.0979,-17.6423],[178.1392,-17.6682],[178.2131,-17.6682],[178.2613,-17.6555],[178.2826,-17.6222],[178.3223,-17.6435],[178.4269,-17.6642],[178.4468,-17.6018],[178.4483,-17.5503]]],[[[178.1423,-18.4119],[178.1204,-18.3849],[178.1276,-18.3517],[178.156,-18.3762],[178.1423,-18.4119]]]]},"properties":{"name":"Central","id":"FJ-C","TYPE":"Division","CNTRY":"Fiji"},"id":"FJ-C"}
]}