{"type":"FeatureCollection", "features": [
{"type":"Feature","geometry":{"type":"Polygon","coordinates":[[[-10.5969,9.0567],[-10.4745,9.0696],[-10.4314,9.0441],[-10.4681,8.9788],[-10.3611,9.0026],[-10.3308,9.0631],[-10.2765,9.0328],[-10.2701,8.9563],[-10.2174,8.9483],[-10.1631,8.8829],[-10.0689,8.8717],[-9.9971,8.8892],[-9.9859,8.819],[-9.9508,8.8063],[-9.8774,8.8492],[-9.8071,8.8428],[-9.7593,8.889],[-9.6523,8.8889],[-9.6124,8.8714],[-9.5342,8.8665],[-9.3969,8.8967],[-9.3187,8.8488],[-9.2484,8.7834],[-9.1574,8.7642],[-9.0585,8.8008],[-8.9451,8.7705],[-8.8382,8.8485],[-8.7904,8.9138],[-8.7122,8.9424],[-8.6946,8.9838],[-8.725,9.0683],[-8.7059,9.1384],[-8.6581,9.1862],[-8.6182,9.3056],[-8.6295,9.4602],[-8.5816,9.4347],[-8.5449,9.4777],[-8.3503,9.5779],[-8.1475,9.5841],[-8.1499,9.5367],[-8.0603,9.4018],[-7.9681,9.396],[-7.85,9.4377],[-7.8885,9.3423],[-7.8874,9.2906],[-7.9257,9.2173],[-7.8819,9.1577],[-7.8378,9.1505],[-7.788,9.1061],[-7.9183,9.004],[-7.9171,8.967],[-7.9548,8.8694],[-7.9613,8.8104],[-7.9159,8.7655],[-7.8612,8.7777],[-7.7679,8.762],[-7.6876,8.5448],[-7.6611,8.5058],[-7.6814,8.4485],[-7.6411,8.3774],[-7.7451,8.3733],[-7.7884,8.4637],[-7.8866,8.417],[-7.9381,8.5011],[-7.9851,8.4838],[-8.0954,8.5058],[-8.1209,8.4887],[-8.1983,8.5016],[-8.2456,8.4425],[-8.2257,8.3549],[-8.238,8.3278],[-8.2191,8.234],[-8.1796,8.1998],[-8.1264,8.1962],[-8.0689,8.1615],[-8.009,8.1638],[-8.0144,8.1023],[-7.9466,8.0424],[-7.9482,8.0073],[-8.0407,8.0328],[-8.1172,7.8588],[-8.0718,7.8083],[-8.094,7.722],[-8.1399,7.6933],[-8.1726,7.5817],[-8.2149,7.5337],[-8.3028,7.6014],[-8.3797,7.579],[-8.4174,7.6082],[-8.4722,7.5546],[-8.5653,7.6259],[-8.5597,7.6926],[-8.6594,7.6962],[-8.7068,7.64],[-8.7226,7.5522],[-8.709,7.5083],[-8.7799,7.4122],[-8.8458,7.3474],[-8.8335,7.2835],[-8.8635,7.2581],[-8.937,7.2856],[-9.0844,7.2026],[-9.1161,7.2737],[-9.1902,7.3032],[-9.2273,7.3894],[-9.2746,7.3795],[-9.2953,7.4226],[-9.4109,7.4235],[-9.4187,7.4717],[-9.3546,7.6257],[-9.3707,7.682],[-9.3439,7.7487],[-9.4235,7.8623],[-9.4324,7.9479],[-9.4097,7.9795],[-9.4593,8.1055],[-9.4635,8.1659],[-9.5198,8.1794],[-9.4882,8.2673],[-9.501,8.311],[-9.4801,8.3768],[-9.5333,8.3834],[-9.6605,8.4887],[-9.8043,8.5026],[-9.9194,8.498],[-9.995,8.4413],[-10.0674,8.4293],[-10.0549,8.4958],[-10.1255,8.5253],[-10.2126,8.4805],[-10.3314,8.5029],[-10.386,8.4929],[-10.4084,8.4502],[-10.5122,8.336],[-10.5535,8.3077],[-10.5971,8.3323],[-10.674,8.3409],[-10.6531,8.3879],[-10.6496,8.4763],[-10.5795,8.5957],[-10.4818,8.6379],[-10.4694,8.6746],[-10.5834,8.8216],[-10.5984,8.9737],[-10.5969,9.0567]]]},"properties":{"name":"Nzérékoré","id":"GN-N","CNTRY":"Guinea","TYPE":"Region"},"id":"GN-N"},
{"type":"Feature","geometry":{"type":"Polygon","coordinates":[[[-12.7905,11.1127],[-12.7379,11.2321],[-12.6597,11.2799],[-12.631,11.3213],[-12.5704,11.3388],[-12.4985,11.2845],[-12.5032,11.232],[-12.4808,11.1555],[-12.4266,11.1315],[-12.3675,11.1729],[-12.2782,11.1967],[-12.2494,11.1489],[-12.1648,11.1919],[-12.1361,11.2731],[-12.0771,11.2986],[-12.018,11.2922],[-11.9637,11.2204],[-11.8791,11.1789],[-11.8982,11.0833],[-11.8678,11.0243],[-11.7433,10.9876],[-11.6539,11.0831],[-11.5773,11.0958],[-11.5056,11.185],[-11.3859,11.2311],[-11.3396,11.2677],[-11.3092,11.1785],[-11.2549,11.1482],[-11.1527,11.0525],[-11.2772,10.9872],[-11.3905,10.9714],[-11.4575,10.9937],[-11.5293,10.9061],[-11.4383,10.828],[-11.4573,10.7037],[-11.5115,10.6081],[-11.529,10.5189],[-11.4444,10.4599],[-11.3981,10.4551],[-11.3789,10.334],[-11.3788,10.2575],[-11.4091,10.1444],[-11.4681,10.0552],[-11.4743,9.9996],[-11.8858,9.9975],[-11.9066,9.9358],[-12.12,9.8719],[-12.1471,9.8771],[-12.1767,9.9792],[-12.1289,10.027],[-12.1641,10.1401],[-12.2312,10.2278],[-12.2312,10.2693],[-12.3446,10.2885],[-12.4212,10.2694],[-12.4435,10.3236],[-12.4101,10.4558],[-12.4437,10.5324],[-12.5108,10.5675],[-12.5028,10.6392],[-12.6241,10.5548],[-12.6416,10.5612],[-12.7485,10.4848],[-12.8204,10.5374],[-12.8843,10.5486],[-12.9273,10.5152],[-12.9865,10.6029],[-12.9434,10.657],[-12.9323,10.7272],[-12.969,10.8005],[-12.9516,10.9359],[-12.9037,10.9885],[-12.8319,11.0203],[-12.7905,11.1127]]]},"properties":{"name":"Mamou","id":"GN-M","CNTRY":"Guinea","TYPE":"Region"},"id":"GN-M"},
{"type":"Feature","geometry":{"type":"Polygon","coordinates":[[[-11.1654,12.0333],[-11.1533,11.9321],[-11.0831,11.8954],[-11.0718,11.7488],[-11.1005,11.6946],[-11.142,11.6899],[-11.1419,11.6309],[-11.2074,11.5879],[-11.1961,11.5353],[-11.1371,11.5289],[-11.1243,11.4811],[-11.1897,11.4222],[-11.2663,11.4047],[-11.3397,11.3092],[-11.3396,11.2677],[-11.3859,11.2311],[-11.5056,11.185],[-11.5773,11.0958],[-11.6539,11.0831],[-11.7433,10.9876],[-11.8678,11.0243],[-11.8982,11.0833],[-11.8791,11.1789],[-11.9637,11.2204],[-12.018,11.2922],[-12.0771,11.2986],[-12.1361,11.2731],[-12.1648,11.1919],[-12.2494,11.1489],[-12.2782,11.1967],[-12.3675,11.1729],[-12.4266,11.1315],[-12.4808,11.1555],[-12.5032,11.232],[-12.4985,11.2845],[-12.5704,11.3388],[-12.631,11.3213],[-12.6597,11.2799],[-12.7379,11.2321],[-12.7905,11.1127],[-12.8847,11.1446],[-12.9278,11.1016],[-12.9981,11.1925],[-12.987,11.3327],[-12.8737,11.441],[-12.7668,11.4935],[-12.7605,11.5301],[-12.7078,11.5652],[-12.7126,11.6257],[-12.7557,11.6321],[-12.8212,11.6959],[-12.7909,11.7246],[-12.8086,11.833],[-12.7735,11.8967],[-12.815,11.9397],[-12.8326,12.0577],[-12.8087,12.1007],[-12.8327,12.1485],[-12.7562,12.2552],[-12.5594,12.3682],[-12.4741,12.3991],[-12.404,12.3687],[-12.3436,12.3073],[-12.2348,12.3551],[-12.1592,12.368],[-12.0968,12.4213],[-11.9987,12.3969],[-11.9033,12.4309],[-11.8494,12.3974],[-11.7125,12.3935],[-11.6638,12.4234],[-11.5314,12.4428],[-11.4597,12.4415],[-11.3796,12.4136],[-11.4397,12.3786],[-11.4349,12.2868],[-11.4978,12.2095],[-11.469,12.1387],[-11.376,12.1039],[-11.3618,12.0599],[-11.2575,11.9925],[-11.1654,12.0333]]]},"properties":{"name":"Labé","id":"GN-L","CNTRY":"Guinea","TYPE":"Region"},"id":"GN-L"},
{"type":"Feature","geometry":{"type":"Polygon","coordinates":[[[-8.1475,9.5841],[-8.3503,9.5779],[-8.5449,9.4777],[-8.5816,9.4347],[-8.6295,9.4602],[-8.6182,9.3056],[-8.6581,9.1862],[-8.7059,9.1384],[-8.725,9.0683],[-8.6946,8.9838],[-8.7122,8.9424],[-8.7904,8.9138],[-8.8382,8.8485],[-8.9451,8.7705],[-9.0585,8.8008],[-9.1574,8.7642],[-9.2484,8.7834],[-9.3187,8.8488],[-9.3969,8.8967],[-9.5342,8.8665],[-9.6124,8.8714],[-9.6523,8.9367],[-9.6237,8.9909],[-9.6939,9.0324],[-9.7419,9.1981],[-9.718,9.2348],[-9.6462,9.2522],[-9.6462,9.3],[-9.5936,9.3542],[-9.6463,9.461],[-9.8252,9.5265],[-9.9258,9.6556],[-10.0056,9.6557],[-10.0646,9.6079],[-10.1413,9.6988],[-10.237,9.5746],[-10.2769,9.5427],[-10.3727,9.5492],[-10.427,9.597],[-10.4031,9.6384],[-10.4143,9.7341],[-10.3665,9.7802],[-10.3729,9.8535],[-10.325,9.8933],[-10.3618,10.0001],[-10.2901,10.1021],[-10.2008,10.2024],[-10.2375,10.2566],[-10.1243,10.4175],[-10.1945,10.4589],[-10.2377,10.5179],[-10.351,10.5308],[-10.4436,10.5595],[-10.4628,10.6424],[-10.5108,10.7619],[-10.672,10.7382],[-10.712,10.7844],[-10.8308,10.822],[-10.8988,10.8913],[-10.7967,10.9582],[-10.7967,10.9932],[-10.7185,11.0585],[-10.7266,11.1302],[-10.6245,11.1907],[-10.5351,11.1843],[-10.4393,11.2543],[-10.4761,11.2973],[-10.3803,11.3196],[-10.3452,11.3674],[-10.2016,11.4039],[-10.1537,11.3497],[-10.1186,11.3911],[-10.0467,11.3735],[-10.0117,11.4627],[-10.1729,11.5345],[-10.2192,11.5394],[-10.2672,11.5872],[-10.2561,11.6892],[-10.2273,11.7067],[-10.2386,11.7896],[-10.1844,11.866],[-10.1605,11.9313],[-10.2196,12.0748],[-10.1909,12.1146],[-10.0888,12.1787],[-10.0671,12.1391],[-10.0017,12.1282],[-9.9708,12.0983],[-9.9144,12.0985],[-9.8829,12.0571],[-9.8099,12.0567],[-9.6998,12.0238],[-9.6777,12.1237],[-9.6304,12.1728],[-9.5414,12.1927],[-9.4793,12.2458],[-9.4146,12.2603],[-9.3404,12.2429],[-9.2976,12.3585],[-9.3342,12.377],[-9.3844,12.4473],[-9.362,12.4957],[-9.2842,12.4819],[-9.2533,12.5026],[-9.1545,12.4841],[-9.0457,12.4284],[-8.9689,12.3484],[-8.9929,12.2214],[-8.9245,12.1986],[-8.8967,12.1519],[-8.9193,12.0599],[-8.8715,12.0233],[-8.8323,12.039],[-8.7949,11.9239],[-8.8543,11.6283],[-8.6823,11.6247],[-8.6541,11.4993],[-8.5763,11.4433],[-8.5354,11.4778],[-8.5021,11.3993],[-8.3969,11.3823],[-8.4218,11.3356],[-8.3651,11.3209],[-8.377,11.2792],[-8.4792,11.2888],[-8.4865,11.222],[-8.5663,11.2047],[-8.5643,11.1549],[-8.6814,11.0078],[-8.6773,10.9553],[-8.5905,10.9502],[-8.5151,10.972],[-8.4824,11.0651],[-8.3771,11.0753],[-8.3235,11.0482],[-8.2871,10.9951],[-8.2756,10.8531],[-8.329,10.7619],[-8.2956,10.7509],[-8.3015,10.6362],[-8.2733,10.5777],[-8.2767,10.5207],[-8.2254,10.41],[-8.1407,10.4212],[-8.0917,10.3581],[-7.9953,10.3383],[-7.9472,10.2411],[-8.0165,10.0971],[-8.1067,10.0469],[-8.1518,9.9797],[-8.1015,9.8326],[-8.1364,9.6905],[-8.1475,9.5841]]]},"properties":{"name":"Kankan","id":"GN-K","CNTRY":"Guinea","TYPE":"Region"},"id":"GN-K"},
{"type":"Feature","geometry":{"type":"Polygon","coordinates":[[[-10.0888,12.1787],[-10.1909,12.1146],[-10.2196,12.0748],[-10.1605,11.9313],[-10.1844,11.866],[-10.2386,11.7896],[-10.2273,11.7067],[-10.2561,11.6892],[-10.2672,11.5872],[-10.2192,11.5394],[-10.1729,11.5345],[-10.0117,11.4627],[-10.0467,11.3735],[-10.1186,11.3911],[-10.1537,11.3497],[-10.2016,11.4039],[-10.3452,11.3674],[-10.3803,11.3196],[-10.4761,11.2973],[-10.4393,11.2543],[-10.5351,11.1843],[-10.6245,11.1907],[-10.7266,11.1302],[-10.7185,11.0585],[-10.7967,10.9932],[-10.7967,10.9582],[-10.8988,10.8913],[-10.8308,10.822],[-10.712,10.7844],[-10.672,10.7382],[-10.5108,10.7619],[-10.4628,10.6424],[-10.4436,10.5595],[-10.351,10.5308],[-10.2377,10.5179],[-10.1945,10.4589],[-10.1243,10.4175],[-10.2375,10.2566],[-10.2008,10.2024],[-10.2901,10.1021],[-10.3618,10.0001],[-10.325,9.8933],[-10.3729,9.8535],[-10.3665,9.7802],[-10.4143,9.7341],[-10.4031,9.6384],[-10.427,9.597],[-10.3727,9.5492],[-10.2769,9.5427],[-10.237,9.5746],[-10.1413,9.6988],[-10.0646,9.6079],[-10.0056,9.6557],[-9.9258,9.6556],[-9.8252,9.5265],[-9.6463,9.461],[-9.5936,9.3542],[-9.6462,9.3],[-9.6462,9.2522],[-9.718,9.2348],[-9.7419,9.1981],[-9.6939,9.0324],[-9.6237,8.9909],[-9.6523,8.9367],[-9.6124,8.8714],[-9.6523,8.8889],[-9.7593,8.889],[-9.8071,8.8428],[-9.8774,8.8492],[-9.9508,8.8063],[-9.9859,8.819],[-9.9971,8.8892],[-10.0689,8.8717],[-10.1631,8.8829],[-10.2174,8.9483],[-10.2701,8.9563],[-10.2765,9.0328],[-10.3308,9.0631],[-10.3611,9.0026],[-10.4681,8.9788],[-10.4314,9.0441],[-10.4745,9.0696],[-10.5969,9.0567],[-10.6603,9.0815],[-10.7334,9.0843],[-10.7235,9.1835],[-10.6637,9.21],[-10.6633,9.3005],[-10.731,9.3802],[-10.7992,9.3907],[-10.8434,9.4428],[-10.8275,9.5179],[-10.911,9.6019],[-10.9214,9.65],[-10.9628,9.6641],[-10.9774,9.714],[-11.0387,9.7977],[-11.1544,9.8792],[-11.175,9.9758],[-11.2067,10.0004],[-11.4743,9.9996],[-11.4681,10.0552],[-11.4091,10.1444],[-11.3788,10.2575],[-11.3789,10.334],[-11.3981,10.4551],[-11.4444,10.4599],[-11.529,10.5189],[-11.5115,10.6081],[-11.4573,10.7037],[-11.4383,10.828],[-11.5293,10.9061],[-11.4575,10.9937],[-11.3905,10.9714],[-11.2772,10.9872],[-11.1527,11.0525],[-11.2549,11.1482],[-11.3092,11.1785],[-11.3396,11.2677],[-11.3397,11.3092],[-11.2663,11.4047],[-11.1897,11.4222],[-11.1243,11.4811],[-11.1371,11.5289],[-11.1961,11.5353],[-11.2074,11.5879],[-11.1419,11.6309],[-11.142,11.6899],[-11.1005,11.6946],[-11.0718,11.7488],[-11.0831,11.8954],[-11.1533,11.9321],[-11.1654,12.0333],[-11.1395,12.0931],[-11.0728,12.1353],[-11.0448,12.221],[-11.0154,12.2056],[-10.9286,12.2224],[-10.8905,12.2023],[-10.8451,12.1316],[-10.7902,12.1094],[-10.7951,12.0376],[-10.7564,11.9938],[-10.7513,11.944],[-10.6902,11.893],[-10.6401,11.9131],[-10.6128,11.9768],[-10.5327,12.0317],[-10.5031,12.1218],[-10.449,12.1201],[-10.3711,12.1676],[-10.3412,12.2204],[-10.1951,12.2007],[-10.149,12.1727],[-10.0888,12.1787]]]},"properties":{"name":"Faranah","id":"GN-F","CNTRY":"Guinea","TYPE":"Region"},"id":"GN-F"},
{"type":"Feature","geometry":{"type":"MultiPolygon","coordinates":[[[[-13.6823,9.9421],[-13.8496,10.0331],[-13.9087,10.1048],[-13.9088,10.1351],[-13.837,10.1701],[-13.7716,10.2816],[-13.6774,10.2895],[-13.6295,10.2528],[-13.588,10.2592],[-13.5561,10.3292],[-13.5035,10.3945],[-13.5227,10.4312],[-13.486,10.4854],[-13.403,10.5076],[-13.4095,10.5857],[-13.3552,10.6621],[-13.3984,10.6988],[-13.4494,10.6877],[-13.4383,10.7642],[-13.4751,10.8009],[-13.5229,10.7945],[-13.6585,10.6687],[-13.8023,10.7581],[-13.8741,10.7406],[-13.9267,10.6689],[-13.9858,10.7407],[-13.9268,10.8649],[-13.8199,10.9127],[-13.7721,10.978],[-13.8264,11.037],[-13.7658,11.0975],[-13.7435,11.1564],[-13.7834,11.2409],[-13.8266,11.2935],[-13.7069,11.3397],[-13.6414,11.3332],[-13.5569,11.3873],[-13.4324,11.3586],[-13.4323,11.2932],[-13.3509,11.3394],[-13.2727,11.3329],[-13.2838,11.2804],[-13.2598,11.1863],[-13.2247,11.1321],[-13.0715,11.1926],[-12.9981,11.1925],[-12.9278,11.1016],[-12.8847,11.1446],[-12.7905,11.1127],[-12.8319,11.0203],[-12.9037,10.9885],[-12.9516,10.9359],[-12.969,10.8005],[-12.9323,10.7272],[-12.9434,10.657],[-12.9865,10.6029],[-12.9273,10.5152],[-12.8843,10.5486],[-12.8204,10.5374],[-12.7485,10.4848],[-12.6416,10.5612],[-12.6241,10.5548],[-12.5028,10.6392],[-12.5108,10.5675],[-12.4437,10.5324],[-12.4101,10.4558],[-12.4435,10.3236],[-12.4212,10.2694],[-12.3446,10.2885],[-12.2312,10.2693],[-12.2312,10.2278],[-12.1641,10.1401],[-12.1289,10.027],[-12.1767,9.9792],[-12.1471,9.8771],[-12.2271,9.9247],[-12.4317,9.8816],[-12.499,9.8436],[-12.4913,9.8113],[-12.5361,9.7205],[-12.5667,9.7027],[-12.5917,9.5999],[-12.6212,9.6012],[-12.6605,9.532],[-12.6868,9.4092],[-12.7522,9.3965],[-12.753,9.3457],[-12.7895,9.3007],[-12.8931,9.2703],[-12.9351,9.2867],[-12.9562,9.1822],[-13.0118,9.0909],[-13.1075,9.0496],[-13.1742,9.0924],[-13.3174,9.074],[-13.2626,9.1404],[-13.3113,9.1529],[-13.3074,9.2263],[-13.3257,9.279],[-13.4092,9.2795],[-13.4351,9.4118],[-13.4688,9.4057],[-13.5202,9.4918],[-13.5109,9.5771],[-13.4631,9.6408],[-13.5574,9.7635],[-13.6179,9.7732],[-13.6532,9.8285],[-13.6524,9.9029],[-13.6823,9.9421]]],[[[-13.6607,9.8262],[-13.6337,9.7851],[-13.681,9.7457],[-13.7576,9.7699],[-13.7382,9.814],[-13.6607,9.8262]]],[[[-13.6824,9.9202],[-13.6582,9.8418],[-13.7333,9.8341],[-13.6824,9.9202]]]]},"properties":{"name":"Kindia","id":"GN-D","CNTRY":"Guinea","TYPE":"Region"},"id":"GN-D"},
{"type":"Feature","geometry":{"type":"Polygon","coordinates":[[[-13.5574,9.7635],[-13.4631,9.6408],[-13.5109,9.5771],[-13.5202,9.4918],[-13.5937,9.5674],[-13.666,9.5615],[-13.6249,9.6385],[-13.6146,9.7349],[-13.5574,9.7635]]]},"properties":{"name":"Conakry","id":"GN-C","CNTRY":"Guinea","TYPE":"Region"},"id":"GN-C"},
{"type":"Feature","geometry":{"type":"MultiPolygon","coordinates":[[[[-14.6082,10.7321],[-14.6765,10.6454],[-14.7174,10.6982],[-14.7007,10.7576],[-14.6503,10.7972],[-14.5705,10.7908],[-14.6082,10.7321]]],[[[-14.0271,9.9996],[-14.0635,10.0451],[-14.0287,10.1068],[-13.9482,9.9795],[-14.0271,9.9996]]],[[[-14.0479,10.1066],[-14.0729,10.0674],[-14.1374,10.0529],[-14.1871,10.0954],[-14.1546,10.1393],[-14.099,10.1688],[-14.0479,10.1066]]],[[[-14.9549,10.9749],[-14.9018,10.9251],[-14.9607,10.8312],[-14.9621,10.7685],[-15.016,10.7807],[-15.0682,10.8468],[-15.0738,10.886],[-14.9549,10.9749]]],[[[-14.1952,10.1871],[-14.1605,10.1545],[-14.2007,10.1026],[-14.2496,10.141],[-14.1952,10.1871]]],[[[-12.5594,12.3682],[-12.7562,12.2552],[-12.8327,12.1485],[-12.8087,12.1007],[-12.8326,12.0577],[-12.815,11.9397],[-12.7735,11.8967],[-12.8086,11.833],[-12.7909,11.7246],[-12.8212,11.6959],[-12.7557,11.6321],[-12.7126,11.6257],[-12.7078,11.5652],[-12.7605,11.5301],[-12.7668,11.4935],[-12.8737,11.441],[-12.987,11.3327],[-12.9981,11.1925],[-13.0715,11.1926],[-13.2247,11.1321],[-13.2598,11.1863],[-13.2838,11.2804],[-13.2727,11.3329],[-13.3509,11.3394],[-13.4323,11.2932],[-13.4324,11.3586],[-13.5569,11.3873],[-13.6414,11.3332],[-13.7069,11.3397],[-13.8266,11.2935],[-13.7834,11.2409],[-13.7435,11.1564],[-13.7658,11.0975],[-13.8264,11.037],[-13.7721,10.978],[-13.8199,10.9127],[-13.9268,10.8649],[-13.9858,10.7407],[-13.9267,10.6689],[-13.8741,10.7406],[-13.8023,10.7581],[-13.6585,10.6687],[-13.5229,10.7945],[-13.4751,10.8009],[-13.4383,10.7642],[-13.4494,10.6877],[-13.3984,10.6988],[-13.3552,10.6621],[-13.4095,10.5857],[-13.403,10.5076],[-13.486,10.4854],[-13.5227,10.4312],[-13.5035,10.3945],[-13.5561,10.3292],[-13.588,10.2592],[-13.6295,10.2528],[-13.6774,10.2895],[-13.7716,10.2816],[-13.837,10.1701],[-13.9088,10.1351],[-13.9087,10.1048],[-13.8496,10.0331],[-13.6823,9.9421],[-13.7176,9.8724],[-13.7854,9.8412],[-13.8279,9.8515],[-13.8749,9.9101],[-13.9501,9.9649],[-13.929,10.0421],[-13.9735,10.0446],[-13.999,10.1004],[-14.0451,10.1232],[-14.1246,10.1968],[-14.1993,10.201],[-14.3874,10.2368],[-14.4543,10.2065],[-14.4688,10.2543],[-14.459,10.3376],[-14.5718,10.4529],[-14.6526,10.4579],[-14.6679,10.516],[-14.6115,10.5932],[-14.6243,10.6229],[-14.6074,10.7054],[-14.5649,10.7465],[-14.5429,10.8276],[-14.6063,10.8804],[-14.6693,10.7854],[-14.7751,10.7207],[-14.7612,10.7782],[-14.8068,10.8221],[-14.816,10.9293],[-14.7129,10.9924],[-14.7518,11.0251],[-14.8479,10.966],[-14.9193,11.0535],[-14.823,11.2497],[-14.7681,11.3824],[-14.6654,11.5067],[-14.5162,11.4988],[-14.3195,11.6031],[-14.2681,11.6784],[-14.1377,11.6643],[-14.089,11.6305],[-13.8798,11.6686],[-13.8541,11.7248],[-13.7824,11.6865],[-13.7134,11.7098],[-13.7203,11.8814],[-13.7056,12.0043],[-13.7911,12.0324],[-13.8178,12.0793],[-13.8928,12.1285],[-13.9418,12.1359],[-13.965,12.1915],[-13.9224,12.236],[-13.8291,12.2564],[-13.7251,12.2457],[-13.6632,12.3152],[-13.6631,12.4054],[-13.6365,12.4498],[-13.6796,12.532],[-13.709,12.6762],[-13.3509,12.6596],[-13.1877,12.6278],[-13.1342,12.6423],[-13.0567,12.6193],[-13.0766,12.5297],[-13.0606,12.4778],[-12.9686,12.4617],[-12.9309,12.5305],[-12.8877,12.5406],[-12.8342,12.4869],[-12.7718,12.4709],[-12.7376,12.4294],[-12.6339,12.4313],[-12.5594,12.3682]]]]},"properties":{"name":"Boké","id":"GN-B","CNTRY":"Guinea","TYPE":"Region"},"id":"GN-B"}
]}