{"type":"FeatureCollection", "features": [
{"type":"Feature","geometry":{"type":"MultiPolygon","coordinates":[[[[14.4082,35.9676],[14.4082,35.9663],[14.4032,35.9657],[14.4013,35.9637],[14.399,35.9635],[14.3988,35.9654],[14.3999,35.9663],[14.4021,35.9663],[14.4049,35.9676],[14.4082,35.9676]]],[[[14.4893,35.9313],[14.4885,35.9287],[14.4855,35.9272],[14.4841,35.925],[14.4864,35.9244],[14.4872,35.9182],[14.486,35.9168],[14.4796,35.9168],[14.4762,35.9133],[14.4712,35.9132],[14.4685,35.9149],[14.4657,35.9156],[14.4634,35.9155],[14.4619,35.9133],[14.4577,35.9171],[14.4522,35.9176],[14.449,35.9159],[14.4495,35.9104],[14.4488,35.9066],[14.4479,35.9051],[14.4432,35.9047],[14.4388,35.906],[14.4379,35.9057],[14.4344,35.9021],[14.4342,35.8984],[14.4332,35.8983],[14.4271,35.9025],[14.4158,35.9018],[14.4143,35.901],[14.4087,35.893],[14.4085,35.8908],[14.4096,35.8899],[14.4102,35.8876],[14.4134,35.8844],[14.4125,35.8774],[14.4142,35.8746],[14.4143,35.8698],[14.4163,35.8677],[14.4163,35.8667],[14.4102,35.8622],[14.4058,35.8609],[14.4034,35.8622],[14.399,35.8621],[14.3977,35.8586],[14.3958,35.8563],[14.3947,35.8527],[14.3901,35.8486],[14.39,35.8461],[14.389,35.8451],[14.3857,35.8454],[14.3843,35.8465],[14.381,35.8462],[14.3768,35.849],[14.3754,35.8512],[14.3713,35.8521],[14.3682,35.8551],[14.3621,35.8585],[14.3601,35.8621],[14.3585,35.8632],[14.3568,35.8657],[14.354,35.866],[14.3521,35.8671],[14.3518,35.8682],[14.3538,35.8699],[14.3471,35.8701],[14.3415,35.8732],[14.3407,35.8754],[14.3382,35.8771],[14.3354,35.8801],[14.3365,35.8857],[14.3337,35.8926],[14.3307,35.8943],[14.3282,35.8974],[14.3282,35.8993],[14.3299,35.9007],[14.3301,35.9024],[14.3279,35.9051],[14.3279,35.9071],[14.3337,35.906],[14.3404,35.9062],[14.3385,35.9076],[14.3376,35.9093],[14.3379,35.911],[14.3354,35.9121],[14.3351,35.9135],[14.3329,35.9137],[14.3321,35.9174],[14.3329,35.9224],[14.334,35.9235],[14.3387,35.9232],[14.3413,35.9204],[14.3435,35.921],[14.3429,35.9229],[14.3435,35.926],[14.3393,35.9257],[14.3387,35.929],[14.3432,35.9296],[14.3426,35.9324],[14.3446,35.9332],[14.344,35.9343],[14.3396,35.9338],[14.3376,35.9354],[14.3376,35.9365],[14.3351,35.9374],[14.3299,35.9379],[14.3282,35.941],[14.3288,35.9437],[14.3315,35.9451],[14.3357,35.9451],[14.3357,35.9482],[14.3376,35.9493],[14.3376,35.9515],[14.341,35.9532],[14.3379,35.9549],[14.3385,35.9571],[14.3371,35.959],[14.339,35.9599],[14.3354,35.9613],[14.3354,35.9635],[14.3371,35.9635],[14.3376,35.9649],[14.3365,35.9663],[14.336,35.969],[14.3288,35.9693],[14.3263,35.9679],[14.3232,35.9679],[14.3199,35.9693],[14.3185,35.9715],[14.3201,35.9729],[14.3207,35.9754],[14.3221,35.9776],[14.324,35.979],[14.3271,35.979],[14.3299,35.9832],[14.3326,35.9829],[14.3332,35.9849],[14.3271,35.9865],[14.3285,35.9885],[14.3296,35.9874],[14.3346,35.9879],[14.3379,35.9865],[14.3404,35.9874],[14.3454,35.9876],[14.346,35.9885],[14.3493,35.9885],[14.3513,35.9871],[14.3521,35.9918],[14.356,35.9915],[14.3565,35.9899],[14.359,35.9899],[14.3601,35.9924],[14.3646,35.9921],[14.3621,35.9938],[14.3618,35.9965],[14.3632,35.9976],[14.3668,35.9965],[14.3665,35.9985],[14.3676,35.999],[14.369,35.9971],[14.3704,35.9965],[14.371,35.9949],[14.3724,35.994],[14.3724,35.9912],[14.3743,35.991],[14.3763,35.9893],[14.3765,35.9871],[14.3724,35.9849],[14.3671,35.9849],[14.364,35.9826],[14.3646,35.9815],[14.3607,35.9793],[14.359,35.9774],[14.351,35.9738],[14.3501,35.9726],[14.3504,35.9704],[14.3521,35.9674],[14.3535,35.9665],[14.3671,35.9679],[14.3718,35.969],[14.3726,35.9699],[14.3771,35.971],[14.379,35.9721],[14.3813,35.9685],[14.386,35.9704],[14.3879,35.9685],[14.3907,35.9688],[14.3926,35.9676],[14.3976,35.9682],[14.3976,35.9671],[14.3957,35.9657],[14.3979,35.9637],[14.3957,35.961],[14.3968,35.9604],[14.3971,35.9588],[14.3962,35.9579],[14.3937,35.9579],[14.3921,35.959],[14.3904,35.9576],[14.3921,35.9571],[14.3915,35.9551],[14.3899,35.9535],[14.3887,35.9507],[14.3865,35.9501],[14.386,35.9487],[14.384,35.9479],[14.3838,35.9457],[14.386,35.9454],[14.3932,35.9487],[14.3976,35.9496],[14.3985,35.951],[14.4001,35.9496],[14.4054,35.9496],[14.406,35.9507],[14.4088,35.9504],[14.4088,35.9526],[14.4104,35.9532],[14.414,35.9532],[14.4165,35.9543],[14.4171,35.9568],[14.4201,35.9588],[14.4226,35.9593],[14.4249,35.9607],[14.4301,35.9607],[14.4304,35.9593],[14.4265,35.9596],[14.4265,35.9571],[14.4246,35.9543],[14.4251,35.9512],[14.4226,35.9482],[14.4229,35.9465],[14.4254,35.949],[14.4276,35.949],[14.4299,35.9512],[14.431,35.9515],[14.4326,35.9549],[14.4349,35.9543],[14.4371,35.9546],[14.441,35.9521],[14.4446,35.9521],[14.4457,35.9504],[14.4474,35.9496],[14.4465,35.9479],[14.4487,35.9468],[14.4499,35.944],[14.4515,35.9451],[14.4518,35.9476],[14.454,35.9479],[14.4557,35.9451],[14.4557,35.9407],[14.4585,35.9421],[14.459,35.9396],[14.4607,35.9379],[14.4707,35.9362],[14.471,35.9371],[14.4754,35.9388],[14.4779,35.9374],[14.4821,35.9365],[14.4824,35.934],[14.4851,35.9332],[14.4857,35.9321],[14.4879,35.9321],[14.4893,35.9313]]]]},"properties":{"name":"Northern","id":"MT-NO","CNTRY":"Malta","TYPE":"Region"},"id":"MT-NO"},
{"type":"Feature","geometry":{"type":"Polygon","coordinates":[[[14.4893,35.9313],[14.4913,35.931],[14.4929,35.929],[14.4907,35.9274],[14.4935,35.9263],[14.4954,35.9232],[14.4951,35.919],[14.4926,35.9188],[14.4937,35.9165],[14.4954,35.9154],[14.4979,35.916],[14.4979,35.9185],[14.4987,35.9188],[14.5032,35.9174],[14.506,35.9154],[14.5079,35.9149],[14.5076,35.9121],[14.5101,35.9113],[14.5112,35.9087],[14.5151,35.9076],[14.5154,35.9065],[14.5135,35.9054],[14.5115,35.9054],[14.5074,35.9071],[14.5051,35.9087],[14.5024,35.9087],[14.4979,35.9068],[14.4974,35.9051],[14.5032,35.9057],[14.5068,35.9046],[14.5065,35.9021],[14.5043,35.901],[14.5018,35.9012],[14.499,35.9029],[14.4963,35.9029],[14.4982,35.9007],[14.5004,35.8999],[14.5004,35.8974],[14.4979,35.8963],[14.4979,35.8943],[14.4971,35.8908],[14.4928,35.8889],[14.4902,35.8899],[14.4895,35.8914],[14.4853,35.892],[14.4831,35.8884],[14.4818,35.8882],[14.4787,35.8847],[14.4777,35.8846],[14.4744,35.8867],[14.4672,35.8882],[14.4636,35.8882],[14.4578,35.8907],[14.4566,35.8899],[14.4555,35.8861],[14.4542,35.8855],[14.4496,35.8861],[14.4457,35.8855],[14.4432,35.886],[14.4373,35.8857],[14.4289,35.8816],[14.4268,35.8817],[14.4212,35.8835],[14.4183,35.8831],[14.4134,35.8844],[14.4102,35.8876],[14.4096,35.8899],[14.4085,35.8908],[14.4087,35.893],[14.4143,35.901],[14.4158,35.9018],[14.4271,35.9025],[14.4332,35.8983],[14.4342,35.8984],[14.4344,35.9021],[14.4379,35.9057],[14.4388,35.906],[14.4432,35.9047],[14.4479,35.9051],[14.4488,35.9066],[14.4495,35.9104],[14.449,35.9159],[14.4522,35.9176],[14.4577,35.9171],[14.4619,35.9133],[14.4634,35.9155],[14.4657,35.9156],[14.4685,35.9149],[14.4712,35.9132],[14.4762,35.9133],[14.4796,35.9168],[14.486,35.9168],[14.4872,35.9182],[14.4864,35.9244],[14.4841,35.925],[14.4855,35.9272],[14.4885,35.9287],[14.4893,35.9313]]]},"properties":{"name":"Central","id":"MT-CE","CNTRY":"Malta","TYPE":"Region"},"id":"MT-CE"},
{"type":"Feature","geometry":{"type":"Polygon","coordinates":[[[14.5424,35.8293],[14.5425,35.8323],[14.5404,35.8343],[14.5393,35.8371],[14.5342,35.8416],[14.5284,35.8432],[14.5276,35.8455],[14.5267,35.8458],[14.5263,35.8481],[14.5209,35.8542],[14.5165,35.8613],[14.5106,35.8632],[14.5069,35.8654],[14.5041,35.8651],[14.4995,35.8633],[14.4984,35.8621],[14.4963,35.8619],[14.4951,35.8657],[14.4916,35.8663],[14.4898,35.8683],[14.4861,35.8694],[14.4838,35.8711],[14.4838,35.872],[14.486,35.8727],[14.4817,35.8759],[14.4823,35.8776],[14.4863,35.8823],[14.4898,35.8841],[14.4933,35.8844],[14.4955,35.8866],[14.498,35.8872],[14.499,35.8896],[14.4971,35.8908],[14.4979,35.8943],[14.4999,35.8946],[14.5015,35.8965],[14.5029,35.8965],[14.5049,35.8976],[14.506,35.8993],[14.5079,35.9004],[14.5104,35.9007],[14.5124,35.9024],[14.5154,35.9018],[14.5182,35.9035],[14.5199,35.9035],[14.5188,35.8976],[14.5176,35.8968],[14.5151,35.8968],[14.5124,35.8943],[14.5124,35.8932],[14.5104,35.8924],[14.5085,35.8885],[14.5068,35.8874],[14.5043,35.8868],[14.5026,35.8846],[14.5001,35.884],[14.501,35.8824],[14.5026,35.8824],[14.5051,35.8838],[14.506,35.8854],[14.5101,35.886],[14.5124,35.8871],[14.514,35.8862],[14.5149,35.8843],[14.5168,35.8835],[14.5135,35.8904],[14.5171,35.8896],[14.5196,35.8865],[14.5207,35.8865],[14.5196,35.8901],[14.5251,35.889],[14.5229,35.8918],[14.5243,35.8935],[14.5262,35.8937],[14.5235,35.896],[14.5229,35.899],[14.5238,35.8996],[14.5279,35.8976],[14.5301,35.8976],[14.5321,35.8965],[14.5335,35.8965],[14.5351,35.8951],[14.5379,35.8954],[14.541,35.8946],[14.5468,35.8893],[14.551,35.8885],[14.5535,35.8851],[14.5563,35.884],[14.5565,35.8818],[14.5599,35.8815],[14.5632,35.8799],[14.5693,35.8735],[14.571,35.8729],[14.5726,35.8696],[14.5757,35.8676],[14.5754,35.8668],[14.5724,35.8668],[14.5713,35.866],[14.5679,35.8665],[14.5662,35.8649],[14.5629,35.8649],[14.5632,35.8638],[14.5671,35.864],[14.5696,35.8651],[14.5729,35.8635],[14.5743,35.8618],[14.5765,35.861],[14.5732,35.859],[14.5715,35.8568],[14.5693,35.8565],[14.5651,35.8546],[14.5638,35.8535],[14.5635,35.8518],[14.566,35.8501],[14.571,35.8499],[14.5704,35.8479],[14.5682,35.8471],[14.5676,35.8449],[14.5693,35.8435],[14.5715,35.8426],[14.5729,35.841],[14.5729,35.8399],[14.5696,35.8385],[14.5671,35.8415],[14.5635,35.8421],[14.5618,35.8407],[14.5629,35.8385],[14.5604,35.8385],[14.5596,35.8374],[14.5601,35.8354],[14.5638,35.8346],[14.564,35.834],[14.5621,35.8315],[14.5624,35.8299],[14.564,35.8282],[14.5629,35.8257],[14.5626,35.8213],[14.5607,35.8213],[14.5612,35.8185],[14.559,35.8185],[14.5582,35.8196],[14.5579,35.8221],[14.556,35.824],[14.5565,35.8276],[14.5551,35.8285],[14.5512,35.8371],[14.5496,35.8385],[14.5443,35.8396],[14.544,35.8387],[14.5468,35.8324],[14.5451,35.8299],[14.5424,35.8293]]]},"properties":{"name":"Southern","id":"MT-SO","CNTRY":"Malta","TYPE":"Region"},"id":"MT-SO"},
{"type":"Feature","geometry":{"type":"Polygon","coordinates":[[[14.4971,35.8908],[14.499,35.8896],[14.498,35.8872],[14.4955,35.8866],[14.4933,35.8844],[14.4898,35.8841],[14.4863,35.8823],[14.4823,35.8776],[14.4817,35.8759],[14.486,35.8727],[14.4838,35.872],[14.4838,35.8711],[14.4861,35.8694],[14.4898,35.8683],[14.4916,35.8663],[14.4951,35.8657],[14.4963,35.8619],[14.4984,35.8621],[14.4995,35.8633],[14.5041,35.8651],[14.5069,35.8654],[14.5106,35.8632],[14.5165,35.8613],[14.5209,35.8542],[14.5263,35.8481],[14.5267,35.8458],[14.5276,35.8455],[14.5284,35.8432],[14.5342,35.8416],[14.5393,35.8371],[14.5404,35.8343],[14.5425,35.8323],[14.5424,35.8293],[14.5413,35.8296],[14.5382,35.8329],[14.534,35.8321],[14.5315,35.8312],[14.5326,35.8299],[14.5335,35.8265],[14.5326,35.8257],[14.5282,35.8254],[14.5296,35.8221],[14.5321,35.8213],[14.5346,35.8221],[14.5399,35.8174],[14.5424,35.8171],[14.5415,35.8187],[14.5399,35.8199],[14.539,35.8218],[14.5432,35.8218],[14.5465,35.8193],[14.5468,35.8171],[14.5487,35.8171],[14.5457,35.814],[14.5438,35.816],[14.5429,35.8115],[14.5393,35.8096],[14.5357,35.8071],[14.5335,35.8071],[14.5315,35.8057],[14.5224,35.8063],[14.5212,35.8068],[14.516,35.806],[14.5112,35.8068],[14.5099,35.8079],[14.5074,35.8082],[14.5012,35.8115],[14.4985,35.8124],[14.4957,35.8126],[14.494,35.8135],[14.4885,35.8138],[14.4854,35.8132],[14.4832,35.814],[14.4824,35.8151],[14.4804,35.814],[14.4746,35.8138],[14.4732,35.8151],[14.4693,35.8154],[14.4657,35.8185],[14.4604,35.8187],[14.4557,35.8199],[14.4549,35.8185],[14.4518,35.8185],[14.4407,35.8229],[14.4382,35.8221],[14.4338,35.8257],[14.4263,35.8262],[14.4232,35.8271],[14.4193,35.8271],[14.416,35.8285],[14.4143,35.8315],[14.4143,35.8335],[14.4085,35.8343],[14.4038,35.836],[14.4026,35.8349],[14.4001,35.8376],[14.3968,35.8374],[14.3951,35.8382],[14.3937,35.8421],[14.3912,35.8424],[14.389,35.8451],[14.39,35.8461],[14.3901,35.8486],[14.3947,35.8527],[14.3958,35.8563],[14.3977,35.8586],[14.399,35.8621],[14.4034,35.8622],[14.4058,35.8609],[14.4102,35.8622],[14.4163,35.8667],[14.4163,35.8677],[14.4143,35.8698],[14.4142,35.8746],[14.4125,35.8774],[14.4134,35.8844],[14.4183,35.8831],[14.4212,35.8835],[14.4268,35.8817],[14.4289,35.8816],[14.4373,35.8857],[14.4432,35.886],[14.4457,35.8855],[14.4496,35.8861],[14.4542,35.8855],[14.4555,35.8861],[14.4566,35.8899],[14.4578,35.8907],[14.4636,35.8882],[14.4672,35.8882],[14.4744,35.8867],[14.4777,35.8846],[14.4787,35.8847],[14.4818,35.8882],[14.4831,35.8884],[14.4853,35.892],[14.4895,35.8914],[14.4902,35.8899],[14.4928,35.8889],[14.4971,35.8908]]]},"properties":{"name":"South Eastern","id":"MT-SE","CNTRY":"Malta","TYPE":"Region"},"id":"MT-SE"},
{"type":"Feature","geometry":{"type":"MultiPolygon","coordinates":[[[[14.2374,36.0824],[14.239,36.0812],[14.2418,36.0812],[14.2443,36.0804],[14.2493,36.0807],[14.2526,36.0801],[14.2515,36.0779],[14.2529,36.0771],[14.2585,36.0765],[14.259,36.0746],[14.2585,36.0721],[14.2601,36.0721],[14.261,36.0743],[14.2649,36.0746],[14.2662,36.0735],[14.2679,36.0735],[14.2724,36.0696],[14.2726,36.0674],[14.274,36.066],[14.2776,36.0651],[14.2782,36.0635],[14.2815,36.0626],[14.2824,36.0612],[14.2851,36.0615],[14.2882,36.066],[14.291,36.0662],[14.2929,36.0649],[14.294,36.0621],[14.2951,36.0612],[14.2976,36.061],[14.3007,36.0576],[14.3029,36.0579],[14.3062,36.0596],[14.3115,36.059],[14.3124,36.0576],[14.3129,36.0524],[14.3149,36.0518],[14.3151,36.0496],[14.3168,36.0496],[14.3182,36.0507],[14.3221,36.0496],[14.3243,36.0462],[14.3349,36.0376],[14.3365,36.0351],[14.3371,36.0321],[14.3349,36.0304],[14.3304,36.0299],[14.3285,36.0279],[14.3237,36.0276],[14.3212,36.0251],[14.3165,36.0251],[14.3151,36.0262],[14.3104,36.0265],[14.3104,36.026],[14.3062,36.0257],[14.3046,36.0268],[14.3024,36.0257],[14.3001,36.0262],[14.2996,36.0246],[14.3018,36.0243],[14.2932,36.019],[14.2885,36.019],[14.2882,36.0176],[14.2862,36.0171],[14.2804,36.0174],[14.2796,36.0157],[14.2726,36.0168],[14.2701,36.0149],[14.2643,36.0132],[14.2612,36.0107],[14.2585,36.0135],[14.2549,36.0135],[14.2524,36.0174],[14.2463,36.0174],[14.2449,36.0182],[14.2382,36.0182],[14.2371,36.019],[14.2335,36.019],[14.2324,36.0201],[14.2307,36.0199],[14.229,36.021],[14.2254,36.0204],[14.2232,36.019],[14.2185,36.0204],[14.2168,36.0226],[14.2115,36.0271],[14.2115,36.0296],[14.2082,36.0321],[14.2057,36.0324],[14.2032,36.0335],[14.1985,36.0335],[14.1974,36.0324],[14.1935,36.0321],[14.189,36.0343],[14.1876,36.034],[14.1857,36.036],[14.1857,36.0376],[14.1888,36.0404],[14.1882,36.0418],[14.1888,36.0443],[14.1874,36.0476],[14.1893,36.0488],[14.1896,36.0499],[14.1876,36.0507],[14.1871,36.0537],[14.1907,36.0568],[14.191,36.0582],[14.1899,36.0624],[14.1862,36.0638],[14.1838,36.0643],[14.1829,36.0721],[14.184,36.0751],[14.1871,36.0746],[14.1926,36.0746],[14.1935,36.0751],[14.1982,36.0749],[14.2004,36.0762],[14.2021,36.0788],[14.2054,36.0788],[14.209,36.0801],[14.2129,36.0801],[14.2176,36.081],[14.219,36.0799],[14.221,36.0799],[14.2224,36.0821],[14.224,36.0821],[14.2268,36.0807],[14.2293,36.0807],[14.2301,36.0824],[14.2338,36.0818],[14.2374,36.0824]]],[[[14.321,36.0151],[14.3235,36.0124],[14.3188,36.0118],[14.3168,36.0135],[14.3168,36.0146],[14.321,36.0151]]],[[[14.3396,36.0204],[14.341,36.019],[14.3404,36.0176],[14.3424,36.0157],[14.3454,36.0157],[14.3507,36.011],[14.3515,36.0093],[14.3499,36.0074],[14.3496,36.006],[14.3462,36.0062],[14.3393,36.0051],[14.3387,36.0046],[14.3349,36.0051],[14.3343,36.0037],[14.3279,36.004],[14.3257,36.0032],[14.3235,36.0032],[14.3263,36.0062],[14.3288,36.0076],[14.3288,36.0099],[14.3271,36.0093],[14.326,36.0112],[14.3243,36.0118],[14.3229,36.0146],[14.3237,36.0157],[14.3218,36.0171],[14.3226,36.019],[14.3263,36.0185],[14.3274,36.0199],[14.3326,36.0199],[14.3346,36.0187],[14.3365,36.0185],[14.3374,36.0201],[14.3396,36.0204]]]]},"properties":{"name":"Gozo","id":"MT-GO","CNTRY":"Malta","TYPE":"Region"},"id":"MT-GO"}
]}