{"type":"FeatureCollection", "features": [
{"type":"Feature","geometry":{"type":"Polygon","coordinates":[[[83.1473,28.7362],[83.1594,28.6931],[83.0999,28.6217],[82.9852,28.6194],[82.9293,28.5587],[82.8877,28.4564],[82.9543,28.3636],[83.0686,28.3017],[83.1055,28.2517],[83.2078,28.2482],[83.2804,28.1804],[83.353,28.1863],[83.4196,28.128],[83.5422,28.1149],[83.5707,28.0852],[83.5469,28.0281],[83.5921,28.009],[83.5398,27.9674],[83.472,27.9745],[83.4327,27.9329],[83.447,27.9055],[83.5362,27.9067],[83.7646,27.8865],[83.7968,27.8579],[83.8979,27.8651],[84.0299,27.8187],[83.9919,27.7467],[83.9098,27.717],[83.8551,27.7312],[83.6861,27.7098],[83.7028,27.6646],[83.742,27.661],[83.7646,27.579],[83.7408,27.4921],[83.7944,27.4707],[83.8824,27.5004],[83.8809,27.4402],[83.8268,27.4253],[83.8131,27.3783],[83.6032,27.4725],[83.3917,27.4817],[83.3955,27.4022],[83.3473,27.3437],[83.3016,27.3329],[83.2621,27.3844],[83.1737,27.4568],[83.0426,27.452],[82.9396,27.4763],[82.9151,27.5046],[82.7312,27.505],[82.7444,27.5875],[82.6903,27.7239],[82.5878,27.7003],[82.4478,27.6807],[82.3606,27.7437],[82.2841,27.7823],[82.1962,27.8505],[82.115,27.8705],[82.0645,27.9269],[81.9664,27.9303],[81.9189,27.8612],[81.8796,27.8626],[81.7958,27.9072],[81.6892,27.9939],[81.6217,28.008],[81.4706,28.0865],[81.4729,28.1193],[81.4178,28.1764],[81.3083,28.1408],[81.3091,28.2073],[81.229,28.2865],[81.2041,28.363],[81.0918,28.3834],[81.0551,28.4037],[81.0864,28.464],[81.1676,28.5222],[81.2586,28.6059],[81.3063,28.6726],[81.3238,28.6405],[81.4037,28.6024],[81.437,28.5672],[81.6835,28.414],[81.7606,28.3542],[81.7497,28.3164],[81.8003,28.2678],[81.8411,28.2715],[81.9268,28.2236],[81.933,28.2017],[82.0153,28.1643],[82.0458,28.2215],[82.0957,28.2529],[82.2456,28.2315],[82.2821,28.2436],[82.4055,28.1744],[82.4384,28.2408],[82.3641,28.3272],[82.392,28.36],[82.3634,28.4128],[82.4591,28.5199],[82.559,28.5695],[82.5861,28.5959],[82.559,28.6402],[82.6211,28.6787],[82.6076,28.7323],[82.5754,28.753],[82.6233,28.7979],[82.6561,28.8629],[82.6947,28.8593],[82.7987,28.8167],[82.9518,28.8155],[83.1472,28.7362],[83.1473,28.7362]]]},"properties":{"name":"Pradesh 5","id":"NP-P5","NAME_ENG":"Province 5","CNTRY":"Nepal","TYPE":"Province"},"id":"NP-P5"},
{"type":"Feature","geometry":{"type":"Polygon","coordinates":[[[86.2631,26.9087],[86.3528,26.8719],[86.3921,26.8945],[86.4718,26.8766],[86.5515,26.8255],[86.542,26.7886],[86.5872,26.6994],[86.6942,26.6827],[86.7311,26.7053],[86.7656,26.6815],[86.8382,26.7053],[86.8691,26.6899],[86.9274,26.7517],[87.0167,26.691],[86.9822,26.5483],[86.9449,26.5181],[86.8892,26.4622],[86.8352,26.4405],[86.7608,26.4584],[86.7274,26.4251],[86.6895,26.45],[86.5651,26.4987],[86.5304,26.5422],[86.3027,26.6208],[86.2226,26.591],[86.1681,26.6189],[86.0254,26.6678],[85.9483,26.651],[85.8498,26.5709],[85.8437,26.6097],[85.7287,26.6518],[85.7154,26.6825],[85.7272,26.7964],[85.6692,26.8463],[85.6005,26.8586],[85.5361,26.8391],[85.4499,26.7838],[85.4005,26.7927],[85.3277,26.7433],[85.2002,26.7624],[85.1702,26.8166],[85.1865,26.871],[85.1012,26.8736],[85.056,26.8516],[84.9523,26.965],[84.8916,26.9755],[84.8068,27.0217],[84.7538,27.0025],[84.6366,27.0492],[84.6687,27.1051],[84.6817,27.2259],[84.6119,27.3417],[84.4775,27.3626],[84.5194,27.3822],[84.5694,27.4512],[84.7002,27.4226],[84.7276,27.4393],[84.8002,27.4286],[84.9239,27.362],[85.025,27.3489],[85.0833,27.3548],[85.1012,27.3132],[85.1761,27.2478],[85.3831,27.2002],[85.5178,27.1306],[85.6261,27.1318],[85.7213,27.1829],[85.801,27.1532],[85.933,27.121],[85.9877,27.0187],[86.1626,26.9902],[86.2631,26.9087]]]},"properties":{"name":"Pradesh 2","id":"NP-P2","NAME_ENG":"Province 2","CNTRY":"Nepal","TYPE":"Province"},"id":"NP-P2"},
{"type":"Feature","geometry":{"type":"Polygon","coordinates":[[[86.9449,26.5181],[86.9822,26.5483],[87.0167,26.691],[86.9274,26.7517],[86.8691,26.6899],[86.8382,26.7053],[86.7656,26.6815],[86.7311,26.7053],[86.6942,26.6827],[86.5872,26.6994],[86.542,26.7886],[86.5515,26.8255],[86.4718,26.8766],[86.3921,26.8945],[86.3528,26.8719],[86.2631,26.9087],[86.3765,26.9831],[86.3539,27.0486],[86.3884,27.1711],[86.3098,27.2318],[86.2301,27.2223],[86.242,27.2805],[86.2194,27.3614],[86.256,27.443],[86.2952,27.4572],[86.3618,27.5203],[86.3844,27.5655],[86.4356,27.6036],[86.4891,27.6083],[86.5391,27.6452],[86.5712,27.7344],[86.5534,27.7987],[86.5593,27.8974],[86.5228,27.9267],[86.5013,27.9742],[86.5148,28.0248],[86.5835,28.0811],[86.6358,28.0759],[86.6797,28.106],[86.7396,28.0936],[86.7452,28.0525],[86.8061,28.015],[86.8673,28.0057],[86.9613,27.951],[87.0232,27.9526],[87.151,27.8557],[87.1322,27.8272],[87.234,27.8173],[87.2706,27.8426],[87.3441,27.8292],[87.4194,27.8515],[87.4637,27.8222],[87.5603,27.8634],[87.6133,27.8103],[87.6921,27.8425],[87.7259,27.8145],[87.8315,27.9457],[87.9724,27.8921],[88.0069,27.9174],[88.0883,27.8704],[88.1703,27.8665],[88.1904,27.7886],[88.1495,27.7307],[88.1428,27.6691],[88.0393,27.4938],[88.0628,27.4435],[88.0376,27.3678],[88.0572,27.3384],[88.0093,27.2199],[88.0097,27.1634],[87.9838,27.1121],[88.0384,27.0386],[88.1276,26.9861],[88.1162,26.9478],[88.1371,26.8896],[88.1694,26.8613],[88.1798,26.7184],[88.1258,26.5742],[88.0998,26.5554],[88.1021,26.4656],[88.0804,26.4225],[88.0036,26.3551],[87.9866,26.3932],[87.9227,26.4187],[87.8803,26.4762],[87.8437,26.4358],[87.7851,26.4632],[87.7597,26.4092],[87.6721,26.4358],[87.6459,26.3931],[87.5797,26.3941],[87.5426,26.4189],[87.4557,26.44],[87.3816,26.4191],[87.3486,26.3859],[87.2595,26.3741],[87.2546,26.4109],[87.1501,26.4062],[87.085,26.4526],[87.0647,26.5871],[87.0083,26.5343],[86.9449,26.5181]]]},"properties":{"name":"Pradesh 1","id":"NP-P1","NAME_ENG":"Province 1","CNTRY":"Nepal","TYPE":"Province"},"id":"NP-P1"},
{"type":"Feature","geometry":{"type":"Polygon","coordinates":[[[81.0579,28.967],[81.017,28.9551],[81.0564,28.8902],[81.1043,28.862],[81.1233,28.8578],[81.154,28.876],[81.2206,28.8581],[81.2563,28.8129],[81.3063,28.6726],[81.2586,28.6059],[81.1676,28.5222],[81.0864,28.464],[81.0551,28.4037],[80.9905,28.4556],[80.8908,28.4667],[80.8806,28.5103],[80.8303,28.5034],[80.7754,28.5303],[80.7596,28.571],[80.6909,28.5812],[80.657,28.6457],[80.6198,28.6426],[80.5382,28.696],[80.4968,28.6717],[80.5111,28.5634],[80.4602,28.594],[80.4266,28.6433],[80.3711,28.6361],[80.3111,28.7025],[80.2504,28.7307],[80.1215,28.8282],[80.0517,28.8513],[80.0546,28.9248],[80.109,28.9913],[80.1239,29.0785],[80.1735,29.1381],[80.2279,29.1248],[80.2612,29.1504],[80.2522,29.2166],[80.285,29.241],[80.3039,29.3285],[80.2727,29.3497],[80.2341,29.4518],[80.3405,29.5225],[80.3384,29.5564],[80.3845,29.5766],[80.4106,29.6466],[80.3815,29.6746],[80.3606,29.7548],[80.4247,29.8111],[80.483,29.802],[80.5472,29.8681],[80.5588,29.9289],[80.6152,29.9696],[80.6678,29.9664],[80.7304,30.0078],[80.7553,30.0611],[80.8606,30.1362],[80.8537,30.1776],[80.8886,30.2217],[80.9218,30.1824],[81.0557,30.2045],[81.1025,30.1506],[81.0973,30.0593],[81.1392,30.0174],[81.2172,30.0098],[81.2562,30.0587],[81.2962,30.0297],[81.3775,30.0082],[81.4069,30.0287],[81.4659,29.9942],[81.4723,29.8841],[81.5234,29.922],[81.6597,29.9554],[81.799,29.8876],[81.7883,29.8004],[81.7505,29.7953],[81.7375,29.728],[81.7103,29.7117],[81.7077,29.6383],[81.7362,29.6091],[81.8136,29.5806],[81.7928,29.5127],[81.8144,29.438],[81.8049,29.4038],[81.7571,29.3697],[81.7583,29.3352],[81.7047,29.3144],[81.6544,29.3193],[81.621,29.3719],[81.5828,29.371],[81.4715,29.2776],[81.4953,29.2487],[81.4885,29.1802],[81.561,29.1157],[81.4772,29.0711],[81.4404,29.0271],[81.4407,28.9665],[81.4843,28.9041],[81.5961,28.7886],[81.5713,28.7391],[81.5275,28.7391],[81.5198,28.8036],[81.4714,28.8482],[81.4357,28.9094],[81.3596,28.8938],[81.2059,28.9079],[81.0918,28.9674],[81.0579,28.967]]]},"properties":{"name":"Sudurpashchim","id":"NP-P7","NAME_ENG":"Province 7","CNTRY":"Nepal","TYPE":"Province"},"id":"NP-P7"},
{"type":"Feature","geometry":{"type":"Polygon","coordinates":[[[83.6467,29.1906],[83.688,29.1436],[83.643,29.1061],[83.6205,29.0572],[83.6206,28.9948],[83.5057,28.8695],[83.4873,28.7867],[83.3516,28.7304],[83.277,28.7095],[83.1962,28.7206],[83.1564,28.7445],[83.1472,28.7362],[82.9518,28.8155],[82.7987,28.8167],[82.6947,28.8593],[82.6561,28.8629],[82.6233,28.7979],[82.5754,28.753],[82.6076,28.7323],[82.6211,28.6787],[82.559,28.6402],[82.5861,28.5959],[82.559,28.5695],[82.4591,28.5199],[82.3634,28.4128],[82.392,28.36],[82.3641,28.3272],[82.4384,28.2408],[82.4055,28.1744],[82.2821,28.2436],[82.2456,28.2315],[82.0957,28.2529],[82.0458,28.2215],[82.0153,28.1643],[81.933,28.2017],[81.9268,28.2236],[81.8411,28.2715],[81.8003,28.2678],[81.7497,28.3164],[81.7606,28.3542],[81.6835,28.414],[81.437,28.5672],[81.4037,28.6024],[81.3238,28.6405],[81.3063,28.6726],[81.2563,28.8129],[81.2206,28.8581],[81.154,28.876],[81.1233,28.8578],[81.1043,28.862],[81.0564,28.8902],[81.017,28.9551],[81.0579,28.967],[81.0918,28.9674],[81.2059,28.9079],[81.3596,28.8938],[81.4357,28.9094],[81.4714,28.8482],[81.5198,28.8036],[81.5275,28.7391],[81.5713,28.7391],[81.5961,28.7886],[81.4843,28.9041],[81.4407,28.9665],[81.4404,29.0271],[81.4772,29.0711],[81.561,29.1157],[81.4885,29.1802],[81.4953,29.2487],[81.4715,29.2776],[81.5828,29.371],[81.621,29.3719],[81.6544,29.3193],[81.7047,29.3144],[81.7583,29.3352],[81.7571,29.3697],[81.8049,29.4038],[81.8144,29.438],[81.7928,29.5127],[81.8136,29.5806],[81.7362,29.6091],[81.7077,29.6383],[81.7103,29.7117],[81.7375,29.728],[81.7505,29.7953],[81.7883,29.8004],[81.799,29.8876],[81.6597,29.9554],[81.5234,29.922],[81.4723,29.8841],[81.4659,29.9942],[81.4069,30.0287],[81.3775,30.0082],[81.2962,30.0297],[81.2562,30.0587],[81.2644,30.1445],[81.3384,30.152],[81.3901,30.2157],[81.4113,30.3051],[81.3897,30.3528],[81.3979,30.4075],[81.4827,30.4228],[81.519,30.3859],[81.5765,30.3713],[81.5855,30.4267],[81.641,30.4311],[81.7649,30.385],[81.9547,30.3544],[82.0066,30.3356],[82.1305,30.3339],[82.1591,30.2303],[82.1988,30.1987],[82.1978,30.0925],[82.4313,30.0123],[82.4978,30.0074],[82.5806,29.9534],[82.6058,29.9133],[82.7006,29.8396],[82.7499,29.7612],[82.8541,29.7043],[82.9192,29.7021],[83.022,29.6634],[83.0764,29.6299],[83.1423,29.6224],[83.2384,29.5829],[83.2547,29.5216],[83.3246,29.5008],[83.3276,29.4555],[83.394,29.4],[83.4294,29.3438],[83.4425,29.2886],[83.486,29.2654],[83.5487,29.1986],[83.6213,29.1688],[83.6467,29.1906]]]},"properties":{"name":"Karnali","id":"NP-P6","NAME_ENG":"Karnali","CNTRY":"Nepal","TYPE":"Province"},"id":"NP-P6"},
{"type":"Feature","geometry":{"type":"Polygon","coordinates":[[[83.8809,27.4402],[83.8824,27.5004],[83.7944,27.4707],[83.7408,27.4921],[83.7646,27.579],[83.742,27.661],[83.7028,27.6646],[83.6861,27.7098],[83.8551,27.7312],[83.9098,27.717],[83.9919,27.7467],[84.0299,27.8187],[83.8979,27.8651],[83.7968,27.8579],[83.7646,27.8865],[83.5362,27.9067],[83.447,27.9055],[83.4327,27.9329],[83.472,27.9745],[83.5398,27.9674],[83.5921,28.009],[83.5469,28.0281],[83.5707,28.0852],[83.5422,28.1149],[83.4196,28.128],[83.353,28.1863],[83.2804,28.1804],[83.2078,28.2482],[83.1055,28.2517],[83.0686,28.3017],[82.9543,28.3636],[82.8877,28.4564],[82.9293,28.5587],[82.9852,28.6194],[83.0999,28.6217],[83.1594,28.6931],[83.1473,28.7362],[83.1564,28.7445],[83.1962,28.7206],[83.277,28.7095],[83.3516,28.7304],[83.4873,28.7867],[83.5057,28.8695],[83.6206,28.9948],[83.6205,29.0572],[83.643,29.1061],[83.688,29.1436],[83.6467,29.1906],[83.7192,29.2451],[83.7856,29.2376],[83.8767,29.3051],[83.9729,29.3156],[84.0962,29.2763],[84.1367,29.2384],[84.2481,29.0064],[84.2243,28.9058],[84.3997,28.8524],[84.4267,28.8288],[84.4488,28.7449],[84.5139,28.7178],[84.6066,28.74],[84.6728,28.719],[84.703,28.6561],[84.6907,28.6129],[84.8213,28.591],[84.8583,28.5683],[84.9747,28.5822],[85.0711,28.6703],[85.1314,28.6779],[85.1931,28.6181],[85.1557,28.4854],[85.0991,28.4581],[85.1226,28.376],[85.1138,28.3349],[85.0454,28.3014],[85.0229,28.2445],[84.9887,28.2249],[84.9719,28.1354],[84.9132,28.1006],[84.8589,28.1111],[84.8342,28.0854],[84.8075,27.9892],[84.7266,27.914],[84.7381,27.8741],[84.7866,27.8098],[84.699,27.787],[84.6486,27.8469],[84.5791,27.8546],[84.5106,27.8079],[84.4259,27.7917],[84.4616,27.7482],[84.4358,27.6856],[84.3882,27.6561],[84.3463,27.677],[84.1874,27.6085],[84.1376,27.5474],[83.9379,27.5325],[83.972,27.5056],[83.9379,27.4466],[83.8809,27.4402]]]},"properties":{"name":"Gandaki","id":"NP-P4","NAME_ENG":"Gandaki","CNTRY":"Nepal","TYPE":"Province"},"id":"NP-P4"},
{"type":"Feature","geometry":{"type":"Polygon","coordinates":[[[86.2631,26.9087],[86.1626,26.9902],[85.9877,27.0187],[85.933,27.121],[85.801,27.1532],[85.7213,27.1829],[85.6261,27.1318],[85.5178,27.1306],[85.3831,27.2002],[85.1761,27.2478],[85.1012,27.3132],[85.0833,27.3548],[85.025,27.3489],[84.9239,27.362],[84.8002,27.4286],[84.7276,27.4393],[84.7002,27.4226],[84.5694,27.4512],[84.5194,27.3822],[84.4775,27.3626],[84.3305,27.3783],[84.2673,27.3997],[84.245,27.4527],[84.1449,27.4897],[84.0642,27.489],[84.0433,27.4464],[83.9379,27.4466],[83.972,27.5056],[83.9379,27.5325],[84.1376,27.5474],[84.1874,27.6085],[84.3463,27.677],[84.3882,27.6561],[84.4358,27.6856],[84.4616,27.7482],[84.4259,27.7917],[84.5106,27.8079],[84.5791,27.8546],[84.6486,27.8469],[84.699,27.787],[84.7866,27.8098],[84.7381,27.8741],[84.7266,27.914],[84.8075,27.9892],[84.8342,28.0854],[84.8589,28.1111],[84.9132,28.1006],[84.9719,28.1354],[84.9887,28.2249],[85.0229,28.2445],[85.0454,28.3014],[85.1138,28.3349],[85.1994,28.342],[85.2531,28.2819],[85.3423,28.3007],[85.3805,28.2834],[85.461,28.3317],[85.5317,28.3272],[85.6454,28.2783],[85.6683,28.3468],[85.7254,28.3715],[85.7425,28.2649],[85.7699,28.2103],[85.895,28.1154],[85.9121,28.058],[85.964,27.983],[85.9559,27.9391],[86.0661,27.9089],[86.127,27.9385],[86.0793,28.0126],[86.0797,28.1003],[86.167,28.1702],[86.2117,28.1],[86.192,28.0769],[86.204,28.0106],[86.2279,27.9804],[86.2851,27.9777],[86.325,27.9337],[86.4221,27.8956],[86.4739,27.935],[86.5228,27.9267],[86.5593,27.8974],[86.5534,27.7987],[86.5712,27.7344],[86.5391,27.6452],[86.4891,27.6083],[86.4356,27.6036],[86.3844,27.5655],[86.3618,27.5203],[86.2952,27.4572],[86.256,27.443],[86.2194,27.3614],[86.242,27.2805],[86.2301,27.2223],[86.3098,27.2318],[86.3884,27.1711],[86.3539,27.0486],[86.3765,26.9831],[86.2631,26.9087]]]},"properties":{"name":"Pradesh 3","id":"NP-P3","NAME_ENG":"Province 3","CNTRY":"Nepal","TYPE":"Province"},"id":"NP-P3"}
]}