{"type":"FeatureCollection", "features": [
{"type":"Feature","geometry":{"type":"MultiPolygon","coordinates":[[[[-14.3783,-7.8892],[-14.3775,-7.89],[-14.3756,-7.8894],[-14.3742,-7.8906],[-14.3728,-7.8903],[-14.3708,-7.8919],[-14.3689,-7.8928],[-14.3664,-7.8956],[-14.3656,-7.8956],[-14.365,-7.8961],[-14.3636,-7.8956],[-14.3619,-7.8958],[-14.3594,-7.8956],[-14.3581,-7.8969],[-14.3558,-7.8972],[-14.3553,-7.8978],[-14.355,-7.8994],[-14.3544,-7.9001],[-14.3533,-7.9],[-14.3517,-7.899],[-14.3506,-7.9003],[-14.3517,-7.9028],[-14.3517,-7.9042],[-14.3475,-7.9086],[-14.3456,-7.9089],[-14.3444,-7.9106],[-14.3428,-7.9108],[-14.3422,-7.9114],[-14.3431,-7.9131],[-14.3425,-7.9142],[-14.34,-7.9144],[-14.3389,-7.9136],[-14.3383,-7.9125],[-14.3361,-7.9131],[-14.3347,-7.9122],[-14.3331,-7.9122],[-14.3322,-7.9131],[-14.3319,-7.9142],[-14.33,-7.9164],[-14.3281,-7.9164],[-14.3264,-7.9172],[-14.3244,-7.9203],[-14.3231,-7.9211],[-14.3214,-7.9231],[-14.3203,-7.9256],[-14.3186,-7.9275],[-14.3186,-7.93],[-14.3181,-7.9317],[-14.3169,-7.9322],[-14.3175,-7.9331],[-14.3175,-7.9342],[-14.3158,-7.9364],[-14.3133,-7.9386],[-14.3114,-7.9392],[-14.3067,-7.9393],[-14.306,-7.9401],[-14.3059,-7.941],[-14.3048,-7.9413],[-14.3039,-7.9428],[-14.3021,-7.943],[-14.2991,-7.9425],[-14.2982,-7.943],[-14.2957,-7.9466],[-14.2942,-7.9467],[-14.2943,-7.9483],[-14.2953,-7.9494],[-14.2947,-7.9506],[-14.2961,-7.9525],[-14.2969,-7.9547],[-14.3014,-7.9569],[-14.3025,-7.9569],[-14.3044,-7.9543],[-14.3056,-7.9535],[-14.3071,-7.9532],[-14.3086,-7.9537],[-14.309,-7.9534],[-14.3097,-7.9536],[-14.3108,-7.9575],[-14.3111,-7.9625],[-14.3119,-7.9642],[-14.3122,-7.9658],[-14.3156,-7.9692],[-14.32,-7.9717],[-14.3212,-7.9706],[-14.3228,-7.9703],[-14.3242,-7.9711],[-14.3251,-7.9699],[-14.3267,-7.9708],[-14.3281,-7.9723],[-14.3307,-7.9727],[-14.3312,-7.973],[-14.3313,-7.9738],[-14.3328,-7.9742],[-14.3336,-7.9739],[-14.3339,-7.9742],[-14.3336,-7.9756],[-14.3342,-7.9764],[-14.3342,-7.9775],[-14.335,-7.9783],[-14.3383,-7.9767],[-14.3386,-7.9775],[-14.3397,-7.9781],[-14.3394,-7.9786],[-14.3398,-7.9794],[-14.3389,-7.9806],[-14.3389,-7.9811],[-14.3397,-7.9819],[-14.3411,-7.9824],[-14.3414,-7.9831],[-14.3425,-7.9833],[-14.3446,-7.9848],[-14.3461,-7.9847],[-14.3483,-7.9825],[-14.3503,-7.9817],[-14.3517,-7.98],[-14.3528,-7.98],[-14.3567,-7.9833],[-14.3592,-7.9822],[-14.3611,-7.9828],[-14.3636,-7.9856],[-14.3661,-7.9872],[-14.3669,-7.9874],[-14.3681,-7.9867],[-14.3694,-7.9869],[-14.3717,-7.9856],[-14.3733,-7.986],[-14.3746,-7.9853],[-14.3775,-7.9883],[-14.3825,-7.99],[-14.3844,-7.9903],[-14.3861,-7.99],[-14.3869,-7.9906],[-14.39,-7.9904],[-14.3925,-7.9931],[-14.3947,-7.9936],[-14.3969,-7.9917],[-14.3978,-7.9914],[-14.3994,-7.9917],[-14.4006,-7.9908],[-14.4017,-7.9908],[-14.4025,-7.9897],[-14.4014,-7.9869],[-14.4019,-7.9867],[-14.4042,-7.9875],[-14.4056,-7.9864],[-14.4061,-7.985],[-14.4069,-7.9842],[-14.4083,-7.9839],[-14.4092,-7.9842],[-14.4114,-7.9814],[-14.4128,-7.9789],[-14.415,-7.9769],[-14.4156,-7.9758],[-14.4153,-7.9736],[-14.4128,-7.9706],[-14.4122,-7.9689],[-14.4106,-7.9675],[-14.4103,-7.9656],[-14.4125,-7.9639],[-14.4131,-7.9622],[-14.4144,-7.9611],[-14.415,-7.9583],[-14.4144,-7.9567],[-14.4167,-7.9542],[-14.4186,-7.9511],[-14.4178,-7.9494],[-14.4178,-7.9483],[-14.4189,-7.9472],[-14.4197,-7.9453],[-14.4197,-7.9439],[-14.4211,-7.9417],[-14.4203,-7.9403],[-14.4203,-7.9386],[-14.4197,-7.9378],[-14.4197,-7.9369],[-14.4208,-7.9356],[-14.4203,-7.9342],[-14.4206,-7.9319],[-14.4201,-7.9307],[-14.4169,-7.9275],[-14.4169,-7.9269],[-14.4158,-7.9258],[-14.4153,-7.9258],[-14.4133,-7.9236],[-14.4122,-7.9233],[-14.4114,-7.9239],[-14.4089,-7.9236],[-14.4064,-7.9214],[-14.4064,-7.92],[-14.4078,-7.9172],[-14.4056,-7.915],[-14.405,-7.9125],[-14.4033,-7.9117],[-14.405,-7.9097],[-14.4053,-7.9067],[-14.4039,-7.9039],[-14.4031,-7.9031],[-14.4031,-7.9025],[-14.4019,-7.9014],[-14.3992,-7.9],[-14.3975,-7.8969],[-14.3939,-7.8933],[-14.3928,-7.8928],[-14.3917,-7.8931],[-14.39,-7.8923],[-14.3883,-7.8931],[-14.385,-7.8925],[-14.3839,-7.8936],[-14.3825,-7.8939],[-14.3814,-7.8928],[-14.3814,-7.8911],[-14.3819,-7.8903],[-14.3803,-7.8892],[-14.3783,-7.8892]]],[[[-14.3058,-7.9348],[-14.3063,-7.9364],[-14.3072,-7.937],[-14.3077,-7.9367],[-14.3074,-7.9358],[-14.3081,-7.9349],[-14.3074,-7.9348],[-14.307,-7.9337],[-14.3059,-7.9343],[-14.3058,-7.9348]]]]},"properties":{"name":"Ascension","id":"SH-AC","CNTRY":"Saint Helena, Ascension and Tristan da Cunha","ADMIN":"Ascension","TYPE":"Administrative Area"},"id":"SH-AC"},
{"type":"Feature","geometry":{"type":"MultiPolygon","coordinates":[[[[-9.9731,-40.2733],[-9.9719,-40.2742],[-9.9728,-40.2756],[-9.9722,-40.2764],[-9.97,-40.2758],[-9.9658,-40.2778],[-9.9628,-40.2772],[-9.9608,-40.2764],[-9.9597,-40.275],[-9.9586,-40.2758],[-9.9572,-40.2753],[-9.9536,-40.2769],[-9.9518,-40.2791],[-9.9502,-40.2799],[-9.9453,-40.2797],[-9.9408,-40.2787],[-9.9386,-40.2791],[-9.9363,-40.2783],[-9.936,-40.2777],[-9.9331,-40.278],[-9.9324,-40.2759],[-9.9308,-40.2747],[-9.93,-40.2761],[-9.9306,-40.2772],[-9.93,-40.2783],[-9.9254,-40.2806],[-9.9237,-40.2826],[-9.9225,-40.2861],[-9.9189,-40.2906],[-9.9189,-40.2928],[-9.9178,-40.2944],[-9.9161,-40.2953],[-9.9101,-40.3015],[-9.9089,-40.3032],[-9.9053,-40.3047],[-9.9001,-40.3008],[-9.89,-40.3129],[-9.8978,-40.3201],[-9.8986,-40.3222],[-9.8975,-40.3239],[-9.8967,-40.3256],[-9.8961,-40.3275],[-9.8908,-40.3286],[-9.8872,-40.3306],[-9.8842,-40.3322],[-9.8794,-40.3342],[-9.8767,-40.3375],[-9.8767,-40.3383],[-9.8751,-40.3389],[-9.8753,-40.3407],[-9.8762,-40.3418],[-9.874,-40.344],[-9.8751,-40.3444],[-9.8763,-40.3435],[-9.8779,-40.3437],[-9.8782,-40.3449],[-9.8761,-40.3469],[-9.88,-40.3517],[-9.8825,-40.3525],[-9.8817,-40.3558],[-9.8842,-40.3583],[-9.8828,-40.3603],[-9.8839,-40.3611],[-9.885,-40.3631],[-9.8867,-40.3644],[-9.8922,-40.3711],[-9.8957,-40.3713],[-9.8971,-40.3689],[-9.8993,-40.3675],[-9.9019,-40.3675],[-9.9053,-40.3683],[-9.9075,-40.3669],[-9.9092,-40.3669],[-9.9108,-40.3678],[-9.9133,-40.3672],[-9.9163,-40.3648],[-9.9194,-40.3656],[-9.9214,-40.3675],[-9.9228,-40.3678],[-9.9236,-40.3667],[-9.922,-40.3652],[-9.9225,-40.3639],[-9.9256,-40.365],[-9.9272,-40.3647],[-9.9294,-40.3656],[-9.9308,-40.3642],[-9.9306,-40.3636],[-9.9289,-40.3639],[-9.9264,-40.3615],[-9.9264,-40.3592],[-9.9278,-40.3583],[-9.9292,-40.3561],[-9.935,-40.3583],[-9.9353,-40.357],[-9.9311,-40.3547],[-9.9317,-40.3536],[-9.9328,-40.3525],[-9.935,-40.3519],[-9.9396,-40.3494],[-9.9474,-40.3622],[-9.9538,-40.3587],[-9.9467,-40.3477],[-9.9485,-40.3475],[-9.9494,-40.3466],[-9.9519,-40.3464],[-9.9539,-40.3444],[-9.9561,-40.3439],[-9.9583,-40.3422],[-9.9633,-40.3403],[-9.9639,-40.3394],[-9.9633,-40.3386],[-9.9622,-40.3383],[-9.9622,-40.3372],[-9.9644,-40.3347],[-9.9644,-40.3322],[-9.9708,-40.3254],[-9.9745,-40.3246],[-9.9758,-40.3235],[-9.9849,-40.3402],[-9.9919,-40.3359],[-9.9841,-40.3224],[-9.9889,-40.3211],[-9.9958,-40.3167],[-9.9983,-40.3169],[-10,-40.3161],[-10.0037,-40.3166],[-10.0058,-40.3175],[-10.0072,-40.3189],[-10.0083,-40.3189],[-10.0092,-40.3172],[-10.0121,-40.3146],[-10.0152,-40.3152],[-10.0178,-40.3147],[-10.0186,-40.3141],[-10.0203,-40.3101],[-10.0189,-40.3097],[-10.0126,-40.3055],[-10.0242,-40.3046],[-10.024,-40.3014],[-10.0117,-40.3028],[-10.0111,-40.301],[-10.0046,-40.2956],[-10.0024,-40.2907],[-10.003,-40.2879],[-10.0008,-40.2856],[-10.0014,-40.2847],[-10.0064,-40.2822],[-10.0053,-40.2808],[-10.0031,-40.2817],[-10,-40.2811],[-9.9983,-40.2808],[-9.9961,-40.2806],[-9.9947,-40.2789],[-9.9931,-40.2792],[-9.9903,-40.275],[-9.9861,-40.2786],[-9.9836,-40.2778],[-9.978,-40.2783],[-9.9746,-40.2764],[-9.9739,-40.275],[-9.9744,-40.2742],[-9.9731,-40.2733]]],[[[-12.4728,-37.4183],[-12.4719,-37.4215],[-12.4709,-37.4221],[-12.472,-37.4238],[-12.4711,-37.4249],[-12.47,-37.425],[-12.4689,-37.4275],[-12.4694,-37.4278],[-12.4728,-37.4264],[-12.4728,-37.4293],[-12.4745,-37.4296],[-12.4749,-37.4305],[-12.4769,-37.4313],[-12.4761,-37.4347],[-12.4769,-37.4358],[-12.4789,-37.435],[-12.4824,-37.4314],[-12.4813,-37.4304],[-12.4812,-37.4285],[-12.4843,-37.4298],[-12.4865,-37.43],[-12.4883,-37.4315],[-12.4888,-37.4312],[-12.4917,-37.4328],[-12.4931,-37.4322],[-12.4953,-37.4297],[-12.4961,-37.4308],[-12.4981,-37.4289],[-12.4981,-37.4275],[-12.4967,-37.4267],[-12.4975,-37.4256],[-12.4967,-37.4197],[-12.4944,-37.4169],[-12.4917,-37.4186],[-12.4884,-37.4187],[-12.4872,-37.4181],[-12.4837,-37.4182],[-12.4784,-37.4155],[-12.4756,-37.4153],[-12.4728,-37.4183]]],[[[-12.4783,-37.4094],[-12.4761,-37.4108],[-12.4758,-37.4117],[-12.4775,-37.4127],[-12.4781,-37.4139],[-12.4791,-37.4142],[-12.4806,-37.4128],[-12.4833,-37.4119],[-12.4831,-37.41],[-12.4797,-37.4089],[-12.4783,-37.4094]]],[[[-12.4906,-37.4007],[-12.4839,-37.4036],[-12.4851,-37.4047],[-12.4868,-37.405],[-12.4892,-37.405],[-12.4897,-37.4036],[-12.4914,-37.4042],[-12.4931,-37.4011],[-12.4906,-37.4007]]],[[[-12.6952,-37.3172],[-12.6953,-37.3184],[-12.6959,-37.3185],[-12.6959,-37.3179],[-12.6972,-37.3174],[-12.6956,-37.3165],[-12.6952,-37.3172]]],[[[-12.2788,-37.0617],[-12.2748,-37.0635],[-12.2711,-37.0628],[-12.2694,-37.0631],[-12.2683,-37.0625],[-12.2625,-37.0625],[-12.2608,-37.0631],[-12.2542,-37.0686],[-12.2478,-37.0709],[-12.24,-37.0775],[-12.236,-37.0792],[-12.2286,-37.0872],[-12.2264,-37.0917],[-12.2219,-37.0981],[-12.2207,-37.1026],[-12.2191,-37.1042],[-12.2181,-37.1095],[-12.2159,-37.1125],[-12.2147,-37.1164],[-12.2172,-37.1181],[-12.2183,-37.1199],[-12.2214,-37.1222],[-12.2219,-37.1236],[-12.2256,-37.1261],[-12.2275,-37.1283],[-12.2314,-37.1291],[-12.2316,-37.13],[-12.2328,-37.1303],[-12.2414,-37.1401],[-12.2483,-37.1421],[-12.2542,-37.1472],[-12.2557,-37.1515],[-12.2582,-37.1542],[-12.2597,-37.1553],[-12.2603,-37.1544],[-12.2624,-37.1544],[-12.2645,-37.1558],[-12.2645,-37.1563],[-12.2658,-37.1565],[-12.2688,-37.1608],[-12.2669,-37.1638],[-12.2719,-37.1686],[-12.2836,-37.1707],[-12.2864,-37.1689],[-12.2907,-37.1671],[-12.2936,-37.1642],[-12.2978,-37.1628],[-12.2981,-37.1614],[-12.2994,-37.1611],[-12.3003,-37.1618],[-12.3009,-37.1616],[-12.3023,-37.1596],[-12.304,-37.1585],[-12.3078,-37.1589],[-12.3094,-37.1583],[-12.3132,-37.1591],[-12.3148,-37.1634],[-12.3177,-37.164],[-12.3167,-37.1611],[-12.3178,-37.1594],[-12.3206,-37.1569],[-12.3228,-37.1561],[-12.3253,-37.1525],[-12.3271,-37.1523],[-12.3285,-37.1482],[-12.3309,-37.145],[-12.3381,-37.1386],[-12.3464,-37.1283],[-12.3481,-37.1236],[-12.3503,-37.1217],[-12.3517,-37.1181],[-12.3495,-37.1156],[-12.3487,-37.112],[-12.3472,-37.11],[-12.3464,-37.11],[-12.3457,-37.1091],[-12.3453,-37.1075],[-12.3464,-37.1058],[-12.3446,-37.1052],[-12.3443,-37.1045],[-12.3444,-37.1025],[-12.3436,-37.1014],[-12.3442,-37.1],[-12.3431,-37.0968],[-12.3394,-37.092],[-12.3383,-37.0897],[-12.3384,-37.088],[-12.3329,-37.0827],[-12.332,-37.0821],[-12.3303,-37.0828],[-12.3291,-37.0818],[-12.3289,-37.0797],[-12.325,-37.0796],[-12.3206,-37.0764],[-12.3201,-37.0733],[-12.3211,-37.0721],[-12.3211,-37.0713],[-12.3194,-37.07],[-12.3189,-37.065],[-12.3179,-37.0641],[-12.3156,-37.0635],[-12.3078,-37.0642],[-12.3006,-37.0633],[-12.2864,-37.0643],[-12.2819,-37.0621],[-12.2788,-37.0617]]],[[[-12.677,-37.2818],[-12.6695,-37.2861],[-12.6644,-37.2878],[-12.6628,-37.2902],[-12.6614,-37.291],[-12.655,-37.2919],[-12.6544,-37.2925],[-12.6521,-37.2918],[-12.6495,-37.2919],[-12.6491,-37.2933],[-12.6467,-37.2955],[-12.6444,-37.2956],[-12.6431,-37.2964],[-12.6417,-37.2983],[-12.6418,-37.3012],[-12.6443,-37.3036],[-12.6499,-37.3043],[-12.6568,-37.3073],[-12.6572,-37.3083],[-12.6591,-37.3091],[-12.6603,-37.309],[-12.6615,-37.3105],[-12.6662,-37.311],[-12.6668,-37.3121],[-12.6696,-37.3125],[-12.6716,-37.3146],[-12.6737,-37.3143],[-12.6756,-37.3149],[-12.678,-37.3171],[-12.68,-37.3177],[-12.6811,-37.3194],[-12.6818,-37.3194],[-12.6823,-37.3207],[-12.6812,-37.3213],[-12.681,-37.3228],[-12.6825,-37.3229],[-12.6854,-37.3211],[-12.6844,-37.3192],[-12.6853,-37.3177],[-12.6873,-37.3168],[-12.6896,-37.3171],[-12.6914,-37.3157],[-12.6932,-37.3174],[-12.6992,-37.3141],[-12.7007,-37.3136],[-12.7007,-37.3143],[-12.7016,-37.3138],[-12.7014,-37.3126],[-12.7007,-37.3126],[-12.7012,-37.3113],[-12.7023,-37.311],[-12.7056,-37.3072],[-12.7067,-37.2953],[-12.7061,-37.2939],[-12.7042,-37.2925],[-12.6984,-37.2925],[-12.6936,-37.2886],[-12.691,-37.2882],[-12.6854,-37.2819],[-12.682,-37.2821],[-12.6803,-37.2812],[-12.677,-37.2818]]]]},"properties":{"name":"Tristan da Cunha","id":"SH-TA","CNTRY":"Saint Helena, Ascension and Tristan da Cunha","ADMIN":"Tristan da Cunha","TYPE":"Administrative Area"},"id":"SH-TA"},
{"type":"Feature","geometry":{"type":"Polygon","coordinates":[[[-5.7054,-15.9655],[-5.7056,-15.9653],[-5.7058,-15.9652],[-5.7058,-15.965],[-5.7059,-15.9649],[-5.706,-15.9646],[-5.706,-15.9643],[-5.706,-15.9642],[-5.7061,-15.9639],[-5.7063,-15.9635],[-5.7064,-15.9633],[-5.7066,-15.963],[-5.7068,-15.9626],[-5.7073,-15.9619],[-5.7075,-15.9616],[-5.7077,-15.9612],[-5.7078,-15.9609],[-5.7079,-15.9607],[-5.7079,-15.9605],[-5.7081,-15.9601],[-5.7082,-15.96],[-5.7083,-15.9599],[-5.7086,-15.9598],[-5.7087,-15.9598],[-5.7089,-15.9601],[-5.7091,-15.9603],[-5.7095,-15.9608],[-5.7097,-15.961],[-5.7099,-15.9613],[-5.7103,-15.9615],[-5.7105,-15.9615],[-5.7106,-15.9614],[-5.7107,-15.9613],[-5.7108,-15.9612],[-5.7108,-15.9606],[-5.7109,-15.9602],[-5.711,-15.9594],[-5.7113,-15.9583],[-5.7114,-15.9579],[-5.7115,-15.957],[-5.7116,-15.9565],[-5.7116,-15.9562],[-5.7116,-15.9558],[-5.7117,-15.9553],[-5.7118,-15.9549],[-5.7119,-15.9547],[-5.712,-15.9542],[-5.7121,-15.9538],[-5.7121,-15.9534],[-5.7122,-15.9527],[-5.7122,-15.9524],[-5.7122,-15.9518],[-5.7122,-15.9514],[-5.7123,-15.9509],[-5.7124,-15.9504],[-5.7125,-15.9501],[-5.7127,-15.9496],[-5.713,-15.949],[-5.7131,-15.9485],[-5.7131,-15.9482],[-5.7132,-15.9479],[-5.7132,-15.9477],[-5.7132,-15.9473],[-5.7132,-15.9471],[-5.7133,-15.9467],[-5.7131,-15.9461],[-5.713,-15.9459],[-5.7126,-15.9452],[-5.7125,-15.9449],[-5.7122,-15.9442],[-5.7118,-15.9432],[-5.7114,-15.9423],[-5.711,-15.9412],[-5.7106,-15.94],[-5.7102,-15.939],[-5.7098,-15.9381],[-5.7095,-15.9375],[-5.7094,-15.9371],[-5.7092,-15.9364],[-5.7091,-15.936],[-5.7089,-15.9353],[-5.7088,-15.9349],[-5.7087,-15.9341],[-5.7087,-15.9336],[-5.7086,-15.9327],[-5.7086,-15.932],[-5.7086,-15.9311],[-5.7086,-15.9274],[-5.7076,-15.9274],[-5.7074,-15.9274],[-5.7072,-15.9274],[-5.7072,-15.9277],[-5.7067,-15.9278],[-5.7067,-15.9279],[-5.7066,-15.928],[-5.7064,-15.9281],[-5.7061,-15.9282],[-5.7059,-15.9283],[-5.7054,-15.9286],[-5.705,-15.9289],[-5.7043,-15.9294],[-5.7037,-15.9299],[-5.703,-15.9304],[-5.7027,-15.9306],[-5.7022,-15.9309],[-5.702,-15.931],[-5.7018,-15.9312],[-5.7016,-15.9314],[-5.7012,-15.9318],[-5.7005,-15.9324],[-5.7002,-15.9328],[-5.6998,-15.9333],[-5.6993,-15.9339],[-5.699,-15.9344],[-5.6987,-15.9348],[-5.6985,-15.9351],[-5.6983,-15.9355],[-5.6981,-15.9361],[-5.698,-15.9366],[-5.6977,-15.9376],[-5.6975,-15.9388],[-5.6974,-15.9394],[-5.6972,-15.9401],[-5.6969,-15.9409],[-5.6967,-15.9417],[-5.6965,-15.9421],[-5.6963,-15.9427],[-5.6961,-15.9431],[-5.6959,-15.9435],[-5.6957,-15.9439],[-5.6954,-15.9443],[-5.6952,-15.9447],[-5.695,-15.945],[-5.6949,-15.9454],[-5.6947,-15.9458],[-5.6945,-15.9462],[-5.6944,-15.9467],[-5.6942,-15.9472],[-5.6941,-15.9476],[-5.6941,-15.948],[-5.694,-15.9484],[-5.6939,-15.949],[-5.6939,-15.9495],[-5.6939,-15.9498],[-5.694,-15.9503],[-5.6941,-15.9508],[-5.6942,-15.9511],[-5.6944,-15.9516],[-5.6947,-15.9522],[-5.6951,-15.9527],[-5.6957,-15.9535],[-5.696,-15.9539],[-5.6964,-15.9544],[-5.6978,-15.9559],[-5.6982,-15.9593],[-5.6983,-15.9604],[-5.6984,-15.9608],[-5.6985,-15.9613],[-5.6986,-15.9615],[-5.6987,-15.9615],[-5.6991,-15.9615],[-5.6993,-15.9615],[-5.6995,-15.9615],[-5.6997,-15.9616],[-5.6998,-15.9617],[-5.7001,-15.9619],[-5.7003,-15.9622],[-5.7005,-15.9625],[-5.7007,-15.9629],[-5.7008,-15.9633],[-5.7009,-15.9635],[-5.701,-15.9636],[-5.7011,-15.9638],[-5.7013,-15.9638],[-5.7016,-15.9639],[-5.7024,-15.964],[-5.7026,-15.964],[-5.7031,-15.9641],[-5.7035,-15.9643],[-5.7037,-15.9644],[-5.7039,-15.9645],[-5.7041,-15.9646],[-5.7044,-15.9649],[-5.7045,-15.9651],[-5.7047,-15.9655],[-5.7054,-15.9655]]]},"properties":{"name":"Alarm Forest","id":"SH-HL-AF","CNTRY":"Saint Helena, Ascension and Tristan da Cunha","ADMIN":"Saint Helena","TYPE":"District"},"id":"SH-HL-AF"},
{"type":"Feature","geometry":{"type":"MultiPolygon","coordinates":[[[[-5.7256,-15.9721],[-5.7253,-15.9722],[-5.725,-15.9724],[-5.7245,-15.9729],[-5.7242,-15.9731],[-5.7237,-15.9734],[-5.7233,-15.9736],[-5.7225,-15.9741],[-5.722,-15.9744],[-5.7216,-15.9746],[-5.7211,-15.9749],[-5.7209,-15.9751],[-5.7206,-15.9753],[-5.7205,-15.9754],[-5.7203,-15.9757],[-5.7202,-15.976],[-5.7201,-15.9764],[-5.7201,-15.9767],[-5.72,-15.977],[-5.72,-15.9775],[-5.72,-15.9783],[-5.72,-15.9788],[-5.7201,-15.9792],[-5.7201,-15.9799],[-5.7202,-15.9808],[-5.7206,-15.9844],[-5.7209,-15.9866],[-5.7211,-15.9891],[-5.7213,-15.991],[-5.7214,-15.992],[-5.7215,-15.9927],[-5.7216,-15.9933],[-5.7217,-15.9938],[-5.7218,-15.9943],[-5.7219,-15.9946],[-5.722,-15.995],[-5.7224,-15.9961],[-5.7228,-15.997],[-5.723,-15.9977],[-5.7231,-15.998],[-5.7233,-15.9987],[-5.7236,-16.0001],[-5.724,-16.0015],[-5.7253,-16.0072],[-5.7262,-16.011],[-5.7265,-16.0121],[-5.7266,-16.0127],[-5.7271,-16.0143],[-5.7272,-16.0146],[-5.7273,-16.0145],[-5.7274,-16.0145],[-5.7276,-16.0147],[-5.7277,-16.0147],[-5.7275,-16.0145],[-5.7273,-16.0144],[-5.7273,-16.0142],[-5.7274,-16.0142],[-5.7274,-16.014],[-5.7274,-16.0139],[-5.7275,-16.0138],[-5.7276,-16.0137],[-5.7277,-16.0136],[-5.7278,-16.0138],[-5.7278,-16.0139],[-5.7279,-16.0139],[-5.7279,-16.0136],[-5.7281,-16.0136],[-5.7282,-16.0138],[-5.7284,-16.0138],[-5.7285,-16.014],[-5.7286,-16.0141],[-5.7286,-16.0138],[-5.7288,-16.0138],[-5.729,-16.0138],[-5.7292,-16.0139],[-5.7292,-16.014],[-5.7291,-16.0142],[-5.7291,-16.0143],[-5.7291,-16.0145],[-5.7291,-16.0146],[-5.7294,-16.0147],[-5.7296,-16.0146],[-5.7297,-16.0149],[-5.73,-16.015],[-5.7304,-16.0151],[-5.7306,-16.0151],[-5.7308,-16.0152],[-5.7309,-16.0153],[-5.7308,-16.0155],[-5.7309,-16.0157],[-5.7309,-16.0159],[-5.731,-16.016],[-5.7312,-16.0159],[-5.7313,-16.0157],[-5.7313,-16.0158],[-5.7314,-16.0159],[-5.7313,-16.016],[-5.7313,-16.0162],[-5.7312,-16.0163],[-5.7312,-16.0164],[-5.7313,-16.0164],[-5.7314,-16.0163],[-5.7315,-16.0165],[-5.7316,-16.0164],[-5.7317,-16.0166],[-5.7317,-16.0167],[-5.7319,-16.0167],[-5.732,-16.0168],[-5.7321,-16.0169],[-5.7324,-16.017],[-5.7326,-16.017],[-5.7327,-16.0171],[-5.7327,-16.0172],[-5.7326,-16.0173],[-5.7326,-16.0174],[-5.7326,-16.0175],[-5.7326,-16.0176],[-5.7327,-16.0175],[-5.7327,-16.0174],[-5.7328,-16.0173],[-5.733,-16.0174],[-5.7329,-16.0176],[-5.7331,-16.0177],[-5.7333,-16.0178],[-5.7335,-16.0177],[-5.7337,-16.0178],[-5.7338,-16.0178],[-5.7339,-16.0179],[-5.7338,-16.0181],[-5.7336,-16.0181],[-5.7335,-16.0181],[-5.7335,-16.0182],[-5.7336,-16.0182],[-5.7338,-16.0182],[-5.734,-16.0182],[-5.7342,-16.0182],[-5.7344,-16.0182],[-5.7345,-16.0182],[-5.7346,-16.0184],[-5.7349,-16.0184],[-5.735,-16.0183],[-5.735,-16.0181],[-5.7351,-16.0181],[-5.7353,-16.0181],[-5.7355,-16.0183],[-5.7356,-16.0185],[-5.7356,-16.0187],[-5.7357,-16.0188],[-5.7356,-16.0189],[-5.7357,-16.0191],[-5.7358,-16.0192],[-5.7358,-16.0194],[-5.7357,-16.0195],[-5.7357,-16.0196],[-5.7356,-16.0198],[-5.7357,-16.0199],[-5.7358,-16.0197],[-5.7359,-16.0197],[-5.736,-16.0198],[-5.7361,-16.02],[-5.736,-16.0201],[-5.7358,-16.0202],[-5.7358,-16.0204],[-5.7359,-16.0205],[-5.7359,-16.0206],[-5.7362,-16.0206],[-5.7363,-16.0207],[-5.7364,-16.0208],[-5.7365,-16.0208],[-5.7367,-16.0209],[-5.7368,-16.0207],[-5.7369,-16.0207],[-5.7372,-16.0208],[-5.7374,-16.0209],[-5.7375,-16.021],[-5.7375,-16.0211],[-5.7372,-16.0212],[-5.7372,-16.0215],[-5.7373,-16.022],[-5.7375,-16.0222],[-5.7378,-16.0223],[-5.7384,-16.0224],[-5.7388,-16.0227],[-5.739,-16.023],[-5.7393,-16.0231],[-5.7396,-16.0231],[-5.7397,-16.0233],[-5.7403,-16.0237],[-5.7407,-16.0242],[-5.7413,-16.0244],[-5.7419,-16.025],[-5.7426,-16.0253],[-5.7431,-16.0252],[-5.7433,-16.0255],[-5.7436,-16.0258],[-5.7446,-16.026],[-5.7452,-16.026],[-5.7452,-16.0264],[-5.7455,-16.0269],[-5.7458,-16.0274],[-5.7463,-16.0276],[-5.7466,-16.0273],[-5.7466,-16.0264],[-5.7463,-16.0259],[-5.7467,-16.0256],[-5.7471,-16.0249],[-5.7473,-16.0245],[-5.7478,-16.0243],[-5.7479,-16.0237],[-5.7482,-16.0234],[-5.749,-16.0234],[-5.7495,-16.0233],[-5.7496,-16.023],[-5.7495,-16.0226],[-5.751,-16.0225],[-5.7509,-16.0219],[-5.7525,-16.0215],[-5.7523,-16.0207],[-5.7524,-16.02],[-5.7533,-16.0191],[-5.7543,-16.0188],[-5.7549,-16.0183],[-5.7549,-16.0177],[-5.7554,-16.017],[-5.7559,-16.017],[-5.7567,-16.0162],[-5.7578,-16.0144],[-5.7575,-16.0131],[-5.7579,-16.0126],[-5.7583,-16.0118],[-5.7583,-16.011],[-5.7578,-16.0104],[-5.7576,-16.0097],[-5.7579,-16.0092],[-5.7582,-16.0087],[-5.7588,-16.0083],[-5.7593,-16.0082],[-5.7596,-16.0079],[-5.7598,-16.0075],[-5.76,-16.0072],[-5.7603,-16.0071],[-5.7607,-16.0073],[-5.7608,-16.0076],[-5.7614,-16.0076],[-5.7615,-16.0073],[-5.7615,-16.007],[-5.762,-16.0069],[-5.7625,-16.0065],[-5.7625,-16.0061],[-5.7626,-16.0057],[-5.7635,-16.0057],[-5.764,-16.0061],[-5.7646,-16.0061],[-5.7651,-16.0061],[-5.7656,-16.0058],[-5.7658,-16.0053],[-5.7661,-16.0051],[-5.7667,-16.0055],[-5.7678,-16.0056],[-5.7682,-16.0055],[-5.7685,-16.0049],[-5.7688,-16.0042],[-5.7693,-16.0036],[-5.7696,-16.0029],[-5.7701,-16.0031],[-5.7708,-16.0031],[-5.7712,-16.0033],[-5.7717,-16.0035],[-5.7717,-16.0038],[-5.7721,-16.0039],[-5.7722,-16.0043],[-5.7731,-16.0042],[-5.7731,-16.004],[-5.7735,-16.004],[-5.7734,-16.0043],[-5.7744,-16.0044],[-5.7755,-16.0043],[-5.7756,-16.0027],[-5.7762,-16.0014],[-5.7772,-16.0007],[-5.7782,-16.0008],[-5.7791,-16.0007],[-5.7794,-16.0003],[-5.7802,-16.0002],[-5.7805,-15.9996],[-5.7813,-15.9988],[-5.7819,-15.9986],[-5.7825,-15.9986],[-5.783,-15.999],[-5.7833,-15.9997],[-5.7837,-15.9997],[-5.7838,-15.9987],[-5.7844,-15.9973],[-5.7848,-15.9966],[-5.785,-15.9964],[-5.7853,-15.9964],[-5.7857,-15.9965],[-5.7859,-15.9968],[-5.786,-15.997],[-5.7861,-15.9973],[-5.7867,-15.9974],[-5.7872,-15.9972],[-5.7875,-15.997],[-5.7879,-15.9972],[-5.7886,-15.9973],[-5.7893,-15.9972],[-5.7894,-15.9962],[-5.7889,-15.9959],[-5.7886,-15.9963],[-5.788,-15.9957],[-5.7879,-15.9949],[-5.7883,-15.9941],[-5.7877,-15.9937],[-5.7874,-15.9932],[-5.787,-15.9932],[-5.7866,-15.9924],[-5.7855,-15.9923],[-5.7849,-15.9921],[-5.7844,-15.9912],[-5.7845,-15.99],[-5.7837,-15.9899],[-5.7832,-15.9895],[-5.7825,-15.9892],[-5.7819,-15.9883],[-5.7802,-15.9848],[-5.7768,-15.9831],[-5.7762,-15.9829],[-5.7757,-15.9828],[-5.7757,-15.9819],[-5.7762,-15.9816],[-5.7763,-15.9812],[-5.7765,-15.9809],[-5.7764,-15.9805],[-5.7763,-15.9804],[-5.7759,-15.9802],[-5.7756,-15.9798],[-5.7751,-15.9794],[-5.7751,-15.9787],[-5.7747,-15.9784],[-5.7746,-15.9781],[-5.7748,-15.9779],[-5.775,-15.9778],[-5.7752,-15.9781],[-5.7756,-15.9777],[-5.7755,-15.9772],[-5.7752,-15.9767],[-5.7746,-15.9764],[-5.7742,-15.9767],[-5.7737,-15.9765],[-5.7736,-15.976],[-5.7737,-15.9756],[-5.774,-15.975],[-5.7734,-15.9747],[-5.773,-15.9746],[-5.7718,-15.9746],[-5.7706,-15.9741],[-5.7708,-15.9734],[-5.7709,-15.9728],[-5.7705,-15.9725],[-5.77,-15.9725],[-5.7699,-15.9716],[-5.7691,-15.9715],[-5.7689,-15.9718],[-5.7683,-15.9716],[-5.768,-15.9713],[-5.7678,-15.971],[-5.767,-15.9708],[-5.7668,-15.9703],[-5.7665,-15.9702],[-5.7666,-15.9696],[-5.7667,-15.9685],[-5.7666,-15.9676],[-5.7663,-15.9666],[-5.7648,-15.9666],[-5.7646,-15.9655],[-5.7647,-15.9641],[-5.7655,-15.9628],[-5.7653,-15.9617],[-5.7654,-15.9607],[-5.7651,-15.9595],[-5.7647,-15.9587],[-5.7611,-15.9536],[-5.7597,-15.9524],[-5.76,-15.9511],[-5.7595,-15.9499],[-5.758,-15.9493],[-5.7578,-15.9485],[-5.7565,-15.9477],[-5.7476,-15.9432],[-5.7442,-15.94],[-5.744,-15.94],[-5.7438,-15.94],[-5.7437,-15.94],[-5.7434,-15.94],[-5.7434,-15.9399],[-5.7433,-15.94],[-5.7432,-15.94],[-5.7431,-15.94],[-5.7429,-15.9402],[-5.7431,-15.9403],[-5.743,-15.9405],[-5.7429,-15.9405],[-5.7429,-15.9406],[-5.7428,-15.9407],[-5.7426,-15.9406],[-5.7425,-15.9407],[-5.7424,-15.9409],[-5.7422,-15.9409],[-5.7418,-15.9411],[-5.7417,-15.9411],[-5.7416,-15.9411],[-5.7414,-15.9412],[-5.7412,-15.9413],[-5.7411,-15.9413],[-5.7409,-15.9413],[-5.7408,-15.9412],[-5.7407,-15.9413],[-5.7406,-15.942],[-5.7405,-15.9424],[-5.7405,-15.9428],[-5.7404,-15.943],[-5.7401,-15.9436],[-5.74,-15.9439],[-5.7401,-15.9441],[-5.7401,-15.9443],[-5.7402,-15.9445],[-5.7403,-15.9447],[-5.7404,-15.9449],[-5.7404,-15.9452],[-5.7403,-15.9454],[-5.7401,-15.9457],[-5.7399,-15.946],[-5.7395,-15.9464],[-5.7388,-15.9491],[-5.7388,-15.9497],[-5.7389,-15.9501],[-5.739,-15.9504],[-5.739,-15.9507],[-5.7391,-15.9511],[-5.7393,-15.9515],[-5.7394,-15.9517],[-5.7396,-15.952],[-5.7398,-15.9522],[-5.74,-15.9524],[-5.7401,-15.9526],[-5.7403,-15.9529],[-5.7405,-15.9533],[-5.7406,-15.9535],[-5.7406,-15.9538],[-5.7408,-15.9543],[-5.7408,-15.9546],[-5.7409,-15.955],[-5.741,-15.9556],[-5.741,-15.9561],[-5.741,-15.9564],[-5.741,-15.9568],[-5.7409,-15.9572],[-5.7409,-15.9577],[-5.7408,-15.9579],[-5.7407,-15.9583],[-5.7406,-15.9587],[-5.7405,-15.959],[-5.7403,-15.9594],[-5.7402,-15.9597],[-5.7401,-15.9604],[-5.7399,-15.9615],[-5.7397,-15.9621],[-5.7395,-15.9627],[-5.7394,-15.9631],[-5.7393,-15.9634],[-5.7392,-15.9636],[-5.739,-15.9639],[-5.7388,-15.9642],[-5.7387,-15.9644],[-5.7383,-15.9648],[-5.7381,-15.965],[-5.7378,-15.9653],[-5.7375,-15.9655],[-5.737,-15.9659],[-5.7365,-15.9662],[-5.7362,-15.9665],[-5.736,-15.9667],[-5.7358,-15.967],[-5.7355,-15.9673],[-5.7354,-15.9675],[-5.7351,-15.9679],[-5.7348,-15.9684],[-5.7345,-15.9688],[-5.7341,-15.9693],[-5.7336,-15.9698],[-5.7334,-15.97],[-5.733,-15.9704],[-5.7325,-15.9708],[-5.7321,-15.971],[-5.7319,-15.9711],[-5.7315,-15.9712],[-5.7311,-15.9712],[-5.7308,-15.9713],[-5.7304,-15.9712],[-5.7302,-15.9712],[-5.7298,-15.9711],[-5.7294,-15.971],[-5.7289,-15.9709],[-5.7285,-15.9708],[-5.7282,-15.9707],[-5.7277,-15.9708],[-5.7275,-15.9708],[-5.7273,-15.9709],[-5.727,-15.971],[-5.7268,-15.9711],[-5.7266,-15.9713],[-5.7263,-15.9716],[-5.726,-15.9718],[-5.7259,-15.9719],[-5.7257,-15.972],[-5.7256,-15.9721]]],[[[-5.753,-16.0306],[-5.7535,-16.0307],[-5.754,-16.0303],[-5.7543,-16.0299],[-5.7546,-16.0294],[-5.7545,-16.029],[-5.7543,-16.0288],[-5.754,-16.0289],[-5.7534,-16.029],[-5.753,-16.0295],[-5.7528,-16.0301],[-5.753,-16.0306]]],[[[-5.7745,-15.9739],[-5.7753,-15.9739],[-5.7753,-15.9736],[-5.7752,-15.9733],[-5.7749,-15.9732],[-5.7746,-15.9733],[-5.7745,-15.9735],[-5.7745,-15.9739]]],[[[-5.7728,-15.9696],[-5.7725,-15.97],[-5.7722,-15.9697],[-5.7714,-15.9698],[-5.771,-15.9701],[-5.771,-15.9705],[-5.7706,-15.9706],[-5.7706,-15.9711],[-5.7711,-15.9712],[-5.7719,-15.9712],[-5.7721,-15.971],[-5.7726,-15.9707],[-5.773,-15.9705],[-5.7734,-15.9704],[-5.7734,-15.9701],[-5.7732,-15.97],[-5.7732,-15.9696],[-5.7728,-15.9696]]]]},"properties":{"name":"Blue Hill","id":"SH-HL-BH","CNTRY":"Saint Helena, Ascension and Tristan da Cunha","ADMIN":"Saint Helena","TYPE":"District"},"id":"SH-HL-BH"},
{"type":"Feature","geometry":{"type":"Polygon","coordinates":[[[-5.7157,-15.9439],[-5.7158,-15.9438],[-5.7176,-15.9436],[-5.7184,-15.9436],[-5.7188,-15.9436],[-5.7191,-15.9436],[-5.7194,-15.9436],[-5.7197,-15.9437],[-5.7199,-15.9437],[-5.7203,-15.9439],[-5.7205,-15.944],[-5.7208,-15.9442],[-5.7212,-15.9445],[-5.7215,-15.9447],[-5.7216,-15.9447],[-5.7218,-15.9448],[-5.7219,-15.9447],[-5.7221,-15.9445],[-5.7222,-15.9442],[-5.7223,-15.9438],[-5.7224,-15.9433],[-5.7225,-15.9431],[-5.7225,-15.9425],[-5.7225,-15.9418],[-5.7225,-15.9413],[-5.7225,-15.94],[-5.7225,-15.9396],[-5.7226,-15.9391],[-5.7227,-15.9386],[-5.7228,-15.9383],[-5.7229,-15.938],[-5.7231,-15.9374],[-5.7235,-15.9366],[-5.7239,-15.9359],[-5.7242,-15.9354],[-5.7245,-15.9347],[-5.7249,-15.9341],[-5.7252,-15.9336],[-5.7255,-15.933],[-5.7258,-15.9325],[-5.7259,-15.9321],[-5.726,-15.9319],[-5.726,-15.9317],[-5.7262,-15.9312],[-5.7264,-15.931],[-5.7267,-15.9304],[-5.727,-15.9299],[-5.7271,-15.9297],[-5.7272,-15.9294],[-5.7273,-15.9289],[-5.7274,-15.9287],[-5.7273,-15.9287],[-5.7273,-15.9286],[-5.7271,-15.9287],[-5.7272,-15.9285],[-5.7273,-15.9285],[-5.7273,-15.9282],[-5.7271,-15.9281],[-5.7269,-15.9284],[-5.7268,-15.9283],[-5.7267,-15.9282],[-5.7266,-15.9283],[-5.7264,-15.9283],[-5.7264,-15.9284],[-5.7262,-15.9284],[-5.7262,-15.9281],[-5.7261,-15.9281],[-5.726,-15.9282],[-5.7259,-15.9282],[-5.7259,-15.9281],[-5.7255,-15.9279],[-5.7253,-15.9278],[-5.7254,-15.9276],[-5.7251,-15.9274],[-5.7251,-15.9272],[-5.7249,-15.9269],[-5.7245,-15.9267],[-5.7243,-15.9266],[-5.724,-15.9265],[-5.7239,-15.9266],[-5.7237,-15.9265],[-5.7237,-15.9264],[-5.7234,-15.9263],[-5.7231,-15.9261],[-5.7229,-15.9261],[-5.7227,-15.9261],[-5.7225,-15.926],[-5.7221,-15.9258],[-5.7223,-15.9257],[-5.7221,-15.9255],[-5.7219,-15.9255],[-5.7218,-15.9253],[-5.7216,-15.9253],[-5.7216,-15.9251],[-5.7215,-15.9251],[-5.7213,-15.9251],[-5.7212,-15.925],[-5.7213,-15.9248],[-5.7212,-15.9247],[-5.7211,-15.9245],[-5.721,-15.9246],[-5.721,-15.9244],[-5.7209,-15.9244],[-5.7207,-15.9243],[-5.7206,-15.9242],[-5.7204,-15.9242],[-5.7202,-15.9242],[-5.7201,-15.9243],[-5.72,-15.9241],[-5.7199,-15.9242],[-5.7198,-15.9242],[-5.7197,-15.9246],[-5.7196,-15.9249],[-5.7197,-15.9249],[-5.7195,-15.9255],[-5.719,-15.927],[-5.7188,-15.9275],[-5.7186,-15.9281],[-5.7184,-15.9287],[-5.718,-15.9295],[-5.7177,-15.9301],[-5.7173,-15.9309],[-5.717,-15.9314],[-5.7166,-15.9322],[-5.7163,-15.9326],[-5.716,-15.9331],[-5.7156,-15.9336],[-5.7154,-15.9339],[-5.7148,-15.9346],[-5.7145,-15.935],[-5.7144,-15.9351],[-5.7143,-15.9354],[-5.7142,-15.9356],[-5.7141,-15.9358],[-5.714,-15.9361],[-5.714,-15.9364],[-5.714,-15.9369],[-5.714,-15.9372],[-5.7141,-15.9381],[-5.7141,-15.9387],[-5.7143,-15.9395],[-5.7144,-15.9404],[-5.7146,-15.9411],[-5.7147,-15.9418],[-5.7148,-15.9421],[-5.715,-15.9426],[-5.7151,-15.943],[-5.7153,-15.9436],[-5.7157,-15.9439]]]},"properties":{"name":"Half Tree Hollow","id":"SH-HL-HT","CNTRY":"Saint Helena, Ascension and Tristan da Cunha","ADMIN":"Saint Helena","TYPE":"District"},"id":"SH-HL-HT"},
{"type":"Feature","geometry":{"type":"Polygon","coordinates":[[[-5.7157,-15.9439],[-5.7153,-15.9436],[-5.7151,-15.943],[-5.715,-15.9426],[-5.7148,-15.9421],[-5.7147,-15.9418],[-5.7146,-15.9411],[-5.7144,-15.9404],[-5.7143,-15.9395],[-5.7141,-15.9387],[-5.7141,-15.9381],[-5.714,-15.9372],[-5.714,-15.9369],[-5.714,-15.9364],[-5.714,-15.9361],[-5.7141,-15.9358],[-5.7142,-15.9356],[-5.7143,-15.9354],[-5.7144,-15.9351],[-5.7145,-15.935],[-5.7148,-15.9346],[-5.7154,-15.9339],[-5.7156,-15.9336],[-5.716,-15.9331],[-5.7163,-15.9326],[-5.7166,-15.9322],[-5.717,-15.9314],[-5.7173,-15.9309],[-5.7177,-15.9301],[-5.718,-15.9295],[-5.7184,-15.9287],[-5.7186,-15.9281],[-5.7188,-15.9275],[-5.719,-15.927],[-5.7195,-15.9255],[-5.7197,-15.9249],[-5.7196,-15.9249],[-5.7197,-15.9246],[-5.7198,-15.9242],[-5.7197,-15.9244],[-5.7196,-15.9244],[-5.7196,-15.9245],[-5.7194,-15.9244],[-5.7193,-15.9245],[-5.719,-15.9244],[-5.7187,-15.9242],[-5.7183,-15.9239],[-5.7181,-15.9237],[-5.7178,-15.9233],[-5.7177,-15.9231],[-5.7177,-15.9227],[-5.7178,-15.9225],[-5.7179,-15.9223],[-5.7179,-15.9218],[-5.7178,-15.9217],[-5.7179,-15.9216],[-5.7179,-15.9215],[-5.7178,-15.9214],[-5.7179,-15.9213],[-5.7179,-15.9212],[-5.7179,-15.9207],[-5.7179,-15.9205],[-5.7177,-15.9205],[-5.7175,-15.9205],[-5.7175,-15.9202],[-5.7175,-15.9199],[-5.7176,-15.9198],[-5.7178,-15.9197],[-5.7176,-15.9196],[-5.7176,-15.9195],[-5.7177,-15.9194],[-5.7178,-15.9193],[-5.7177,-15.9193],[-5.7176,-15.9192],[-5.7175,-15.9191],[-5.7172,-15.9191],[-5.7169,-15.9192],[-5.7168,-15.9193],[-5.7168,-15.9194],[-5.7167,-15.9195],[-5.7166,-15.9196],[-5.7166,-15.9198],[-5.7164,-15.9198],[-5.7162,-15.9199],[-5.7159,-15.9197],[-5.7161,-15.9195],[-5.716,-15.9194],[-5.7159,-15.9193],[-5.7157,-15.9195],[-5.7155,-15.9196],[-5.7153,-15.9194],[-5.7153,-15.9192],[-5.7152,-15.9192],[-5.7152,-15.9189],[-5.7153,-15.9188],[-5.7152,-15.9188],[-5.7152,-15.9186],[-5.7151,-15.9185],[-5.715,-15.9184],[-5.7151,-15.9183],[-5.715,-15.9182],[-5.7149,-15.9182],[-5.7146,-15.9183],[-5.7145,-15.9182],[-5.7144,-15.9183],[-5.7144,-15.9184],[-5.7143,-15.9183],[-5.7142,-15.9183],[-5.7142,-15.9184],[-5.7143,-15.9185],[-5.7143,-15.9186],[-5.7142,-15.9186],[-5.714,-15.9186],[-5.7138,-15.9186],[-5.7139,-15.9187],[-5.7136,-15.9188],[-5.7134,-15.9189],[-5.7135,-15.919],[-5.713,-15.9191],[-5.7125,-15.9192],[-5.7125,-15.9193],[-5.7123,-15.9194],[-5.7121,-15.9193],[-5.7119,-15.9192],[-5.7112,-15.9186],[-5.7111,-15.9184],[-5.711,-15.9181],[-5.7109,-15.9179],[-5.7109,-15.9178],[-5.7108,-15.9177],[-5.7108,-15.9175],[-5.7106,-15.9171],[-5.7107,-15.9171],[-5.7108,-15.9169],[-5.7106,-15.9166],[-5.7106,-15.9164],[-5.7106,-15.9163],[-5.7107,-15.9161],[-5.7109,-15.916],[-5.711,-15.9159],[-5.7111,-15.9158],[-5.7112,-15.9158],[-5.7114,-15.9157],[-5.7114,-15.9156],[-5.7114,-15.9155],[-5.7114,-15.9154],[-5.7116,-15.9155],[-5.7116,-15.9154],[-5.7117,-15.9151],[-5.7116,-15.915],[-5.7115,-15.9149],[-5.7113,-15.9148],[-5.7113,-15.9147],[-5.7113,-15.9146],[-5.7112,-15.9145],[-5.7112,-15.9143],[-5.7111,-15.9142],[-5.711,-15.914],[-5.7109,-15.9139],[-5.7108,-15.9139],[-5.7106,-15.9139],[-5.7104,-15.9137],[-5.707,-15.9105],[-5.7072,-15.907],[-5.7038,-15.9043],[-5.7008,-15.9037],[-5.6987,-15.904],[-5.6989,-15.9044],[-5.6992,-15.9052],[-5.6995,-15.9067],[-5.6998,-15.9076],[-5.7,-15.9083],[-5.7003,-15.9092],[-5.7007,-15.9102],[-5.7011,-15.9113],[-5.7015,-15.9126],[-5.7024,-15.9151],[-5.7028,-15.9161],[-5.7032,-15.9171],[-5.7035,-15.9179],[-5.7039,-15.9187],[-5.7041,-15.9192],[-5.7044,-15.9198],[-5.7047,-15.9207],[-5.705,-15.9214],[-5.7052,-15.9221],[-5.7054,-15.9228],[-5.7056,-15.9233],[-5.7059,-15.9244],[-5.7062,-15.9252],[-5.7064,-15.926],[-5.7066,-15.9266],[-5.7068,-15.927],[-5.707,-15.9272],[-5.7072,-15.9274],[-5.7074,-15.9274],[-5.7076,-15.9274],[-5.7086,-15.9274],[-5.7086,-15.9311],[-5.7086,-15.932],[-5.7086,-15.9327],[-5.7087,-15.9336],[-5.7087,-15.9341],[-5.7088,-15.9349],[-5.7089,-15.9353],[-5.7091,-15.936],[-5.7092,-15.9364],[-5.7094,-15.9371],[-5.7095,-15.9375],[-5.7098,-15.9381],[-5.7102,-15.939],[-5.7106,-15.94],[-5.711,-15.9412],[-5.7114,-15.9423],[-5.7118,-15.9432],[-5.7122,-15.9442],[-5.7125,-15.9449],[-5.7126,-15.9452],[-5.713,-15.9459],[-5.7131,-15.9461],[-5.7133,-15.9467],[-5.7134,-15.9466],[-5.7136,-15.9464],[-5.7138,-15.9462],[-5.7142,-15.946],[-5.7144,-15.9458],[-5.7146,-15.9456],[-5.7149,-15.9453],[-5.7151,-15.945],[-5.7153,-15.9446],[-5.7157,-15.9439]]]},"properties":{"name":"Jamestown","id":"SH-HL-JM","CNTRY":"Saint Helena, Ascension and Tristan da Cunha","ADMIN":"Saint Helena","TYPE":"District"},"id":"SH-HL-JM"},
{"type":"Feature","geometry":{"type":"MultiPolygon","coordinates":[[[[-5.6316,-15.9816],[-5.6319,-15.9816],[-5.632,-15.9814],[-5.6321,-15.9812],[-5.6322,-15.9811],[-5.6324,-15.981],[-5.6324,-15.9809],[-5.6325,-15.9806],[-5.6327,-15.9805],[-5.6326,-15.9803],[-5.6326,-15.9801],[-5.6325,-15.9801],[-5.6323,-15.9802],[-5.6322,-15.9803],[-5.632,-15.9804],[-5.6319,-15.9806],[-5.6318,-15.9806],[-5.6317,-15.9808],[-5.6316,-15.9809],[-5.6315,-15.981],[-5.6315,-15.9812],[-5.6315,-15.9814],[-5.6315,-15.9815],[-5.6316,-15.9816]]],[[[-5.636,-15.9757],[-5.6361,-15.9759],[-5.6362,-15.9759],[-5.6363,-15.9759],[-5.6364,-15.9757],[-5.6365,-15.9755],[-5.6366,-15.9751],[-5.6366,-15.9748],[-5.6366,-15.9747],[-5.6365,-15.9746],[-5.6364,-15.9747],[-5.6361,-15.9748],[-5.6361,-15.9749],[-5.6361,-15.975],[-5.6359,-15.9753],[-5.636,-15.9753],[-5.6359,-15.9754],[-5.6359,-15.9755],[-5.636,-15.9757]]],[[[-5.6359,-15.9729],[-5.6359,-15.973],[-5.6359,-15.9732],[-5.6361,-15.9733],[-5.6362,-15.9734],[-5.6361,-15.9736],[-5.6361,-15.9737],[-5.6362,-15.9739],[-5.6363,-15.9739],[-5.6363,-15.9738],[-5.6364,-15.9737],[-5.6365,-15.9737],[-5.6367,-15.9739],[-5.6368,-15.9741],[-5.6369,-15.9741],[-5.637,-15.974],[-5.637,-15.9739],[-5.6371,-15.9739],[-5.6373,-15.9739],[-5.6373,-15.9741],[-5.6374,-15.9741],[-5.6375,-15.9741],[-5.6375,-15.9739],[-5.6376,-15.974],[-5.6377,-15.974],[-5.6378,-15.9739],[-5.6378,-15.9737],[-5.6379,-15.9737],[-5.638,-15.9736],[-5.6382,-15.9736],[-5.6382,-15.9737],[-5.6385,-15.9737],[-5.6385,-15.9736],[-5.6386,-15.9737],[-5.6387,-15.9737],[-5.6388,-15.9737],[-5.6389,-15.9737],[-5.6389,-15.9738],[-5.6388,-15.9739],[-5.6389,-15.9739],[-5.6391,-15.9738],[-5.6391,-15.9737],[-5.6392,-15.9738],[-5.6393,-15.9739],[-5.6394,-15.9738],[-5.6393,-15.9737],[-5.6394,-15.9736],[-5.6395,-15.9736],[-5.6395,-15.9735],[-5.6395,-15.9733],[-5.6396,-15.9732],[-5.6397,-15.9735],[-5.6398,-15.9735],[-5.6399,-15.9736],[-5.6398,-15.9737],[-5.6399,-15.9738],[-5.64,-15.9739],[-5.64,-15.974],[-5.6401,-15.9741],[-5.6403,-15.9742],[-5.6404,-15.9742],[-5.6403,-15.9741],[-5.6403,-15.974],[-5.6404,-15.974],[-5.6405,-15.9741],[-5.6406,-15.974],[-5.6407,-15.974],[-5.6408,-15.9739],[-5.6409,-15.9739],[-5.641,-15.9739],[-5.6412,-15.9742],[-5.6416,-15.9742],[-5.6418,-15.9743],[-5.6419,-15.9744],[-5.6422,-15.9744],[-5.6424,-15.9744],[-5.6425,-15.9744],[-5.6426,-15.9744],[-5.6426,-15.9745],[-5.643,-15.9745],[-5.6431,-15.9744],[-5.643,-15.9742],[-5.6434,-15.9739],[-5.6435,-15.974],[-5.6436,-15.9741],[-5.6437,-15.9741],[-5.6438,-15.974],[-5.6441,-15.974],[-5.6442,-15.9739],[-5.6444,-15.9739],[-5.6444,-15.9741],[-5.6445,-15.9739],[-5.6448,-15.9738],[-5.6451,-15.9737],[-5.6452,-15.9736],[-5.6453,-15.9737],[-5.6455,-15.9738],[-5.6457,-15.9739],[-5.6458,-15.974],[-5.6459,-15.9741],[-5.6461,-15.9743],[-5.6464,-15.9743],[-5.6464,-15.9742],[-5.6466,-15.9741],[-5.6467,-15.9739],[-5.6469,-15.9739],[-5.6471,-15.9739],[-5.647,-15.974],[-5.647,-15.9742],[-5.6472,-15.9742],[-5.6471,-15.974],[-5.6472,-15.974],[-5.6472,-15.9739],[-5.6475,-15.9739],[-5.6477,-15.974],[-5.6479,-15.9742],[-5.6479,-15.9744],[-5.6478,-15.9744],[-5.6478,-15.9746],[-5.6478,-15.9748],[-5.6477,-15.975],[-5.6478,-15.975],[-5.6478,-15.9752],[-5.6478,-15.9753],[-5.648,-15.9753],[-5.6483,-15.9751],[-5.6483,-15.9752],[-5.6485,-15.9753],[-5.6486,-15.9755],[-5.6491,-15.9753],[-5.6492,-15.9753],[-5.6494,-15.9754],[-5.6495,-15.9756],[-5.6495,-15.9757],[-5.6497,-15.976],[-5.6499,-15.976],[-5.65,-15.9759],[-5.6501,-15.9758],[-5.6502,-15.9758],[-5.6503,-15.9758],[-5.6505,-15.9757],[-5.6507,-15.9758],[-5.6508,-15.9759],[-5.6509,-15.9761],[-5.651,-15.9763],[-5.6509,-15.9764],[-5.651,-15.9765],[-5.651,-15.9766],[-5.6507,-15.9766],[-5.6505,-15.9767],[-5.6505,-15.9769],[-5.6504,-15.977],[-5.6504,-15.9771],[-5.6503,-15.9773],[-5.6504,-15.9776],[-5.6505,-15.9776],[-5.6507,-15.9777],[-5.6506,-15.9778],[-5.6505,-15.9778],[-5.6502,-15.9779],[-5.65,-15.9778],[-5.6501,-15.978],[-5.6502,-15.978],[-5.6503,-15.978],[-5.6503,-15.9781],[-5.6502,-15.9783],[-5.6502,-15.9784],[-5.65,-15.9786],[-5.6501,-15.9787],[-5.65,-15.9788],[-5.6499,-15.979],[-5.6498,-15.9791],[-5.6499,-15.9792],[-5.6499,-15.9793],[-5.6498,-15.9794],[-5.6497,-15.9794],[-5.6498,-15.9797],[-5.6497,-15.9797],[-5.6496,-15.9798],[-5.6497,-15.9799],[-5.6497,-15.98],[-5.6497,-15.9802],[-5.6497,-15.9803],[-5.6498,-15.9804],[-5.6498,-15.9808],[-5.6497,-15.9808],[-5.6495,-15.9809],[-5.6495,-15.981],[-5.6495,-15.9811],[-5.6496,-15.981],[-5.6497,-15.9809],[-5.6499,-15.981],[-5.6499,-15.9811],[-5.65,-15.9811],[-5.6501,-15.9811],[-5.6501,-15.9813],[-5.6503,-15.9813],[-5.6504,-15.9813],[-5.6505,-15.9815],[-5.6506,-15.9816],[-5.6507,-15.9817],[-5.651,-15.9818],[-5.6509,-15.982],[-5.6509,-15.9821],[-5.6508,-15.9822],[-5.6507,-15.9823],[-5.6508,-15.9824],[-5.6511,-15.9825],[-5.6511,-15.9827],[-5.6511,-15.9828],[-5.6511,-15.983],[-5.6511,-15.9831],[-5.6512,-15.9832],[-5.6511,-15.9833],[-5.6512,-15.9833],[-5.6513,-15.9834],[-5.6514,-15.9836],[-5.6514,-15.9837],[-5.6517,-15.9837],[-5.6518,-15.9837],[-5.652,-15.9838],[-5.6522,-15.9839],[-5.6521,-15.9836],[-5.6523,-15.9837],[-5.6525,-15.9837],[-5.6526,-15.9837],[-5.6527,-15.9837],[-5.6528,-15.9837],[-5.653,-15.9836],[-5.653,-15.9835],[-5.6531,-15.9836],[-5.6533,-15.9837],[-5.6534,-15.9839],[-5.6535,-15.984],[-5.6535,-15.9842],[-5.6535,-15.9844],[-5.6535,-15.9846],[-5.6537,-15.9848],[-5.6539,-15.9847],[-5.654,-15.985],[-5.6541,-15.9852],[-5.6541,-15.9853],[-5.6543,-15.9853],[-5.6544,-15.9854],[-5.6543,-15.9855],[-5.6544,-15.9855],[-5.6545,-15.9856],[-5.6551,-15.9856],[-5.6553,-15.9857],[-5.6555,-15.9857],[-5.6556,-15.9857],[-5.6557,-15.9858],[-5.6561,-15.9858],[-5.6562,-15.9859],[-5.6564,-15.986],[-5.6566,-15.986],[-5.6567,-15.9861],[-5.6568,-15.9862],[-5.6568,-15.9863],[-5.6569,-15.9864],[-5.657,-15.9866],[-5.657,-15.9868],[-5.657,-15.987],[-5.6572,-15.987],[-5.6572,-15.9871],[-5.6572,-15.9872],[-5.6571,-15.9872],[-5.657,-15.9873],[-5.657,-15.9875],[-5.6571,-15.9874],[-5.6572,-15.9874],[-5.6572,-15.9875],[-5.6573,-15.9877],[-5.6572,-15.9878],[-5.657,-15.9877],[-5.657,-15.9879],[-5.657,-15.988],[-5.6571,-15.9879],[-5.6572,-15.9883],[-5.6572,-15.9884],[-5.6573,-15.9884],[-5.6573,-15.9882],[-5.6574,-15.9881],[-5.6575,-15.9882],[-5.6575,-15.9884],[-5.6575,-15.9885],[-5.6574,-15.9887],[-5.6574,-15.9888],[-5.6575,-15.989],[-5.6577,-15.989],[-5.6577,-15.9891],[-5.658,-15.9893],[-5.6581,-15.9892],[-5.6582,-15.9893],[-5.6585,-15.9895],[-5.6586,-15.9895],[-5.6586,-15.9896],[-5.6588,-15.9895],[-5.6589,-15.9895],[-5.659,-15.9895],[-5.6592,-15.9894],[-5.6593,-15.9893],[-5.6593,-15.9892],[-5.6595,-15.9891],[-5.6597,-15.989],[-5.6599,-15.989],[-5.66,-15.989],[-5.6602,-15.989],[-5.6604,-15.989],[-5.6605,-15.989],[-5.6606,-15.989],[-5.6608,-15.9891],[-5.6607,-15.9892],[-5.6606,-15.9893],[-5.6605,-15.9893],[-5.6603,-15.9894],[-5.6606,-15.9894],[-5.6607,-15.9894],[-5.6607,-15.9895],[-5.6608,-15.9896],[-5.6608,-15.9897],[-5.6609,-15.9898],[-5.661,-15.9898],[-5.6612,-15.9898],[-5.6613,-15.9898],[-5.6613,-15.9896],[-5.6612,-15.9896],[-5.6614,-15.9894],[-5.6613,-15.9894],[-5.6612,-15.9892],[-5.6612,-15.9891],[-5.6614,-15.989],[-5.6615,-15.9889],[-5.6616,-15.989],[-5.6617,-15.9889],[-5.6619,-15.9888],[-5.6619,-15.9887],[-5.6619,-15.9886],[-5.662,-15.9887],[-5.6621,-15.9889],[-5.6622,-15.9889],[-5.6623,-15.9886],[-5.6625,-15.9887],[-5.6628,-15.9888],[-5.6629,-15.989],[-5.663,-15.9892],[-5.663,-15.989],[-5.6631,-15.9888],[-5.6632,-15.9887],[-5.6632,-15.9885],[-5.6634,-15.9884],[-5.6636,-15.9884],[-5.6638,-15.9884],[-5.6641,-15.9885],[-5.6642,-15.9886],[-5.664,-15.9889],[-5.664,-15.989],[-5.6641,-15.9891],[-5.6642,-15.9894],[-5.6645,-15.9894],[-5.6648,-15.9896],[-5.6649,-15.9897],[-5.6651,-15.9896],[-5.6654,-15.9897],[-5.6655,-15.9896],[-5.6659,-15.9895],[-5.6661,-15.9894],[-5.6663,-15.9894],[-5.6664,-15.9895],[-5.6664,-15.9897],[-5.6664,-15.9899],[-5.6664,-15.99],[-5.6663,-15.99],[-5.6665,-15.9902],[-5.6666,-15.9903],[-5.6667,-15.9904],[-5.6667,-15.9906],[-5.6667,-15.9908],[-5.6666,-15.9909],[-5.6669,-15.9908],[-5.6669,-15.9909],[-5.6667,-15.9911],[-5.6666,-15.9912],[-5.6667,-15.9913],[-5.6666,-15.9913],[-5.6665,-15.9913],[-5.6664,-15.9913],[-5.6663,-15.9913],[-5.6663,-15.9914],[-5.6667,-15.9915],[-5.6668,-15.9915],[-5.6669,-15.9916],[-5.667,-15.9917],[-5.6669,-15.9918],[-5.667,-15.9919],[-5.6672,-15.9919],[-5.6673,-15.992],[-5.6675,-15.9919],[-5.6677,-15.992],[-5.6678,-15.9919],[-5.6681,-15.992],[-5.6682,-15.992],[-5.6683,-15.9917],[-5.6684,-15.9917],[-5.6687,-15.9916],[-5.6688,-15.9915],[-5.6688,-15.9914],[-5.6689,-15.9913],[-5.669,-15.9913],[-5.6694,-15.991],[-5.6696,-15.991],[-5.6697,-15.9913],[-5.6699,-15.9914],[-5.67,-15.9915],[-5.6708,-15.9909],[-5.671,-15.9907],[-5.6712,-15.9905],[-5.6715,-15.9904],[-5.6717,-15.9903],[-5.6724,-15.9898],[-5.6744,-15.9895],[-5.6756,-15.9892],[-5.6761,-15.9891],[-5.6767,-15.9889],[-5.6773,-15.9887],[-5.6778,-15.9886],[-5.679,-15.9882],[-5.6809,-15.9876],[-5.6819,-15.9872],[-5.6826,-15.9869],[-5.6833,-15.9867],[-5.6838,-15.9864],[-5.6842,-15.9862],[-5.6846,-15.986],[-5.6849,-15.9858],[-5.6852,-15.9855],[-5.6854,-15.9853],[-5.6857,-15.985],[-5.6859,-15.9848],[-5.6861,-15.9844],[-5.6863,-15.984],[-5.6866,-15.9834],[-5.687,-15.9827],[-5.6872,-15.9824],[-5.6875,-15.982],[-5.6876,-15.9819],[-5.6879,-15.9817],[-5.6883,-15.9814],[-5.69,-15.9803],[-5.6903,-15.9801],[-5.691,-15.9799],[-5.6918,-15.9795],[-5.6928,-15.9792],[-5.6939,-15.9789],[-5.6944,-15.9787],[-5.6953,-15.9784],[-5.6959,-15.9782],[-5.6965,-15.9779],[-5.6968,-15.9778],[-5.697,-15.9776],[-5.6972,-15.9775],[-5.6974,-15.9772],[-5.6977,-15.977],[-5.6979,-15.9767],[-5.6981,-15.9764],[-5.6984,-15.9761],[-5.6986,-15.9756],[-5.6988,-15.9753],[-5.6989,-15.975],[-5.699,-15.9747],[-5.6991,-15.9743],[-5.6991,-15.9742],[-5.6991,-15.974],[-5.699,-15.9737],[-5.6989,-15.9735],[-5.6988,-15.9732],[-5.699,-15.973],[-5.6989,-15.973],[-5.6989,-15.9729],[-5.6988,-15.9728],[-5.6988,-15.9726],[-5.6986,-15.9724],[-5.6984,-15.9722],[-5.6981,-15.9718],[-5.6978,-15.9716],[-5.6975,-15.9713],[-5.6971,-15.9709],[-5.6967,-15.9706],[-5.6965,-15.9705],[-5.6962,-15.9703],[-5.6959,-15.9703],[-5.6956,-15.9702],[-5.6951,-15.9701],[-5.6949,-15.9699],[-5.6943,-15.9696],[-5.6939,-15.9692],[-5.6931,-15.9686],[-5.6928,-15.9683],[-5.6918,-15.9674],[-5.6913,-15.9669],[-5.6904,-15.9662],[-5.6897,-15.9654],[-5.6892,-15.965],[-5.6886,-15.9644],[-5.6883,-15.964],[-5.6881,-15.9637],[-5.6878,-15.9635],[-5.6876,-15.9633],[-5.6874,-15.9631],[-5.6871,-15.9629],[-5.6868,-15.9627],[-5.6864,-15.9625],[-5.686,-15.9623],[-5.6856,-15.9621],[-5.6851,-15.962],[-5.6844,-15.9618],[-5.6836,-15.9616],[-5.6832,-15.9615],[-5.6826,-15.9613],[-5.682,-15.9611],[-5.6815,-15.9609],[-5.6811,-15.9607],[-5.6808,-15.9605],[-5.6799,-15.9601],[-5.6794,-15.9598],[-5.6791,-15.9597],[-5.6787,-15.9595],[-5.6781,-15.9594],[-5.6773,-15.9591],[-5.6765,-15.9589],[-5.6758,-15.9588],[-5.6745,-15.9586],[-5.674,-15.9585],[-5.6735,-15.9584],[-5.673,-15.9583],[-5.6726,-15.9581],[-5.6724,-15.9579],[-5.6717,-15.9574],[-5.6714,-15.9572],[-5.6711,-15.957],[-5.6709,-15.957],[-5.6707,-15.957],[-5.6703,-15.9572],[-5.67,-15.9574],[-5.6697,-15.9576],[-5.6694,-15.9578],[-5.6691,-15.958],[-5.6687,-15.9582],[-5.6684,-15.9583],[-5.668,-15.9584],[-5.6677,-15.9585],[-5.6671,-15.9587],[-5.6668,-15.9588],[-5.666,-15.9591],[-5.6655,-15.9593],[-5.6649,-15.9597],[-5.6643,-15.96],[-5.6637,-15.9602],[-5.663,-15.9605],[-5.6621,-15.9609],[-5.661,-15.9614],[-5.6599,-15.9618],[-5.6587,-15.9622],[-5.6583,-15.9624],[-5.6577,-15.9626],[-5.6569,-15.963],[-5.6553,-15.9637],[-5.6531,-15.9648],[-5.6521,-15.9652],[-5.6493,-15.9666],[-5.6477,-15.9674],[-5.6466,-15.9679],[-5.6454,-15.9684],[-5.6446,-15.9688],[-5.6439,-15.9691],[-5.6432,-15.9694],[-5.6424,-15.9697],[-5.6418,-15.97],[-5.641,-15.9704],[-5.6399,-15.971],[-5.6394,-15.9712],[-5.6384,-15.9718],[-5.6377,-15.9722],[-5.6371,-15.9725],[-5.6366,-15.9728],[-5.6364,-15.9729],[-5.6362,-15.9729],[-5.6361,-15.9728],[-5.6359,-15.9729]]]]},"properties":{"name":"Levelwood","id":"SH-HL-LV","CNTRY":"Saint Helena, Ascension and Tristan da Cunha","ADMIN":"Saint Helena","TYPE":"District"},"id":"SH-HL-LV"},
{"type":"Feature","geometry":{"type":"Polygon","coordinates":[[[-5.6359,-15.9729],[-5.6361,-15.9728],[-5.6362,-15.9729],[-5.6364,-15.9729],[-5.6366,-15.9728],[-5.6371,-15.9725],[-5.6377,-15.9722],[-5.6384,-15.9718],[-5.6394,-15.9712],[-5.6399,-15.971],[-5.641,-15.9704],[-5.6418,-15.97],[-5.6424,-15.9697],[-5.6432,-15.9694],[-5.6439,-15.9691],[-5.6446,-15.9688],[-5.6454,-15.9684],[-5.6466,-15.9679],[-5.6477,-15.9674],[-5.6493,-15.9666],[-5.6521,-15.9652],[-5.6531,-15.9648],[-5.6553,-15.9637],[-5.6569,-15.963],[-5.6577,-15.9626],[-5.6583,-15.9624],[-5.6587,-15.9622],[-5.6599,-15.9618],[-5.661,-15.9614],[-5.6621,-15.9609],[-5.663,-15.9605],[-5.6637,-15.9602],[-5.6643,-15.96],[-5.6649,-15.9597],[-5.6655,-15.9593],[-5.666,-15.9591],[-5.6668,-15.9588],[-5.6671,-15.9587],[-5.6677,-15.9585],[-5.668,-15.9584],[-5.6684,-15.9583],[-5.6687,-15.9582],[-5.6691,-15.958],[-5.6694,-15.9578],[-5.6697,-15.9576],[-5.67,-15.9574],[-5.6703,-15.9572],[-5.6707,-15.957],[-5.6709,-15.957],[-5.6711,-15.957],[-5.6714,-15.9572],[-5.6717,-15.9574],[-5.6724,-15.9579],[-5.6726,-15.9581],[-5.673,-15.9583],[-5.6735,-15.9584],[-5.674,-15.9585],[-5.6745,-15.9586],[-5.6758,-15.9588],[-5.6765,-15.9589],[-5.6773,-15.9591],[-5.6781,-15.9594],[-5.6787,-15.9595],[-5.6791,-15.9597],[-5.6794,-15.9598],[-5.6799,-15.9601],[-5.6808,-15.9605],[-5.6811,-15.9607],[-5.6815,-15.9609],[-5.682,-15.9611],[-5.6826,-15.9613],[-5.6832,-15.9615],[-5.6836,-15.9616],[-5.6844,-15.9618],[-5.6851,-15.962],[-5.6856,-15.9621],[-5.686,-15.9623],[-5.6864,-15.9625],[-5.6868,-15.9627],[-5.6871,-15.9629],[-5.6874,-15.9631],[-5.6876,-15.9633],[-5.6878,-15.9635],[-5.6881,-15.9637],[-5.6883,-15.964],[-5.6886,-15.9644],[-5.6892,-15.965],[-5.6897,-15.9654],[-5.6904,-15.9662],[-5.6913,-15.9669],[-5.6918,-15.9674],[-5.6928,-15.9683],[-5.6931,-15.9686],[-5.6939,-15.9692],[-5.6943,-15.9696],[-5.6949,-15.9699],[-5.6951,-15.9701],[-5.6956,-15.9702],[-5.6959,-15.9703],[-5.6962,-15.9703],[-5.6965,-15.9705],[-5.6967,-15.9706],[-5.6971,-15.9709],[-5.6975,-15.9713],[-5.6978,-15.9716],[-5.6981,-15.9718],[-5.6984,-15.9722],[-5.6986,-15.9724],[-5.6988,-15.9726],[-5.6988,-15.9728],[-5.6989,-15.9729],[-5.6989,-15.973],[-5.699,-15.973],[-5.6993,-15.973],[-5.6997,-15.9729],[-5.7007,-15.9725],[-5.7019,-15.972],[-5.7053,-15.9707],[-5.7053,-15.9706],[-5.7062,-15.9706],[-5.7059,-15.9706],[-5.7056,-15.9687],[-5.7055,-15.9678],[-5.7053,-15.9666],[-5.7053,-15.9662],[-5.7052,-15.966],[-5.7053,-15.9657],[-5.7054,-15.9655],[-5.7047,-15.9655],[-5.7045,-15.9651],[-5.7044,-15.9649],[-5.7041,-15.9646],[-5.7039,-15.9645],[-5.7037,-15.9644],[-5.7035,-15.9643],[-5.7031,-15.9641],[-5.7026,-15.964],[-5.7024,-15.964],[-5.7016,-15.9639],[-5.7013,-15.9638],[-5.7011,-15.9638],[-5.701,-15.9636],[-5.7009,-15.9635],[-5.7008,-15.9633],[-5.7007,-15.9629],[-5.7005,-15.9625],[-5.7003,-15.9622],[-5.7001,-15.9619],[-5.6998,-15.9617],[-5.6997,-15.9616],[-5.6995,-15.9615],[-5.6993,-15.9615],[-5.6991,-15.9615],[-5.6987,-15.9615],[-5.6986,-15.9615],[-5.6985,-15.9613],[-5.6984,-15.9608],[-5.6983,-15.9604],[-5.6982,-15.9593],[-5.6978,-15.9559],[-5.6964,-15.9544],[-5.696,-15.9539],[-5.6957,-15.9535],[-5.6951,-15.9527],[-5.6947,-15.9522],[-5.6944,-15.9516],[-5.6942,-15.9511],[-5.6941,-15.9508],[-5.694,-15.9503],[-5.6939,-15.9498],[-5.6939,-15.9495],[-5.6939,-15.949],[-5.694,-15.9484],[-5.6941,-15.948],[-5.6941,-15.9476],[-5.6942,-15.9472],[-5.6944,-15.9467],[-5.6945,-15.9462],[-5.6947,-15.9458],[-5.6949,-15.9454],[-5.695,-15.945],[-5.6952,-15.9447],[-5.6954,-15.9443],[-5.6957,-15.9439],[-5.6959,-15.9435],[-5.6961,-15.9431],[-5.6963,-15.9427],[-5.6965,-15.9421],[-5.6967,-15.9417],[-5.6969,-15.9409],[-5.6972,-15.9401],[-5.6974,-15.9394],[-5.6975,-15.9388],[-5.6977,-15.9376],[-5.698,-15.9366],[-5.6981,-15.9361],[-5.6983,-15.9355],[-5.6985,-15.9351],[-5.6987,-15.9348],[-5.699,-15.9344],[-5.6993,-15.9339],[-5.6998,-15.9333],[-5.7002,-15.9328],[-5.7005,-15.9324],[-5.7012,-15.9318],[-5.7016,-15.9314],[-5.7018,-15.9312],[-5.702,-15.931],[-5.7022,-15.9309],[-5.7027,-15.9306],[-5.703,-15.9304],[-5.7037,-15.9299],[-5.7043,-15.9294],[-5.705,-15.9289],[-5.7054,-15.9286],[-5.7059,-15.9283],[-5.7061,-15.9282],[-5.7064,-15.9281],[-5.7066,-15.928],[-5.7067,-15.9279],[-5.7067,-15.9278],[-5.7072,-15.9277],[-5.7072,-15.9274],[-5.707,-15.9272],[-5.7068,-15.927],[-5.7066,-15.9266],[-5.7064,-15.926],[-5.7062,-15.9252],[-5.7059,-15.9244],[-5.7056,-15.9233],[-5.7054,-15.9228],[-5.7052,-15.9221],[-5.705,-15.9214],[-5.7047,-15.9207],[-5.7044,-15.9198],[-5.7041,-15.9192],[-5.7039,-15.9187],[-5.7035,-15.9179],[-5.7032,-15.9171],[-5.7028,-15.9161],[-5.7024,-15.9151],[-5.7015,-15.9126],[-5.7011,-15.9113],[-5.7007,-15.9102],[-5.7003,-15.9092],[-5.7,-15.9083],[-5.6998,-15.9076],[-5.6995,-15.9067],[-5.6992,-15.9052],[-5.6989,-15.9044],[-5.6987,-15.904],[-5.6985,-15.904],[-5.6981,-15.9039],[-5.6976,-15.9039],[-5.6973,-15.9041],[-5.697,-15.905],[-5.6968,-15.9055],[-5.6969,-15.9055],[-5.6968,-15.9056],[-5.6967,-15.9058],[-5.6968,-15.9062],[-5.6966,-15.9067],[-5.6962,-15.9072],[-5.6962,-15.9074],[-5.6963,-15.9076],[-5.6963,-15.9079],[-5.6962,-15.9082],[-5.696,-15.9082],[-5.6959,-15.9085],[-5.6958,-15.9086],[-5.6956,-15.9086],[-5.6955,-15.9089],[-5.6952,-15.909],[-5.6949,-15.9094],[-5.6947,-15.9096],[-5.6944,-15.9095],[-5.6945,-15.9091],[-5.6944,-15.909],[-5.6944,-15.9088],[-5.6945,-15.9086],[-5.6943,-15.9087],[-5.694,-15.9091],[-5.6938,-15.9091],[-5.6933,-15.9097],[-5.6931,-15.9103],[-5.6928,-15.9103],[-5.6927,-15.9106],[-5.6923,-15.9106],[-5.6921,-15.9105],[-5.692,-15.9107],[-5.6921,-15.9108],[-5.6916,-15.911],[-5.6913,-15.9115],[-5.6907,-15.9115],[-5.6902,-15.9117],[-5.6897,-15.9118],[-5.6893,-15.9117],[-5.6889,-15.9117],[-5.6885,-15.9119],[-5.6883,-15.9122],[-5.6881,-15.9125],[-5.6878,-15.9127],[-5.6877,-15.9129],[-5.6873,-15.9129],[-5.6871,-15.9132],[-5.6864,-15.9135],[-5.6855,-15.9136],[-5.6852,-15.9135],[-5.685,-15.9134],[-5.6848,-15.9134],[-5.6847,-15.9134],[-5.6846,-15.9132],[-5.6847,-15.913],[-5.6845,-15.9129],[-5.6845,-15.9128],[-5.6843,-15.9131],[-5.6842,-15.9131],[-5.6841,-15.9134],[-5.684,-15.9135],[-5.6835,-15.9136],[-5.6834,-15.9134],[-5.6834,-15.9128],[-5.6833,-15.9126],[-5.6832,-15.9127],[-5.6831,-15.9132],[-5.6829,-15.9133],[-5.6828,-15.9132],[-5.6825,-15.9129],[-5.6823,-15.9124],[-5.6822,-15.912],[-5.6821,-15.9119],[-5.682,-15.9119],[-5.6818,-15.9118],[-5.6819,-15.9123],[-5.6817,-15.9125],[-5.6815,-15.9124],[-5.6816,-15.9126],[-5.6817,-15.9128],[-5.6815,-15.9129],[-5.6814,-15.9126],[-5.6814,-15.9128],[-5.6813,-15.9129],[-5.6809,-15.9131],[-5.6808,-15.9128],[-5.6807,-15.9131],[-5.6806,-15.9127],[-5.6804,-15.9127],[-5.6805,-15.9131],[-5.6805,-15.9133],[-5.6803,-15.9134],[-5.6803,-15.9131],[-5.6802,-15.913],[-5.6802,-15.9126],[-5.68,-15.9129],[-5.68,-15.913],[-5.6799,-15.9133],[-5.6797,-15.9134],[-5.6797,-15.9135],[-5.6795,-15.9135],[-5.6795,-15.9133],[-5.6793,-15.9134],[-5.6794,-15.9136],[-5.6791,-15.9132],[-5.6788,-15.9133],[-5.6786,-15.9135],[-5.6785,-15.9135],[-5.6783,-15.9132],[-5.6782,-15.9131],[-5.6781,-15.9131],[-5.6766,-15.9137],[-5.678,-15.9181],[-5.677,-15.9198],[-5.6745,-15.9195],[-5.6732,-15.9155],[-5.6701,-15.9135],[-5.6677,-15.9126],[-5.6664,-15.911],[-5.6621,-15.91],[-5.6605,-15.9111],[-5.6569,-15.9115],[-5.6557,-15.9145],[-5.653,-15.917],[-5.653,-15.9177],[-5.6529,-15.9179],[-5.6528,-15.9181],[-5.6527,-15.9183],[-5.6525,-15.9183],[-5.6523,-15.9184],[-5.6522,-15.9185],[-5.652,-15.9186],[-5.6519,-15.9187],[-5.6517,-15.919],[-5.6516,-15.9191],[-5.6516,-15.9192],[-5.6515,-15.9193],[-5.6514,-15.9193],[-5.6514,-15.9196],[-5.6514,-15.9198],[-5.6513,-15.9198],[-5.6512,-15.9199],[-5.6513,-15.92],[-5.6514,-15.9201],[-5.6515,-15.9201],[-5.6516,-15.9202],[-5.6519,-15.9202],[-5.6522,-15.9203],[-5.6525,-15.9204],[-5.6525,-15.9205],[-5.6528,-15.9206],[-5.6529,-15.9206],[-5.6529,-15.9207],[-5.6532,-15.9209],[-5.6534,-15.921],[-5.6536,-15.9211],[-5.6537,-15.9211],[-5.6541,-15.9217],[-5.6541,-15.9219],[-5.6542,-15.9221],[-5.6546,-15.9228],[-5.6546,-15.923],[-5.6545,-15.9232],[-5.6546,-15.9234],[-5.6545,-15.9237],[-5.6544,-15.9241],[-5.6543,-15.9246],[-5.6542,-15.925],[-5.6541,-15.9251],[-5.654,-15.9252],[-5.6539,-15.9251],[-5.6537,-15.9251],[-5.6536,-15.925],[-5.6533,-15.925],[-5.6534,-15.9251],[-5.6535,-15.9252],[-5.6537,-15.9252],[-5.6538,-15.9253],[-5.6537,-15.9255],[-5.6536,-15.9255],[-5.6536,-15.9256],[-5.6536,-15.9258],[-5.6534,-15.9259],[-5.6534,-15.926],[-5.6534,-15.9261],[-5.6532,-15.9261],[-5.6532,-15.9262],[-5.653,-15.9265],[-5.6528,-15.9267],[-5.6526,-15.9266],[-5.6525,-15.9266],[-5.6525,-15.9267],[-5.6524,-15.9267],[-5.6523,-15.9267],[-5.6523,-15.9269],[-5.6521,-15.927],[-5.6521,-15.9271],[-5.6523,-15.9272],[-5.6523,-15.9273],[-5.6522,-15.9273],[-5.6517,-15.9274],[-5.6515,-15.9274],[-5.6511,-15.9275],[-5.6512,-15.9276],[-5.6513,-15.9277],[-5.6514,-15.9278],[-5.6509,-15.9278],[-5.6509,-15.9277],[-5.6508,-15.9277],[-5.6508,-15.9279],[-5.6507,-15.9279],[-5.6505,-15.9279],[-5.6504,-15.9278],[-5.6499,-15.928],[-5.65,-15.9281],[-5.6501,-15.9282],[-5.6504,-15.9283],[-5.6506,-15.9284],[-5.6507,-15.9285],[-5.6506,-15.9286],[-5.6508,-15.9288],[-5.6507,-15.9288],[-5.6504,-15.9288],[-5.6504,-15.9289],[-5.6502,-15.9289],[-5.6502,-15.929],[-5.6502,-15.9292],[-5.65,-15.9294],[-5.65,-15.9295],[-5.6498,-15.9295],[-5.6498,-15.9296],[-5.65,-15.9296],[-5.6501,-15.9297],[-5.6499,-15.9298],[-5.6498,-15.9298],[-5.6498,-15.9299],[-5.6499,-15.9299],[-5.6499,-15.93],[-5.6497,-15.93],[-5.6496,-15.93],[-5.6495,-15.9301],[-5.6495,-15.9303],[-5.6495,-15.9304],[-5.6496,-15.9305],[-5.6496,-15.9306],[-5.6498,-15.9307],[-5.6497,-15.9308],[-5.6497,-15.9309],[-5.6499,-15.931],[-5.6501,-15.931],[-5.6502,-15.9312],[-5.6503,-15.9312],[-5.6504,-15.9312],[-5.6507,-15.9313],[-5.6506,-15.9314],[-5.6507,-15.9315],[-5.6508,-15.9315],[-5.6508,-15.9316],[-5.6506,-15.9317],[-5.6506,-15.9319],[-5.6509,-15.9318],[-5.651,-15.9319],[-5.6509,-15.932],[-5.6509,-15.9321],[-5.6509,-15.9323],[-5.651,-15.9324],[-5.6511,-15.9323],[-5.6514,-15.9323],[-5.6515,-15.9325],[-5.6514,-15.9326],[-5.6515,-15.9327],[-5.6513,-15.9327],[-5.6512,-15.9328],[-5.6514,-15.9328],[-5.6515,-15.933],[-5.6513,-15.9331],[-5.6512,-15.9331],[-5.6511,-15.9332],[-5.6512,-15.9333],[-5.6513,-15.9333],[-5.6512,-15.9334],[-5.6513,-15.9335],[-5.6514,-15.9334],[-5.6515,-15.9335],[-5.6517,-15.9334],[-5.6518,-15.9336],[-5.6518,-15.9338],[-5.6518,-15.9339],[-5.6517,-15.9342],[-5.6518,-15.9343],[-5.6518,-15.9344],[-5.6519,-15.9345],[-5.652,-15.9344],[-5.6521,-15.9345],[-5.6519,-15.9347],[-5.6521,-15.9347],[-5.6521,-15.9348],[-5.652,-15.9351],[-5.6519,-15.9351],[-5.6518,-15.9351],[-5.6516,-15.9351],[-5.6516,-15.9352],[-5.6515,-15.9353],[-5.6514,-15.9353],[-5.6513,-15.9353],[-5.6513,-15.9355],[-5.6513,-15.9357],[-5.6515,-15.9357],[-5.6516,-15.9358],[-5.6514,-15.9361],[-5.6513,-15.9363],[-5.6509,-15.9367],[-5.6508,-15.9367],[-5.6508,-15.9368],[-5.6507,-15.9369],[-5.6505,-15.9369],[-5.6504,-15.9372],[-5.6504,-15.9374],[-5.6502,-15.9376],[-5.6501,-15.9377],[-5.65,-15.9376],[-5.6497,-15.9379],[-5.6497,-15.938],[-5.6494,-15.9381],[-5.6495,-15.9382],[-5.6494,-15.9384],[-5.6494,-15.9386],[-5.6493,-15.9388],[-5.649,-15.9389],[-5.649,-15.9392],[-5.6488,-15.9392],[-5.6488,-15.9394],[-5.6488,-15.9395],[-5.6487,-15.9397],[-5.6485,-15.9399],[-5.6482,-15.9401],[-5.6481,-15.9401],[-5.648,-15.94],[-5.6479,-15.94],[-5.6477,-15.94],[-5.6475,-15.9399],[-5.6474,-15.9399],[-5.6473,-15.94],[-5.6471,-15.9401],[-5.6471,-15.9402],[-5.647,-15.9404],[-5.6468,-15.9405],[-5.6462,-15.9408],[-5.6457,-15.9408],[-5.6454,-15.9407],[-5.6453,-15.9404],[-5.6451,-15.9404],[-5.6451,-15.9401],[-5.6449,-15.9401],[-5.6449,-15.9399],[-5.6447,-15.9399],[-5.6447,-15.94],[-5.6444,-15.94],[-5.6442,-15.9401],[-5.644,-15.94],[-5.6439,-15.94],[-5.6438,-15.9402],[-5.6437,-15.9402],[-5.6438,-15.9399],[-5.6435,-15.9399],[-5.6434,-15.9398],[-5.6431,-15.9397],[-5.6428,-15.9398],[-5.6425,-15.9397],[-5.6424,-15.9396],[-5.6423,-15.9397],[-5.6422,-15.9398],[-5.6421,-15.9399],[-5.6421,-15.94],[-5.6419,-15.9401],[-5.6419,-15.9402],[-5.6418,-15.9402],[-5.6417,-15.9403],[-5.6417,-15.9404],[-5.6417,-15.9406],[-5.6415,-15.9409],[-5.6415,-15.941],[-5.6414,-15.9411],[-5.6414,-15.9412],[-5.6414,-15.9415],[-5.6414,-15.9417],[-5.6415,-15.9416],[-5.6416,-15.9416],[-5.6414,-15.9418],[-5.6413,-15.9421],[-5.6411,-15.9421],[-5.641,-15.9423],[-5.6409,-15.9424],[-5.6407,-15.9426],[-5.6406,-15.9426],[-5.6406,-15.9427],[-5.6405,-15.9428],[-5.6405,-15.9429],[-5.6405,-15.943],[-5.6405,-15.9431],[-5.6405,-15.9432],[-5.6404,-15.9433],[-5.6406,-15.9434],[-5.641,-15.9433],[-5.6411,-15.9432],[-5.6412,-15.9433],[-5.6413,-15.9432],[-5.6414,-15.9433],[-5.6415,-15.9434],[-5.6413,-15.9434],[-5.6412,-15.9435],[-5.6412,-15.9438],[-5.641,-15.9439],[-5.6411,-15.9439],[-5.6412,-15.9439],[-5.6412,-15.944],[-5.641,-15.944],[-5.6409,-15.9441],[-5.6406,-15.9442],[-5.6405,-15.9443],[-5.6404,-15.9443],[-5.6404,-15.9445],[-5.6402,-15.9447],[-5.6403,-15.9448],[-5.6404,-15.9449],[-5.6406,-15.9448],[-5.6405,-15.9451],[-5.6406,-15.9452],[-5.6407,-15.9451],[-5.6407,-15.9453],[-5.6406,-15.9453],[-5.6406,-15.9454],[-5.6405,-15.9454],[-5.6404,-15.9455],[-5.6405,-15.9456],[-5.6407,-15.9456],[-5.6407,-15.9457],[-5.6406,-15.9458],[-5.6404,-15.9457],[-5.6403,-15.9456],[-5.6402,-15.9457],[-5.6401,-15.9458],[-5.64,-15.9459],[-5.6399,-15.946],[-5.6398,-15.946],[-5.6396,-15.9463],[-5.6394,-15.9464],[-5.6392,-15.9464],[-5.6392,-15.9465],[-5.639,-15.9466],[-5.639,-15.9465],[-5.6389,-15.9465],[-5.6388,-15.9465],[-5.6387,-15.9466],[-5.6389,-15.9466],[-5.6389,-15.9467],[-5.6388,-15.9468],[-5.6387,-15.9469],[-5.6386,-15.9471],[-5.6387,-15.9472],[-5.6387,-15.9474],[-5.6388,-15.9474],[-5.6389,-15.9476],[-5.6387,-15.9477],[-5.6386,-15.9477],[-5.6384,-15.9477],[-5.6383,-15.9476],[-5.6382,-15.9476],[-5.6381,-15.9476],[-5.638,-15.9476],[-5.6379,-15.9476],[-5.6379,-15.9474],[-5.6377,-15.9475],[-5.6376,-15.9477],[-5.6376,-15.9476],[-5.6375,-15.9476],[-5.6373,-15.9477],[-5.6372,-15.9478],[-5.6371,-15.9477],[-5.637,-15.9477],[-5.637,-15.9476],[-5.6368,-15.9476],[-5.6367,-15.9476],[-5.6366,-15.9477],[-5.6366,-15.9474],[-5.6364,-15.9474],[-5.6363,-15.9476],[-5.6361,-15.9476],[-5.6361,-15.9475],[-5.6359,-15.9475],[-5.6359,-15.9477],[-5.6357,-15.9477],[-5.6355,-15.948],[-5.6358,-15.9481],[-5.6357,-15.9482],[-5.6357,-15.9483],[-5.6356,-15.9483],[-5.6354,-15.9484],[-5.6353,-15.9484],[-5.635,-15.9486],[-5.635,-15.9485],[-5.6348,-15.9486],[-5.6348,-15.9487],[-5.6347,-15.9488],[-5.6346,-15.949],[-5.6347,-15.9491],[-5.6348,-15.9492],[-5.6349,-15.9493],[-5.635,-15.9493],[-5.6346,-15.9496],[-5.6344,-15.9497],[-5.6344,-15.9496],[-5.6343,-15.9498],[-5.6342,-15.9501],[-5.6341,-15.9503],[-5.6342,-15.9504],[-5.6342,-15.9505],[-5.6343,-15.9508],[-5.6346,-15.9511],[-5.6348,-15.9513],[-5.6348,-15.9514],[-5.635,-15.9514],[-5.6352,-15.9514],[-5.6352,-15.9515],[-5.6353,-15.9516],[-5.6355,-15.9516],[-5.6356,-15.9518],[-5.6356,-15.9519],[-5.6357,-15.9519],[-5.6358,-15.9518],[-5.6361,-15.9517],[-5.6362,-15.9515],[-5.6362,-15.9516],[-5.6363,-15.9516],[-5.6364,-15.9517],[-5.6366,-15.9518],[-5.6367,-15.9519],[-5.6367,-15.9521],[-5.6367,-15.9523],[-5.6366,-15.9524],[-5.6365,-15.9525],[-5.6364,-15.9527],[-5.6363,-15.9528],[-5.6364,-15.9529],[-5.6365,-15.9529],[-5.6366,-15.9529],[-5.6368,-15.9529],[-5.6369,-15.9529],[-5.6371,-15.9529],[-5.6372,-15.9526],[-5.6374,-15.9527],[-5.6377,-15.9524],[-5.6379,-15.9525],[-5.638,-15.9524],[-5.6382,-15.9522],[-5.6384,-15.9523],[-5.6385,-15.9523],[-5.6387,-15.9523],[-5.6386,-15.9527],[-5.6387,-15.9525],[-5.6388,-15.9525],[-5.6388,-15.9528],[-5.6387,-15.9528],[-5.6386,-15.953],[-5.6388,-15.953],[-5.6389,-15.953],[-5.6389,-15.9531],[-5.6388,-15.9534],[-5.6387,-15.9534],[-5.6387,-15.9536],[-5.6389,-15.9534],[-5.639,-15.9533],[-5.6391,-15.9533],[-5.6391,-15.9534],[-5.639,-15.9535],[-5.6391,-15.9537],[-5.6389,-15.9537],[-5.6389,-15.9539],[-5.6389,-15.954],[-5.6386,-15.9543],[-5.6385,-15.9544],[-5.6385,-15.9546],[-5.6383,-15.9547],[-5.6383,-15.9548],[-5.6382,-15.9548],[-5.6382,-15.955],[-5.6383,-15.955],[-5.6383,-15.9552],[-5.6384,-15.9552],[-5.6385,-15.9552],[-5.6386,-15.9553],[-5.6389,-15.9552],[-5.639,-15.9553],[-5.6389,-15.9554],[-5.6388,-15.9555],[-5.6388,-15.9556],[-5.6387,-15.9557],[-5.6386,-15.9559],[-5.6386,-15.956],[-5.6387,-15.9561],[-5.6387,-15.9562],[-5.6388,-15.9562],[-5.6391,-15.9561],[-5.6393,-15.9562],[-5.6394,-15.9561],[-5.6395,-15.9561],[-5.6395,-15.9562],[-5.6393,-15.9563],[-5.6393,-15.9564],[-5.6394,-15.9565],[-5.6393,-15.9567],[-5.6394,-15.9569],[-5.6392,-15.957],[-5.6395,-15.9571],[-5.6397,-15.9573],[-5.6398,-15.9573],[-5.6398,-15.9575],[-5.6402,-15.9575],[-5.6402,-15.9577],[-5.64,-15.9577],[-5.6399,-15.9578],[-5.64,-15.9579],[-5.64,-15.958],[-5.6401,-15.9579],[-5.6402,-15.9579],[-5.6401,-15.958],[-5.6402,-15.9582],[-5.6404,-15.9584],[-5.6402,-15.9586],[-5.6403,-15.9588],[-5.6404,-15.9588],[-5.6405,-15.9589],[-5.6405,-15.9591],[-5.6405,-15.9592],[-5.6404,-15.9594],[-5.6402,-15.9595],[-5.6402,-15.9596],[-5.6397,-15.9599],[-5.6396,-15.9599],[-5.6395,-15.96],[-5.6392,-15.9602],[-5.6392,-15.9604],[-5.6394,-15.9605],[-5.6394,-15.9608],[-5.6394,-15.9609],[-5.6394,-15.9611],[-5.6394,-15.9614],[-5.6394,-15.9616],[-5.6394,-15.9617],[-5.6395,-15.9618],[-5.6395,-15.962],[-5.6396,-15.962],[-5.6395,-15.9622],[-5.6393,-15.9623],[-5.6393,-15.9624],[-5.6392,-15.9625],[-5.6392,-15.9624],[-5.639,-15.9626],[-5.6391,-15.9627],[-5.6392,-15.9628],[-5.6392,-15.963],[-5.6392,-15.9632],[-5.6393,-15.9633],[-5.6394,-15.9633],[-5.6396,-15.9634],[-5.6396,-15.9632],[-5.6398,-15.963],[-5.6401,-15.9634],[-5.6403,-15.9635],[-5.6404,-15.9635],[-5.6404,-15.9637],[-5.6403,-15.964],[-5.6401,-15.9643],[-5.6401,-15.9645],[-5.6398,-15.9649],[-5.6398,-15.9652],[-5.6397,-15.9652],[-5.6397,-15.9654],[-5.6397,-15.9655],[-5.6395,-15.9658],[-5.6394,-15.9658],[-5.6394,-15.9661],[-5.6394,-15.9663],[-5.6395,-15.9664],[-5.6394,-15.9665],[-5.6395,-15.9666],[-5.6395,-15.9667],[-5.6394,-15.9669],[-5.6393,-15.967],[-5.6392,-15.9671],[-5.6391,-15.9672],[-5.639,-15.9674],[-5.6388,-15.9678],[-5.6388,-15.968],[-5.6386,-15.9682],[-5.6385,-15.9681],[-5.6384,-15.9682],[-5.6382,-15.9683],[-5.6382,-15.9684],[-5.6382,-15.9686],[-5.6381,-15.9687],[-5.6379,-15.969],[-5.6377,-15.9691],[-5.6375,-15.9692],[-5.6374,-15.9692],[-5.6373,-15.9693],[-5.6372,-15.9693],[-5.6371,-15.9694],[-5.6371,-15.9695],[-5.637,-15.9697],[-5.6371,-15.9701],[-5.637,-15.9702],[-5.6369,-15.9704],[-5.6365,-15.9708],[-5.6364,-15.9709],[-5.6362,-15.9711],[-5.6361,-15.9715],[-5.6361,-15.9717],[-5.6358,-15.972],[-5.6358,-15.9722],[-5.636,-15.9723],[-5.636,-15.9725],[-5.6358,-15.9726],[-5.6358,-15.9727],[-5.6358,-15.9728],[-5.6359,-15.9729]]]},"properties":{"name":"Longwood","id":"SH-HL-LW","CNTRY":"Saint Helena, Ascension and Tristan da Cunha","ADMIN":"Saint Helena","TYPE":"District"},"id":"SH-HL-LW"},
{"type":"Feature","geometry":{"type":"Polygon","coordinates":[[[-5.7272,-16.0146],[-5.7271,-16.0143],[-5.7266,-16.0127],[-5.7265,-16.0121],[-5.7262,-16.011],[-5.7253,-16.0072],[-5.724,-16.0015],[-5.7236,-16.0001],[-5.7233,-15.9987],[-5.7231,-15.998],[-5.723,-15.9977],[-5.7228,-15.997],[-5.7224,-15.9961],[-5.722,-15.995],[-5.7219,-15.9946],[-5.7218,-15.9943],[-5.7217,-15.9938],[-5.7216,-15.9933],[-5.7215,-15.9927],[-5.7214,-15.992],[-5.7213,-15.991],[-5.7211,-15.9891],[-5.7209,-15.9866],[-5.7206,-15.9844],[-5.7202,-15.9808],[-5.7201,-15.9799],[-5.7201,-15.9792],[-5.72,-15.9788],[-5.72,-15.9783],[-5.72,-15.9775],[-5.72,-15.977],[-5.7201,-15.9767],[-5.7201,-15.9764],[-5.7202,-15.976],[-5.7203,-15.9757],[-5.7205,-15.9754],[-5.7206,-15.9753],[-5.7209,-15.9751],[-5.7211,-15.9749],[-5.7216,-15.9746],[-5.722,-15.9744],[-5.7225,-15.9741],[-5.7233,-15.9736],[-5.7237,-15.9734],[-5.7242,-15.9731],[-5.7245,-15.9729],[-5.725,-15.9724],[-5.7253,-15.9722],[-5.7256,-15.9721],[-5.7255,-15.9716],[-5.7251,-15.9715],[-5.7246,-15.9713],[-5.7243,-15.9712],[-5.7239,-15.9711],[-5.7236,-15.971],[-5.723,-15.9709],[-5.7227,-15.9709],[-5.7221,-15.9709],[-5.7218,-15.9709],[-5.7212,-15.971],[-5.7206,-15.9712],[-5.7201,-15.9713],[-5.7197,-15.9715],[-5.7195,-15.9716],[-5.7191,-15.9718],[-5.7187,-15.972],[-5.7182,-15.9723],[-5.7179,-15.9726],[-5.7176,-15.9728],[-5.7174,-15.9728],[-5.7172,-15.9729],[-5.7169,-15.9728],[-5.7168,-15.9728],[-5.7166,-15.9727],[-5.7165,-15.9726],[-5.7163,-15.9723],[-5.716,-15.9719],[-5.7158,-15.9717],[-5.7157,-15.9715],[-5.7155,-15.9713],[-5.7153,-15.9712],[-5.7151,-15.9711],[-5.7149,-15.971],[-5.7146,-15.9709],[-5.7141,-15.9709],[-5.7137,-15.9708],[-5.7132,-15.9708],[-5.7124,-15.9708],[-5.7108,-15.9708],[-5.7099,-15.9708],[-5.709,-15.9708],[-5.7079,-15.9708],[-5.7072,-15.9707],[-5.7062,-15.9706],[-5.7053,-15.9706],[-5.7053,-15.9707],[-5.7019,-15.972],[-5.7007,-15.9725],[-5.6997,-15.9729],[-5.6993,-15.973],[-5.699,-15.973],[-5.6988,-15.9732],[-5.6989,-15.9735],[-5.699,-15.9737],[-5.6991,-15.974],[-5.6991,-15.9742],[-5.6991,-15.9743],[-5.699,-15.9747],[-5.6989,-15.975],[-5.6988,-15.9753],[-5.6986,-15.9756],[-5.6984,-15.9761],[-5.6981,-15.9764],[-5.6979,-15.9767],[-5.6977,-15.977],[-5.6974,-15.9772],[-5.6972,-15.9775],[-5.697,-15.9776],[-5.6968,-15.9778],[-5.6965,-15.9779],[-5.6959,-15.9782],[-5.6953,-15.9784],[-5.6944,-15.9787],[-5.6939,-15.9789],[-5.6928,-15.9792],[-5.6918,-15.9795],[-5.691,-15.9799],[-5.6903,-15.9801],[-5.69,-15.9803],[-5.6883,-15.9814],[-5.6879,-15.9817],[-5.6876,-15.9819],[-5.6875,-15.982],[-5.6872,-15.9824],[-5.687,-15.9827],[-5.6866,-15.9834],[-5.6863,-15.984],[-5.6861,-15.9844],[-5.6859,-15.9848],[-5.6857,-15.985],[-5.6854,-15.9853],[-5.6852,-15.9855],[-5.6849,-15.9858],[-5.6846,-15.986],[-5.6842,-15.9862],[-5.6838,-15.9864],[-5.6833,-15.9867],[-5.6826,-15.9869],[-5.6819,-15.9872],[-5.6809,-15.9876],[-5.679,-15.9882],[-5.6778,-15.9886],[-5.6773,-15.9887],[-5.6767,-15.9889],[-5.6761,-15.9891],[-5.6756,-15.9892],[-5.6744,-15.9895],[-5.6724,-15.9898],[-5.6717,-15.9903],[-5.6715,-15.9904],[-5.6712,-15.9905],[-5.671,-15.9907],[-5.6708,-15.9909],[-5.67,-15.9915],[-5.6701,-15.9915],[-5.6701,-15.9916],[-5.6702,-15.9917],[-5.6703,-15.9915],[-5.6704,-15.9915],[-5.6706,-15.9914],[-5.6708,-15.9915],[-5.6709,-15.9915],[-5.671,-15.9915],[-5.6715,-15.9915],[-5.6715,-15.9917],[-5.6715,-15.9918],[-5.6715,-15.9919],[-5.6713,-15.9919],[-5.6712,-15.992],[-5.6714,-15.9922],[-5.6715,-15.9922],[-5.6717,-15.9922],[-5.6719,-15.9922],[-5.6719,-15.9923],[-5.6722,-15.9925],[-5.6723,-15.9925],[-5.6724,-15.9926],[-5.6725,-15.9928],[-5.6724,-15.9929],[-5.6723,-15.9929],[-5.6723,-15.993],[-5.6722,-15.9931],[-5.6722,-15.9932],[-5.672,-15.9933],[-5.6719,-15.9934],[-5.6719,-15.9935],[-5.6718,-15.9936],[-5.6717,-15.9938],[-5.6719,-15.9938],[-5.6719,-15.9939],[-5.6717,-15.994],[-5.6717,-15.9943],[-5.6715,-15.9942],[-5.671,-15.9943],[-5.6708,-15.9943],[-5.6708,-15.9942],[-5.6704,-15.9942],[-5.6704,-15.9945],[-5.6703,-15.9948],[-5.6703,-15.9951],[-5.6704,-15.9951],[-5.6706,-15.9951],[-5.6708,-15.9952],[-5.6709,-15.9953],[-5.6709,-15.9956],[-5.6709,-15.9958],[-5.6708,-15.996],[-5.6708,-15.9962],[-5.6709,-15.9962],[-5.671,-15.9962],[-5.6711,-15.9962],[-5.6712,-15.9962],[-5.6713,-15.9964],[-5.6715,-15.9966],[-5.6716,-15.9967],[-5.6717,-15.9968],[-5.6718,-15.997],[-5.6718,-15.9972],[-5.672,-15.9972],[-5.672,-15.9974],[-5.6721,-15.9974],[-5.6722,-15.9975],[-5.6723,-15.9975],[-5.6726,-15.9974],[-5.6726,-15.9975],[-5.6726,-15.9978],[-5.6728,-15.9978],[-5.6729,-15.9979],[-5.6729,-15.998],[-5.673,-15.9982],[-5.6731,-15.9983],[-5.6731,-15.9984],[-5.673,-15.9984],[-5.673,-15.9985],[-5.6729,-15.9987],[-5.6731,-15.9988],[-5.6729,-15.9988],[-5.6726,-15.999],[-5.6723,-15.9991],[-5.6721,-15.9991],[-5.672,-15.9993],[-5.672,-15.9994],[-5.672,-15.9995],[-5.672,-15.9996],[-5.6722,-15.9997],[-5.6721,-15.9998],[-5.6722,-16],[-5.6722,-16.0001],[-5.6721,-16.0002],[-5.6721,-16.0003],[-5.6721,-16.0004],[-5.6723,-16.0005],[-5.6724,-16.0007],[-5.6725,-16.0008],[-5.6726,-16.0008],[-5.6728,-16.0008],[-5.6733,-16.0009],[-5.6735,-16.0008],[-5.6735,-16.0009],[-5.6738,-16.0009],[-5.6741,-16.001],[-5.6743,-16.0012],[-5.6743,-16.0013],[-5.6744,-16.0015],[-5.6744,-16.0016],[-5.6744,-16.002],[-5.6744,-16.0021],[-5.6746,-16.0023],[-5.6749,-16.0025],[-5.6751,-16.0024],[-5.6753,-16.0023],[-5.6757,-16.0023],[-5.6758,-16.0021],[-5.676,-16.002],[-5.6761,-16.0019],[-5.6761,-16.0018],[-5.6762,-16.0017],[-5.6763,-16.0017],[-5.6764,-16.0015],[-5.6765,-16.0011],[-5.6765,-16.0009],[-5.6766,-16.0009],[-5.6766,-16.0007],[-5.6766,-16.0005],[-5.6768,-16.0004],[-5.6767,-16.0004],[-5.6767,-15.9998],[-5.6772,-15.9993],[-5.6777,-15.9995],[-5.6779,-15.9996],[-5.6779,-15.9997],[-5.678,-16],[-5.678,-16.0001],[-5.6781,-16.0001],[-5.6782,-16.0001],[-5.6783,-15.9999],[-5.6785,-15.9999],[-5.6786,-15.9998],[-5.6789,-15.9996],[-5.679,-15.9996],[-5.6792,-15.9996],[-5.6791,-15.9998],[-5.6793,-15.9999],[-5.6793,-16.0001],[-5.6794,-16.0002],[-5.6794,-16.0008],[-5.6792,-16.0007],[-5.6792,-16.0009],[-5.6792,-16.0011],[-5.6792,-16.0012],[-5.6792,-16.0013],[-5.6793,-16.0014],[-5.6794,-16.0016],[-5.6795,-16.0018],[-5.6796,-16.002],[-5.6798,-16.0021],[-5.6798,-16.002],[-5.68,-16.0018],[-5.6801,-16.0016],[-5.6802,-16.0014],[-5.6806,-16.001],[-5.6807,-16.0011],[-5.6811,-16.001],[-5.6816,-16.0011],[-5.6819,-16.001],[-5.6821,-16.0011],[-5.6821,-16.0013],[-5.682,-16.0015],[-5.6821,-16.0017],[-5.6822,-16.0017],[-5.6823,-16.0017],[-5.6825,-16.0017],[-5.6826,-16.0016],[-5.6829,-16.0017],[-5.6829,-16.0019],[-5.683,-16.002],[-5.6834,-16.0019],[-5.6836,-16.0019],[-5.6836,-16.002],[-5.6835,-16.0021],[-5.6836,-16.0022],[-5.6838,-16.002],[-5.684,-16.002],[-5.6839,-16.0021],[-5.684,-16.0023],[-5.684,-16.0026],[-5.6841,-16.0028],[-5.6843,-16.0028],[-5.6844,-16.0026],[-5.6844,-16.0025],[-5.6845,-16.0025],[-5.6846,-16.0025],[-5.6846,-16.0026],[-5.6847,-16.0027],[-5.6849,-16.0026],[-5.6849,-16.0025],[-5.6849,-16.0024],[-5.6851,-16.0024],[-5.6852,-16.0023],[-5.6853,-16.0023],[-5.6854,-16.0023],[-5.6857,-16.0021],[-5.6857,-16.0019],[-5.6857,-16.0018],[-5.6859,-16.0017],[-5.6864,-16.0011],[-5.6865,-16.0007],[-5.6869,-16.0005],[-5.6871,-16.0005],[-5.6873,-16.0007],[-5.6874,-16.001],[-5.6873,-16.0011],[-5.6873,-16.0012],[-5.6871,-16.0013],[-5.687,-16.0014],[-5.6868,-16.0015],[-5.6867,-16.0017],[-5.6867,-16.0019],[-5.6868,-16.002],[-5.6868,-16.0021],[-5.6869,-16.0021],[-5.687,-16.0022],[-5.6868,-16.0023],[-5.6868,-16.0028],[-5.6867,-16.003],[-5.6868,-16.0032],[-5.6867,-16.0033],[-5.6866,-16.0034],[-5.6867,-16.0034],[-5.6867,-16.0035],[-5.6866,-16.0035],[-5.6865,-16.0036],[-5.6866,-16.0037],[-5.6867,-16.0037],[-5.6868,-16.0038],[-5.687,-16.0038],[-5.6871,-16.0038],[-5.6871,-16.0039],[-5.6871,-16.004],[-5.687,-16.004],[-5.6869,-16.0041],[-5.6869,-16.0044],[-5.687,-16.0047],[-5.687,-16.0048],[-5.6871,-16.0049],[-5.6871,-16.005],[-5.6871,-16.0051],[-5.6871,-16.0052],[-5.6872,-16.0053],[-5.6873,-16.0053],[-5.6873,-16.0054],[-5.6874,-16.0056],[-5.6875,-16.0056],[-5.6875,-16.0058],[-5.6875,-16.006],[-5.6876,-16.006],[-5.6875,-16.0062],[-5.6876,-16.0066],[-5.6875,-16.0066],[-5.6876,-16.0069],[-5.6877,-16.007],[-5.6878,-16.0071],[-5.6881,-16.007],[-5.6884,-16.0068],[-5.6885,-16.0066],[-5.6891,-16.0062],[-5.6893,-16.0062],[-5.69,-16.0061],[-5.6902,-16.0063],[-5.6904,-16.0064],[-5.6906,-16.0065],[-5.6905,-16.0065],[-5.6908,-16.0067],[-5.6909,-16.0066],[-5.691,-16.0065],[-5.6912,-16.0064],[-5.6912,-16.0062],[-5.6913,-16.0061],[-5.6914,-16.0061],[-5.6916,-16.0058],[-5.6919,-16.0054],[-5.6921,-16.0051],[-5.6925,-16.0049],[-5.6927,-16.0046],[-5.6931,-16.0045],[-5.6934,-16.0044],[-5.6936,-16.0046],[-5.6939,-16.0046],[-5.6942,-16.0046],[-5.6946,-16.0046],[-5.6946,-16.0047],[-5.6948,-16.0049],[-5.695,-16.0049],[-5.6952,-16.005],[-5.6955,-16.0051],[-5.6957,-16.0051],[-5.6959,-16.005],[-5.6962,-16.005],[-5.6964,-16.0048],[-5.6965,-16.0045],[-5.6969,-16.004],[-5.697,-16.0036],[-5.6973,-16.0033],[-5.6976,-16.0032],[-5.6978,-16.0035],[-5.6979,-16.0036],[-5.6981,-16.0033],[-5.6982,-16.0031],[-5.6984,-16.0029],[-5.6986,-16.0029],[-5.6988,-16.0027],[-5.6991,-16.0026],[-5.6992,-16.0027],[-5.6995,-16.0028],[-5.6996,-16.0028],[-5.6996,-16.0029],[-5.6997,-16.003],[-5.6998,-16.0031],[-5.7,-16.0032],[-5.7003,-16.0035],[-5.7004,-16.0033],[-5.7007,-16.0033],[-5.7008,-16.0032],[-5.7009,-16.0029],[-5.7011,-16.0027],[-5.7012,-16.0025],[-5.7013,-16.0022],[-5.7017,-16.0019],[-5.702,-16.0018],[-5.7023,-16.0018],[-5.7024,-16.0019],[-5.7024,-16.0021],[-5.7028,-16.0024],[-5.7028,-16.003],[-5.7029,-16.0033],[-5.7031,-16.0034],[-5.7036,-16.0034],[-5.7037,-16.0034],[-5.7037,-16.0035],[-5.7039,-16.0035],[-5.7041,-16.0035],[-5.7044,-16.0033],[-5.7046,-16.0033],[-5.7045,-16.0032],[-5.7045,-16.0031],[-5.7046,-16.0031],[-5.7046,-16.003],[-5.7046,-16.0029],[-5.7045,-16.0027],[-5.7042,-16.0026],[-5.7045,-16.0026],[-5.7048,-16.0026],[-5.7049,-16.0025],[-5.705,-16.0027],[-5.7053,-16.0028],[-5.7054,-16.0028],[-5.7054,-16.003],[-5.7054,-16.0031],[-5.7055,-16.0029],[-5.7056,-16.0029],[-5.7058,-16.0029],[-5.7059,-16.003],[-5.706,-16.003],[-5.7061,-16.0031],[-5.7061,-16.0029],[-5.7063,-16.0029],[-5.7064,-16.003],[-5.7065,-16.003],[-5.7065,-16.0029],[-5.7065,-16.0028],[-5.7066,-16.0028],[-5.7069,-16.0026],[-5.7074,-16.0024],[-5.7072,-16.0026],[-5.7072,-16.0027],[-5.7074,-16.0028],[-5.7075,-16.0029],[-5.7076,-16.0029],[-5.7081,-16.0028],[-5.7083,-16.0028],[-5.7087,-16.0028],[-5.7089,-16.0029],[-5.709,-16.0028],[-5.7092,-16.0029],[-5.7092,-16.0031],[-5.7095,-16.0032],[-5.7095,-16.0033],[-5.7094,-16.0034],[-5.7096,-16.0034],[-5.7096,-16.0035],[-5.7097,-16.0036],[-5.7098,-16.0036],[-5.7099,-16.0035],[-5.7103,-16.0035],[-5.7104,-16.0034],[-5.7104,-16.0037],[-5.7104,-16.0038],[-5.7105,-16.0038],[-5.7106,-16.004],[-5.7107,-16.004],[-5.7107,-16.0039],[-5.7108,-16.0039],[-5.7109,-16.0036],[-5.711,-16.0035],[-5.7111,-16.0034],[-5.7111,-16.0033],[-5.7113,-16.003],[-5.7114,-16.0028],[-5.7116,-16.0026],[-5.7118,-16.0026],[-5.7118,-16.0025],[-5.7119,-16.0025],[-5.712,-16.0026],[-5.712,-16.0028],[-5.712,-16.0029],[-5.7119,-16.0029],[-5.7118,-16.003],[-5.7118,-16.0033],[-5.7118,-16.0034],[-5.7118,-16.0038],[-5.7117,-16.0039],[-5.7117,-16.0041],[-5.7118,-16.0042],[-5.7121,-16.0041],[-5.7122,-16.0043],[-5.7121,-16.0043],[-5.712,-16.0045],[-5.7122,-16.0046],[-5.7122,-16.0051],[-5.7123,-16.0049],[-5.7124,-16.0048],[-5.7125,-16.0049],[-5.7126,-16.0051],[-5.7128,-16.0051],[-5.713,-16.0051],[-5.713,-16.005],[-5.7132,-16.0049],[-5.7133,-16.0048],[-5.7134,-16.0048],[-5.7135,-16.0047],[-5.7136,-16.0046],[-5.7137,-16.0044],[-5.7136,-16.0041],[-5.7138,-16.0039],[-5.714,-16.0039],[-5.7142,-16.0039],[-5.7144,-16.0039],[-5.7146,-16.004],[-5.7148,-16.0042],[-5.7149,-16.0044],[-5.7151,-16.0047],[-5.715,-16.0051],[-5.7148,-16.0053],[-5.7149,-16.0054],[-5.715,-16.0054],[-5.7151,-16.0058],[-5.7151,-16.0059],[-5.715,-16.0059],[-5.715,-16.0062],[-5.7146,-16.0062],[-5.7143,-16.0064],[-5.7142,-16.0065],[-5.7141,-16.0065],[-5.7141,-16.0066],[-5.7139,-16.0068],[-5.7141,-16.0071],[-5.714,-16.0072],[-5.7138,-16.0071],[-5.7135,-16.007],[-5.7134,-16.007],[-5.7133,-16.0069],[-5.7132,-16.0069],[-5.713,-16.0069],[-5.7129,-16.007],[-5.7129,-16.0071],[-5.7128,-16.007],[-5.7127,-16.0071],[-5.7127,-16.0073],[-5.7129,-16.0075],[-5.7132,-16.0078],[-5.7135,-16.0079],[-5.7136,-16.0078],[-5.7138,-16.0079],[-5.714,-16.0081],[-5.714,-16.0083],[-5.7141,-16.0083],[-5.7142,-16.0085],[-5.7141,-16.0084],[-5.7141,-16.0085],[-5.7142,-16.0086],[-5.7143,-16.0089],[-5.7144,-16.009],[-5.7143,-16.0091],[-5.7145,-16.0092],[-5.7146,-16.0093],[-5.7147,-16.0093],[-5.7148,-16.0094],[-5.7149,-16.0095],[-5.715,-16.0095],[-5.7152,-16.0095],[-5.7153,-16.0095],[-5.716,-16.0096],[-5.7162,-16.0096],[-5.7166,-16.0097],[-5.7166,-16.0098],[-5.717,-16.0099],[-5.717,-16.0098],[-5.717,-16.0096],[-5.717,-16.0095],[-5.7169,-16.0094],[-5.717,-16.0093],[-5.717,-16.009],[-5.7169,-16.0089],[-5.7169,-16.0088],[-5.7171,-16.0088],[-5.7173,-16.0088],[-5.7174,-16.0088],[-5.7174,-16.009],[-5.7177,-16.0092],[-5.7179,-16.0093],[-5.718,-16.0092],[-5.7182,-16.0092],[-5.7186,-16.0092],[-5.7187,-16.0093],[-5.7189,-16.0097],[-5.719,-16.0098],[-5.7191,-16.0099],[-5.7193,-16.01],[-5.7193,-16.0101],[-5.7195,-16.0102],[-5.7197,-16.0101],[-5.7199,-16.0095],[-5.72,-16.0093],[-5.7202,-16.0091],[-5.7204,-16.0089],[-5.7207,-16.0087],[-5.7207,-16.009],[-5.7209,-16.0093],[-5.7208,-16.0095],[-5.7208,-16.0097],[-5.7209,-16.0098],[-5.721,-16.0099],[-5.7211,-16.01],[-5.7212,-16.0102],[-5.7212,-16.0103],[-5.7212,-16.0106],[-5.7213,-16.011],[-5.7214,-16.0111],[-5.7216,-16.0111],[-5.7217,-16.0111],[-5.7217,-16.0109],[-5.7219,-16.011],[-5.7219,-16.0111],[-5.7221,-16.0111],[-5.7221,-16.0112],[-5.7223,-16.0113],[-5.7224,-16.0114],[-5.7224,-16.0115],[-5.7224,-16.0116],[-5.7222,-16.0115],[-5.7221,-16.0116],[-5.7221,-16.0118],[-5.7221,-16.0121],[-5.7222,-16.0122],[-5.7221,-16.0124],[-5.7222,-16.0125],[-5.7221,-16.0125],[-5.7222,-16.0126],[-5.7223,-16.0127],[-5.7224,-16.0129],[-5.7223,-16.013],[-5.7224,-16.013],[-5.7225,-16.0132],[-5.7227,-16.0132],[-5.7228,-16.013],[-5.7231,-16.0131],[-5.7232,-16.0129],[-5.7233,-16.0128],[-5.7235,-16.013],[-5.7236,-16.0132],[-5.7237,-16.0133],[-5.7237,-16.0131],[-5.7239,-16.0129],[-5.7239,-16.013],[-5.7239,-16.0132],[-5.724,-16.0133],[-5.724,-16.0135],[-5.724,-16.0137],[-5.7241,-16.0138],[-5.7242,-16.0137],[-5.7246,-16.0134],[-5.7248,-16.0135],[-5.725,-16.0134],[-5.7253,-16.0135],[-5.7254,-16.0134],[-5.7255,-16.0132],[-5.7256,-16.0134],[-5.7258,-16.0136],[-5.726,-16.0137],[-5.7261,-16.0139],[-5.7262,-16.014],[-5.7263,-16.0141],[-5.7265,-16.0142],[-5.7265,-16.0144],[-5.7268,-16.0146],[-5.7268,-16.0147],[-5.7269,-16.0146],[-5.727,-16.0146],[-5.7272,-16.0146]]]},"properties":{"name":"Sandy Bay","id":"SH-HL-SB","CNTRY":"Saint Helena, Ascension and Tristan da Cunha","ADMIN":"Saint Helena","TYPE":"District"},"id":"SH-HL-SB"},
{"type":"Feature","geometry":{"type":"Polygon","coordinates":[[[-5.7054,-15.9655],[-5.7053,-15.9657],[-5.7052,-15.966],[-5.7053,-15.9662],[-5.7053,-15.9666],[-5.7055,-15.9678],[-5.7056,-15.9687],[-5.7059,-15.9706],[-5.7062,-15.9706],[-5.7072,-15.9707],[-5.7079,-15.9708],[-5.709,-15.9708],[-5.7099,-15.9708],[-5.7108,-15.9708],[-5.7124,-15.9708],[-5.7132,-15.9708],[-5.7137,-15.9708],[-5.7141,-15.9709],[-5.7146,-15.9709],[-5.7149,-15.971],[-5.7151,-15.9711],[-5.7153,-15.9712],[-5.7155,-15.9713],[-5.7157,-15.9715],[-5.7158,-15.9717],[-5.716,-15.9719],[-5.7163,-15.9723],[-5.7165,-15.9726],[-5.7166,-15.9727],[-5.7168,-15.9728],[-5.7169,-15.9728],[-5.7172,-15.9729],[-5.7174,-15.9728],[-5.7176,-15.9728],[-5.7179,-15.9726],[-5.7182,-15.9723],[-5.7187,-15.972],[-5.7191,-15.9718],[-5.7195,-15.9716],[-5.7197,-15.9715],[-5.7201,-15.9713],[-5.7206,-15.9712],[-5.7212,-15.971],[-5.7218,-15.9709],[-5.7221,-15.9709],[-5.7227,-15.9709],[-5.723,-15.9709],[-5.7236,-15.971],[-5.7239,-15.9711],[-5.7243,-15.9712],[-5.7246,-15.9713],[-5.7251,-15.9715],[-5.7255,-15.9716],[-5.7256,-15.9721],[-5.7257,-15.972],[-5.7259,-15.9719],[-5.726,-15.9718],[-5.7263,-15.9716],[-5.7266,-15.9713],[-5.7268,-15.9711],[-5.727,-15.971],[-5.7273,-15.9709],[-5.7275,-15.9708],[-5.7277,-15.9708],[-5.7282,-15.9707],[-5.7285,-15.9708],[-5.7289,-15.9709],[-5.7294,-15.971],[-5.7298,-15.9711],[-5.7302,-15.9712],[-5.7304,-15.9712],[-5.7308,-15.9713],[-5.7311,-15.9712],[-5.7315,-15.9712],[-5.7319,-15.9711],[-5.7321,-15.971],[-5.7325,-15.9708],[-5.733,-15.9704],[-5.7334,-15.97],[-5.7336,-15.9698],[-5.7341,-15.9693],[-5.7345,-15.9688],[-5.7348,-15.9684],[-5.7351,-15.9679],[-5.7354,-15.9675],[-5.7355,-15.9673],[-5.7358,-15.967],[-5.736,-15.9667],[-5.7362,-15.9665],[-5.7365,-15.9662],[-5.737,-15.9659],[-5.7375,-15.9655],[-5.7378,-15.9653],[-5.7381,-15.965],[-5.7383,-15.9648],[-5.7387,-15.9644],[-5.7388,-15.9642],[-5.739,-15.9639],[-5.7392,-15.9636],[-5.7393,-15.9634],[-5.7394,-15.9631],[-5.7395,-15.9627],[-5.7397,-15.9621],[-5.7399,-15.9615],[-5.7401,-15.9604],[-5.7402,-15.9597],[-5.7403,-15.9594],[-5.7405,-15.959],[-5.7406,-15.9587],[-5.7407,-15.9583],[-5.7408,-15.9579],[-5.7409,-15.9577],[-5.7409,-15.9572],[-5.741,-15.9568],[-5.741,-15.9564],[-5.741,-15.9561],[-5.741,-15.9556],[-5.7409,-15.955],[-5.7408,-15.9546],[-5.7408,-15.9543],[-5.7406,-15.9538],[-5.7406,-15.9535],[-5.7405,-15.9533],[-5.7403,-15.9529],[-5.7401,-15.9526],[-5.74,-15.9524],[-5.7398,-15.9522],[-5.7396,-15.952],[-5.7394,-15.9517],[-5.7393,-15.9515],[-5.7391,-15.9511],[-5.739,-15.9507],[-5.739,-15.9504],[-5.7389,-15.9501],[-5.7388,-15.9497],[-5.7388,-15.9491],[-5.7395,-15.9464],[-5.7399,-15.946],[-5.7401,-15.9457],[-5.7403,-15.9454],[-5.7404,-15.9452],[-5.7404,-15.9449],[-5.7403,-15.9447],[-5.7402,-15.9445],[-5.7401,-15.9443],[-5.7401,-15.9441],[-5.74,-15.9439],[-5.7401,-15.9436],[-5.7404,-15.943],[-5.7405,-15.9428],[-5.7405,-15.9424],[-5.7406,-15.942],[-5.7407,-15.9413],[-5.7408,-15.9412],[-5.7409,-15.9413],[-5.7411,-15.9413],[-5.7412,-15.9413],[-5.7414,-15.9412],[-5.7416,-15.9411],[-5.7414,-15.941],[-5.7413,-15.941],[-5.741,-15.9407],[-5.7411,-15.9406],[-5.741,-15.9404],[-5.7407,-15.9401],[-5.7406,-15.9401],[-5.7405,-15.94],[-5.7402,-15.9399],[-5.7401,-15.9398],[-5.7402,-15.9397],[-5.7401,-15.9396],[-5.7396,-15.9394],[-5.7396,-15.9393],[-5.7397,-15.9391],[-5.7398,-15.939],[-5.7398,-15.9388],[-5.7399,-15.9388],[-5.7399,-15.9386],[-5.7396,-15.9387],[-5.7394,-15.9389],[-5.7394,-15.939],[-5.7391,-15.9391],[-5.739,-15.939],[-5.7386,-15.9389],[-5.7385,-15.9389],[-5.7383,-15.9389],[-5.7381,-15.9388],[-5.738,-15.9387],[-5.738,-15.9386],[-5.7378,-15.9382],[-5.7377,-15.938],[-5.7377,-15.9377],[-5.7375,-15.9375],[-5.7375,-15.9374],[-5.7373,-15.9371],[-5.7371,-15.937],[-5.7372,-15.9369],[-5.7373,-15.9368],[-5.7372,-15.9367],[-5.7371,-15.9367],[-5.737,-15.9366],[-5.7369,-15.9364],[-5.7368,-15.9363],[-5.7369,-15.9363],[-5.7368,-15.9362],[-5.7369,-15.936],[-5.7368,-15.9358],[-5.7367,-15.9358],[-5.7366,-15.9357],[-5.7366,-15.9356],[-5.7367,-15.9356],[-5.7367,-15.9355],[-5.7366,-15.9353],[-5.7365,-15.9355],[-5.7363,-15.9354],[-5.7362,-15.9354],[-5.7362,-15.9356],[-5.7358,-15.9356],[-5.7358,-15.9353],[-5.7356,-15.9354],[-5.7354,-15.9355],[-5.7353,-15.9355],[-5.7352,-15.9354],[-5.735,-15.9353],[-5.7349,-15.9354],[-5.7348,-15.9353],[-5.7346,-15.9352],[-5.7344,-15.9352],[-5.7341,-15.935],[-5.7341,-15.9349],[-5.7342,-15.9347],[-5.7342,-15.9346],[-5.7341,-15.9344],[-5.7339,-15.9343],[-5.7338,-15.9343],[-5.7338,-15.9341],[-5.7337,-15.9341],[-5.7336,-15.934],[-5.7334,-15.934],[-5.7333,-15.9338],[-5.7332,-15.9338],[-5.733,-15.9337],[-5.733,-15.9336],[-5.7331,-15.9335],[-5.733,-15.9334],[-5.7329,-15.9332],[-5.7328,-15.9331],[-5.7328,-15.933],[-5.7326,-15.9328],[-5.7327,-15.9328],[-5.7326,-15.9325],[-5.7326,-15.9324],[-5.7325,-15.9323],[-5.7324,-15.9323],[-5.7323,-15.9323],[-5.7323,-15.9322],[-5.7323,-15.932],[-5.7322,-15.932],[-5.7322,-15.9318],[-5.7321,-15.9317],[-5.732,-15.9318],[-5.732,-15.9317],[-5.7319,-15.9316],[-5.7318,-15.9315],[-5.7317,-15.9315],[-5.7316,-15.9314],[-5.7314,-15.9314],[-5.7311,-15.9313],[-5.7311,-15.9311],[-5.731,-15.931],[-5.7309,-15.9309],[-5.7308,-15.9309],[-5.7308,-15.9308],[-5.7308,-15.9307],[-5.7306,-15.9305],[-5.7304,-15.9304],[-5.7302,-15.9303],[-5.7303,-15.9302],[-5.7302,-15.9301],[-5.7301,-15.9301],[-5.7301,-15.9299],[-5.73,-15.9298],[-5.7299,-15.9299],[-5.7298,-15.9298],[-5.7299,-15.9297],[-5.7298,-15.9296],[-5.7297,-15.9296],[-5.7296,-15.9293],[-5.7296,-15.9292],[-5.7296,-15.9291],[-5.7295,-15.9291],[-5.7294,-15.9291],[-5.7293,-15.929],[-5.7293,-15.9289],[-5.7293,-15.9288],[-5.7291,-15.9286],[-5.729,-15.9286],[-5.7288,-15.9288],[-5.7287,-15.9289],[-5.7286,-15.929],[-5.7284,-15.9289],[-5.7282,-15.9288],[-5.7283,-15.9286],[-5.7282,-15.9285],[-5.728,-15.9285],[-5.7278,-15.9287],[-5.7277,-15.9288],[-5.7275,-15.9288],[-5.7274,-15.9287],[-5.7273,-15.9289],[-5.7272,-15.9294],[-5.7271,-15.9297],[-5.727,-15.9299],[-5.7267,-15.9304],[-5.7264,-15.931],[-5.7262,-15.9312],[-5.726,-15.9317],[-5.726,-15.9319],[-5.7259,-15.9321],[-5.7258,-15.9325],[-5.7255,-15.933],[-5.7252,-15.9336],[-5.7249,-15.9341],[-5.7245,-15.9347],[-5.7242,-15.9354],[-5.7239,-15.9359],[-5.7235,-15.9366],[-5.7231,-15.9374],[-5.7229,-15.938],[-5.7228,-15.9383],[-5.7227,-15.9386],[-5.7226,-15.9391],[-5.7225,-15.9396],[-5.7225,-15.94],[-5.7225,-15.9413],[-5.7225,-15.9418],[-5.7225,-15.9425],[-5.7225,-15.9431],[-5.7224,-15.9433],[-5.7223,-15.9438],[-5.7222,-15.9442],[-5.7221,-15.9445],[-5.7219,-15.9447],[-5.7218,-15.9448],[-5.7216,-15.9447],[-5.7215,-15.9447],[-5.7212,-15.9445],[-5.7208,-15.9442],[-5.7205,-15.944],[-5.7203,-15.9439],[-5.7199,-15.9437],[-5.7197,-15.9437],[-5.7194,-15.9436],[-5.7191,-15.9436],[-5.7188,-15.9436],[-5.7184,-15.9436],[-5.7176,-15.9436],[-5.7158,-15.9438],[-5.7157,-15.9439],[-5.7153,-15.9446],[-5.7151,-15.945],[-5.7149,-15.9453],[-5.7146,-15.9456],[-5.7144,-15.9458],[-5.7142,-15.946],[-5.7138,-15.9462],[-5.7136,-15.9464],[-5.7134,-15.9466],[-5.7133,-15.9467],[-5.7132,-15.9471],[-5.7132,-15.9473],[-5.7132,-15.9477],[-5.7132,-15.9479],[-5.7131,-15.9482],[-5.7131,-15.9485],[-5.713,-15.949],[-5.7127,-15.9496],[-5.7125,-15.9501],[-5.7124,-15.9504],[-5.7123,-15.9509],[-5.7122,-15.9514],[-5.7122,-15.9518],[-5.7122,-15.9524],[-5.7122,-15.9527],[-5.7121,-15.9534],[-5.7121,-15.9538],[-5.712,-15.9542],[-5.7119,-15.9547],[-5.7118,-15.9549],[-5.7117,-15.9553],[-5.7116,-15.9558],[-5.7116,-15.9562],[-5.7116,-15.9565],[-5.7115,-15.957],[-5.7114,-15.9579],[-5.7113,-15.9583],[-5.711,-15.9594],[-5.7109,-15.9602],[-5.7108,-15.9606],[-5.7108,-15.9612],[-5.7107,-15.9613],[-5.7106,-15.9614],[-5.7105,-15.9615],[-5.7103,-15.9615],[-5.7099,-15.9613],[-5.7097,-15.961],[-5.7095,-15.9608],[-5.7091,-15.9603],[-5.7089,-15.9601],[-5.7087,-15.9598],[-5.7086,-15.9598],[-5.7083,-15.9599],[-5.7082,-15.96],[-5.7081,-15.9601],[-5.7079,-15.9605],[-5.7079,-15.9607],[-5.7078,-15.9609],[-5.7077,-15.9612],[-5.7075,-15.9616],[-5.7073,-15.9619],[-5.7068,-15.9626],[-5.7066,-15.963],[-5.7064,-15.9633],[-5.7063,-15.9635],[-5.7061,-15.9639],[-5.706,-15.9642],[-5.706,-15.9643],[-5.706,-15.9646],[-5.7059,-15.9649],[-5.7058,-15.965],[-5.7058,-15.9652],[-5.7056,-15.9653],[-5.7054,-15.9655]]]},"properties":{"name":"St. Paul's","id":"SH-HL-SP","CNTRY":"Saint Helena, Ascension and Tristan da Cunha","ADMIN":"Saint Helena","TYPE":"District"},"id":"SH-HL-SP"}
]}