{"type":"FeatureCollection", "features": [
{"type":"Feature","geometry":{"type":"Polygon","coordinates":[[[-171.904,-13.952],[-171.909,-13.9516],[-171.914,-13.9547],[-171.9171,-13.959],[-171.9193,-13.9648],[-171.9214,-13.9654],[-171.9237,-13.9838],[-171.9265,-13.9952],[-171.9288,-13.9941],[-171.9294,-13.9925],[-171.9314,-13.99],[-171.9339,-13.9881],[-171.9369,-13.9892],[-171.9406,-13.9875],[-171.9433,-13.9852],[-171.9458,-13.9817],[-171.9477,-13.981],[-171.9497,-13.9786],[-171.9503,-13.9758],[-171.952,-13.9742],[-171.9508,-13.9719],[-171.9517,-13.9692],[-171.9581,-13.9631],[-171.9594,-13.9594],[-171.9597,-13.955],[-171.9614,-13.9511],[-171.9608,-13.9494],[-171.9614,-13.9478],[-171.9653,-13.9431],[-171.9692,-13.9406],[-171.9714,-13.9378],[-171.9719,-13.9356],[-171.9731,-13.9344],[-171.9753,-13.9339],[-171.9764,-13.9352],[-171.9797,-13.9369],[-171.9783,-13.9433],[-171.9759,-13.9453],[-171.9765,-13.9468],[-171.9794,-13.9472],[-171.9809,-13.9496],[-171.9836,-13.9514],[-171.9848,-13.9529],[-171.9862,-13.9514],[-171.9886,-13.9519],[-171.9906,-13.9481],[-171.9917,-13.9469],[-171.9897,-13.9444],[-171.9895,-13.9416],[-171.99,-13.9405],[-171.9942,-13.9389],[-171.9942,-13.9361],[-171.9961,-13.935],[-171.9981,-13.935],[-172.0008,-13.9362],[-172.0036,-13.936],[-172.0043,-13.9349],[-172.0032,-13.9324],[-172.0037,-13.9301],[-172.0066,-13.9287],[-172.0094,-13.9288],[-172.0111,-13.9275],[-172.0106,-13.9251],[-172.0129,-13.9207],[-172.0185,-13.9204],[-172.0212,-13.9169],[-172.0325,-13.9111],[-172.0358,-13.9103],[-172.0381,-13.9078],[-172.0414,-13.9081],[-172.045,-13.9072],[-172.0464,-13.9061],[-172.0544,-13.9033],[-172.0592,-13.8989],[-172.0616,-13.8956],[-172.0507,-13.8837],[-172.0355,-13.885],[-172.027,-13.8762],[-172.0087,-13.8748],[-172.0121,-13.8718],[-172.0248,-13.8562],[-172.0347,-13.8297],[-172.0289,-13.8253],[-172.0264,-13.825],[-172.0225,-13.8253],[-172.0186,-13.8239],[-172.0155,-13.8264],[-172.0122,-13.8278],[-172.0108,-13.8289],[-172,-13.8292],[-171.9978,-13.8286],[-171.9944,-13.8289],[-171.9931,-13.8283],[-171.9903,-13.8289],[-171.9856,-13.8283],[-171.9842,-13.8275],[-171.9821,-13.8274],[-171.9806,-13.8281],[-171.9787,-13.8275],[-171.9756,-13.8278],[-171.9731,-13.8275],[-171.9719,-13.8283],[-171.9686,-13.8272],[-171.9639,-13.8247],[-171.9603,-13.8208],[-171.9581,-13.8203],[-171.955,-13.8169],[-171.9528,-13.8153],[-171.9508,-13.8156],[-171.9456,-13.8144],[-171.9428,-13.8122],[-171.9414,-13.8097],[-171.9358,-13.8103],[-171.9311,-13.8089],[-171.9286,-13.8064],[-171.9275,-13.8067],[-171.9236,-13.8053],[-171.9214,-13.8039],[-171.9153,-13.8345],[-171.9052,-13.8496],[-171.91,-13.8913],[-171.9059,-13.8969],[-171.9008,-13.902],[-171.8948,-13.9014],[-171.8898,-13.9068],[-171.904,-13.952]]]},"properties":{"name":"A'ana","id":"WS-AA","CNTRY":"Samoa","TYPE":"Itumalo","TYPE_ENG":"District"},"id":"WS-AA"},
{"type":"Feature","geometry":{"type":"MultiPolygon","coordinates":[[[[-172.1035,-13.8461],[-172.1009,-13.8508],[-172.1017,-13.855],[-172.1047,-13.8587],[-172.1046,-13.8609],[-172.1054,-13.8616],[-172.1073,-13.8598],[-172.1099,-13.8584],[-172.1116,-13.8581],[-172.1161,-13.8555],[-172.1177,-13.8532],[-172.1178,-13.8494],[-172.1186,-13.8477],[-172.1201,-13.8465],[-172.1222,-13.8468],[-172.1226,-13.8449],[-172.1216,-13.8442],[-172.1148,-13.8423],[-172.1131,-13.8422],[-172.1081,-13.8404],[-172.1055,-13.8426],[-172.1053,-13.8444],[-172.1035,-13.8461]]],[[[-172.1493,-13.8182],[-172.1459,-13.8208],[-172.1458,-13.8242],[-172.1474,-13.8272],[-172.1509,-13.8297],[-172.1523,-13.8297],[-172.1561,-13.8273],[-172.1566,-13.8242],[-172.1554,-13.8216],[-172.1553,-13.8198],[-172.1544,-13.8188],[-172.1493,-13.8182]]],[[[-172.0616,-13.8956],[-172.0661,-13.8936],[-172.0669,-13.8908],[-172.0661,-13.8889],[-172.0664,-13.8875],[-172.0656,-13.885],[-172.0678,-13.8814],[-172.0692,-13.8769],[-172.0722,-13.8739],[-172.0719,-13.8683],[-172.0732,-13.8659],[-172.0703,-13.8647],[-172.0686,-13.8631],[-172.061,-13.8772],[-172.0571,-13.8797],[-172.0493,-13.8769],[-172.0534,-13.8719],[-172.0472,-13.8645],[-172.059,-13.8532],[-172.0575,-13.8506],[-172.0542,-13.8481],[-172.0486,-13.8453],[-172.0478,-13.8453],[-172.0428,-13.8408],[-172.0419,-13.8372],[-172.0403,-13.8344],[-172.0381,-13.8319],[-172.0367,-13.8294],[-172.0347,-13.8297],[-172.0248,-13.8562],[-172.0121,-13.8718],[-172.0087,-13.8748],[-172.027,-13.8762],[-172.0355,-13.885],[-172.0507,-13.8837],[-172.0616,-13.8956]]]]},"properties":{"name":"Aiga-i-le-Tai","id":"WS-AL","CNTRY":"Samoa","TYPE":"Itumalo","TYPE_ENG":"District"},"id":"WS-AL"},
{"type":"Feature","geometry":{"type":"MultiPolygon","coordinates":[[[[-171.3985,-14.0165],[-171.4,-14.0163],[-171.4012,-14.0149],[-171.4011,-14.0128],[-171.3994,-14.0117],[-171.3981,-14.0128],[-171.3996,-14.0142],[-171.3985,-14.0165]]],[[[-171.4079,-14.0716],[-171.4079,-14.0746],[-171.4055,-14.0758],[-171.4058,-14.0772],[-171.4087,-14.076],[-171.4101,-14.0761],[-171.4112,-14.0749],[-171.4144,-14.0731],[-171.4106,-14.0697],[-171.4086,-14.0703],[-171.4079,-14.0716]]],[[[-171.4144,-14.0261],[-171.4164,-14.0255],[-171.4175,-14.0233],[-171.4176,-14.0212],[-171.4167,-14.0194],[-171.4142,-14.0181],[-171.4144,-14.0261]]],[[[-171.5936,-13.8733],[-171.5972,-13.8871],[-171.601,-13.8942],[-171.6029,-13.9022],[-171.6037,-13.9118],[-171.6004,-13.914],[-171.5971,-13.9131],[-171.5945,-13.9073],[-171.5942,-13.9004],[-171.5894,-13.8873],[-171.5891,-13.8814],[-171.5869,-13.8789],[-171.5846,-13.8778],[-171.5831,-13.8792],[-171.5836,-13.8806],[-171.5858,-13.8833],[-171.5867,-13.8858],[-171.5858,-13.8886],[-171.5861,-13.8903],[-171.5847,-13.8914],[-171.5817,-13.8919],[-171.5794,-13.8917],[-171.5775,-13.89],[-171.5756,-13.8911],[-171.5736,-13.8903],[-171.5731,-13.8883],[-171.5708,-13.8867],[-171.5694,-13.8881],[-171.5697,-13.8922],[-171.5704,-13.8949],[-171.5663,-13.8952],[-171.5659,-13.9018],[-171.5639,-13.9019],[-171.5611,-13.9],[-171.5603,-13.9006],[-171.5634,-13.9068],[-171.5631,-13.9094],[-171.56,-13.9112],[-171.5549,-13.9114],[-171.5534,-13.9104],[-171.5533,-13.909],[-171.5506,-13.9087],[-171.5489,-13.9078],[-171.5473,-13.9085],[-171.5465,-13.9102],[-171.5452,-13.9109],[-171.5444,-13.915],[-171.5421,-13.9133],[-171.54,-13.9139],[-171.5381,-13.9127],[-171.5372,-13.9134],[-171.5377,-13.9173],[-171.5395,-13.9199],[-171.5474,-13.9259],[-171.5562,-13.9263],[-171.5629,-13.9258],[-171.5918,-13.9532],[-171.5915,-13.957],[-171.5777,-13.9673],[-171.5734,-13.9694],[-171.5678,-13.9695],[-171.5633,-13.957],[-171.5524,-13.9572],[-171.5383,-13.9604],[-171.5273,-13.9714],[-171.5133,-13.9711],[-171.5104,-13.9722],[-171.5052,-13.977],[-171.5007,-13.977],[-171.4803,-13.9579],[-171.4803,-13.9597],[-171.4774,-13.9618],[-171.4753,-13.9617],[-171.4739,-13.9628],[-171.4742,-13.9647],[-171.4733,-13.9661],[-171.4705,-13.9656],[-171.4689,-13.9678],[-171.4703,-13.9692],[-171.4697,-13.9708],[-171.47,-13.9736],[-171.468,-13.9758],[-171.4658,-13.9758],[-171.4636,-13.9775],[-171.4606,-13.9778],[-171.4592,-13.9756],[-171.4574,-13.9762],[-171.4563,-13.9788],[-171.455,-13.9789],[-171.4536,-13.9769],[-171.4541,-13.9744],[-171.4538,-13.9729],[-171.4475,-13.9742],[-171.4464,-13.9739],[-171.4436,-13.9753],[-171.4408,-13.9758],[-171.439,-13.9803],[-171.4395,-13.9825],[-171.4381,-13.983],[-171.4361,-13.985],[-171.438,-13.9869],[-171.4378,-13.9883],[-171.4361,-13.9892],[-171.435,-13.9883],[-171.4336,-13.9888],[-171.4333,-13.9911],[-171.4308,-13.9933],[-171.4278,-13.9953],[-171.4278,-13.9975],[-171.4258,-14.0006],[-171.4253,-14.0022],[-171.4238,-14.0041],[-171.4248,-14.0072],[-171.4247,-14.0112],[-171.4236,-14.0142],[-171.4239,-14.0203],[-171.4258,-14.0239],[-171.4281,-14.0258],[-171.4308,-14.0306],[-171.4319,-14.0317],[-171.4333,-14.0344],[-171.4346,-14.0397],[-171.4358,-14.0411],[-171.4361,-14.0428],[-171.4372,-14.0442],[-171.4369,-14.0472],[-171.4373,-14.0489],[-171.4396,-14.0479],[-171.4414,-14.0478],[-171.4444,-14.0464],[-171.455,-14.0464],[-171.4567,-14.0453],[-171.4603,-14.0447],[-171.4644,-14.0449],[-171.4675,-14.0469],[-171.4695,-14.0447],[-171.4726,-14.0436],[-171.4787,-14.0422],[-171.4896,-14.0406],[-171.4941,-14.0408],[-171.4968,-14.0417],[-171.5018,-14.0425],[-171.5079,-14.043],[-171.5096,-14.0422],[-171.5125,-14.0422],[-171.5147,-14.0417],[-171.5181,-14.0417],[-171.5208,-14.0426],[-171.5275,-14.0401],[-171.5316,-14.0413],[-171.5356,-14.0433],[-171.5375,-14.0446],[-171.5403,-14.0453],[-171.543,-14.0444],[-171.5447,-14.0455],[-171.5469,-14.0435],[-171.5511,-14.0439],[-171.5535,-14.0447],[-171.5553,-14.0446],[-171.5567,-14.0455],[-171.5591,-14.0451],[-171.5597,-14.046],[-171.5619,-14.0458],[-171.5636,-14.0442],[-171.5667,-14.0447],[-171.5726,-14.0451],[-171.5784,-14.0447],[-171.5811,-14.0464],[-171.5844,-14.0456],[-171.585,-14.0438],[-171.5863,-14.0431],[-171.5907,-14.0428],[-171.594,-14.0433],[-171.6049,-14.0416],[-171.6075,-14.0403],[-171.61,-14.0367],[-171.613,-14.0362],[-171.6152,-14.0346],[-171.6215,-14.0372],[-171.6253,-14.0383],[-171.6261,-14.0381],[-171.6314,-14.0391],[-171.6358,-14.0392],[-171.64,-14.0405],[-171.6422,-14.0406],[-171.6484,-14.0423],[-171.6508,-14.0435],[-171.654,-14.0441],[-171.6556,-14.0425],[-171.6608,-14.0408],[-171.671,-14.0408],[-171.6775,-14.0394],[-171.6789,-14.0386],[-171.6808,-14.0364],[-171.6835,-14.0356],[-171.6858,-14.0356],[-171.6883,-14.0323],[-171.6941,-14.0295],[-171.7003,-14.0295],[-171.7021,-14.0301],[-171.7033,-14.0322],[-171.703,-14.0336],[-171.7042,-14.035],[-171.7077,-14.0344],[-171.7134,-14.0359],[-171.7145,-14.0354],[-171.7168,-14.0362],[-171.7189,-14.0389],[-171.7218,-14.0405],[-171.7218,-13.938],[-171.7138,-13.9251],[-171.7031,-13.9008],[-171.6992,-13.8908],[-171.6956,-13.8742],[-171.6963,-13.8636],[-171.6955,-13.8614],[-171.6911,-13.8629],[-171.6847,-13.8636],[-171.6826,-13.8621],[-171.6805,-13.8618],[-171.6772,-13.8625],[-171.6744,-13.8617],[-171.6669,-13.8617],[-171.6657,-13.8604],[-171.6638,-13.8647],[-171.6617,-13.8661],[-171.6593,-13.8668],[-171.6553,-13.8713],[-171.6531,-13.8728],[-171.6506,-13.8733],[-171.6486,-13.8755],[-171.645,-13.8753],[-171.6407,-13.8719],[-171.6367,-13.8728],[-171.6358,-13.8733],[-171.6339,-13.8725],[-171.6311,-13.8737],[-171.6297,-13.8753],[-171.6295,-13.8777],[-171.6267,-13.8796],[-171.6261,-13.8819],[-171.6239,-13.8842],[-171.6203,-13.8844],[-171.6175,-13.8819],[-171.6164,-13.8803],[-171.6144,-13.8797],[-171.6119,-13.8778],[-171.6095,-13.875],[-171.6083,-13.8731],[-171.6061,-13.8717],[-171.6044,-13.8736],[-171.6011,-13.8739],[-171.5992,-13.8728],[-171.5969,-13.8728],[-171.5955,-13.8736],[-171.5936,-13.8733]]],[[[-171.422,-14.0578],[-171.4181,-14.0589],[-171.4175,-14.06],[-171.4197,-14.0614],[-171.4195,-14.0629],[-171.4182,-14.0645],[-171.4159,-14.0647],[-171.4177,-14.0687],[-171.4203,-14.0694],[-171.4244,-14.0687],[-171.4272,-14.0653],[-171.4293,-14.0634],[-171.4284,-14.0612],[-171.4286,-14.0597],[-171.4276,-14.0583],[-171.4244,-14.0583],[-171.422,-14.0578]]]]},"properties":{"name":"Atua","id":"WS-AT","CNTRY":"Samoa","TYPE":"Itumalo","TYPE_ENG":"District"},"id":"WS-AT"},
{"type":"Feature","geometry":{"type":"Polygon","coordinates":[[[-172.2205,-13.7946],[-172.2488,-13.7572],[-172.2535,-13.7453],[-172.2656,-13.7438],[-172.3392,-13.6321],[-172.3006,-13.5541],[-172.2351,-13.5546],[-172.2317,-13.5564],[-172.2283,-13.5572],[-172.2267,-13.5594],[-172.2264,-13.5622],[-172.2275,-13.5647],[-172.2275,-13.5672],[-172.2267,-13.5697],[-172.2186,-13.5753],[-172.2153,-13.5761],[-172.2114,-13.5778],[-172.209,-13.5813],[-172.2109,-13.5834],[-172.2132,-13.5829],[-172.214,-13.5837],[-172.2108,-13.5882],[-172.2067,-13.5921],[-172.2047,-13.595],[-172.2047,-13.5978],[-172.2033,-13.6003],[-172.203,-13.6031],[-172.2014,-13.6061],[-172.2,-13.6136],[-172.1981,-13.6172],[-172.1976,-13.6205],[-172.1964,-13.6206],[-172.194,-13.6228],[-172.1943,-13.6246],[-172.1958,-13.6271],[-172.1957,-13.6284],[-172.197,-13.6296],[-172.1974,-13.632],[-172.195,-13.6348],[-172.1919,-13.6372],[-172.1919,-13.6404],[-172.1904,-13.6424],[-172.1883,-13.6436],[-172.1882,-13.648],[-172.1868,-13.6524],[-172.1811,-13.6621],[-172.1781,-13.6652],[-172.1753,-13.666],[-172.1737,-13.6678],[-172.1743,-13.6701],[-172.176,-13.671],[-172.1766,-13.6746],[-172.1778,-13.6758],[-172.1792,-13.6784],[-172.1834,-13.6817],[-172.1843,-13.6835],[-172.1887,-13.686],[-172.1891,-13.687],[-172.1917,-13.689],[-172.1929,-13.6893],[-172.1934,-13.6922],[-172.1961,-13.6947],[-172.1971,-13.6965],[-172.1986,-13.6979],[-172.1974,-13.7011],[-172.1998,-13.7034],[-172.203,-13.7054],[-172.2027,-13.7071],[-172.2012,-13.7075],[-172.2007,-13.7097],[-172.2027,-13.7115],[-172.203,-13.7131],[-172.2011,-13.7141],[-172.1989,-13.7142],[-172.196,-13.7174],[-172.1959,-13.7215],[-172.1979,-13.7235],[-172.2024,-13.7256],[-172.2056,-13.7286],[-172.2095,-13.7303],[-172.2115,-13.7321],[-172.2143,-13.7328],[-172.2169,-13.7353],[-172.2197,-13.7364],[-172.2171,-13.7425],[-172.2173,-13.7454],[-172.2208,-13.7483],[-172.2219,-13.751],[-172.2191,-13.7558],[-172.2188,-13.7579],[-172.2135,-13.7645],[-172.2132,-13.7684],[-172.2124,-13.7709],[-172.2126,-13.7752],[-172.2114,-13.7782],[-172.2116,-13.7803],[-172.2133,-13.7817],[-172.2141,-13.7835],[-172.2128,-13.787],[-172.2136,-13.7905],[-172.2146,-13.7918],[-172.2192,-13.7937],[-172.2205,-13.7946]]]},"properties":{"name":"Fa'asaleleaga","id":"WS-FA","CNTRY":"Samoa","TYPE":"Itumalo","TYPE_ENG":"District"},"id":"WS-FA"},
{"type":"Feature","geometry":{"type":"MultiPolygon","coordinates":[[[[-172.2351,-13.5546],[-172.3006,-13.5541],[-172.3392,-13.6321],[-172.3707,-13.6291],[-172.3904,-13.6273],[-172.4163,-13.625],[-172.4127,-13.6131],[-172.3705,-13.4486],[-172.3642,-13.4493],[-172.3633,-13.449],[-172.3609,-13.444],[-172.3589,-13.4431],[-172.357,-13.4398],[-172.354,-13.44],[-172.3515,-13.4411],[-172.3462,-13.4421],[-172.3414,-13.4444],[-172.3403,-13.4456],[-172.3369,-13.4475],[-172.3331,-13.4478],[-172.3303,-13.4494],[-172.328,-13.4492],[-172.3272,-13.4475],[-172.3283,-13.4464],[-172.3333,-13.4439],[-172.336,-13.4439],[-172.3352,-13.4424],[-172.3322,-13.4425],[-172.3258,-13.4458],[-172.3231,-13.4481],[-172.3147,-13.4519],[-172.3057,-13.4593],[-172.3026,-13.465],[-172.2979,-13.47],[-172.2947,-13.4746],[-172.2904,-13.4793],[-172.2869,-13.4871],[-172.2834,-13.4933],[-172.2816,-13.4952],[-172.2781,-13.4977],[-172.2765,-13.4999],[-172.2756,-13.5024],[-172.2735,-13.5051],[-172.2714,-13.5069],[-172.2689,-13.5081],[-172.2661,-13.5078],[-172.2642,-13.5092],[-172.2632,-13.5107],[-172.2636,-13.5137],[-172.2626,-13.5156],[-172.2613,-13.5166],[-172.2616,-13.5181],[-172.2595,-13.5195],[-172.2578,-13.523],[-172.2562,-13.5242],[-172.2541,-13.5269],[-172.2474,-13.5321],[-172.2458,-13.5352],[-172.2381,-13.5434],[-172.2365,-13.5473],[-172.2365,-13.5509],[-172.2351,-13.5546]]],[[[-171.904,-13.952],[-171.9085,-14.0056],[-171.9175,-14.0047],[-171.9191,-14.0031],[-171.9222,-14.0011],[-171.922,-14],[-171.9232,-13.9978],[-171.9265,-13.9952],[-171.9237,-13.9838],[-171.9214,-13.9654],[-171.9193,-13.9648],[-171.9171,-13.959],[-171.914,-13.9547],[-171.909,-13.9516],[-171.904,-13.952]]],[[[-171.8614,-13.7973],[-171.8616,-13.8595],[-171.869,-13.8514],[-171.8695,-13.8231],[-171.8792,-13.8043],[-171.8791,-13.7978],[-171.8767,-13.7967],[-171.8725,-13.7967],[-171.8708,-13.7983],[-171.8686,-13.7972],[-171.8661,-13.7947],[-171.8648,-13.7948],[-171.8636,-13.7967],[-171.8614,-13.7973]]]]},"properties":{"name":"Gaga'emauga","id":"WS-GE","CNTRY":"Samoa","TYPE":"Itumalo","TYPE_ENG":"District"},"id":"WS-GE"},
{"type":"Feature","geometry":{"type":"Polygon","coordinates":[[[-172.3705,-13.4486],[-172.4127,-13.6131],[-172.4163,-13.625],[-172.4577,-13.625],[-172.4605,-13.6211],[-172.4696,-13.6174],[-172.5148,-13.6178],[-172.52,-13.6202],[-172.5257,-13.6197],[-172.5314,-13.6174],[-172.539,-13.6169],[-172.5433,-13.6183],[-172.5476,-13.6188],[-172.5533,-13.6174],[-172.5696,-13.6159],[-172.5993,-13.6053],[-172.6197,-13.5957],[-172.6173,-13.4936],[-172.6123,-13.4919],[-172.609,-13.4922],[-172.6061,-13.4936],[-172.6039,-13.4933],[-172.6022,-13.4924],[-172.5991,-13.4921],[-172.5948,-13.4941],[-172.5908,-13.4949],[-172.5887,-13.4959],[-172.5854,-13.4951],[-172.5808,-13.4902],[-172.5783,-13.4885],[-172.5702,-13.486],[-172.5629,-13.4823],[-172.5533,-13.4811],[-172.5475,-13.4771],[-172.5439,-13.4752],[-172.5413,-13.4746],[-172.5355,-13.4745],[-172.5322,-13.4728],[-172.5277,-13.4731],[-172.5242,-13.4754],[-172.5178,-13.4757],[-172.5135,-13.4772],[-172.5098,-13.4753],[-172.5065,-13.4729],[-172.5048,-13.4723],[-172.5012,-13.4725],[-172.4991,-13.4721],[-172.497,-13.471],[-172.4964,-13.4695],[-172.4941,-13.4679],[-172.4901,-13.4679],[-172.4878,-13.4671],[-172.4834,-13.4623],[-172.482,-13.4615],[-172.4785,-13.461],[-172.4749,-13.4617],[-172.4724,-13.4641],[-172.4674,-13.4672],[-172.4641,-13.4682],[-172.4587,-13.468],[-172.4556,-13.4664],[-172.4542,-13.4662],[-172.4504,-13.4678],[-172.4485,-13.4692],[-172.4448,-13.4678],[-172.4402,-13.4676],[-172.4377,-13.4683],[-172.429,-13.4678],[-172.4247,-13.4681],[-172.422,-13.4669],[-172.4198,-13.465],[-172.4187,-13.4601],[-172.4164,-13.4561],[-172.4156,-13.4534],[-172.4155,-13.4509],[-172.4148,-13.4496],[-172.4113,-13.4506],[-172.4103,-13.4498],[-172.4058,-13.4509],[-172.4007,-13.4497],[-172.395,-13.4475],[-172.3903,-13.4469],[-172.3876,-13.4459],[-172.3852,-13.4467],[-172.3824,-13.4461],[-172.3778,-13.4462],[-172.3744,-13.448],[-172.3705,-13.4486]]]},"properties":{"name":"Gagaifomauga","id":"WS-GI","CNTRY":"Samoa","TYPE":"Itumalo","TYPE_ENG":"District"},"id":"WS-GI"},
{"type":"Feature","geometry":{"type":"MultiPolygon","coordinates":[[[[-172.5696,-13.6159],[-172.5533,-13.6174],[-172.5476,-13.6188],[-172.5433,-13.6183],[-172.539,-13.6169],[-172.5314,-13.6174],[-172.5257,-13.6197],[-172.52,-13.6202],[-172.5148,-13.6178],[-172.4696,-13.6174],[-172.4605,-13.6211],[-172.4577,-13.625],[-172.4163,-13.625],[-172.3904,-13.6273],[-172.3652,-13.7502],[-172.3579,-13.7596],[-172.3587,-13.7735],[-172.3612,-13.7746],[-172.3634,-13.7747],[-172.3666,-13.7734],[-172.3671,-13.7754],[-172.3702,-13.777],[-172.3732,-13.7794],[-172.3748,-13.7794],[-172.3775,-13.7775],[-172.38,-13.7781],[-172.3828,-13.7772],[-172.3857,-13.7783],[-172.3863,-13.7797],[-172.3895,-13.7812],[-172.391,-13.7827],[-172.3938,-13.7835],[-172.3965,-13.7837],[-172.3991,-13.7849],[-172.4015,-13.7845],[-172.4039,-13.7853],[-172.4062,-13.7852],[-172.4084,-13.7846],[-172.4121,-13.7814],[-172.4142,-13.7815],[-172.4166,-13.7828],[-172.4181,-13.7849],[-172.4199,-13.7862],[-172.4222,-13.7859],[-172.4294,-13.7883],[-172.4319,-13.7888],[-172.4357,-13.7889],[-172.4378,-13.7897],[-172.446,-13.7898],[-172.4477,-13.7906],[-172.4511,-13.7944],[-172.4532,-13.7951],[-172.4564,-13.7944],[-172.4651,-13.7881],[-172.4678,-13.7876],[-172.471,-13.7884],[-172.473,-13.7874],[-172.4758,-13.7878],[-172.4779,-13.7906],[-172.4818,-13.7923],[-172.4846,-13.7951],[-172.4888,-13.7977],[-172.4914,-13.7981],[-172.4945,-13.7979],[-172.4982,-13.7986],[-172.5022,-13.7981],[-172.5042,-13.7987],[-172.5082,-13.7987],[-172.5116,-13.7961],[-172.5129,-13.7957],[-172.5139,-13.797],[-172.5147,-13.8002],[-172.5166,-13.8027],[-172.5203,-13.8029],[-172.523,-13.802],[-172.5246,-13.8021],[-172.5278,-13.8038],[-172.5316,-13.8033],[-172.534,-13.8016],[-172.5366,-13.8016],[-172.5397,-13.8005],[-172.5417,-13.7989],[-172.5452,-13.7976],[-172.5475,-13.7959],[-172.5483,-13.7942],[-172.5492,-13.7906],[-172.5513,-13.7882],[-172.5521,-13.7863],[-172.5511,-13.7821],[-172.5524,-13.7784],[-172.5542,-13.7767],[-172.5578,-13.7745],[-172.5614,-13.7736],[-172.5704,-13.7687],[-172.5768,-13.7665],[-172.5788,-13.7639],[-172.579,-13.761],[-172.5809,-13.7594],[-172.5828,-13.7567],[-172.5824,-13.7499],[-172.5833,-13.7469],[-172.5855,-13.7454],[-172.5903,-13.7441],[-172.5925,-13.7419],[-172.5949,-13.7405],[-172.5963,-13.7384],[-172.5967,-13.7332],[-172.5959,-13.7289],[-172.5967,-13.7253],[-172.5969,-13.7213],[-172.5952,-13.7193],[-172.5967,-13.7151],[-172.5994,-13.7109],[-172.5994,-13.7097],[-172.6017,-13.7078],[-172.604,-13.707],[-172.6061,-13.7054],[-172.6081,-13.7051],[-172.6078,-13.7028],[-172.6111,-13.6995],[-172.613,-13.6996],[-172.6134,-13.6982],[-172.6202,-13.6961],[-172.5696,-13.6159]]],[[[-172.3392,-13.6321],[-172.2656,-13.7438],[-172.2535,-13.7453],[-172.2488,-13.7572],[-172.2205,-13.7946],[-172.2214,-13.7974],[-172.2246,-13.801],[-172.2269,-13.8027],[-172.2331,-13.8033],[-172.2364,-13.8026],[-172.2377,-13.8017],[-172.2403,-13.8025],[-172.2433,-13.8042],[-172.2452,-13.8034],[-172.2458,-13.8018],[-172.2476,-13.7997],[-172.2505,-13.7979],[-172.2519,-13.7959],[-172.2559,-13.7954],[-172.259,-13.7976],[-172.2623,-13.7985],[-172.2665,-13.7978],[-172.2697,-13.7962],[-172.2719,-13.7945],[-172.2725,-13.7932],[-172.2725,-13.7897],[-172.2744,-13.7876],[-172.2784,-13.7814],[-172.2826,-13.7788],[-172.2845,-13.7744],[-172.2877,-13.7724],[-172.2883,-13.7705],[-172.2859,-13.7694],[-172.2859,-13.767],[-172.2867,-13.7648],[-172.289,-13.7636],[-172.29,-13.7611],[-172.2892,-13.7598],[-172.2911,-13.7589],[-172.2942,-13.7604],[-172.2956,-13.759],[-172.3001,-13.7603],[-172.3092,-13.7556],[-172.3136,-13.7586],[-172.3172,-13.7602],[-172.3206,-13.7601],[-172.3206,-13.7591],[-172.3349,-13.7229],[-172.3442,-13.7082],[-172.3707,-13.6291],[-172.3392,-13.6321]]]]},"properties":{"name":"Palauli","id":"WS-PA","CNTRY":"Samoa","TYPE":"Itumalo","TYPE_ENG":"District"},"id":"WS-PA"},
{"type":"Feature","geometry":{"type":"MultiPolygon","coordinates":[[[[-172.3587,-13.7735],[-172.3579,-13.7596],[-172.3652,-13.7502],[-172.3904,-13.6273],[-172.3707,-13.6291],[-172.3442,-13.7082],[-172.3349,-13.7229],[-172.3206,-13.7591],[-172.3206,-13.7601],[-172.3227,-13.7614],[-172.3238,-13.7657],[-172.3259,-13.767],[-172.3255,-13.7701],[-172.3259,-13.7726],[-172.327,-13.7744],[-172.3303,-13.7779],[-172.3325,-13.779],[-172.336,-13.7777],[-172.3414,-13.7781],[-172.3446,-13.7788],[-172.349,-13.7782],[-172.3505,-13.7772],[-172.352,-13.7737],[-172.3542,-13.7729],[-172.3563,-13.7728],[-172.3587,-13.7735]]],[[[-172.5696,-13.6159],[-172.6202,-13.6961],[-172.6232,-13.6943],[-172.6254,-13.6922],[-172.6268,-13.6885],[-172.6333,-13.6852],[-172.6338,-13.6821],[-172.6364,-13.6794],[-172.6392,-13.6752],[-172.6424,-13.6727],[-172.6461,-13.6679],[-172.6465,-13.6635],[-172.6472,-13.6611],[-172.6482,-13.6598],[-172.6505,-13.6589],[-172.6526,-13.6571],[-172.6538,-13.6569],[-172.6551,-13.6546],[-172.6574,-13.653],[-172.6582,-13.6516],[-172.6617,-13.6521],[-172.6635,-13.6497],[-172.6657,-13.6493],[-172.6684,-13.6471],[-172.6698,-13.6432],[-172.6718,-13.6415],[-172.6729,-13.6373],[-172.6741,-13.6363],[-172.6774,-13.6356],[-172.68,-13.6328],[-172.6791,-13.6313],[-172.6788,-13.6283],[-172.6794,-13.6259],[-172.6815,-13.6249],[-172.683,-13.6231],[-172.6841,-13.62],[-172.6859,-13.6189],[-172.6887,-13.6183],[-172.6897,-13.6186],[-172.6925,-13.6211],[-172.6942,-13.6194],[-172.6942,-13.6183],[-172.668,-13.571],[-172.6199,-13.5956],[-172.5993,-13.6053],[-172.5696,-13.6159]]]]},"properties":{"name":"Satupa'itea","id":"WS-SA","CNTRY":"Samoa","TYPE":"Itumalo","TYPE_ENG":"District"},"id":"WS-SA"},
{"type":"Feature","geometry":{"type":"MultiPolygon","coordinates":[[[[-171.7461,-13.8303],[-171.7476,-13.8296],[-171.7473,-13.8281],[-171.7451,-13.8292],[-171.7461,-13.8303]]],[[[-171.6955,-13.8614],[-171.6963,-13.8636],[-171.6956,-13.8742],[-171.6992,-13.8908],[-171.7031,-13.9008],[-171.7138,-13.9251],[-171.7218,-13.938],[-171.7218,-14.0405],[-171.7246,-14.0418],[-171.7277,-14.0444],[-171.7349,-14.0452],[-171.7392,-14.044],[-171.7419,-14.0439],[-171.7447,-14.0455],[-171.7467,-14.0458],[-171.7514,-14.0438],[-171.7547,-14.0433],[-171.7572,-14.0434],[-171.7593,-14.0445],[-171.7618,-14.0449],[-171.7633,-14.0439],[-171.7655,-14.0439],[-171.7679,-14.0424],[-171.7695,-14.0389],[-171.7699,-14.0369],[-171.7685,-14.0348],[-171.7663,-14.0335],[-171.7658,-14.0324],[-171.7693,-14.0295],[-171.7713,-14.0295],[-171.7732,-14.0286],[-171.7739,-14.0263],[-171.7752,-14.0247],[-171.7753,-14.0208],[-171.7761,-14.0183],[-171.7794,-14.0166],[-171.7805,-14.0131],[-171.7821,-14.012],[-171.7847,-14.0125],[-171.7861,-14.012],[-171.7876,-14.0103],[-171.7901,-14.0092],[-171.7936,-14.0096],[-171.7966,-14.0091],[-171.8,-14.0105],[-171.804,-14.0106],[-171.8089,-14.0097],[-171.8114,-14.0081],[-171.8165,-14.0087],[-171.8196,-14.0081],[-171.8257,-14.0089],[-171.8276,-14.0085],[-171.8317,-14.0047],[-171.8319,-14.0039],[-171.835,-14.0003],[-171.8373,-13.9985],[-171.8383,-13.9965],[-171.8436,-13.9889],[-171.8515,-13.9895],[-171.8524,-13.9888],[-171.854,-13.9848],[-171.8558,-13.9837],[-171.8573,-13.9837],[-171.8592,-13.9847],[-171.8631,-13.9894],[-171.8669,-13.9906],[-171.87,-13.9906],[-171.8764,-13.9947],[-171.8806,-13.9961],[-171.8844,-13.9986],[-171.8861,-14.0011],[-171.8878,-14.0014],[-171.8885,-14.0029],[-171.8908,-14.0022],[-171.898,-14.0029],[-171.8997,-14.0019],[-171.9013,-14.0023],[-171.9017,-14.0047],[-171.9027,-14.0055],[-171.907,-14.0062],[-171.9085,-14.0056],[-171.904,-13.952],[-171.8898,-13.9068],[-171.8948,-13.9014],[-171.9008,-13.902],[-171.9059,-13.8969],[-171.91,-13.8913],[-171.9052,-13.8496],[-171.9153,-13.8345],[-171.9214,-13.8039],[-171.9175,-13.8044],[-171.9142,-13.8028],[-171.9131,-13.8028],[-171.91,-13.7994],[-171.9081,-13.7983],[-171.9055,-13.7992],[-171.9036,-13.7981],[-171.9017,-13.7978],[-171.9008,-13.8],[-171.8981,-13.8014],[-171.8956,-13.8008],[-171.8933,-13.8022],[-171.8894,-13.8022],[-171.8872,-13.8011],[-171.8867,-13.8],[-171.8828,-13.7967],[-171.8811,-13.7967],[-171.8791,-13.7978],[-171.8792,-13.8043],[-171.8695,-13.8231],[-171.869,-13.8514],[-171.8616,-13.8595],[-171.8614,-13.7973],[-171.8597,-13.7998],[-171.8575,-13.7983],[-171.8554,-13.7985],[-171.8541,-13.7954],[-171.8515,-13.795],[-171.8506,-13.7954],[-171.85,-13.7992],[-171.8469,-13.7983],[-171.8443,-13.7983],[-171.8431,-13.7967],[-171.8406,-13.798],[-171.8369,-13.7942],[-171.8358,-13.7953],[-171.8333,-13.795],[-171.8311,-13.7928],[-171.8275,-13.7964],[-171.8258,-13.7997],[-171.8228,-13.7983],[-171.8206,-13.8],[-171.8186,-13.8004],[-171.8182,-13.8022],[-171.8153,-13.805],[-171.8121,-13.8047],[-171.8113,-13.8059],[-171.8095,-13.8065],[-171.8075,-13.8081],[-171.8073,-13.8115],[-171.8083,-13.8147],[-171.8069,-13.8161],[-171.805,-13.8161],[-171.8038,-13.8173],[-171.8022,-13.8174],[-171.801,-13.8192],[-171.8008,-13.8208],[-171.7967,-13.8206],[-171.7939,-13.8228],[-171.7919,-13.825],[-171.7917,-13.8269],[-171.7875,-13.8267],[-171.7856,-13.8283],[-171.7833,-13.8278],[-171.7811,-13.8292],[-171.7789,-13.8292],[-171.7764,-13.8272],[-171.7767,-13.8242],[-171.7803,-13.8206],[-171.7822,-13.8167],[-171.78,-13.8147],[-171.7772,-13.8169],[-171.775,-13.8222],[-171.7728,-13.8244],[-171.7719,-13.8264],[-171.7694,-13.8283],[-171.7664,-13.8275],[-171.7642,-13.8322],[-171.7619,-13.8328],[-171.76,-13.8297],[-171.7606,-13.8283],[-171.7622,-13.8272],[-171.7627,-13.8241],[-171.7604,-13.8247],[-171.7583,-13.8245],[-171.7542,-13.8286],[-171.7517,-13.8283],[-171.7489,-13.8286],[-171.7481,-13.831],[-171.7456,-13.8314],[-171.7432,-13.834],[-171.7428,-13.8389],[-171.7422,-13.84],[-171.7397,-13.8422],[-171.7364,-13.8425],[-171.7342,-13.8417],[-171.7292,-13.8414],[-171.7264,-13.8425],[-171.7242,-13.8444],[-171.7225,-13.8442],[-171.7214,-13.8467],[-171.7208,-13.8506],[-171.7189,-13.8525],[-171.717,-13.8522],[-171.7114,-13.8548],[-171.7092,-13.8603],[-171.7089,-13.8625],[-171.7081,-13.8633],[-171.7056,-13.8636],[-171.7014,-13.8603],[-171.6985,-13.8595],[-171.6955,-13.8614]]]]},"properties":{"name":"Tuamasaga","id":"WS-TU","CNTRY":"Samoa","TYPE":"Itumalo","TYPE_ENG":"District"},"id":"WS-TU"},
{"type":"Feature","geometry":{"type":"MultiPolygon","coordinates":[[[[-171.4803,-13.9579],[-171.5007,-13.977],[-171.5052,-13.977],[-171.5104,-13.9722],[-171.5133,-13.9711],[-171.5273,-13.9714],[-171.5383,-13.9604],[-171.5524,-13.9572],[-171.5633,-13.957],[-171.5678,-13.9695],[-171.5734,-13.9694],[-171.5777,-13.9673],[-171.5915,-13.957],[-171.5918,-13.9532],[-171.5629,-13.9258],[-171.5562,-13.9263],[-171.5474,-13.9259],[-171.5496,-13.9296],[-171.5645,-13.9369],[-171.5671,-13.9397],[-171.5667,-13.9414],[-171.5647,-13.9418],[-171.5639,-13.9431],[-171.5614,-13.9428],[-171.5539,-13.9425],[-171.5491,-13.9394],[-171.5419,-13.9414],[-171.5397,-13.9403],[-171.5401,-13.9379],[-171.5361,-13.9364],[-171.5336,-13.9343],[-171.5314,-13.9333],[-171.5272,-13.9281],[-171.5242,-13.9281],[-171.5231,-13.9289],[-171.5228,-13.9308],[-171.524,-13.9338],[-171.5237,-13.935],[-171.5197,-13.9389],[-171.5194,-13.9397],[-171.5164,-13.9389],[-171.5144,-13.9391],[-171.5134,-13.9411],[-171.5109,-13.9411],[-171.5097,-13.94],[-171.5073,-13.9415],[-171.5075,-13.9432],[-171.5103,-13.9431],[-171.5125,-13.9436],[-171.5143,-13.9453],[-171.5164,-13.9492],[-171.5153,-13.9511],[-171.5133,-13.9514],[-171.5072,-13.9508],[-171.5061,-13.9517],[-171.5042,-13.9508],[-171.5025,-13.9514],[-171.5014,-13.9506],[-171.4978,-13.95],[-171.4947,-13.9507],[-171.494,-13.9521],[-171.4923,-13.9527],[-171.4913,-13.9549],[-171.4901,-13.9544],[-171.4893,-13.9525],[-171.4869,-13.9524],[-171.4875,-13.9555],[-171.4861,-13.9561],[-171.4834,-13.9534],[-171.4804,-13.9548],[-171.4803,-13.9579]]],[[[-171.5936,-13.8733],[-171.5911,-13.8742],[-171.5867,-13.8778],[-171.5846,-13.8778],[-171.5869,-13.8789],[-171.5891,-13.8814],[-171.5894,-13.8873],[-171.5942,-13.9004],[-171.5945,-13.9073],[-171.5971,-13.9131],[-171.6004,-13.914],[-171.6037,-13.9118],[-171.6029,-13.9022],[-171.601,-13.8942],[-171.5972,-13.8871],[-171.5936,-13.8733]]]]},"properties":{"name":"Va'a-o-Fonoti","id":"WS-VF","CNTRY":"Samoa","TYPE":"Itumalo","TYPE_ENG":"District"},"id":"WS-VF"},
{"type":"Feature","geometry":{"type":"Polygon","coordinates":[[[-172.6173,-13.4936],[-172.6197,-13.5957],[-172.6199,-13.5956],[-172.668,-13.571],[-172.6942,-13.6183],[-172.6954,-13.6167],[-172.6998,-13.6158],[-172.7041,-13.614],[-172.7072,-13.6106],[-172.7079,-13.6089],[-172.7119,-13.6061],[-172.7133,-13.6059],[-172.7152,-13.604],[-172.7209,-13.6009],[-172.7283,-13.5886],[-172.7285,-13.5864],[-172.73,-13.5856],[-172.731,-13.5831],[-172.7319,-13.5824],[-172.7354,-13.5773],[-172.7384,-13.5754],[-172.7409,-13.5755],[-172.7469,-13.5733],[-172.7498,-13.5692],[-172.7509,-13.5683],[-172.7547,-13.5668],[-172.7566,-13.5672],[-172.7607,-13.5666],[-172.7632,-13.5647],[-172.7708,-13.5565],[-172.7755,-13.5528],[-172.7806,-13.5475],[-172.7863,-13.5452],[-172.7877,-13.5419],[-172.788,-13.5378],[-172.7906,-13.5369],[-172.7916,-13.5358],[-172.7925,-13.5317],[-172.7917,-13.5294],[-172.7956,-13.5252],[-172.797,-13.5243],[-172.7995,-13.5214],[-172.8022,-13.5171],[-172.804,-13.5159],[-172.8023,-13.514],[-172.7997,-13.5127],[-172.7985,-13.5109],[-172.7963,-13.5093],[-172.7942,-13.5066],[-172.7939,-13.5043],[-172.7927,-13.5015],[-172.791,-13.5029],[-172.7872,-13.4986],[-172.7838,-13.4925],[-172.781,-13.4935],[-172.7766,-13.4921],[-172.7746,-13.4929],[-172.771,-13.4931],[-172.7695,-13.4949],[-172.7679,-13.4953],[-172.7658,-13.4972],[-172.7627,-13.4971],[-172.7617,-13.496],[-172.7607,-13.4921],[-172.7586,-13.4904],[-172.7566,-13.49],[-172.7549,-13.4909],[-172.7517,-13.4956],[-172.7491,-13.497],[-172.7469,-13.4969],[-172.745,-13.4977],[-172.7401,-13.4982],[-172.737,-13.5017],[-172.7341,-13.5031],[-172.732,-13.5069],[-172.7243,-13.5112],[-172.7235,-13.5126],[-172.7208,-13.5131],[-172.7195,-13.5149],[-172.7148,-13.516],[-172.7109,-13.5153],[-172.7035,-13.5178],[-172.7007,-13.5195],[-172.699,-13.5178],[-172.6955,-13.517],[-172.6956,-13.5146],[-172.6934,-13.5141],[-172.6924,-13.5154],[-172.6898,-13.5139],[-172.6886,-13.5154],[-172.6864,-13.5134],[-172.6868,-13.5123],[-172.6848,-13.5098],[-172.682,-13.5092],[-172.6783,-13.5108],[-172.6788,-13.5134],[-172.6773,-13.515],[-172.6728,-13.5115],[-172.6717,-13.5094],[-172.6692,-13.5093],[-172.6677,-13.5077],[-172.6649,-13.506],[-172.662,-13.5053],[-172.6562,-13.5084],[-172.6561,-13.5097],[-172.6546,-13.5122],[-172.6507,-13.5145],[-172.6508,-13.5159],[-172.648,-13.5175],[-172.6451,-13.5168],[-172.6437,-13.5174],[-172.6392,-13.5173],[-172.638,-13.5181],[-172.6359,-13.5159],[-172.6351,-13.514],[-172.6331,-13.5125],[-172.6322,-13.5109],[-172.6357,-13.5096],[-172.6366,-13.5062],[-172.6364,-13.5051],[-172.6337,-13.5021],[-172.6306,-13.5014],[-172.6269,-13.5016],[-172.6227,-13.4982],[-172.6213,-13.4958],[-172.6173,-13.4936]]]},"properties":{"name":"Vaisigano","id":"WS-VS","CNTRY":"Samoa","TYPE":"Itumalo","TYPE_ENG":"District"},"id":"WS-VS"}
]}