{"type":"FeatureCollection", "features": [
{"type":"Feature","geometry":{"type":"Polygon","coordinates":[[[27.3965,-30.3172],[27.3123,-30.0685],[27.2384,-30.0054],[27.1233,-29.7553],[27.0291,-29.646],[27.1628,-29.556],[27.3147,-29.5255],[27.4144,-29.3675],[27.5459,-29.254],[27.5292,-29.2166],[27.6826,-29.074],[27.6921,-29.0018],[27.7735,-28.9221],[27.8903,-28.9145],[27.9418,-28.8518],[28.0367,-28.8772],[28.1212,-28.7434],[28.1895,-28.6908],[28.3629,-28.6981],[28.4139,-28.6189],[28.6998,-28.6001],[28.7199,-28.6774],[28.8689,-28.7591],[29.0001,-28.9137],[29.335,-29.0896],[29.4656,-29.3468],[29.4283,-29.4311],[29.306,-29.4898],[29.2951,-29.6309],[29.1835,-29.6655],[29.1306,-29.8415],[29.1748,-29.9145],[29.0309,-29.9979],[28.8486,-30.0945],[28.6842,-30.138],[28.5557,-30.1181],[28.3727,-30.167],[28.3164,-30.2531],[28.2223,-30.2878],[28.2798,-30.3614],[28.1547,-30.4596],[28.1624,-30.5591],[28.0907,-30.6497],[27.9266,-30.641],[27.7505,-30.5945],[27.6202,-30.4828],[27.4755,-30.3109],[27.3965,-30.3172]]]},"properties":{"name":"Lesotho","id":"LS","CNTRY":"South Africa","TYPE":"Province"},"id":"LS"},
{"type":"Feature","geometry":{"type":"Polygon","coordinates":[[[29.0309,-29.9979],[29.1214,-30.0767],[29.0772,-30.165],[28.8728,-30.3239],[28.7864,-30.2933],[28.7581,-30.4625],[28.8647,-30.5603],[29.08,-30.5875],[29.3258,-30.6567],[29.4714,-30.6172],[29.6064,-30.6928],[29.6653,-30.6825],[30.0557,-30.8485],[30.197,-31.079],[30.0382,-31.2657],[29.8638,-31.4165],[29.7573,-31.4496],[29.6826,-31.5351],[29.4937,-31.6715],[29.4243,-31.6924],[29.0896,-32.0804],[28.7449,-32.3968],[28.5546,-32.5515],[28.2668,-32.7604],[28.1499,-32.8004],[28.0818,-32.9129],[27.9054,-33.0418],[27.7301,-33.1188],[27.6107,-33.2157],[27.1668,-33.4718],[27.1132,-33.5235],[26.7404,-33.6529],[26.4665,-33.7732],[26.2979,-33.764],[26.0724,-33.7062],[25.8387,-33.7249],[25.6993,-33.7932],[25.6326,-33.8688],[25.6326,-34.0465],[25.4062,-34.0335],[25.2179,-33.9701],[25.0315,-33.9704],[24.9313,-34.0121],[24.8326,-34.2174],[24.6421,-34.1715],[24.474,-34.1626],[24.3812,-34.1037],[24.1493,-34.0532],[23.6395,-33.9821],[23.6867,-33.8722],[23.465,-33.7967],[23.4125,-33.7133],[23.655,-33.6175],[23.5747,-33.4886],[23.48,-33.4344],[23.3236,-33.432],[23.2925,-33.3903],[23.0394,-33.3833],[22.8972,-33.4145],[22.7494,-33.4017],[22.7633,-33.3169],[22.8806,-33.1372],[22.9364,-33.0914],[22.9381,-32.9425],[23.0778,-32.8781],[23.1781,-32.7894],[23.3633,-32.8264],[23.2678,-32.5342],[23.2081,-32.4247],[23.4325,-32.3283],[23.6458,-32.3336],[23.6539,-32.2353],[23.7519,-32.1767],[23.8736,-32.2461],[24.0719,-32.1556],[24.0872,-32.0906],[24.205,-31.9472],[24.1522,-31.895],[24.1469,-31.79],[24.2583,-31.7686],[24.3072,-31.7114],[24.4994,-31.705],[24.5236,-31.4961],[24.5586,-31.4019],[24.7819,-31.3958],[24.9728,-31.2772],[25.0539,-31.2775],[25.215,-31.2017],[25.35,-31.2278],[25.4242,-31.1397],[25.5247,-30.9422],[25.4742,-30.8653],[25.4578,-30.6119],[25.5981,-30.5983],[25.6283,-30.655],[25.7469,-30.6806],[25.9447,-30.567],[26.1853,-30.4978],[26.2808,-30.5803],[26.4386,-30.5628],[26.48,-30.6322],[26.6981,-30.6794],[26.8036,-30.6439],[26.9325,-30.6581],[27.0036,-30.5364],[27.2167,-30.4808],[27.3014,-30.4886],[27.3808,-30.3942],[27.3965,-30.3172],[27.4755,-30.3109],[27.6202,-30.4828],[27.7505,-30.5945],[27.9266,-30.641],[28.0907,-30.6497],[28.1624,-30.5591],[28.1547,-30.4596],[28.2798,-30.3614],[28.2223,-30.2878],[28.3164,-30.2531],[28.3727,-30.167],[28.5557,-30.1181],[28.6842,-30.138],[28.8486,-30.0945],[29.0309,-29.9979]]]},"properties":{"name":"Eastern Cape","id":"ZA-EC","CNTRY":"South Africa","TYPE":"Province"},"id":"ZA-EC"},
{"type":"Feature","geometry":{"type":"Polygon","coordinates":[[[27.5386,-26.7744],[27.8786,-26.7314],[27.925,-26.6831],[28.0628,-26.8328],[28.2889,-26.9131],[28.4853,-26.9618],[28.5572,-27.0208],[28.705,-26.9769],[28.8836,-27.0494],[28.9692,-26.9964],[29.1139,-27.1564],[29.2094,-27.1408],[29.3956,-27.2267],[29.5458,-27.3906],[29.615,-27.5067],[29.7711,-27.4525],[29.7136,-27.5203],[29.7808,-27.5908],[29.6828,-27.6558],[29.7231,-27.8131],[29.6653,-27.9119],[29.6294,-28.0642],[29.6678,-28.1617],[29.5989,-28.2442],[29.4978,-28.258],[29.4167,-28.3514],[29.2303,-28.4425],[29.1953,-28.5361],[28.9728,-28.5747],[28.8689,-28.7591],[28.7199,-28.6774],[28.6998,-28.6001],[28.4139,-28.6189],[28.3629,-28.6981],[28.1895,-28.6908],[28.1212,-28.7434],[28.0367,-28.8772],[27.9418,-28.8518],[27.8903,-28.9145],[27.7735,-28.9221],[27.6921,-29.0018],[27.6826,-29.074],[27.5292,-29.2166],[27.5459,-29.254],[27.4144,-29.3675],[27.3147,-29.5255],[27.1628,-29.556],[27.0291,-29.646],[27.1233,-29.7553],[27.2384,-30.0054],[27.3123,-30.0685],[27.3965,-30.3172],[27.3808,-30.3942],[27.3014,-30.4886],[27.2167,-30.4808],[27.0036,-30.5364],[26.9325,-30.6581],[26.8036,-30.6439],[26.6981,-30.6794],[26.48,-30.6322],[26.4386,-30.5628],[26.2808,-30.5803],[26.1853,-30.4978],[25.9447,-30.567],[25.7469,-30.6806],[25.6283,-30.655],[25.5981,-30.5983],[25.4578,-30.6119],[25.2919,-30.5483],[25.0428,-30.3372],[24.8894,-30.1739],[24.7936,-29.9947],[24.6781,-29.9664],[24.65,-29.8944],[24.4244,-29.7844],[24.3406,-29.6494],[24.8825,-28.635],[24.8297,-28.6181],[24.8542,-28.5017],[25.0108,-28.1167],[24.9841,-28.0753],[25.0681,-28.055],[25.1286,-27.93],[25.2378,-27.8706],[25.2644,-27.7992],[25.4139,-27.7172],[25.6742,-27.6436],[25.7986,-27.5803],[25.9939,-27.6333],[26.0817,-27.607],[26.2631,-27.4186],[26.4469,-27.3883],[26.4903,-27.2642],[26.4105,-27.1647],[26.4947,-27.1392],[26.6236,-27.01],[26.9156,-26.8833],[27.0367,-26.9328],[27.2092,-26.9567],[27.3183,-26.8481],[27.4031,-26.9172],[27.4733,-26.8839],[27.5386,-26.7744]]]},"properties":{"name":"Free State","id":"ZA-FS","CNTRY":"South Africa","TYPE":"Province"},"id":"ZA-FS"},
{"type":"Feature","geometry":{"type":"Polygon","coordinates":[[[28.6056,-25.1581],[28.749,-25.1437],[28.7775,-25.2128],[28.6483,-25.2686],[28.6375,-25.4797],[28.6133,-25.5139],[28.6675,-25.6886],[28.8228,-25.7011],[28.9322,-25.5808],[29.0314,-25.5565],[29.0553,-25.6328],[28.9608,-25.6672],[28.9761,-25.732],[28.8728,-25.8547],[28.8375,-26.0242],[28.6153,-25.989],[28.4577,-26.0889],[28.5167,-26.2387],[28.6109,-26.266],[28.6844,-26.3692],[28.8186,-26.3358],[28.8619,-26.4172],[28.7503,-26.4664],[28.7478,-26.5261],[28.5503,-26.5561],[28.4642,-26.6583],[28.3731,-26.6844],[28.3797,-26.783],[28.2931,-26.8231],[28.2889,-26.9131],[28.0628,-26.8328],[27.925,-26.6831],[27.8786,-26.7314],[27.5386,-26.7744],[27.5561,-26.5869],[27.5999,-26.4593],[27.4745,-26.4194],[27.2111,-26.5189],[27.1686,-26.4017],[27.3075,-26.3033],[27.2725,-26.1656],[27.3997,-26.127],[27.4453,-25.8783],[27.6192,-25.793],[27.7197,-25.8911],[27.93,-25.8414],[27.9697,-25.7431],[27.9247,-25.6408],[28.005,-25.6297],[28.0922,-25.5467],[28.117,-25.4531],[28.2936,-25.4139],[28.2936,-25.3172],[28.4939,-25.3089],[28.5014,-25.2614],[28.6547,-25.2625],[28.6056,-25.1581]]]},"properties":{"name":"Gauteng","id":"ZA-GT","CNTRY":"South Africa","TYPE":"Province"},"id":"ZA-GT"},
{"type":"Feature","geometry":{"type":"Polygon","coordinates":[[[31.8755,-23.9541],[31.7769,-23.965],[31.723,-24.0453],[31.5903,-24.052],[31.4483,-24.0172],[31.4802,-24.1432],[31.4265,-24.1894],[31.4365,-24.2955],[31.3491,-24.3989],[31.4515,-24.5388],[31.5963,-24.5946],[31.4627,-24.7182],[31.3279,-24.7182],[31.3453,-24.8314],[31.4714,-24.8439],[31.4627,-24.9908],[31.3225,-24.9767],[31.2431,-25.0208],[31.1103,-25.0317],[31.0377,-24.9698],[31.0089,-24.83],[30.9122,-24.7868],[30.9081,-24.6181],[30.7867,-24.47],[30.6547,-24.5419],[30.553,-24.6383],[30.407,-24.5683],[30.2356,-24.5606],[30.0881,-24.5883],[30.1529,-24.7362],[30.0792,-24.8097],[29.7597,-25.0367],[29.8261,-25.1325],[29.7503,-25.2108],[29.5728,-25.1825],[29.4586,-25.0683],[29.3528,-24.8686],[29.1939,-24.83],[29.1803,-24.9389],[29.0745,-24.98],[29.0344,-24.9006],[28.9364,-24.9453],[28.7283,-24.9411],[28.5972,-25.0029],[28.5989,-25.0789],[28.4517,-25.1103],[28.3547,-25.17],[28.3758,-25.2328],[28.6056,-25.1581],[28.6547,-25.2625],[28.5014,-25.2614],[28.4939,-25.3089],[28.2936,-25.3172],[28.2208,-25.2083],[28.13,-25.2175],[28.0892,-25.0019],[27.6675,-24.9708],[27.4878,-25.0558],[27.3606,-25.0694],[27.2997,-25],[27.165,-24.9947],[27.1353,-24.9167],[27.0633,-24.8917],[26.9942,-24.7742],[26.7126,-24.8691],[26.6439,-24.822],[26.4355,-24.8117],[26.4033,-24.6368],[26.4753,-24.5878],[26.5204,-24.4856],[26.6841,-24.3401],[26.8654,-24.2601],[26.8704,-24.101],[26.9177,-24.0178],[26.9507,-23.8139],[27.0101,-23.6429],[27.1392,-23.5454],[27.4497,-23.3898],[27.5341,-23.3835],[27.6075,-23.2227],[27.72,-23.2408],[27.8238,-23.1133],[27.9348,-23.0584],[27.9752,-22.9586],[28.0452,-22.9092],[28.0459,-22.8385],[28.1552,-22.7692],[28.1613,-22.712],[28.3463,-22.5769],[28.5128,-22.587],[28.9164,-22.4596],[28.9653,-22.3082],[29.0334,-22.2171],[29.2001,-22.1815],[29.3337,-22.2044],[29.5711,-22.1423],[29.7638,-22.1411],[30.0111,-22.2304],[30.1242,-22.3085],[30.2231,-22.2937],[30.2882,-22.3511],[30.4836,-22.3143],[30.7111,-22.315],[30.8271,-22.2907],[31.0761,-22.3438],[31.1573,-22.3265],[31.2594,-22.3603],[31.3095,-22.4343],[31.5586,-23.1784],[31.5571,-23.47],[31.6894,-23.6194],[31.6954,-23.7206],[31.7621,-23.8807],[31.8755,-23.9541]]]},"properties":{"name":"Limpopo","id":"ZA-LP","CNTRY":"South Africa","TYPE":"Province"},"id":"ZA-LP"},
{"type":"Feature","geometry":{"type":"Polygon","coordinates":[[[31.2901,-27.2445],[31.1811,-27.3699],[31.1068,-27.335],[30.9589,-27.3553],[30.8336,-27.3389],[30.6861,-27.2728],[30.5797,-27.3147],[30.4203,-27.2706],[30.2781,-27.2992],[30.1472,-27.3847],[30.0636,-27.3603],[29.8481,-27.3853],[29.7711,-27.4525],[29.615,-27.5067],[29.5458,-27.3906],[29.3956,-27.2267],[29.2094,-27.1408],[29.1139,-27.1564],[28.9692,-26.9964],[28.8836,-27.0494],[28.705,-26.9769],[28.5572,-27.0208],[28.4853,-26.9618],[28.2889,-26.9131],[28.2931,-26.8231],[28.3797,-26.783],[28.3731,-26.6844],[28.4642,-26.6583],[28.5503,-26.5561],[28.7478,-26.5261],[28.7503,-26.4664],[28.8619,-26.4172],[28.8186,-26.3358],[28.6844,-26.3692],[28.6109,-26.266],[28.5167,-26.2387],[28.4577,-26.0889],[28.6153,-25.989],[28.8375,-26.0242],[28.8728,-25.8547],[28.9761,-25.732],[28.9608,-25.6672],[29.0553,-25.6328],[29.0314,-25.5565],[28.9322,-25.5808],[28.8228,-25.7011],[28.6675,-25.6886],[28.6133,-25.5139],[28.6375,-25.4797],[28.6483,-25.2686],[28.7775,-25.2128],[28.749,-25.1437],[28.6056,-25.1581],[28.3758,-25.2328],[28.3547,-25.17],[28.4517,-25.1103],[28.5989,-25.0789],[28.5972,-25.0029],[28.7283,-24.9411],[28.9364,-24.9453],[29.0344,-24.9006],[29.0745,-24.98],[29.1803,-24.9389],[29.1939,-24.83],[29.3528,-24.8686],[29.4586,-25.0683],[29.5728,-25.1825],[29.7503,-25.2108],[29.8261,-25.1325],[29.7597,-25.0367],[30.0792,-24.8097],[30.1529,-24.7362],[30.0881,-24.5883],[30.2356,-24.5606],[30.407,-24.5683],[30.553,-24.6383],[30.6547,-24.5419],[30.7867,-24.47],[30.9081,-24.6181],[30.9122,-24.7868],[31.0089,-24.83],[31.0377,-24.9698],[31.1103,-25.0317],[31.2431,-25.0208],[31.3225,-24.9767],[31.4627,-24.9908],[31.4714,-24.8439],[31.3453,-24.8314],[31.3279,-24.7182],[31.4627,-24.7182],[31.5963,-24.5946],[31.4515,-24.5388],[31.3491,-24.3989],[31.4365,-24.2955],[31.4265,-24.1894],[31.4802,-24.1432],[31.4483,-24.0172],[31.5903,-24.052],[31.723,-24.0453],[31.7769,-23.965],[31.8755,-23.9541],[31.9135,-24.1909],[31.9879,-24.3042],[32.0106,-24.4538],[32.0009,-24.6799],[32.0367,-25.0422],[32.025,-25.3731],[31.9894,-25.4449],[32.0126,-25.6376],[31.9381,-25.8308],[31.9821,-25.9521],[31.8695,-25.9987],[31.4245,-25.7196],[31.3204,-25.744],[31.134,-25.9195],[31.1185,-25.9853],[30.9849,-26.2319],[30.8333,-26.418],[30.7956,-26.5651],[30.8122,-26.8255],[30.9024,-26.7897],[30.9813,-26.9161],[30.9764,-27.015],[31.15,-27.194],[31.2901,-27.2445]]]},"properties":{"name":"Mpumalanga","id":"ZA-MP","CNTRY":"South Africa","TYPE":"Province"},"id":"ZA-MP"},
{"type":"Feature","geometry":{"type":"Polygon","coordinates":[[[22.6328,-26.112],[22.6942,-26.115],[22.6939,-26.5628],[22.8358,-26.57],[23.0442,-26.6728],[22.9983,-26.8595],[23.0308,-26.9597],[22.9917,-27.1578],[23.0925,-27.2],[23.2153,-27.3442],[23.3389,-27.36],[23.4675,-27.4714],[23.5922,-27.4722],[23.7506,-27.5492],[23.8981,-27.4019],[24.0356,-27.4317],[24.0283,-27.5958],[24.0894,-27.615],[24.0978,-27.7472],[24.4075,-27.6844],[24.4283,-27.8175],[24.3478,-27.9003],[24.4572,-27.9803],[24.5089,-28.0972],[24.6086,-28.0044],[24.6122,-27.9164],[24.6933,-27.8264],[24.6678,-27.6831],[25.0301,-27.7039],[24.842,-27.9061],[24.9355,-28.1016],[24.9841,-28.0753],[25.0108,-28.1167],[24.8542,-28.5017],[24.8297,-28.6181],[24.8825,-28.635],[24.3406,-29.6494],[24.4244,-29.7844],[24.65,-29.8944],[24.6781,-29.9664],[24.7936,-29.9947],[24.8894,-30.1739],[25.0428,-30.3372],[25.2919,-30.5483],[25.4578,-30.6119],[25.4742,-30.8653],[25.5247,-30.9422],[25.4242,-31.1397],[25.35,-31.2278],[25.215,-31.2017],[25.0539,-31.2775],[24.9728,-31.2772],[24.7819,-31.3958],[24.5586,-31.4019],[24.5236,-31.4961],[24.4994,-31.705],[24.3072,-31.7114],[24.2583,-31.7686],[24.1469,-31.79],[24.0206,-31.7281],[23.8567,-31.8233],[23.8261,-31.7256],[23.7258,-31.6589],[23.5847,-31.6544],[23.5097,-31.6994],[23.4008,-31.6814],[23.2664,-31.7425],[23.2139,-31.8681],[23.0697,-31.9767],[23.0464,-31.8853],[22.7233,-31.8022],[22.565,-31.8005],[22.5922,-31.725],[22.2914,-31.5703],[22.1711,-31.7758],[22.1653,-31.8786],[22.0636,-31.9203],[22.1233,-32.05],[22.0019,-32.0978],[21.9986,-32.1881],[21.8506,-32.2619],[21.7236,-32.1981],[21.5375,-32.2236],[21.5469,-32.305],[21.3231,-32.3736],[21.1922,-32.4592],[21.1611,-32.613],[20.9678,-32.6369],[20.7953,-32.6967],[20.8206,-32.8108],[20.7181,-32.9283],[20.5964,-32.9367],[20.5564,-32.8844],[20.4211,-32.9369],[20.2717,-32.7917],[20.1761,-32.7578],[20.0647,-32.4389],[20.1494,-32.3728],[20.2178,-32.2306],[20.1644,-32.1758],[20.0386,-32.2497],[19.9222,-32.3739],[19.7944,-32.387],[19.605,-32.4908],[19.5953,-32.6236],[19.4728,-32.5836],[19.4917,-32.4711],[19.3989,-32.2922],[19.4961,-32.2456],[19.4822,-32.0814],[19.3217,-32.0317],[19.293,-31.9775],[19.0883,-31.8969],[19.0311,-31.8328],[19.0869,-31.7522],[19.0639,-31.5083],[19.0139,-31.3694],[18.9269,-31.2161],[18.9364,-31.1072],[18.8858,-31.03],[18.9667,-30.9292],[18.9386,-30.7242],[18.8481,-30.7147],[18.7678,-30.6539],[18.7428,-30.5625],[18.6436,-30.5436],[18.5503,-30.4289],[18.3967,-30.5128],[18.3456,-30.6569],[18.245,-30.8067],[18.1533,-30.8411],[18.0728,-30.7795],[17.9783,-30.7836],[17.9742,-30.9097],[17.7529,-31.146],[17.6796,-30.9985],[17.5746,-30.8585],[17.5226,-30.7351],[17.2718,-30.3349],[17.1468,-29.969],[17.0771,-29.8171],[17.0332,-29.6151],[16.9407,-29.3718],[16.8732,-29.2901],[16.8121,-29.091],[16.7465,-29.0426],[16.6879,-28.9274],[16.6015,-28.8679],[16.5693,-28.7276],[16.4581,-28.6368],[16.4872,-28.5652],[16.635,-28.4893],[16.727,-28.4982],[16.8088,-28.3662],[16.818,-28.2725],[16.8849,-28.1735],[16.8998,-28.0716],[17.0833,-28.0378],[17.1877,-28.1131],[17.2253,-28.2533],[17.3452,-28.2436],[17.4088,-28.371],[17.3297,-28.4715],[17.4267,-28.5733],[17.4095,-28.7229],[17.598,-28.7009],[17.7013,-28.7503],[17.9113,-28.7672],[18.0533,-28.8809],[18.179,-28.9159],[18.265,-28.8836],[18.4245,-28.9024],[18.5595,-28.8607],[18.732,-28.8412],[18.9486,-28.8646],[19.0099,-28.9366],[19.1112,-28.9714],[19.209,-28.9406],[19.2957,-28.736],[19.4048,-28.7398],[19.4924,-28.6774],[19.5624,-28.5319],[19.8078,-28.5077],[19.8727,-28.4428],[19.9968,-28.4331],[20.0002,-24.753],[20.1,-24.8614],[20.2626,-24.9239],[20.3791,-25.0289],[20.4579,-25.2115],[20.6432,-25.4749],[20.6941,-25.5869],[20.6792,-25.6855],[20.786,-25.8034],[20.8579,-26.146],[20.8086,-26.2369],[20.6249,-26.4381],[20.6051,-26.5306],[20.6151,-26.7017],[20.6505,-26.8353],[20.7153,-26.8755],[20.901,-26.7959],[21.1428,-26.874],[21.4245,-26.8259],[21.5234,-26.8615],[21.6997,-26.8609],[21.7835,-26.7947],[21.7799,-26.6855],[21.9517,-26.6713],[22.0473,-26.6343],[22.1608,-26.5078],[22.1981,-26.3983],[22.4759,-26.2076],[22.5467,-26.2301],[22.6328,-26.112]]]},"properties":{"name":"Northern Cape","id":"ZA-NC","CNTRY":"South Africa","TYPE":"Province"},"id":"ZA-NC"},
{"type":"Feature","geometry":{"type":"Polygon","coordinates":[[[30.197,-31.079],[30.0557,-30.8485],[29.6653,-30.6825],[29.6064,-30.6928],[29.4714,-30.6172],[29.3258,-30.6567],[29.08,-30.5875],[28.8647,-30.5603],[28.7581,-30.4625],[28.7864,-30.2933],[28.8728,-30.3239],[29.0772,-30.165],[29.1214,-30.0767],[29.0309,-29.9979],[29.1748,-29.9145],[29.1306,-29.8415],[29.1835,-29.6655],[29.2951,-29.6309],[29.306,-29.4898],[29.4283,-29.4311],[29.4656,-29.3468],[29.335,-29.0896],[29.0001,-28.9137],[28.8689,-28.7591],[28.9728,-28.5747],[29.1953,-28.5361],[29.2303,-28.4425],[29.4167,-28.3514],[29.4978,-28.258],[29.5989,-28.2442],[29.6678,-28.1617],[29.6294,-28.0642],[29.6653,-27.9119],[29.7231,-27.8131],[29.6828,-27.6558],[29.7808,-27.5908],[29.7136,-27.5203],[29.7711,-27.4525],[29.8481,-27.3853],[30.0636,-27.3603],[30.1472,-27.3847],[30.2781,-27.2992],[30.4203,-27.2706],[30.5797,-27.3147],[30.6861,-27.2728],[30.8336,-27.3389],[30.9589,-27.3553],[31.1068,-27.335],[31.1811,-27.3699],[31.2901,-27.2445],[31.5022,-27.3155],[31.9753,-27.317],[31.9831,-27.0615],[32.0138,-26.8112],[32.1,-26.8065],[32.3853,-26.8626],[32.8203,-26.8687],[32.8912,-26.8584],[32.8482,-27.0815],[32.676,-27.5071],[32.6018,-27.8154],[32.5543,-28.1493],[32.4232,-28.3818],[32.401,-28.5226],[32.3607,-28.5771],[32.0101,-28.8804],[31.7635,-28.9654],[31.5651,-29.174],[31.3352,-29.3871],[31.1849,-29.5718],[31.0551,-29.7787],[31.0598,-29.8799],[30.884,-30.0585],[30.6249,-30.5135],[30.3965,-30.8379],[30.197,-31.079]]]},"properties":{"name":"KwaZulu-Natal","id":"ZA-NL","CNTRY":"South Africa","TYPE":"Province"},"id":"ZA-NL"},
{"type":"Feature","geometry":{"type":"Polygon","coordinates":[[[26.4033,-24.6368],[26.4355,-24.8117],[26.6439,-24.822],[26.7126,-24.8691],[26.9942,-24.7742],[27.0633,-24.8917],[27.1353,-24.9167],[27.165,-24.9947],[27.2997,-25],[27.3606,-25.0694],[27.4878,-25.0558],[27.6675,-24.9708],[28.0892,-25.0019],[28.13,-25.2175],[28.2208,-25.2083],[28.2936,-25.3172],[28.2936,-25.4139],[28.117,-25.4531],[28.0922,-25.5467],[28.005,-25.6297],[27.9247,-25.6408],[27.9697,-25.7431],[27.93,-25.8414],[27.7197,-25.8911],[27.6192,-25.793],[27.4453,-25.8783],[27.3997,-26.127],[27.2725,-26.1656],[27.3075,-26.3033],[27.1686,-26.4017],[27.2111,-26.5189],[27.4745,-26.4194],[27.5999,-26.4593],[27.5561,-26.5869],[27.5386,-26.7744],[27.4733,-26.8839],[27.4031,-26.9172],[27.3183,-26.8481],[27.2092,-26.9567],[27.0367,-26.9328],[26.9156,-26.8833],[26.6236,-27.01],[26.4947,-27.1392],[26.4105,-27.1647],[26.4903,-27.2642],[26.4469,-27.3883],[26.2631,-27.4186],[26.0817,-27.607],[25.9939,-27.6333],[25.7986,-27.5803],[25.6742,-27.6436],[25.4139,-27.7172],[25.2644,-27.7992],[25.2378,-27.8706],[25.1286,-27.93],[25.0681,-28.055],[24.9841,-28.0753],[24.9355,-28.1016],[24.842,-27.9061],[25.0301,-27.7039],[24.6678,-27.6831],[24.6933,-27.8264],[24.6122,-27.9164],[24.6086,-28.0044],[24.5089,-28.0972],[24.4572,-27.9803],[24.3478,-27.9003],[24.4283,-27.8175],[24.4075,-27.6844],[24.0978,-27.7472],[24.0894,-27.615],[24.0283,-27.5958],[24.0356,-27.4317],[23.8981,-27.4019],[23.7506,-27.5492],[23.5922,-27.4722],[23.4675,-27.4714],[23.3389,-27.36],[23.2153,-27.3442],[23.0925,-27.2],[22.9917,-27.1578],[23.0308,-26.9597],[22.9983,-26.8595],[23.0442,-26.6728],[22.8358,-26.57],[22.6939,-26.5628],[22.6942,-26.115],[22.6328,-26.112],[22.7247,-26.0187],[22.7181,-25.8996],[22.8313,-25.6644],[22.8189,-25.584],[22.9129,-25.4182],[23.0119,-25.2934],[23.0767,-25.3285],[23.1989,-25.2725],[23.4576,-25.2921],[23.6388,-25.4322],[23.7542,-25.4692],[23.9086,-25.6261],[24.1928,-25.6214],[24.2625,-25.7009],[24.3757,-25.7643],[24.4465,-25.7353],[24.6542,-25.8195],[24.9046,-25.8133],[25.0144,-25.7265],[25.1252,-25.7581],[25.3448,-25.7677],[25.5916,-25.623],[25.6514,-25.505],[25.7085,-25.2814],[25.7398,-25.2473],[25.8912,-24.8555],[25.8687,-24.7552],[26.4033,-24.6368]]]},"properties":{"name":"North West","id":"ZA-NW","CNTRY":"South Africa","TYPE":"Province"},"id":"ZA-NW"},
{"type":"Feature","geometry":{"type":"MultiPolygon","coordinates":[[[[17.7529,-31.146],[17.9742,-30.9097],[17.9783,-30.7836],[18.0728,-30.7795],[18.1533,-30.8411],[18.245,-30.8067],[18.3456,-30.6569],[18.3967,-30.5128],[18.5503,-30.4289],[18.6436,-30.5436],[18.7428,-30.5625],[18.7678,-30.6539],[18.8481,-30.7147],[18.9386,-30.7242],[18.9667,-30.9292],[18.8858,-31.03],[18.9364,-31.1072],[18.9269,-31.2161],[19.0139,-31.3694],[19.0639,-31.5083],[19.0869,-31.7522],[19.0311,-31.8328],[19.0883,-31.8969],[19.293,-31.9775],[19.3217,-32.0317],[19.4822,-32.0814],[19.4961,-32.2456],[19.3989,-32.2922],[19.4917,-32.4711],[19.4728,-32.5836],[19.5953,-32.6236],[19.605,-32.4908],[19.7944,-32.387],[19.9222,-32.3739],[20.0386,-32.2497],[20.1644,-32.1758],[20.2178,-32.2306],[20.1494,-32.3728],[20.0647,-32.4389],[20.1761,-32.7578],[20.2717,-32.7917],[20.4211,-32.9369],[20.5564,-32.8844],[20.5964,-32.9367],[20.7181,-32.9283],[20.8206,-32.8108],[20.7953,-32.6967],[20.9678,-32.6369],[21.1611,-32.613],[21.1922,-32.4592],[21.3231,-32.3736],[21.5469,-32.305],[21.5375,-32.2236],[21.7236,-32.1981],[21.8506,-32.2619],[21.9986,-32.1881],[22.0019,-32.0978],[22.1233,-32.05],[22.0636,-31.9203],[22.1653,-31.8786],[22.1711,-31.7758],[22.2914,-31.5703],[22.5922,-31.725],[22.565,-31.8005],[22.7233,-31.8022],[23.0464,-31.8853],[23.0697,-31.9767],[23.2139,-31.8681],[23.2664,-31.7425],[23.4008,-31.6814],[23.5097,-31.6994],[23.5847,-31.6544],[23.7258,-31.6589],[23.8261,-31.7256],[23.8567,-31.8233],[24.0206,-31.7281],[24.1469,-31.79],[24.1522,-31.895],[24.205,-31.9472],[24.0872,-32.0906],[24.0719,-32.1556],[23.8736,-32.2461],[23.7519,-32.1767],[23.6539,-32.2353],[23.6458,-32.3336],[23.4325,-32.3283],[23.2081,-32.4247],[23.2678,-32.5342],[23.3633,-32.8264],[23.1781,-32.7894],[23.0778,-32.8781],[22.9381,-32.9425],[22.9364,-33.0914],[22.8806,-33.1372],[22.7633,-33.3169],[22.7494,-33.4017],[22.8972,-33.4145],[23.0394,-33.3833],[23.2925,-33.3903],[23.3236,-33.432],[23.48,-33.4344],[23.5747,-33.4886],[23.655,-33.6175],[23.4125,-33.7133],[23.465,-33.7967],[23.6867,-33.8722],[23.6395,-33.9821],[23.449,-34.0051],[23.3649,-34.1051],[23.2251,-34.0871],[22.959,-34.0887],[22.9149,-34.0646],[22.564,-33.9962],[22.4851,-34.0526],[22.2371,-34.0576],[22.1232,-34.1165],[22.1135,-34.2049],[21.931,-34.2451],[21.8696,-34.364],[21.6954,-34.3957],[21.5368,-34.3568],[21.4446,-34.3682],[21.3051,-34.441],[21.0015,-34.3649],[20.8537,-34.3976],[20.8474,-34.4751],[20.6626,-34.4493],[20.5338,-34.4701],[20.4007,-34.5724],[20.0829,-34.7332],[19.9904,-34.8351],[19.8751,-34.7668],[19.6329,-34.7551],[19.4485,-34.6551],[19.354,-34.4774],[19.2713,-34.4093],[19.1226,-34.4185],[19.0376,-34.3412],[18.911,-34.3574],[18.8132,-34.1007],[18.7126,-34.0721],[18.4946,-34.0988],[18.3804,-34.2624],[18.3304,-34.024],[18.3976,-33.8993],[18.4854,-33.8415],[18.4376,-33.6929],[18.3154,-33.5096],[18.0974,-33.2301],[17.9696,-33.1376],[17.9915,-32.9965],[17.871,-32.991],[17.8957,-32.7429],[17.9796,-32.7268],[18.129,-32.7774],[18.2479,-32.6774],[18.3349,-32.4587],[18.3135,-32.3171],[18.3457,-32.281],[18.2257,-31.7507],[18.1165,-31.5829],[17.899,-31.351],[17.879,-31.2801],[17.7529,-31.146]]],[[[37.9069,-46.8996],[37.8564,-46.9683],[37.657,-46.9744],[37.5803,-46.9364],[37.6894,-46.8239],[37.8047,-46.8372],[37.9069,-46.8996]]]]},"properties":{"name":"Western Cape","id":"ZA-WC","CNTRY":"South Africa","TYPE":"Province"},"id":"ZA-WC"}
]}