{"type":"FeatureCollection", "features": [
{"type":"Feature","geometry":{"type":"Polygon","coordinates":[[[15.4468,66.3214],[15.7517,66.2675],[16.3208,66.0983],[16.4622,66.0494],[16.775,66.0208],[16.8961,65.9844],[17.3336,65.7994],[17.6817,65.6333],[17.9214,65.5908],[18.0953,65.5717],[18.1825,65.5724],[18.2815,65.5128],[18.5164,65.4472],[18.7566,65.404],[18.8189,65.3741],[19.159,65.2872],[19.2405,65.2508],[19.2509,65.2081],[19.4009,65.136],[19.4661,65.1355],[19.5725,65.1664],[19.6494,65.2214],[19.9053,65.3697],[20.1856,65.3214],[20.4983,65.2525],[20.8808,65.1803],[21.2431,65.1558],[21.5337,65.0587],[21.3808,64.9717],[21.2439,64.9478],[21.183,64.83],[21.0361,64.8244],[21.1069,64.7778],[21.215,64.7828],[21.3078,64.7614],[21.305,64.6619],[21.1619,64.7228],[21.1339,64.6739],[21.2714,64.6153],[21.3733,64.6053],[21.5542,64.5325],[21.4872,64.4836],[21.5847,64.4778],[21.6072,64.4425],[21.4581,64.3611],[21.2672,64.295],[21.235,64.3061],[20.9575,64.1394],[20.905,64.0494],[20.8956,64.0025],[20.7778,63.8692],[20.67,63.8303],[20.535,63.7992],[20.4942,63.8192],[20.4136,63.6911],[20.2986,63.6464],[20.2639,63.6658],[20.1,63.6558],[19.8994,63.6092],[19.7492,63.5167],[19.7792,63.4625],[19.705,63.4319],[19.6358,63.4467],[19.6164,63.4947],[19.5017,63.5494],[19.4244,63.5405],[19.4736,63.453],[19.3517,63.4353],[19.3092,63.4636],[19.2892,63.5003],[19.1356,63.6281],[18.9394,63.7572],[18.8119,63.7742],[18.545,63.8211],[18.4672,63.8503],[18.4364,63.9236],[18.4647,63.9514],[18.4158,63.9839],[18.3211,63.9728],[17.9578,63.8978],[17.8036,63.8717],[17.4797,63.8822],[16.8558,63.9308],[16.7419,63.9787],[16.6019,64.0547],[16.2189,64.2442],[16.0228,64.2355],[15.995,64.3158],[15.6042,64.4367],[15.5486,64.505],[15.42,64.5722],[15.3164,64.6553],[15.1555,64.7203],[15.0522,64.743],[14.9919,64.8075],[14.7447,64.9253],[14.5472,64.9944],[14.2964,65.1021],[14.3689,65.2467],[14.4931,65.3136],[14.5006,65.5858],[14.5322,65.6961],[14.6347,65.8269],[14.5405,66.0075],[14.505,66.1325],[15.0253,66.15],[15.468,66.2839],[15.4468,66.3214]]]},"properties":{"name":"Västerbotten","id":"SE-AC","CNTRY":"Sweden","TYPE":"län","TYPE_ENG":"County"},"id":"SE-AC"},
{"type":"Feature","geometry":{"type":"MultiPolygon","coordinates":[[[[18.5653,59.4475],[18.5228,59.4947],[18.6436,59.5567],[18.7389,59.5483],[18.5914,59.5011],[18.6069,59.4672],[18.5653,59.4475]]],[[[18.3775,59.0194],[18.3572,59.035],[18.4442,59.1158],[18.4906,59.0981],[18.4242,59.0364],[18.3775,59.0194]]],[[[17.7064,58.9044],[17.6411,58.9658],[17.6606,59.0397],[17.718,59.0181],[17.6878,58.9269],[17.7064,58.9044]]],[[[17.5897,59.6394],[17.7572,59.5839],[17.7867,59.5358],[17.72,59.4428],[17.5519,59.4886],[17.5461,59.537],[17.5431,59.573],[17.5295,59.601],[17.5897,59.6394]]],[[[17.7778,59.3086],[17.6719,59.3347],[17.6056,59.4167],[17.6506,59.4242],[17.7739,59.3728],[17.7778,59.3086]]],[[[17.2869,59.2591],[17.3642,59.2772],[17.362,59.3247],[17.4708,59.2964],[17.5858,59.2822],[17.8472,59.2645],[17.9845,59.3339],[18.0525,59.3164],[18.207,59.3294],[18.2722,59.3644],[18.3486,59.3733],[18.4786,59.3403],[18.428,59.4258],[18.5231,59.4211],[18.6078,59.3719],[18.6397,59.3092],[18.5222,59.2958],[18.3536,59.3055],[18.3167,59.2161],[18.3753,59.1422],[18.2214,59.117],[18.0214,59.0419],[17.8958,58.9097],[17.8947,58.8589],[17.7894,58.9431],[17.7567,59.0183],[17.7647,59.1239],[17.6639,59.1683],[17.6103,59.0344],[17.6289,59.0117],[17.5783,58.9505],[17.5495,58.9811],[17.3769,58.9803],[17.3056,59.0383],[17.2422,59.2036],[17.2869,59.2591]]],[[[18.5074,60.1527],[18.6394,60.1442],[18.8164,60.0964],[18.8231,60.0589],[18.8867,59.9628],[18.9297,59.9247],[19.0706,59.8897],[19.07,59.8386],[19.0258,59.8322],[18.9361,59.87],[18.8647,59.798],[19.0739,59.7742],[19.0322,59.72],[18.8414,59.7125],[18.7455,59.6892],[18.6944,59.6453],[18.7342,59.6325],[18.6456,59.5805],[18.3783,59.4675],[18.2706,59.475],[18.2595,59.4447],[18.3111,59.3908],[18.175,59.4055],[18.1958,59.4553],[18.1155,59.4531],[18.0467,59.3928],[18.0914,59.3344],[17.9411,59.3355],[17.8161,59.3711],[17.7589,59.4275],[17.8019,59.5147],[17.8453,59.533],[17.8228,59.5808],[17.7397,59.664],[17.8969,59.6892],[18.0725,59.7356],[18.1161,59.7814],[18.3733,59.865],[18.4481,59.9925],[18.5074,60.1527]]],[[[17.8175,59.2778],[17.6819,59.2897],[17.6108,59.313],[17.5205,59.4069],[17.5706,59.4286],[17.6228,59.3786],[17.6378,59.3205],[17.8175,59.2778]]],[[[18.5272,59.2231],[18.4355,59.2536],[18.3919,59.2903],[18.5036,59.2889],[18.6103,59.2542],[18.5272,59.2231]]]]},"properties":{"name":"Stockholm","id":"SE-AB","CNTRY":"Sweden","TYPE":"län","TYPE_ENG":"County"},"id":"SE-AB"},
{"type":"Feature","geometry":{"type":"Polygon","coordinates":[[[21.5337,65.0587],[21.2431,65.1558],[20.8808,65.1803],[20.4983,65.2525],[20.1856,65.3214],[19.9053,65.3697],[19.6494,65.2214],[19.5725,65.1664],[19.4661,65.1355],[19.4009,65.136],[19.2509,65.2081],[19.2405,65.2508],[19.159,65.2872],[18.8189,65.3741],[18.7566,65.404],[18.5164,65.4472],[18.2815,65.5128],[18.1825,65.5724],[18.0953,65.5717],[17.9214,65.5908],[17.6817,65.6333],[17.3336,65.7994],[16.8961,65.9844],[16.775,66.0208],[16.4622,66.0494],[16.3208,66.0983],[15.7517,66.2675],[15.4468,66.3214],[15.3628,66.48],[15.6258,66.6058],[16.01,66.8908],[16.3539,67.0178],[16.4058,67.1633],[16.3375,67.2608],[16.1042,67.3878],[16.0858,67.4116],[16.1922,67.5],[16.3825,67.5156],[16.5703,67.6569],[16.7269,67.8992],[17.1883,68.0303],[17.2736,68.0905],[17.5925,68.0297],[17.8311,67.9536],[17.8842,67.9455],[17.9397,67.9978],[18.1553,68.1661],[18.0458,68.4094],[18.0908,68.5078],[18.3581,68.5392],[18.6119,68.4753],[18.9522,68.4878],[19.8606,68.35],[19.9567,68.3447],[20.0303,68.395],[20.1672,68.4439],[20.2111,68.4822],[20.0881,68.5017],[19.9564,68.5439],[20.063,68.5831],[20.2025,68.6622],[20.3503,68.7867],[20.3147,68.9283],[20.0969,69.0422],[20.5353,69.0564],[20.8464,69.0119],[20.9286,68.9731],[20.8953,68.8936],[21.0814,68.8667],[21.2167,68.8161],[21.4206,68.7242],[21.5008,68.6683],[21.6011,68.6561],[21.7017,68.6208],[21.7183,68.5911],[21.8972,68.57],[22.0639,68.4761],[22.1675,68.4644],[22.3719,68.4636],[22.5817,68.4272],[22.6739,68.4208],[22.8236,68.388],[22.8997,68.3317],[23.067,68.2864],[23.1422,68.23],[23.1608,68.1736],[23.3236,68.1314],[23.3945,68.0425],[23.6489,67.9547],[23.6078,67.8975],[23.5111,67.8836],[23.47,67.8169],[23.5078,67.6655],[23.4311,67.4655],[23.4869,67.4381],[23.582,67.45],[23.7678,67.4161],[23.7831,67.3322],[23.7317,67.2817],[23.6055,67.2594],[23.5716,67.1567],[23.6811,67.0475],[23.9359,66.8842],[24.0078,66.8006],[23.937,66.7869],[23.89,66.743],[23.9028,66.6803],[23.8919,66.5817],[23.6589,66.4605],[23.6392,66.4305],[23.6619,66.3122],[23.7222,66.2003],[23.9308,66.1355],[23.9678,66.0725],[24.0314,66.0203],[24.1606,65.84],[24.1211,65.7989],[24.0403,65.8067],[23.9167,65.7578],[23.7739,65.7928],[23.6539,65.8064],[23.5183,65.8008],[23.4347,65.7605],[23.2422,65.8047],[23.1411,65.7147],[23.0811,65.6989],[22.8289,65.8153],[22.7903,65.8564],[22.6758,65.9022],[22.7047,65.8075],[22.685,65.7639],[22.4792,65.8511],[22.3578,65.8558],[22.3292,65.8297],[22.2578,65.6911],[22.249,65.6325],[22.3856,65.6289],[22.4236,65.5589],[22.3661,65.5542],[22.2063,65.5788],[21.8639,65.6667],[22.0225,65.5981],[22.1161,65.583],[22.1642,65.5331],[21.9369,65.508],[22.0303,65.4622],[22.0105,65.4239],[21.9294,65.398],[21.6758,65.3911],[21.5869,65.4164],[21.4683,65.3808],[21.5343,65.3273],[21.6219,65.323],[21.7047,65.2875],[21.6547,65.2442],[21.5653,65.2317],[21.4689,65.3109],[21.3381,65.3697],[21.2661,65.3333],[21.4172,65.3061],[21.5592,65.2108],[21.6214,65.1422],[21.5839,65.0628],[21.5337,65.0587]]]},"properties":{"name":"Norrbotten","id":"SE-BD","CNTRY":"Sweden","TYPE":"län","TYPE_ENG":"County"},"id":"SE-BD"},
{"type":"Feature","geometry":{"type":"MultiPolygon","coordinates":[[[[17.3771,60.619],[17.4061,60.6317],[17.5553,60.6433],[17.6497,60.6114],[17.6022,60.5806],[17.6536,60.507],[17.7311,60.4917],[17.733,60.5475],[17.7731,60.5711],[17.8806,60.5969],[17.9497,60.5972],[18.2081,60.3517],[18.4319,60.3439],[18.4658,60.2994],[18.6078,60.2372],[18.58,60.2244],[18.4406,60.2428],[18.3139,60.3014],[18.4217,60.1872],[18.5074,60.1527],[18.4481,59.9925],[18.3733,59.865],[18.1161,59.7814],[18.0725,59.7356],[17.8969,59.6892],[17.7397,59.664],[17.6608,59.6853],[17.6313,59.7841],[17.5878,59.8047],[17.4478,59.6883],[17.5105,59.5872],[17.5431,59.573],[17.5461,59.537],[17.4033,59.5533],[17.4192,59.4928],[17.3989,59.4692],[17.2619,59.5044],[17.1853,59.5386],[17.1172,59.5478],[17.0314,59.5364],[16.9397,59.5461],[16.865,59.5847],[16.8358,59.6761],[16.7789,59.735],[16.7225,59.7611],[16.7875,59.838],[16.9472,59.8594],[17.0206,59.8289],[17.0992,59.89],[17.1003,59.945],[17.1886,60.0042],[17.3019,60.0553],[17.3486,60.2203],[17.2578,60.2433],[17.1846,60.2959],[17.1986,60.352],[17.1725,60.3825],[17.2869,60.4455],[17.3771,60.619]]],[[[18.5617,60.3053],[18.4011,60.3653],[18.3717,60.4942],[18.4225,60.4867],[18.5072,60.3481],[18.5617,60.3053]]],[[[17.5897,59.6394],[17.5295,59.601],[17.5086,59.6933],[17.5375,59.7322],[17.6203,59.7264],[17.5897,59.6394]]]]},"properties":{"name":"Uppsala","id":"SE-C","CNTRY":"Sweden","TYPE":"län","TYPE_ENG":"County"},"id":"SE-C"},
{"type":"Feature","geometry":{"type":"MultiPolygon","coordinates":[[[[17.2564,59.3733],[17.1472,59.3867],[17.0897,59.46],[17.2669,59.4442],[17.3172,59.398],[17.2564,59.3733]]],[[[17.2869,59.2591],[17.2422,59.2036],[17.3056,59.0383],[17.3769,58.9803],[17.5495,58.9811],[17.5783,58.9505],[17.6306,58.915],[17.5528,58.8544],[17.4683,58.8053],[17.35,58.7522],[17.2711,58.7369],[17.1567,58.7328],[17.0936,58.7625],[17.0336,58.7428],[17.1342,58.7022],[17.0344,58.6372],[16.9153,58.6169],[16.7361,58.629],[16.7025,58.6661],[16.5928,58.6864],[16.3825,58.7011],[16.3572,58.7403],[16.2578,58.8192],[15.9503,58.9403],[15.8428,58.9958],[15.7981,58.9992],[15.618,58.9728],[15.6011,59.0419],[15.6839,59.0864],[15.7778,59.1094],[15.769,59.1937],[15.8489,59.2039],[15.8658,59.2608],[15.938,59.3175],[16.0053,59.345],[16.1692,59.3411],[16.2444,59.3514],[16.2708,59.3775],[16.2764,59.444],[16.3139,59.4519],[16.6595,59.4742],[16.8061,59.3905],[16.8508,59.4075],[16.6933,59.4761],[16.8289,59.4914],[16.8975,59.4675],[17.0352,59.3817],[17.1744,59.3731],[17.3106,59.3489],[17.2519,59.2697],[17.2869,59.2591]]]]},"properties":{"name":"Södermanland","id":"SE-D","CNTRY":"Sweden","TYPE":"län","TYPE_ENG":"County"},"id":"SE-D"},
{"type":"Feature","geometry":{"type":"Polygon","coordinates":[[[14.7854,58.6614],[14.8669,58.693],[14.9531,58.6905],[15.0208,58.7197],[15.05,58.7636],[15.2292,58.8544],[15.3967,58.8139],[15.5264,58.8822],[15.5205,58.9278],[15.618,58.9728],[15.7981,58.9992],[15.8428,58.9958],[15.9503,58.9403],[16.2578,58.8192],[16.3572,58.7403],[16.3825,58.7011],[16.5928,58.6864],[16.7025,58.6661],[16.7361,58.629],[16.4128,58.6589],[16.2422,58.6647],[16.1936,58.6275],[16.3706,58.6053],[16.4367,58.6414],[16.6494,58.6206],[16.7803,58.588],[16.9386,58.4842],[16.8347,58.445],[16.7378,58.4286],[16.6006,58.4469],[16.4756,58.4797],[16.4133,58.4747],[16.71,58.4036],[16.77,58.3672],[16.8258,58.1767],[16.7503,58.0128],[16.6393,57.9875],[16.6,58.0139],[16.5686,58.0692],[16.3614,58.11],[16.2328,58.1153],[16.1044,58.0747],[15.9858,58.0522],[15.9804,58.0131],[16.0003,57.9167],[16.0408,57.8642],[15.905,57.8011],[15.8083,57.8017],[15.695,57.8411],[15.5667,57.8222],[15.4303,57.7064],[15.42,57.6858],[15.1144,57.7017],[15.0564,57.7761],[14.9961,57.8942],[15.02,57.9606],[14.995,58.075],[14.933,58.1206],[14.8844,58.0878],[14.7644,58.0686],[14.7356,58.0839],[14.4142,58.0992],[14.3053,58.1097],[14.4122,58.263],[14.5708,58.4439],[14.7854,58.6614]]]},"properties":{"name":"Östergötland","id":"SE-E","CNTRY":"Sweden","TYPE":"län","TYPE_ENG":"County"},"id":"SE-E"},
{"type":"Feature","geometry":{"type":"Polygon","coordinates":[[[14.3053,58.1097],[14.4142,58.0992],[14.7356,58.0839],[14.7644,58.0686],[14.8844,58.0878],[14.933,58.1206],[14.995,58.075],[15.02,57.9606],[14.9961,57.8942],[15.0564,57.7761],[15.1144,57.7017],[15.42,57.6858],[15.5975,57.5969],[15.6183,57.4761],[15.5783,57.4308],[15.5019,57.4058],[15.4806,57.3025],[15.5011,57.1996],[15.3839,57.2133],[15.1289,57.2122],[14.9408,57.1269],[14.8892,57.1411],[14.8714,57.1825],[14.7853,57.2178],[14.7205,57.2139],[14.615,57.1844],[14.3406,57.1305],[14.3119,57.02],[14.3586,56.9875],[14.3603,56.9558],[14.3064,56.8905],[14.2233,56.883],[14.1811,56.9681],[14.133,57.0111],[14.0517,57.0394],[13.9503,57.0389],[13.7189,57.0225],[13.6682,56.9728],[13.5583,57.0042],[13.5583,57.0544],[13.4667,57.0839],[13.3497,57.1022],[13.1928,57.0744],[13.1528,57.0278],[13.0969,57.0136],[13.0504,57.1279],[13.1811,57.2381],[13.2883,57.3075],[13.3583,57.3289],[13.4986,57.4047],[13.63,57.5189],[13.6503,57.5544],[13.71,57.7483],[13.7205,57.8203],[13.7683,57.8069],[13.8781,57.8311],[13.9745,57.7853],[14.1094,57.8837],[14.1836,57.9611],[14.3053,58.1097]]]},"properties":{"name":"Jönköping","id":"SE-F","CNTRY":"Sweden","TYPE":"län","TYPE_ENG":"County"},"id":"SE-F"},
{"type":"Feature","geometry":{"type":"Polygon","coordinates":[[[13.6682,56.9728],[13.7189,57.0225],[13.9503,57.0389],[14.0517,57.0394],[14.133,57.0111],[14.1811,56.9681],[14.2233,56.883],[14.3064,56.8905],[14.3603,56.9558],[14.3586,56.9875],[14.3119,57.02],[14.3406,57.1305],[14.615,57.1844],[14.7205,57.2139],[14.7853,57.2178],[14.8714,57.1825],[14.8892,57.1411],[14.9408,57.1269],[15.1289,57.2122],[15.3839,57.2133],[15.5011,57.1996],[15.5425,57.1508],[15.7233,57.0683],[15.7958,57.0122],[15.8178,56.9767],[15.8047,56.9075],[15.6553,56.8981],[15.5436,56.9211],[15.525,56.8647],[15.3919,56.72],[15.3567,56.5533],[15.3581,56.4806],[15.3155,56.4569],[15.2042,56.4422],[15.0781,56.4403],[15.0025,56.4211],[14.9189,56.3686],[14.69,56.3736],[14.5917,56.4344],[14.5087,56.4473],[14.3919,56.47],[14.0742,56.5128],[14.0122,56.47],[13.8786,56.4403],[13.5419,56.3964],[13.4528,56.4083],[13.4506,56.5092],[13.3942,56.5647],[13.3183,56.6769],[13.295,56.7978],[13.3083,56.8561],[13.4778,56.8667],[13.5839,56.8808],[13.6494,56.9244],[13.6682,56.9728]]]},"properties":{"name":"Kronoberg","id":"SE-G","CNTRY":"Sweden","TYPE":"län","TYPE_ENG":"County"},"id":"SE-G"},
{"type":"Feature","geometry":{"type":"MultiPolygon","coordinates":[[[[16.4297,56.2089],[16.4033,56.2742],[16.3933,56.5292],[16.4203,56.5864],[16.5425,56.7764],[16.6167,56.8736],[16.7494,56.9397],[16.8481,57.0642],[16.9631,57.2294],[16.9592,57.2742],[17.01,57.3375],[17.0567,57.3592],[17.1242,57.3208],[17.0505,57.1867],[16.9267,57.0381],[16.8483,56.8439],[16.7703,56.7958],[16.6356,56.5189],[16.5705,56.3944],[16.5756,56.3614],[16.4961,56.2408],[16.4297,56.2089]]],[[[16.0547,56.3136],[15.9586,56.3067],[15.8503,56.3147],[15.7869,56.335],[15.6939,56.4075],[15.5525,56.4883],[15.3581,56.4806],[15.3567,56.5533],[15.3919,56.72],[15.525,56.8647],[15.5436,56.9211],[15.6553,56.8981],[15.8047,56.9075],[15.8178,56.9767],[15.7958,57.0122],[15.7233,57.0683],[15.5425,57.1508],[15.5011,57.1996],[15.4806,57.3025],[15.5019,57.4058],[15.5783,57.4308],[15.6183,57.4761],[15.5975,57.5969],[15.42,57.6858],[15.4303,57.7064],[15.5667,57.8222],[15.695,57.8411],[15.8083,57.8017],[15.905,57.8011],[16.0408,57.8642],[16.0003,57.9167],[15.9804,58.0131],[15.9858,58.0522],[16.1044,58.0747],[16.2328,58.1153],[16.3614,58.11],[16.5686,58.0692],[16.6,58.0139],[16.6393,57.9875],[16.7706,57.8844],[16.7417,57.8725],[16.6136,57.8922],[16.6028,57.9403],[16.4956,57.9855],[16.5097,57.8886],[16.5646,57.8554],[16.7033,57.7455],[16.7125,57.7],[16.5611,57.5656],[16.6325,57.5522],[16.6892,57.4853],[16.6714,57.4108],[16.6242,57.3744],[16.5461,57.3817],[16.4722,57.2903],[16.4603,57.1675],[16.5633,57.0939],[16.5847,57.0439],[16.4928,57.0392],[16.4544,56.9553],[16.4267,56.8436],[16.375,56.7208],[16.3081,56.655],[16.2725,56.6567],[16.2161,56.6072],[16.1239,56.4617],[16.0547,56.3136]]]]},"properties":{"name":"Kalmar","id":"SE-H","CNTRY":"Sweden","TYPE":"län","TYPE_ENG":"County"},"id":"SE-H"},
{"type":"Feature","geometry":{"type":"MultiPolygon","coordinates":[[[[19.0039,57.8989],[19.0333,57.8269],[18.9294,57.7397],[18.8092,57.7036],[18.7597,57.508],[18.7694,57.4672],[18.8089,57.4392],[18.7828,57.3664],[18.6719,57.3022],[18.7119,57.2417],[18.3914,57.13],[18.3392,57.0686],[18.3494,56.9903],[18.3025,56.9375],[18.1689,56.91],[18.1583,56.9417],[18.2567,57.0322],[18.2544,57.0792],[18.1733,57.1419],[18.1483,57.2353],[18.1581,57.3158],[18.1114,57.5194],[18.1792,57.5883],[18.2947,57.6458],[18.3819,57.7186],[18.4672,57.8119],[18.6819,57.9136],[18.725,57.9228],[18.8819,57.9197],[19.0039,57.8989]]],[[[19.1261,57.8397],[19.0778,57.8583],[19.0361,57.9186],[19.1047,57.9753],[19.2964,57.9767],[19.1417,57.9078],[19.1261,57.8397]]],[[[19.2369,58.3372],[19.225,58.3897],[19.3247,58.3697],[19.2369,58.3372]]]]},"properties":{"name":"Gotland","id":"SE-I","CNTRY":"Sweden","TYPE":"län","TYPE_ENG":"County"},"id":"SE-I"},
{"type":"Feature","geometry":{"type":"Polygon","coordinates":[[[14.5087,56.4473],[14.5917,56.4344],[14.69,56.3736],[14.9189,56.3686],[15.0025,56.4211],[15.0781,56.4403],[15.2042,56.4422],[15.3155,56.4569],[15.3581,56.4806],[15.5525,56.4883],[15.6939,56.4075],[15.7869,56.335],[15.8503,56.3147],[15.9586,56.3067],[16.0547,56.3136],[16.0083,56.2178],[15.8655,56.0922],[15.7886,56.1119],[15.7758,56.1478],[15.5981,56.1947],[15.3492,56.1342],[15.1136,56.1517],[15.0806,56.1686],[14.6967,56.1611],[14.6819,56.1155],[14.7147,56.0992],[14.7667,56.0303],[14.72,56.0003],[14.6353,56.0075],[14.6036,56.0519],[14.5414,56.0511],[14.5719,56.0803],[14.5744,56.13],[14.5519,56.2036],[14.4244,56.2114],[14.3789,56.2947],[14.4428,56.3944],[14.5087,56.4473]]]},"properties":{"name":"Blekinge","id":"SE-K","CNTRY":"Sweden","TYPE":"län","TYPE_ENG":"County"},"id":"SE-K"},
{"type":"Feature","geometry":{"type":"Polygon","coordinates":[[[14.5087,56.4473],[14.4428,56.3944],[14.3789,56.2947],[14.4244,56.2114],[14.5519,56.2036],[14.5744,56.13],[14.5719,56.0803],[14.5414,56.0511],[14.3303,55.9369],[14.2636,55.8861],[14.2172,55.8303],[14.1933,55.7667],[14.2033,55.7069],[14.277,55.6472],[14.3728,55.5378],[14.1935,55.3862],[14.1225,55.3794],[14.0375,55.3894],[13.9358,55.4314],[13.7306,55.4255],[13.6322,55.4158],[13.4658,55.3736],[13.3756,55.34],[13.29,55.3419],[12.9822,55.4005],[12.9181,55.5386],[12.9311,55.5811],[13.0347,55.6239],[13.0597,55.693],[12.6814,56.0619],[12.5778,56.1458],[12.4756,56.285],[12.6292,56.2589],[12.7187,56.2228],[12.7872,56.2222],[12.8331,56.2692],[12.7408,56.3522],[12.6367,56.3878],[12.6356,56.4422],[12.7325,56.4675],[12.8527,56.4399],[12.952,56.4153],[12.9528,56.3469],[13.1475,56.3311],[13.4528,56.4083],[13.5419,56.3964],[13.8786,56.4403],[14.0122,56.47],[14.0742,56.5128],[14.3919,56.47],[14.5087,56.4473]]]},"properties":{"name":"Skåne","id":"SE-M","CNTRY":"Sweden","TYPE":"län","TYPE_ENG":"County"},"id":"SE-M"},
{"type":"Feature","geometry":{"type":"Polygon","coordinates":[[[11.9111,57.5266],[12.0494,57.5136],[12.2428,57.5681],[12.2945,57.5408],[12.3739,57.3953],[12.3553,57.3108],[12.392,57.2561],[12.4686,57.2647],[12.5425,57.3111],[12.6689,57.3108],[12.9967,57.1614],[13.0504,57.1279],[13.0969,57.0136],[13.1528,57.0278],[13.1928,57.0744],[13.3497,57.1022],[13.4667,57.0839],[13.5583,57.0544],[13.5583,57.0042],[13.6682,56.9728],[13.6494,56.9244],[13.5839,56.8808],[13.4778,56.8667],[13.3083,56.8561],[13.295,56.7978],[13.3183,56.6769],[13.3942,56.5647],[13.4506,56.5092],[13.4528,56.4083],[13.1475,56.3311],[12.9528,56.3469],[12.952,56.4153],[12.8527,56.4399],[12.9108,56.4669],[12.9375,56.5211],[12.8875,56.6383],[12.8217,56.6583],[12.7253,56.6397],[12.6708,56.6761],[12.6136,56.7469],[12.5975,56.8133],[12.4847,56.8817],[12.3503,56.9144],[12.35,56.97],[12.2861,57.0325],[12.1253,57.2186],[12.1419,57.3136],[12.095,57.4269],[12.0117,57.4342],[11.9894,57.3475],[11.9014,57.4267],[11.9111,57.5266]]]},"properties":{"name":"Halland","id":"SE-N","CNTRY":"Sweden","TYPE":"län","TYPE_ENG":"County"},"id":"SE-N"},
{"type":"Feature","geometry":{"type":"MultiPolygon","coordinates":[[[[11.8064,58.1206],[11.6764,58.0989],[11.6067,58.1186],[11.4672,58.1014],[11.4106,58.1475],[11.6689,58.2844],[11.7367,58.2817],[11.8136,58.2136],[11.8064,58.1206]]],[[[14.2387,58.9982],[14.3728,58.79],[14.4458,58.7075],[14.5381,58.6853],[14.6731,58.6997],[14.7854,58.6614],[14.5708,58.4439],[14.4122,58.263],[14.3053,58.1097],[14.1836,57.9611],[14.1094,57.8837],[13.9745,57.7853],[13.8781,57.8311],[13.7683,57.8069],[13.7205,57.8203],[13.71,57.7483],[13.6503,57.5544],[13.63,57.5189],[13.4986,57.4047],[13.3583,57.3289],[13.2883,57.3075],[13.1811,57.2381],[13.0504,57.1279],[12.9967,57.1614],[12.6689,57.3108],[12.5425,57.3111],[12.4686,57.2647],[12.392,57.2561],[12.3553,57.3108],[12.3739,57.3953],[12.2945,57.5408],[12.2428,57.5681],[12.0494,57.5136],[11.9111,57.5266],[11.9133,57.6136],[11.8647,57.6028],[11.83,57.6614],[11.8878,57.6939],[11.7414,57.6886],[11.6997,57.7158],[11.723,57.8072],[11.6681,57.8458],[11.688,57.8817],[11.7572,57.8972],[11.8014,58.0264],[11.7767,58.0594],[11.8861,58.2119],[11.7869,58.3183],[11.7233,58.3289],[11.5361,58.2303],[11.4914,58.2467],[11.5139,58.2997],[11.6108,58.3933],[11.5508,58.3978],[11.5219,58.3294],[11.4506,58.2778],[11.3986,58.2592],[11.3111,58.3492],[11.2383,58.3469],[11.2014,58.3994],[11.2664,58.5794],[11.2478,58.6575],[11.1808,58.7092],[11.1817,58.7478],[11.2339,58.7969],[11.2314,58.8453],[11.1942,58.9175],[11.1069,58.95],[11.1133,59.0036],[11.1867,59.075],[11.315,59.1014],[11.35,59.0844],[11.4194,58.9897],[11.4392,58.8853],[11.4967,58.8847],[11.6267,58.9092],[11.7511,59.0903],[11.7394,59.1272],[11.7695,59.2175],[12.0047,59.1789],[12.0294,59.2325],[12.1814,59.2355],[12.2472,59.1789],[12.4231,59.1131],[12.5553,59.1053],[12.5769,59.1522],[12.6925,59.1322],[12.7997,58.9903],[12.9083,58.7886],[13.2306,58.7],[13.3997,58.7319],[13.333,58.7906],[13.3558,58.8558],[13.4183,58.9622],[13.5686,59.0378],[13.8644,59.0331],[14.0878,59.0356],[14.1855,59.0231],[14.2387,58.9982]]],[[[11.5944,57.9325],[11.5225,57.9519],[11.4981,58.0314],[11.53,58.0492],[11.7359,58.0417],[11.7342,57.9986],[11.5944,57.9325]]]]},"properties":{"name":"Västra Götaland","id":"SE-O","CNTRY":"Sweden","TYPE":"län","TYPE_ENG":"County"},"id":"SE-O"},
{"type":"Feature","geometry":{"type":"Polygon","coordinates":[[[12.6378,61.0575],[12.6964,60.9658],[13.1292,60.7425],[13.2428,60.6533],[13.4767,60.42],[13.5625,60.3914],[13.6714,60.3769],[13.7383,60.31],[13.9322,60.1653],[13.98,60.1764],[13.9953,60.2147],[14.0856,60.205],[14.1522,60.1708],[14.1572,60.1211],[14.1955,60.0822],[14.3633,60.0344],[14.4292,59.9977],[14.4422,59.9538],[14.3981,59.8875],[14.3958,59.7275],[14.4203,59.6258],[14.4672,59.5136],[14.4258,59.4244],[14.2778,59.3097],[14.245,59.1925],[14.2494,59.1531],[14.3136,59.0511],[14.2387,58.9982],[14.1855,59.0231],[14.0878,59.0356],[13.8644,59.0331],[13.5686,59.0378],[13.4183,58.9622],[13.3558,58.8558],[13.333,58.7906],[13.3997,58.7319],[13.2306,58.7],[12.9083,58.7886],[12.7997,58.9903],[12.6925,59.1322],[12.5769,59.1522],[12.5553,59.1053],[12.4231,59.1131],[12.2472,59.1789],[12.1814,59.2355],[12.0294,59.2325],[12.0047,59.1789],[11.7695,59.2175],[11.7983,59.2453],[11.7831,59.3247],[11.6662,59.5955],[11.7564,59.6356],[11.8283,59.6519],[11.8964,59.695],[11.9031,59.7383],[11.8811,59.8039],[11.816,59.8461],[11.9569,59.8969],[12.14,59.8883],[12.3236,59.9764],[12.4619,60.0636],[12.4983,60.1247],[12.5278,60.3342],[12.5897,60.3992],[12.6081,60.4686],[12.5944,60.5169],[12.5058,60.63],[12.3647,60.7794],[12.2719,60.9461],[12.21,61.0025],[12.4078,61.0539],[12.5672,61.048],[12.6378,61.0575]]]},"properties":{"name":"Värmland","id":"SE-S","CNTRY":"Sweden","TYPE":"län","TYPE_ENG":"County"},"id":"SE-S"},
{"type":"Feature","geometry":{"type":"Polygon","coordinates":[[[14.4292,59.9977],[14.7342,59.9692],[14.7081,60.0589],[14.7742,60.0855],[14.8664,60.0306],[14.9697,60.0461],[15.0389,60.0347],[15.1561,59.9936],[15.2364,59.9158],[15.4034,59.8352],[15.4761,59.7589],[15.5986,59.5775],[15.6744,59.5161],[15.7011,59.4053],[15.5983,59.3758],[15.5861,59.2786],[15.6783,59.2497],[15.7847,59.2311],[15.769,59.1937],[15.7778,59.1094],[15.6839,59.0864],[15.6011,59.0419],[15.618,58.9728],[15.5205,58.9278],[15.5264,58.8822],[15.3967,58.8139],[15.2292,58.8544],[15.05,58.7636],[15.0208,58.7197],[14.9531,58.6905],[14.8669,58.693],[14.7854,58.6614],[14.6731,58.6997],[14.5381,58.6853],[14.4458,58.7075],[14.3728,58.79],[14.2387,58.9982],[14.3136,59.0511],[14.2494,59.1531],[14.245,59.1925],[14.2778,59.3097],[14.4258,59.4244],[14.4672,59.5136],[14.4203,59.6258],[14.3958,59.7275],[14.3981,59.8875],[14.4422,59.9538],[14.4292,59.9977]]]},"properties":{"name":"Örebro","id":"SE-T","CNTRY":"Sweden","TYPE":"län","TYPE_ENG":"County"},"id":"SE-T"},
{"type":"Feature","geometry":{"type":"MultiPolygon","coordinates":[[[[19.3092,63.4636],[19.2306,63.3275],[19.1233,63.2617],[19.0667,63.1786],[18.9725,63.21],[18.9561,63.2453],[18.8897,63.2736],[18.8061,63.2503],[18.8839,63.2271],[18.8975,63.1917],[18.7847,63.1619],[18.7392,63.1678],[18.5669,63.1175],[18.4892,63.0353],[18.5764,62.9511],[18.4669,62.8583],[18.1994,62.7761],[18.0828,62.7811],[18.1378,62.8206],[18.0372,62.8392],[17.9747,62.8114],[18.0047,62.6933],[17.8853,62.6561],[18.0455,62.6236],[18.0625,62.5942],[17.8433,62.4872],[17.7672,62.5033],[17.6586,62.4733],[17.6714,62.4378],[17.5383,62.45],[17.4375,62.53],[17.4014,62.5344],[17.3255,62.4803],[17.3758,62.3244],[17.4653,62.2655],[17.6239,62.2394],[17.5567,62.1955],[17.508,62.2006],[17.4833,62.1251],[17.2114,62.1461],[16.9255,62.1733],[16.735,62.1997],[16.4461,62.2283],[16.2836,62.2269],[15.9806,62.2586],[15.6564,62.3233],[15.4844,62.32],[15.324,62.2555],[15.2322,62.2714],[15.1411,62.2383],[14.9333,62.2933],[14.7883,62.3878],[14.7572,62.5728],[15.0142,62.5744],[15.1275,62.5447],[15.3094,62.5855],[15.4139,62.5928],[15.6858,62.6267],[15.9972,62.6922],[16.1194,62.6697],[16.3358,62.6867],[16.4058,62.7028],[16.4803,62.7817],[16.7169,62.9055],[16.9464,62.9247],[17.0047,62.9361],[16.5794,63.1636],[16.5125,63.1944],[16.1172,63.3397],[15.9619,63.4853],[15.9342,63.5461],[15.8078,63.6147],[15.7964,63.6364],[15.9253,63.6578],[16.1339,63.6678],[16.2861,63.6675],[16.5758,63.7244],[16.5628,63.7931],[16.6128,63.885],[16.7419,63.9787],[16.8558,63.9308],[17.4797,63.8822],[17.8036,63.8717],[17.9578,63.8978],[18.3211,63.9728],[18.4158,63.9839],[18.4647,63.9514],[18.4364,63.9236],[18.4672,63.8503],[18.545,63.8211],[18.8119,63.7742],[18.9394,63.7572],[19.1356,63.6281],[19.2892,63.5003],[19.3092,63.4636]]],[[[18.0497,62.67],[18.0192,62.7003],[18.0392,62.7356],[18.1414,62.7392],[18.155,62.7122],[18.0497,62.67]]],[[[17.4847,62.3631],[17.4222,62.3725],[17.4061,62.4669],[17.4722,62.4583],[17.5222,62.3775],[17.4847,62.3631]]]]},"properties":{"name":"Västmanland","id":"SE-U","CNTRY":"Sweden","TYPE":"län","TYPE_ENG":"County"},"id":"SE-U"},
{"type":"Feature","geometry":{"type":"Polygon","coordinates":[[[12.2946,62.2582],[12.4503,62.2122],[12.5414,62.1972],[12.6994,62.2031],[12.7678,62.1953],[12.9822,62.0558],[13.1164,62.0131],[13.2547,62.0383],[13.3403,61.9939],[13.1942,61.9275],[13.475,61.7158],[13.4742,61.6705],[13.5153,61.6336],[13.6869,61.6192],[14.2725,61.5908],[14.3708,61.55],[14.4385,61.5701],[14.6558,61.5733],[14.6917,61.5125],[14.6897,61.4739],[14.7672,61.4633],[15.0567,61.4653],[15.1319,61.5186],[15.3553,61.3733],[15.6578,61.2047],[15.7325,61.0669],[15.8189,61.0158],[15.9603,60.9806],[16.1528,60.96],[16.2725,60.8514],[16.3875,60.7717],[16.3967,60.7133],[16.255,60.6028],[16.1547,60.5833],[16.2192,60.478],[16.3864,60.368],[16.5405,60.32],[16.6139,60.2286],[16.6853,60.1878],[16.6055,60.1626],[16.3464,60.0628],[16.275,60.0492],[16.1625,60.0506],[16.1442,60.1139],[16.0119,60.1694],[15.7789,60.1442],[15.7428,60.1261],[15.6767,60.0078],[15.7128,59.9917],[15.6681,59.9255],[15.4989,59.9275],[15.4034,59.8352],[15.2364,59.9158],[15.1561,59.9936],[15.0389,60.0347],[14.9697,60.0461],[14.8664,60.0306],[14.7742,60.0855],[14.7081,60.0589],[14.7342,59.9692],[14.4292,59.9977],[14.3633,60.0344],[14.1955,60.0822],[14.1572,60.1211],[14.1522,60.1708],[14.0856,60.205],[13.9953,60.2147],[13.98,60.1764],[13.9322,60.1653],[13.7383,60.31],[13.6714,60.3769],[13.5625,60.3914],[13.4767,60.42],[13.2428,60.6533],[13.1292,60.7425],[12.6964,60.9658],[12.6378,61.0575],[12.7722,61.2008],[12.8561,61.3625],[12.53,61.5661],[12.3928,61.5805],[12.1244,61.7286],[12.2946,62.2582]]]},"properties":{"name":"Dalarna","id":"SE-W","CNTRY":"Sweden","TYPE":"län","TYPE_ENG":"County"},"id":"SE-W"},
{"type":"Feature","geometry":{"type":"Polygon","coordinates":[[[15.324,62.2555],[15.4844,62.32],[15.6564,62.3233],[15.9806,62.2586],[16.2836,62.2269],[16.4461,62.2283],[16.735,62.1997],[16.9255,62.1733],[17.2114,62.1461],[17.4833,62.1251],[17.4636,62.0064],[17.3933,61.9855],[17.3453,61.9264],[17.3364,61.8181],[17.3857,61.7565],[17.5236,61.7017],[17.5011,61.6397],[17.4328,61.6311],[17.3861,61.6919],[17.3394,61.7125],[17.2208,61.7231],[17.263,61.6711],[17.19,61.6361],[17.1008,61.6392],[17.1178,61.5556],[17.1681,61.5175],[17.2228,61.4419],[17.1047,61.3917],[17.2047,61.3286],[17.2747,61.3178],[17.2039,61.2203],[17.1506,60.945],[17.2411,60.8958],[17.2761,60.843],[17.2769,60.7294],[17.1961,60.7011],[17.3597,60.6405],[17.3771,60.619],[17.2869,60.4455],[17.1725,60.3825],[17.1986,60.352],[17.1846,60.2959],[17.0597,60.2486],[16.909,60.2697],[16.8444,60.2092],[16.7442,60.1786],[16.6853,60.1878],[16.6139,60.2286],[16.5405,60.32],[16.3864,60.368],[16.2192,60.478],[16.1547,60.5833],[16.255,60.6028],[16.3967,60.7133],[16.3875,60.7717],[16.2725,60.8514],[16.1528,60.96],[15.9603,60.9806],[15.8189,61.0158],[15.7325,61.0669],[15.6578,61.2047],[15.3553,61.3733],[15.1319,61.5186],[15.0567,61.4653],[14.7672,61.4633],[14.6897,61.4739],[14.6917,61.5125],[14.6558,61.5733],[14.4385,61.5701],[14.4803,61.5925],[14.5294,61.7867],[14.6595,61.8792],[14.7042,61.8633],[14.7533,61.7961],[14.8083,61.7819],[15.0114,61.8475],[15.0489,61.8739],[15.0742,61.9981],[15.3531,62.1039],[15.3922,62.1403],[15.3811,62.1708],[15.3039,62.2333],[15.324,62.2555]]]},"properties":{"name":"Gävleborg","id":"SE-X","CNTRY":"Sweden","TYPE":"län","TYPE_ENG":"County"},"id":"SE-X"},
{"type":"Feature","geometry":{"type":"Polygon","coordinates":[[[16.6853,60.1878],[16.7442,60.1786],[16.8444,60.2092],[16.909,60.2697],[17.0597,60.2486],[17.1846,60.2959],[17.2578,60.2433],[17.3486,60.2203],[17.3019,60.0553],[17.1886,60.0042],[17.1003,59.945],[17.0992,59.89],[17.0206,59.8289],[16.9472,59.8594],[16.7875,59.838],[16.7225,59.7611],[16.7789,59.735],[16.8358,59.6761],[16.865,59.5847],[16.7869,59.5589],[16.6617,59.548],[16.5653,59.6092],[16.4975,59.5869],[16.5475,59.5569],[16.4892,59.502],[16.3336,59.4633],[16.1686,59.4653],[16.1814,59.4394],[16.2764,59.444],[16.2708,59.3775],[16.2444,59.3514],[16.1692,59.3411],[16.0053,59.345],[15.938,59.3175],[15.8658,59.2608],[15.8489,59.2039],[15.769,59.1937],[15.7847,59.2311],[15.6783,59.2497],[15.5861,59.2786],[15.5983,59.3758],[15.7011,59.4053],[15.6744,59.5161],[15.5986,59.5775],[15.4761,59.7589],[15.4034,59.8352],[15.4989,59.9275],[15.6681,59.9255],[15.7128,59.9917],[15.6767,60.0078],[15.7428,60.1261],[15.7789,60.1442],[16.0119,60.1694],[16.1442,60.1139],[16.1625,60.0506],[16.275,60.0492],[16.3464,60.0628],[16.6055,60.1626],[16.6853,60.1878]]]},"properties":{"name":"Västernorrland","id":"SE-Y","CNTRY":"Sweden","TYPE":"län","TYPE_ENG":"County"},"id":"SE-Y"},
{"type":"Feature","geometry":{"type":"Polygon","coordinates":[[[14.2964,65.1021],[14.5472,64.9944],[14.7447,64.9253],[14.9919,64.8075],[15.0522,64.743],[15.1555,64.7203],[15.3164,64.6553],[15.42,64.5722],[15.5486,64.505],[15.6042,64.4367],[15.995,64.3158],[16.0228,64.2355],[16.2189,64.2442],[16.6019,64.0547],[16.7419,63.9787],[16.6128,63.885],[16.5628,63.7931],[16.5758,63.7244],[16.2861,63.6675],[16.1339,63.6678],[15.9253,63.6578],[15.7964,63.6364],[15.8078,63.6147],[15.9342,63.5461],[15.9619,63.4853],[16.1172,63.3397],[16.5125,63.1944],[16.5794,63.1636],[17.0047,62.9361],[16.9464,62.9247],[16.7169,62.9055],[16.4803,62.7817],[16.4058,62.7028],[16.3358,62.6867],[16.1194,62.6697],[15.9972,62.6922],[15.6858,62.6267],[15.4139,62.5928],[15.3094,62.5855],[15.1275,62.5447],[15.0142,62.5744],[14.7572,62.5728],[14.7883,62.3878],[14.9333,62.2933],[15.1411,62.2383],[15.2322,62.2714],[15.324,62.2555],[15.3039,62.2333],[15.3811,62.1708],[15.3922,62.1403],[15.3531,62.1039],[15.0742,61.9981],[15.0489,61.8739],[15.0114,61.8475],[14.8083,61.7819],[14.7533,61.7961],[14.7042,61.8633],[14.6595,61.8792],[14.5294,61.7867],[14.4803,61.5925],[14.4385,61.5701],[14.3708,61.55],[14.2725,61.5908],[13.6869,61.6192],[13.5153,61.6336],[13.4742,61.6705],[13.475,61.7158],[13.1942,61.9275],[13.3403,61.9939],[13.2547,62.0383],[13.1164,62.0131],[12.9822,62.0558],[12.7678,62.1953],[12.6994,62.2031],[12.5414,62.1972],[12.4503,62.2122],[12.2946,62.2582],[12.1997,62.4047],[12.0847,62.5292],[12.0475,62.59],[12.0467,62.6653],[12.0895,62.7494],[12.0289,62.8925],[12.1686,63.0158],[12.0369,63.1739],[11.9364,63.2722],[12.195,63.4853],[12.1394,63.5842],[12.3467,63.7289],[12.4731,63.8333],[12.6339,63.9428],[12.8469,64.0253],[12.9883,64.0644],[13.23,64.093],[13.9817,64.013],[14.1547,64.1858],[14.1514,64.3336],[14.1164,64.4706],[13.9008,64.5075],[13.6633,64.5772],[13.7075,64.6397],[13.8328,64.7333],[14.0914,64.9492],[14.2353,65.0489],[14.2964,65.1021]]]},"properties":{"name":"Jämtland","id":"SE-Z","CNTRY":"Sweden","TYPE":"län","TYPE_ENG":"County"},"id":"SE-Z"}
]}