{"type":"FeatureCollection", "features": [
{"type":"Feature","geometry":{"type":"Polygon","coordinates":[[[70.6325,40.9708],[70.6699,40.9322],[70.6838,40.9063],[70.6794,40.9006],[70.6106,40.9713],[70.5843,40.986],[70.5623,40.9864],[70.5581,40.9975],[70.5739,41.0082],[70.5999,40.9998],[70.6325,40.9708]]]},"properties":{"name":"Sughd","id":"TJ-SU","NAME_ENG":"Sughd","CNTRY":"Tajikistan","TYPE":"Viloyat","TYPE_ENG":"Region"},"id":"TJ-SU"},
{"type":"Feature","geometry":{"type":"Polygon","coordinates":[[[72.2258,40.496],[72.2233,40.5555],[72.2166,40.5694],[72.13,40.5905],[72.0814,40.598],[72.0689,40.5952],[71.8689,40.621],[71.8203,40.678],[71.8069,40.6888],[71.7416,40.7144],[71.6517,40.7244],[71.6472,40.7005],[71.5817,40.7741],[71.6228,40.7941],[71.5753,40.838],[71.6192,40.8691],[71.645,40.8823],[71.8308,40.9183],[71.9103,40.9177],[71.9386,40.9044],[72.0105,40.8921],[72.0422,40.8897],[72.1478,40.8969],[72.1678,40.9088],[72.195,41.005],[72.2148,41.0027],[72.2765,41.0249],[72.2929,41.0278],[72.3191,41.0429],[72.3436,41.0632],[72.3905,41.0557],[72.4115,41.0445],[72.4306,41.0436],[72.4478,41.0372],[72.4664,41.0386],[72.4976,41.0306],[72.5032,41.0113],[72.5009,41.0008],[72.4832,40.9759],[72.5108,40.982],[72.5299,40.9717],[72.5586,40.9347],[72.5711,40.9233],[72.5755,40.8905],[72.5921,40.8815],[72.618,40.8757],[72.6808,40.8556],[72.6927,40.8588],[72.7321,40.854],[72.7724,40.8638],[72.787,40.8602],[72.8348,40.8695],[72.8505,40.8691],[72.8682,40.8617],[72.9011,40.8343],[72.9093,40.8171],[72.9272,40.8119],[72.9523,40.8168],[72.9788,40.8351],[72.999,40.8388],[72.9958,40.8476],[72.9757,40.8623],[72.9848,40.8856],[72.9992,40.8893],[73.0211,40.8652],[73.0405,40.8619],[73.065,40.8494],[73.0855,40.858],[73.118,40.8568],[73.1272,40.8506],[73.1323,40.8347],[73.123,40.8061],[73.1039,40.7909],[73.0417,40.771],[73.0057,40.7671],[72.9921,40.7529],[72.967,40.7396],[72.9181,40.7203],[72.8993,40.7169],[72.8703,40.7047],[72.8486,40.6889],[72.8153,40.6807],[72.7908,40.6831],[72.7671,40.6755],[72.778,40.6497],[72.7597,40.6328],[72.7635,40.5876],[72.7621,40.57],[72.7481,40.5665],[72.7161,40.5875],[72.6835,40.5932],[72.6756,40.5745],[72.6536,40.5603],[72.6491,40.537],[72.6367,40.5194],[72.6131,40.5175],[72.583,40.536],[72.5512,40.537],[72.5164,40.5577],[72.5055,40.5607],[72.4862,40.5565],[72.4566,40.5841],[72.4448,40.6005],[72.4061,40.623],[72.3847,40.616],[72.361,40.6158],[72.3556,40.6022],[72.3799,40.596],[72.3967,40.574],[72.4194,40.5686],[72.4283,40.5594],[72.4199,40.5437],[72.3975,40.542],[72.3912,40.5231],[72.4145,40.5248],[72.4201,40.5188],[72.425,40.4944],[72.4409,40.4733],[72.4162,40.4293],[72.4208,40.4049],[72.4105,40.4012],[72.3688,40.4121],[72.3353,40.4384],[72.3148,40.4477],[72.2977,40.4427],[72.2735,40.4615],[72.2541,40.4612],[72.2444,40.4696],[72.2516,40.4883],[72.2405,40.497],[72.2258,40.496]]]},"properties":{"name":"Andijon","id":"UZ-AN","NAME_ENG":"Andijan","CNTRY":"Uzbekistan","TYPE":"Viloyat","TYPE_ENG":"Region"},"id":"UZ-AN"},
{"type":"Feature","geometry":{"type":"Polygon","coordinates":[[[65.1066,39.448],[65.025,39.3878],[64.9525,39.3505],[64.9403,39.3486],[64.845,39.2694],[64.8375,39.2522],[64.8406,39.2378],[64.8561,39.2175],[64.8739,39.2028],[64.8967,39.1744],[64.8906,39.1641],[64.4986,39.0522],[64.3772,38.947],[64.3311,38.9858],[64.2969,38.9814],[64.2514,38.9609],[64.2297,38.9565],[64.1771,38.9592],[64.1587,38.9663],[64.095,39.0074],[64.0328,39.0411],[63.8858,39.129],[63.8465,39.1488],[63.7454,39.2067],[63.7169,39.2284],[63.6921,39.2518],[63.6601,39.2893],[63.5828,39.3475],[63.5391,39.3836],[63.4532,39.4307],[63.3585,39.4748],[63.2621,39.5275],[63.1704,39.5741],[62.9486,39.6961],[62.798,39.7758],[62.4879,39.9514],[62.4623,39.9697],[62.4427,39.9911],[62.4298,40.0357],[62.427,40.0648],[62.3965,40.0993],[62.3971,40.11],[62.4119,40.1299],[62.4138,40.1735],[62.4055,40.1903],[62.4025,40.2107],[62.3898,40.2445],[62.3843,40.2861],[62.392,40.3012],[62.3915,40.3179],[62.3751,40.34],[62.35,40.3575],[62.3346,40.3749],[62.3332,40.3834],[62.3439,40.409],[62.3495,40.4383],[62.3208,40.4469],[62.2923,40.4608],[62.2637,40.4848],[62.2363,40.4941],[62.2077,40.5085],[62.199,40.5177],[62.335,40.6433],[62.4342,40.7278],[62.4514,40.7903],[62.4519,40.8156],[62.4372,40.8344],[62.3094,40.9442],[62.2394,40.9988],[62.4761,41.0817],[62.1778,41.3949],[62.19,41.3994],[62.2694,41.4144],[62.5625,41.4666],[62.5853,41.468],[62.6575,41.3589],[62.6875,41.3253],[62.7342,41.2875],[62.7858,41.2622],[62.8625,41.2311],[62.8964,41.2053],[62.9414,41.1341],[62.9717,41.05],[62.9839,41.0272],[63.0031,41.0286],[63.0128,41.0347],[63.0569,41.0355],[63.1253,41.0205],[63.2417,40.9828],[63.425,40.9072],[63.6378,40.8136],[63.6836,40.7861],[63.6958,40.7689],[63.703,40.7444],[63.6928,40.7078],[63.7664,40.7092],[63.8233,40.713],[63.8353,40.7161],[63.9517,40.9164],[63.9742,40.9344],[64.0217,40.9536],[64.0406,40.9511],[64.0767,40.9194],[64.0789,40.7944],[64.4292,40.7633],[64.4333,40.7714],[64.4511,40.8453],[64.4633,40.8483],[64.5719,40.8578],[64.6539,40.8589],[64.703,40.865],[64.7275,40.9091],[64.743,40.9436],[64.7528,40.9466],[64.7739,40.9431],[64.7908,40.8967],[64.8372,40.7303],[64.8619,40.7122],[64.9014,40.6997],[65.0881,40.68],[65.2164,40.6697],[65.3889,40.6508],[65.3586,40.498],[65.2722,40.4517],[65.2686,40.4347],[65.2372,40.3664],[65.1647,40.2978],[65.1508,40.2878],[65.1305,40.2814],[65.0472,40.2853],[64.9844,40.2942],[64.9411,40.3105],[64.9233,40.3236],[64.88,40.3453],[64.8355,40.3472],[64.8114,40.3391],[64.8036,40.3289],[64.8114,40.2739],[64.8016,40.2016],[64.7739,40.1069],[64.7191,40.0275],[64.673,39.9864],[64.5778,39.9419],[64.5586,39.9364],[64.5278,39.8911],[64.6202,39.7944],[64.6458,39.7753],[64.7986,39.7308],[64.8219,39.7297],[64.8914,39.7427],[64.9975,39.6811],[65.0925,39.5239],[65.1003,39.5047],[65.1066,39.448]]]},"properties":{"name":"Buxoro","id":"UZ-BU","NAME_ENG":"Buxoro","CNTRY":"Uzbekistan","TYPE":"Viloyat","TYPE_ENG":"Region"},"id":"UZ-BU"},
{"type":"Feature","geometry":{"type":"Polygon","coordinates":[[[70.7894,40.7242],[70.8025,40.7299],[70.9078,40.7505],[70.9808,40.7605],[71.1269,40.7621],[71.1189,40.7499],[71.0894,40.7227],[71.1075,40.6902],[71.148,40.6597],[71.2689,40.6147],[71.2939,40.6202],[71.3591,40.6672],[71.3755,40.6836],[71.3917,40.7074],[71.4183,40.7205],[71.5072,40.7572],[71.5817,40.7741],[71.6472,40.7005],[71.6517,40.7244],[71.7416,40.7144],[71.8069,40.6888],[71.8203,40.678],[71.8689,40.621],[72.0689,40.5952],[72.0814,40.598],[72.13,40.5905],[72.2166,40.5694],[72.2233,40.5555],[72.2258,40.496],[72.1835,40.4982],[72.1726,40.4754],[72.1525,40.4573],[72.1345,40.4522],[72.1024,40.4653],[72.0925,40.4481],[72.1022,40.4198],[72.0854,40.4024],[72.0775,40.3864],[72.0479,40.3796],[72.0254,40.3575],[72.0144,40.3512],[71.9971,40.3324],[71.9714,40.3239],[71.9512,40.3096],[71.9533,40.297],[71.9743,40.2932],[71.9956,40.2784],[71.9942,40.2704],[71.97,40.2532],[71.9601,40.2353],[71.9395,40.2246],[71.926,40.2249],[71.8987,40.2401],[71.8551,40.2479],[71.8447,40.2414],[71.8429,40.2291],[71.8588,40.2103],[71.8593,40.2014],[71.843,40.1932],[71.8313,40.1937],[71.7776,40.1674],[71.7491,40.1603],[71.7291,40.1494],[71.7162,40.1508],[71.7062,40.1649],[71.6806,40.1872],[71.6842,40.2186],[71.6802,40.232],[71.6543,40.2531],[71.611,40.2524],[71.6085,40.2386],[71.6137,40.2147],[71.6022,40.1869],[71.5846,40.2028],[71.5511,40.1996],[71.5311,40.2093],[71.4928,40.2224],[71.4881,40.2313],[71.4922,40.2537],[71.4869,40.2624],[71.4588,40.2628],[71.4256,40.2695],[71.3884,40.2982],[71.3688,40.305],[71.3446,40.3005],[71.3362,40.3162],[71.3031,40.3057],[71.2868,40.304],[71.2777,40.31],[71.2773,40.3267],[71.244,40.3248],[71.2221,40.3305],[71.1827,40.3302],[71.1527,40.3224],[71.1182,40.3193],[71.063,40.2898],[71.0207,40.2841],[70.976,40.2691],[70.9632,40.2599],[70.9698,40.2446],[70.9676,40.2285],[70.9161,40.2274],[70.868,40.223],[70.8312,40.2021],[70.7779,40.1839],[70.7437,40.1784],[70.7134,40.1765],[70.6456,40.165],[70.6276,40.1707],[70.6021,40.2062],[70.5951,40.2208],[70.5797,40.2272],[70.571,40.2447],[70.5725,40.2658],[70.5806,40.2822],[70.5686,40.3112],[70.5717,40.3257],[70.5505,40.3459],[70.4876,40.3674],[70.4523,40.3729],[70.4308,40.3796],[70.4044,40.3725],[70.3852,40.3765],[70.3681,40.4009],[70.3556,40.4077],[70.3525,40.42],[70.3327,40.4492],[70.3342,40.4626],[70.3518,40.4662],[70.3733,40.4795],[70.3993,40.4832],[70.423,40.4927],[70.4673,40.5046],[70.4847,40.5045],[70.4948,40.5114],[70.4973,40.5247],[70.5069,40.532],[70.5141,40.5533],[70.5356,40.5582],[70.5522,40.5571],[70.5625,40.563],[70.5874,40.566],[70.6062,40.5842],[70.6303,40.6209],[70.6522,40.6301],[70.6668,40.6421],[70.69,40.6509],[70.6989,40.6591],[70.7198,40.6627],[70.7355,40.6576],[70.7325,40.6848],[70.7597,40.6851],[70.7691,40.6946],[70.7756,40.7112],[70.7894,40.7242]]]},"properties":{"name":"Farg`ona","id":"UZ-FA","NAME_ENG":"Fergana","CNTRY":"Uzbekistan","TYPE":"Viloyat","TYPE_ENG":"Region"},"id":"UZ-FA"},
{"type":"Feature","geometry":{"type":"Polygon","coordinates":[[[67.4325,39.4885],[67.3344,39.5525],[67.3122,39.57],[67.298,39.5861],[67.2936,39.6019],[67.293,39.6717],[67.2953,39.6778],[67.365,39.7653],[67.3964,39.7894],[67.443,39.8067],[67.4764,39.8131],[67.5044,39.8155],[67.5028,39.8325],[67.4797,39.9319],[67.475,39.9358],[67.2183,39.978],[67.1142,39.9847],[67.0683,39.998],[66.9422,40.0633],[66.9347,40.125],[66.9369,40.1308],[66.9689,40.1383],[66.9786,40.1605],[66.98,40.1739],[66.9489,40.2205],[66.9086,40.248],[66.8906,40.3161],[66.8883,40.3811],[66.8914,40.3939],[66.9094,40.4242],[66.9091,40.4422],[66.8883,40.4783],[66.7886,40.48],[66.62,40.4951],[66.6358,40.5247],[66.7317,40.6664],[66.7991,40.7539],[66.8052,40.7661],[66.7714,40.8789],[66.7608,40.8914],[66.6686,40.9086],[66.648,40.918],[66.6325,40.9389],[66.608,41.1133],[66.753,41.1169],[66.7595,41.1648],[66.7642,41.1641],[66.7753,41.2419],[67.1518,41.2205],[67.2522,41.2119],[67.3112,41.2118],[67.3295,41.2026],[67.3484,41.2006],[67.3754,41.2073],[67.4028,41.2106],[67.7363,41.2028],[67.7667,41.1819],[67.7856,41.178],[67.8298,41.1374],[67.9016,41.0868],[67.9335,41.1082],[67.9518,41.0887],[68.0176,41.121],[68.0476,41.1001],[68.0602,41.1043],[68.0774,41.0966],[68.0239,41.0878],[67.9935,41.0637],[68.0235,41.0071],[67.9914,40.983],[67.9931,40.8974],[67.9051,40.8949],[67.8894,40.8576],[67.9205,40.8247],[67.9732,40.8135],[68.0982,40.7575],[68.1757,40.6913],[68.2578,40.6692],[68.2674,40.6629],[68.2636,40.6161],[68.2564,40.6061],[68.2161,40.6078],[68.1706,40.5989],[68.1602,40.5181],[68.1636,40.5136],[68.2094,40.5305],[68.2167,40.5161],[68.2,40.483],[68.093,40.3005],[68.0886,40.2753],[68.0991,40.2444],[68.1136,40.2283],[68.2622,40.2225],[68.3611,40.2253],[68.448,40.2389],[68.4972,40.2519],[68.6517,40.2792],[68.6583,40.2678],[68.6364,40.1616],[68.5383,40.1406],[68.5332,40.1306],[68.5518,40.1174],[68.6084,40.0918],[68.6352,40.0923],[68.6816,40.0997],[68.7099,40.109],[68.772,40.1224],[68.7987,40.1316],[68.8729,40.1463],[68.9091,40.1499],[68.9774,40.1517],[68.9956,40.1409],[69.0044,40.1196],[69.0142,40.0802],[69.0072,40.0692],[68.9911,40.0681],[68.9579,40.0742],[68.9221,40.0738],[68.8894,40.068],[68.8641,40.0533],[68.8594,40.0361],[68.8462,40.0384],[68.8398,40.0599],[68.8239,40.0782],[68.7973,40.0765],[68.7915,40.063],[68.8194,40.038],[68.8205,40.0274],[68.8124,40],[68.8447,39.9768],[68.9012,39.9228],[68.9129,39.9043],[68.9095,39.8805],[68.8941,39.8683],[68.8767,39.8668],[68.8632,39.8719],[68.8501,39.8875],[68.8487,39.9173],[68.8195,39.9706],[68.8039,39.9853],[68.7851,39.9829],[68.7842,39.9579],[68.8066,39.9249],[68.8241,39.8929],[68.8249,39.8814],[68.8093,39.8635],[68.7893,39.8601],[68.7829,39.8535],[68.777,39.8297],[68.7619,39.8243],[68.7497,39.8312],[68.743,39.8525],[68.7261,39.8672],[68.7162,39.8693],[68.6844,39.8489],[68.6734,39.8539],[68.6473,39.8564],[68.6454,39.8372],[68.652,39.8093],[68.645,39.7874],[68.6225,39.7486],[68.595,39.7434],[68.586,39.7349],[68.5919,39.7243],[68.6326,39.6794],[68.6266,39.6507],[68.5755,39.6058],[68.544,39.5891],[68.5394,39.5633],[68.5326,39.5462],[68.5149,39.5341],[68.4916,39.5403],[68.4666,39.536],[68.4025,39.5439],[68.3624,39.5303],[68.3368,39.5451],[68.295,39.5545],[68.2567,39.558],[68.2094,39.5512],[68.1934,39.5534],[68.1714,39.5633],[68.1552,39.5617],[68.107,39.5644],[68.0701,39.5755],[68.0334,39.5766],[68.0097,39.5909],[67.99,39.5969],[67.9405,39.5967],[67.8999,39.6107],[67.8792,39.6254],[67.8494,39.6268],[67.7968,39.6544],[67.7556,39.6425],[67.7137,39.6564],[67.705,39.6565],[67.686,39.6395],[67.6485,39.6256],[67.6282,39.6],[67.5847,39.5967],[67.4987,39.5718],[67.496,39.5604],[67.5005,39.5335],[67.4916,39.525],[67.4435,39.5341],[67.4336,39.5323],[67.4259,39.519],[67.4255,39.497],[67.4325,39.4885]]]},"properties":{"name":"Jizzax","id":"UZ-JI","NAME_ENG":"Jizzakh","CNTRY":"Uzbekistan","TYPE":"Viloyat","TYPE_ENG":"Region"},"id":"UZ-JI"},
{"type":"Feature","geometry":{"type":"Polygon","coordinates":[[[72.195,41.005],[72.1678,40.9088],[72.1478,40.8969],[72.0422,40.8897],[72.0105,40.8921],[71.9386,40.9044],[71.9103,40.9177],[71.8308,40.9183],[71.645,40.8823],[71.6192,40.8691],[71.5753,40.838],[71.6228,40.7941],[71.5817,40.7741],[71.5072,40.7572],[71.4183,40.7205],[71.3917,40.7074],[71.3755,40.6836],[71.3591,40.6672],[71.2939,40.6202],[71.2689,40.6147],[71.148,40.6597],[71.1075,40.6902],[71.0894,40.7227],[71.1189,40.7499],[71.1269,40.7621],[70.9808,40.7605],[70.9078,40.7505],[70.8025,40.7299],[70.7894,40.7242],[70.7847,40.7322],[70.7629,40.7463],[70.7217,40.761],[70.6951,40.7626],[70.6773,40.7587],[70.6696,40.781],[70.6777,40.8014],[70.6879,40.7814],[70.7083,40.7791],[70.7108,40.7891],[70.7312,40.7968],[70.704,40.8207],[70.686,40.8259],[70.6738,40.8484],[70.6445,40.8682],[70.6346,40.8875],[70.6106,40.9145],[70.6021,40.9291],[70.5803,40.9497],[70.5683,40.9722],[70.5536,40.9725],[70.5346,40.9921],[70.5261,41.0061],[70.5024,41.0207],[70.4965,41.0319],[70.4709,41.0381],[70.4691,41.088],[70.4639,41.1261],[70.4497,41.148],[70.4083,41.1908],[70.3939,41.3099],[70.4581,41.3769],[70.4727,41.4084],[70.4834,41.3996],[70.5284,41.3997],[70.5648,41.4223],[70.5736,41.4343],[70.5948,41.448],[70.6277,41.4558],[70.6543,41.4548],[70.6789,41.4686],[70.7159,41.461],[70.7249,41.4419],[70.7801,41.3754],[70.7906,41.3419],[70.7763,41.3079],[70.7778,41.2787],[70.7966,41.2517],[70.795,41.2363],[70.7791,41.2208],[70.7832,41.1882],[70.7939,41.1782],[70.8124,41.1724],[70.826,41.1821],[70.844,41.2158],[70.8541,41.2269],[70.8695,41.2321],[70.8867,41.2233],[70.8992,41.2094],[70.9377,41.1866],[70.9495,41.1664],[70.9617,41.1631],[71.0193,41.1926],[71.0321,41.1932],[71.0587,41.1801],[71.076,41.177],[71.0981,41.1543],[71.1243,41.1472],[71.1439,41.1525],[71.1618,41.1669],[71.1777,41.1691],[71.1878,41.1809],[71.2024,41.1855],[71.2116,41.1682],[71.2245,41.171],[71.2266,41.1864],[71.2463,41.1905],[71.2725,41.1734],[71.2782,41.15],[71.2733,41.1109],[71.2957,41.1062],[71.3131,41.1185],[71.3217,41.1309],[71.3267,41.154],[71.3453,41.1657],[71.3652,41.1626],[71.3874,41.141],[71.3925,41.1121],[71.4129,41.1052],[71.4351,41.1236],[71.451,41.156],[71.4579,41.1885],[71.4772,41.2211],[71.4707,41.2328],[71.4522,41.2389],[71.4483,41.2536],[71.4538,41.2675],[71.4497,41.2868],[71.4808,41.3149],[71.5055,41.3077],[71.529,41.3158],[71.5481,41.3155],[71.5699,41.3006],[71.591,41.3034],[71.6038,41.329],[71.6167,41.337],[71.6292,41.3527],[71.6419,41.3487],[71.6555,41.3762],[71.6762,41.3986],[71.6589,41.4186],[71.6768,41.4583],[71.6633,41.4822],[71.6262,41.4876],[71.6234,41.504],[71.6507,41.5111],[71.6767,41.5412],[71.6935,41.5529],[71.726,41.5537],[71.7336,41.5439],[71.7243,41.5292],[71.7228,41.5122],[71.728,41.4892],[71.7167,41.4681],[71.6985,41.4501],[71.6987,41.4357],[71.7076,41.4241],[71.7238,41.4323],[71.7151,41.4431],[71.7313,41.4568],[71.7462,41.452],[71.7529,41.4342],[71.7633,41.4395],[71.7658,41.467],[71.7767,41.4674],[71.7993,41.4314],[71.8296,41.4095],[71.843,41.3923],[71.8375,41.371],[71.8442,41.3651],[71.8616,41.3679],[71.878,41.381],[71.8891,41.3703],[71.8863,41.3492],[71.8923,41.3386],[71.9108,41.3217],[71.9352,41.3083],[71.9127,41.2728],[71.8958,41.2597],[71.876,41.2335],[71.862,41.2008],[71.8838,41.1932],[71.8833,41.1788],[71.8904,41.1722],[71.9474,41.1571],[71.9725,41.17],[72.0237,41.1628],[72.0613,41.1444],[72.0835,41.1409],[72.1242,41.1631],[72.1633,41.1568],[72.1731,41.1607],[72.1927,41.1549],[72.2037,41.1412],[72.2187,41.0659],[72.2284,41.0524],[72.2183,41.0357],[72.2068,41.029],[72.1795,41.0241],[72.1762,41.0188],[72.195,41.005]],[[70.6699,40.9322],[70.6325,40.9708],[70.5999,40.9998],[70.5739,41.0082],[70.5581,40.9975],[70.5623,40.9864],[70.5843,40.986],[70.6106,40.9713],[70.6794,40.9006],[70.6838,40.9063],[70.6699,40.9322]]]},"properties":{"name":"Namangan","id":"UZ-NG","NAME_ENG":"Namangan","CNTRY":"Uzbekistan","TYPE":"Viloyat","TYPE_ENG":"Region"},"id":"UZ-NG"},
{"type":"Feature","geometry":{"type":"Polygon","coordinates":[[[66.7753,41.2419],[66.7642,41.1641],[66.7595,41.1648],[66.753,41.1169],[66.608,41.1133],[66.6325,40.9389],[66.648,40.918],[66.6686,40.9086],[66.7608,40.8914],[66.7714,40.8789],[66.8052,40.7661],[66.7991,40.7539],[66.7317,40.6664],[66.6358,40.5247],[66.62,40.4951],[66.5928,40.5525],[66.5525,40.5964],[66.5317,40.6147],[66.5191,40.6192],[66.4733,40.5875],[66.4225,40.5664],[66.3928,40.5644],[66.353,40.5686],[66.3306,40.5817],[66.3083,40.6072],[66.2825,40.6086],[66.2586,40.6056],[66.2389,40.5878],[66.1925,40.5105],[66.1797,40.4294],[66.1967,40.4203],[66.2047,40.4083],[66.2011,40.3708],[66.1819,40.2694],[66.1633,40.2472],[66.1136,40.1467],[66.118,40.1303],[66.1353,40.1286],[66.1661,40.1439],[66.1839,40.1428],[66.1878,40.1353],[66.1847,40.1167],[66.1756,40.1064],[66.1,40.0516],[66.0647,40.0392],[65.8719,40.0069],[65.8455,40.0102],[65.7292,40.0486],[65.6839,40.0675],[65.6739,40.0847],[65.6524,40.1105],[65.5339,40.145],[65.5119,40.1478],[65.5008,40.143],[65.4897,40.1219],[65.4908,40.1058],[65.4817,40.0094],[65.4422,39.9172],[65.4266,39.8958],[65.4028,39.8905],[65.3411,39.9053],[65.3194,39.9133],[65.1322,39.8647],[65.1197,39.8528],[65.1269,39.84],[65.1589,39.8144],[65.18,39.8008],[65.2003,39.7767],[65.2294,39.6894],[65.2258,39.6733],[65.2147,39.6489],[65.1894,39.6097],[65.1922,39.5855],[65.2097,39.5553],[65.2555,39.4916],[65.2355,39.4808],[65.1792,39.4742],[65.1492,39.4681],[65.1066,39.448],[65.1003,39.5047],[65.0925,39.5239],[64.9975,39.6811],[64.8914,39.7427],[64.8219,39.7297],[64.7986,39.7308],[64.6458,39.7753],[64.6202,39.7944],[64.5278,39.8911],[64.5586,39.9364],[64.5778,39.9419],[64.673,39.9864],[64.7191,40.0275],[64.7739,40.1069],[64.8016,40.2016],[64.8114,40.2739],[64.8036,40.3289],[64.8114,40.3391],[64.8355,40.3472],[64.88,40.3453],[64.9233,40.3236],[64.9411,40.3105],[64.9844,40.2942],[65.0472,40.2853],[65.1305,40.2814],[65.1508,40.2878],[65.1647,40.2978],[65.2372,40.3664],[65.2686,40.4347],[65.2722,40.4517],[65.3586,40.498],[65.3889,40.6508],[65.2164,40.6697],[65.0881,40.68],[64.9014,40.6997],[64.8619,40.7122],[64.8372,40.7303],[64.7908,40.8967],[64.7739,40.9431],[64.7528,40.9466],[64.743,40.9436],[64.7275,40.9091],[64.703,40.865],[64.6539,40.8589],[64.5719,40.8578],[64.4633,40.8483],[64.4511,40.8453],[64.4333,40.7714],[64.4292,40.7633],[64.0789,40.7944],[64.0767,40.9194],[64.0406,40.9511],[64.0217,40.9536],[63.9742,40.9344],[63.9517,40.9164],[63.8353,40.7161],[63.8233,40.713],[63.7664,40.7092],[63.6928,40.7078],[63.703,40.7444],[63.6958,40.7689],[63.6836,40.7861],[63.6378,40.8136],[63.425,40.9072],[63.2417,40.9828],[63.1253,41.0205],[63.0569,41.0355],[63.0128,41.0347],[63.0031,41.0286],[62.9839,41.0272],[62.9717,41.05],[62.9414,41.1341],[62.8964,41.2053],[62.8625,41.2311],[62.7858,41.2622],[62.7342,41.2875],[62.6875,41.3253],[62.6575,41.3589],[62.5853,41.468],[62.5625,41.4666],[62.2694,41.4144],[62.19,41.3994],[62.1778,41.3949],[61.7253,41.8603],[62.0033,41.975],[61.8575,42.1708],[61.8847,42.4242],[62.483,43.2553],[62.1492,43.3214],[62.0226,43.4869],[62.9389,43.6167],[63.3813,43.6734],[63.4566,43.6628],[63.5219,43.6571],[63.7317,43.6406],[63.86,43.6345],[63.9119,43.6281],[64.2187,43.6109],[64.5138,43.6003],[64.5365,43.6033],[64.764,43.6845],[64.9156,43.7325],[65.0103,43.7668],[65.0548,43.775],[65.1144,43.7756],[65.1487,43.7615],[65.1702,43.7435],[65.2941,43.5453],[65.3379,43.5152],[65.4157,43.4563],[65.6511,43.3035],[65.6835,43.2076],[65.8272,42.8681],[66.0992,42.9622],[66.1067,42.4628],[66.1057,42.3473],[66.093,42.3502],[66.0406,42.37],[66.0353,42.3699],[66.0331,42.2639],[66.0134,42.2463],[66.0069,41.9782],[66.0086,41.9435],[66.5308,41.8963],[66.6061,41.2514],[66.7753,41.2419]]]},"properties":{"name":"Navoiy","id":"UZ-NW","NAME_ENG":"Navoiy","CNTRY":"Uzbekistan","TYPE":"Viloyat","TYPE_ENG":"Region"},"id":"UZ-NW"},
{"type":"Feature","geometry":{"type":"Polygon","coordinates":[[[65.1066,39.448],[65.1492,39.4681],[65.1792,39.4742],[65.2355,39.4808],[65.2555,39.4916],[65.2705,39.4889],[65.6503,39.48],[65.6825,39.4831],[65.7108,39.4922],[65.7416,39.5103],[65.7466,39.5203],[65.84,39.5056],[65.9114,39.4416],[65.9714,39.3636],[65.9733,39.3386],[65.9936,39.3308],[66.0603,39.3178],[66.0933,39.3183],[66.1411,39.3416],[66.2119,39.3697],[66.3753,39.4011],[66.3889,39.3983],[66.4142,39.3858],[66.4497,39.3617],[66.4853,39.3422],[66.5067,39.3369],[66.5855,39.3631],[66.6033,39.3791],[66.6269,39.4091],[66.645,39.425],[66.6625,39.4297],[66.6883,39.4308],[66.8736,39.405],[66.8872,39.3939],[66.8978,39.3716],[66.8955,39.3505],[66.8855,39.3219],[66.8939,39.3041],[66.9142,39.2953],[66.955,39.2928],[67.0389,39.2967],[67.0567,39.3003],[67.0681,39.3141],[67.0667,39.3442],[67.0758,39.3522],[67.095,39.3531],[67.1914,39.3317],[67.2469,39.3133],[67.33,39.2933],[67.3656,39.288],[67.3872,39.2918],[67.3954,39.2653],[67.4255,39.2247],[67.4413,39.2121],[67.4621,39.2032],[67.5002,39.197],[67.532,39.1851],[67.5715,39.1885],[67.5949,39.1853],[67.6169,39.1774],[67.6312,39.1494],[67.6434,39.1454],[67.6778,39.144],[67.6837,39.1296],[67.6761,39.121],[67.6715,39.0789],[67.6809,39.0577],[67.6839,39.0231],[67.6922,39.0135],[67.675,38.9997],[67.6539,38.99],[67.5675,38.9861],[67.5378,38.9775],[67.5233,38.9678],[67.5122,38.9469],[67.5239,38.8939],[67.5575,38.8417],[67.5603,38.7705],[67.5314,38.6978],[67.5197,38.7008],[67.4891,38.725],[67.4675,38.7305],[67.4366,38.7316],[67.4119,38.7261],[67.3894,38.7094],[67.3719,38.6875],[67.3461,38.6497],[67.1539,38.4989],[67.1383,38.4419],[67.1347,38.4161],[67.1267,38.3922],[67.1169,38.3775],[67.0647,38.3361],[67.025,38.3142],[66.9486,38.2828],[66.698,38.0761],[66.6886,38.0547],[66.6661,37.9816],[66.672,37.9661],[66.6202,38.014],[66.5975,38.0254],[66.5656,38.0359],[66.4965,38.0419],[66.4396,38.0278],[66.4273,38.0267],[66.4,38.0325],[66.3734,38.0508],[66.313,38.0788],[66.2735,38.1141],[66.2455,38.154],[66.2354,38.1592],[66.1943,38.1609],[66.1186,38.1786],[66.1049,38.1855],[66.0941,38.202],[66.0501,38.2111],[66.0234,38.2276],[65.9938,38.2264],[65.9758,38.231],[65.9563,38.2412],[65.915,38.2747],[65.8955,38.2787],[65.8724,38.2787],[65.8515,38.2741],[65.8357,38.2501],[65.8205,38.2496],[65.8169,38.2387],[65.7974,38.2358],[65.6963,38.2521],[65.4814,38.319],[65.4393,38.3381],[65.3006,38.4085],[65.2605,38.4338],[65.2021,38.4767],[65.0375,38.6057],[65.025,38.6125],[64.966,38.6336],[64.8902,38.6562],[64.8267,38.6795],[64.7892,38.7007],[64.776,38.712],[64.5817,38.806],[64.5228,38.8382],[64.4031,38.9249],[64.3772,38.947],[64.4986,39.0522],[64.8906,39.1641],[64.8967,39.1744],[64.8739,39.2028],[64.8561,39.2175],[64.8406,39.2378],[64.8375,39.2522],[64.845,39.2694],[64.9403,39.3486],[64.9525,39.3505],[65.025,39.3878],[65.1066,39.448]]]},"properties":{"name":"Qashqadaryo","id":"UZ-QA","NAME_ENG":"Qashqadaryo","CNTRY":"Uzbekistan","TYPE":"Viloyat","TYPE_ENG":"Region"},"id":"UZ-QA"},
{"type":"Feature","geometry":{"type":"MultiPolygon","coordinates":[[[[59.3988,45.2144],[59.4064,45.0961],[59.3629,45.0066],[59.2932,44.9231],[59.2322,44.8303],[59.2105,44.7651],[59.1626,44.7651],[59.1234,44.762],[59.0929,44.7403],[59.0798,44.6999],[59.0972,44.6285],[59.1234,44.588],[59.1408,44.5444],[59.0885,44.532],[59.0232,44.5569],[58.9709,44.5351],[58.9317,44.4728],[58.8795,44.4072],[58.8316,44.3698],[58.7663,44.3979],[58.7576,44.4603],[58.7532,44.5569],[58.7271,44.5818],[58.7271,44.6347],[58.7619,44.6347],[58.788,44.5911],[58.8272,44.5756],[58.8882,44.5911],[58.9187,44.6378],[58.9187,44.6999],[58.9404,44.7496],[58.8751,44.7775],[58.8055,44.8179],[58.7924,44.855],[58.8316,44.886],[58.8708,44.8922],[58.9143,44.8767],[58.9187,45.0035],[58.9796,45.0097],[58.9753,45.0591],[58.923,45.0684],[58.8403,45.0776],[58.8098,45.0622],[58.775,45.0313],[58.7271,45.0159],[58.7576,45.0498],[58.8185,45.1301],[58.8577,45.1701],[58.8359,45.2163],[58.7924,45.2594],[58.8055,45.3178],[58.8272,45.37],[58.9007,45.468],[59.3988,45.2144]]],[[[62.0226,43.4869],[62.1492,43.3214],[62.483,43.2553],[61.8847,42.4242],[61.8575,42.1708],[62.0033,41.975],[61.7253,41.8603],[62.1778,41.3949],[62.4761,41.0817],[62.2394,40.9988],[62.1842,40.9789],[62.1642,40.9855],[62.0655,41.1069],[62.0331,41.1522],[61.86,41.2961],[61.7933,41.3272],[61.7172,41.3575],[61.5236,41.3911],[61.4578,41.3914],[61.4144,41.3755],[61.3975,41.3611],[61.3722,41.3236],[61.3611,41.293],[61.3455,41.2805],[61.3133,41.2805],[61.2647,41.3041],[61.2511,41.3372],[61.2075,41.3742],[61.1761,41.3889],[61.1294,41.3947],[61.0989,41.4042],[60.97,41.478],[60.7919,41.5969],[60.758,41.6214],[60.6855,41.6847],[60.5736,41.7631],[60.5586,41.768],[60.5361,41.7861],[60.4694,41.8733],[60.4605,41.913],[60.4597,41.9555],[60.4478,41.9728],[60.3336,41.9908],[60.2414,41.9683],[60.2003,41.9547],[60.1425,41.8702],[60.1269,41.8885],[60.115,41.8948],[60.0626,41.9082],[60.045,41.9164],[60.0065,41.9518],[59.9956,41.9568],[59.9765,41.9535],[59.9493,41.9735],[59.9452,41.9866],[59.9614,41.9992],[60.0225,42.0025],[60.03,42.0097],[60.0145,42.0344],[60.0008,42.0652],[59.9974,42.1018],[59.9702,42.1282],[59.9733,42.1467],[59.9968,42.1561],[60.0343,42.1532],[60.0493,42.1665],[60.0498,42.1768],[60.0391,42.1959],[60.0075,42.2146],[59.9697,42.2184],[59.9395,42.2336],[59.9216,42.2516],[59.9069,42.2735],[59.8932,42.2826],[59.8506,42.2928],[59.828,42.3063],[59.8114,42.2744],[59.7929,42.2686],[59.7176,42.286],[59.6751,42.2865],[59.6411,42.2806],[59.5795,42.2781],[59.4192,42.2765],[59.407,42.2837],[59.3912,42.3062],[59.377,42.3111],[59.3581,42.3281],[59.2706,42.3929],[59.2798,42.4191],[59.2774,42.4388],[59.2037,42.5101],[59.1695,42.528],[59.1373,42.5242],[59.1041,42.5081],[59.0478,42.5107],[58.9984,42.528],[58.9492,42.5386],[58.9347,42.5436],[58.8973,42.5677],[58.8065,42.6412],[58.7025,42.7265],[58.6359,42.7887],[58.625,42.782],[58.6183,42.7633],[58.6205,42.7546],[58.6398,42.7404],[58.637,42.7276],[58.6206,42.7244],[58.5951,42.7293],[58.584,42.7165],[58.6045,42.7007],[58.5954,42.6659],[58.578,42.6533],[58.5532,42.6592],[58.4959,42.6513],[58.4727,42.6503],[58.4441,42.6605],[58.418,42.6643],[58.3922,42.6734],[58.3599,42.6799],[58.2972,42.6895],[58.2776,42.6889],[58.2245,42.6703],[58.174,42.6394],[58.1517,42.6328],[58.1478,42.6218],[58.1548,42.6097],[58.195,42.5882],[58.2463,42.567],[58.2968,42.5569],[58.3065,42.5483],[58.3642,42.4489],[58.3923,42.4161],[58.4047,42.4051],[58.408,42.3706],[58.429,42.3663],[58.4971,42.3345],[58.5178,42.3217],[58.5207,42.3103],[58.5097,42.2936],[58.4924,42.2892],[58.4468,42.2973],[58.4064,42.2912],[58.4023,42.3019],[58.4049,42.3344],[58.4026,42.3514],[58.385,42.3973],[58.3697,42.4188],[58.3504,42.4347],[58.3234,42.4481],[58.2185,42.4682],[58.2012,42.4674],[58.1541,42.4493],[58.1261,42.4411],[58.1179,42.4543],[58.0917,42.4706],[58.0859,42.4898],[58.0675,42.5018],[58.0468,42.5047],[58.0159,42.4996],[57.9772,42.4842],[57.9686,42.4549],[57.9555,42.4449],[57.9395,42.4588],[57.9151,42.4572],[57.9042,42.4262],[57.9115,42.4137],[57.9308,42.4006],[57.9473,42.3716],[57.9387,42.3461],[57.9394,42.3235],[57.9341,42.3056],[57.9366,42.2807],[57.9285,42.2451],[57.9111,42.2363],[57.8926,42.2368],[57.8567,42.248],[57.8472,42.2463],[57.8338,42.2187],[57.8584,42.1816],[57.8542,42.1749],[57.8355,42.1729],[57.7692,42.1813],[57.7132,42.167],[57.6756,42.152],[57.6468,42.1494],[57.6117,42.1653],[57.5713,42.1712],[57.5217,42.1741],[57.4098,42.1695],[57.3674,42.1578],[57.3128,42.1378],[57.2655,42.112],[57.2383,42.0944],[57.2141,42.0684],[57.1906,42.0287],[57.1675,41.975],[57.1544,41.9613],[57.13,41.9436],[57.0849,41.9285],[57.0383,41.9181],[57.0039,41.8983],[56.984,41.8673],[56.9774,41.8343],[56.9676,41.8046],[56.9686,41.76],[56.9751,41.7166],[56.9722,41.6724],[56.9843,41.6339],[56.9931,41.6178],[57.0199,41.5864],[57.0269,41.5547],[57.0226,41.5349],[57.0225,41.497],[57.0316,41.4459],[57.0464,41.418],[57.0865,41.3749],[57.1063,41.3745],[57.1485,41.3843],[57.1587,41.3694],[57.1517,41.3578],[57.1317,41.3458],[57.0889,41.3347],[57.0708,41.3218],[57.0609,41.3074],[57.06,41.2829],[57.0424,41.2632],[57.0304,41.2584],[57.0019,41.2584],[56.9629,41.2656],[56.8772,41.2712],[56.7875,41.2807],[56.6414,41.2876],[56.5597,41.2889],[56.4325,41.2999],[56.3571,41.3042],[56.3165,41.3039],[56.2045,41.3116],[56.0006,41.318],[55.9981,45],[56.0309,45.0059],[56.0618,45.0156],[56.7137,45.1666],[56.7502,45.173],[56.7794,45.1836],[57.0636,45.2478],[58.0087,45.4538],[58.1527,45.4875],[58.2006,45.4945],[58.5697,45.5711],[58.5659,45.5171],[58.5311,45.4681],[58.5268,45.3945],[58.444,45.3424],[58.4004,45.2932],[58.3961,45.204],[58.3395,45.164],[58.3134,45.0776],[58.248,45.0035],[58.2045,44.92],[58.1958,44.8488],[58.2001,44.7558],[58.2263,44.7124],[58.2698,44.6564],[58.2611,44.616],[58.1958,44.4852],[58.2045,44.4041],[58.2524,44.3229],[58.3003,44.2822],[58.3656,44.2603],[58.4527,44.2353],[58.518,44.2322],[58.5746,44.2008],[58.6182,44.1914],[58.64,44.2228],[58.6748,44.229],[58.7271,44.2259],[58.7663,44.2384],[58.8751,44.2635],[58.9317,44.2822],[58.9666,44.2666],[58.984,44.2102],[58.9448,44.1758],[58.8838,44.1476],[58.9056,44.0911],[58.9535,44.0754],[58.9927,44.0471],[59.1059,44.0346],[59.1626,44],[59.2279,43.9937],[59.3585,43.9843],[59.4543,43.9811],[59.5327,44.0157],[59.585,43.9937],[59.6111,43.978],[59.6938,43.9906],[59.7374,44],[59.8158,43.9811],[59.9247,43.9968],[60.0292,44.022],[60.1816,44.066],[60.1947,44.1068],[60.2687,44.1068],[60.2948,44.135],[60.273,44.1632],[60.3079,44.2165],[60.4429,44.2947],[60.543,44.3666],[60.604,44.4447],[60.6214,44.5039],[60.5997,44.5258],[60.5648,44.5476],[60.543,44.5787],[60.6271,44.5841],[61.0961,44.3416],[61.144,44.2322],[61.2754,44.1368],[61.4136,44.0165],[61.4337,43.9972],[61.4884,43.9501],[61.6116,43.8405],[61.9756,43.5123],[62.0108,43.4877],[62.0226,43.4869]]]]},"properties":{"name":"Qoraqalpog‘iston","id":"UZ-QR","NAME_ENG":"Karakalpakstan","CNTRY":"Uzbekistan","TYPE":"Autonomous Republic","TYPE_ENG":"Autonomous Republic"},"id":"UZ-QR"},
{"type":"Feature","geometry":{"type":"Polygon","coordinates":[[[67.3872,39.2918],[67.3656,39.288],[67.33,39.2933],[67.2469,39.3133],[67.1914,39.3317],[67.095,39.3531],[67.0758,39.3522],[67.0667,39.3442],[67.0681,39.3141],[67.0567,39.3003],[67.0389,39.2967],[66.955,39.2928],[66.9142,39.2953],[66.8939,39.3041],[66.8855,39.3219],[66.8955,39.3505],[66.8978,39.3716],[66.8872,39.3939],[66.8736,39.405],[66.6883,39.4308],[66.6625,39.4297],[66.645,39.425],[66.6269,39.4091],[66.6033,39.3791],[66.5855,39.3631],[66.5067,39.3369],[66.4853,39.3422],[66.4497,39.3617],[66.4142,39.3858],[66.3889,39.3983],[66.3753,39.4011],[66.2119,39.3697],[66.1411,39.3416],[66.0933,39.3183],[66.0603,39.3178],[65.9936,39.3308],[65.9733,39.3386],[65.9714,39.3636],[65.9114,39.4416],[65.84,39.5056],[65.7466,39.5203],[65.7416,39.5103],[65.7108,39.4922],[65.6825,39.4831],[65.6503,39.48],[65.2705,39.4889],[65.2555,39.4916],[65.2097,39.5553],[65.1922,39.5855],[65.1894,39.6097],[65.2147,39.6489],[65.2258,39.6733],[65.2294,39.6894],[65.2003,39.7767],[65.18,39.8008],[65.1589,39.8144],[65.1269,39.84],[65.1197,39.8528],[65.1322,39.8647],[65.3194,39.9133],[65.3411,39.9053],[65.4028,39.8905],[65.4266,39.8958],[65.4422,39.9172],[65.4817,40.0094],[65.4908,40.1058],[65.4897,40.1219],[65.5008,40.143],[65.5119,40.1478],[65.5339,40.145],[65.6524,40.1105],[65.6739,40.0847],[65.6839,40.0675],[65.7292,40.0486],[65.8455,40.0102],[65.8719,40.0069],[66.0647,40.0392],[66.1,40.0516],[66.1756,40.1064],[66.1847,40.1167],[66.1878,40.1353],[66.1839,40.1428],[66.1661,40.1439],[66.1353,40.1286],[66.118,40.1303],[66.1136,40.1467],[66.1633,40.2472],[66.1819,40.2694],[66.2011,40.3708],[66.2047,40.4083],[66.1967,40.4203],[66.1797,40.4294],[66.1925,40.5105],[66.2389,40.5878],[66.2586,40.6056],[66.2825,40.6086],[66.3083,40.6072],[66.3306,40.5817],[66.353,40.5686],[66.3928,40.5644],[66.4225,40.5664],[66.4733,40.5875],[66.5191,40.6192],[66.5317,40.6147],[66.5525,40.5964],[66.5928,40.5525],[66.62,40.4951],[66.7886,40.48],[66.8883,40.4783],[66.9091,40.4422],[66.9094,40.4242],[66.8914,40.3939],[66.8883,40.3811],[66.8906,40.3161],[66.9086,40.248],[66.9489,40.2205],[66.98,40.1739],[66.9786,40.1605],[66.9689,40.1383],[66.9369,40.1308],[66.9347,40.125],[66.9422,40.0633],[67.0683,39.998],[67.1142,39.9847],[67.2183,39.978],[67.475,39.9358],[67.4797,39.9319],[67.5028,39.8325],[67.5044,39.8155],[67.4764,39.8131],[67.443,39.8067],[67.3964,39.7894],[67.365,39.7653],[67.2953,39.6778],[67.293,39.6717],[67.2936,39.6019],[67.298,39.5861],[67.3122,39.57],[67.3344,39.5525],[67.4325,39.4885],[67.4808,39.4101],[67.4986,39.3715],[67.519,39.3387],[67.5198,39.3176],[67.4853,39.3228],[67.4643,39.3192],[67.3923,39.2998],[67.3872,39.2918]]]},"properties":{"name":"Samarqand","id":"UZ-SA","NAME_ENG":"Samarqand","CNTRY":"Uzbekistan","TYPE":"Viloyat","TYPE_ENG":"Region"},"id":"UZ-SA"},
{"type":"Feature","geometry":{"type":"Polygon","coordinates":[[[68.6364,40.1616],[68.6583,40.2678],[68.6517,40.2792],[68.4972,40.2519],[68.448,40.2389],[68.3611,40.2253],[68.2622,40.2225],[68.1136,40.2283],[68.0991,40.2444],[68.0886,40.2753],[68.093,40.3005],[68.2,40.483],[68.2167,40.5161],[68.2094,40.5305],[68.1636,40.5136],[68.1602,40.5181],[68.1706,40.5989],[68.2161,40.6078],[68.2564,40.6061],[68.2636,40.6161],[68.2674,40.6629],[68.3464,40.6116],[68.3873,40.62],[68.4284,40.594],[68.4168,40.5752],[68.5221,40.5517],[68.5397,40.5702],[68.5916,40.5672],[68.6849,40.5957],[68.6667,40.6301],[68.6146,40.6513],[68.5901,40.7056],[68.5191,40.7802],[68.5379,40.9025],[68.5164,40.9439],[68.5349,40.9589],[68.5158,40.9815],[68.4377,40.9854],[68.4373,41.0066],[68.5438,41.0015],[68.5507,40.9917],[68.6017,41.0158],[68.608,41.0105],[68.6125,40.9908],[68.6268,40.9867],[68.6442,40.9926],[68.6646,40.9893],[68.6695,40.9777],[68.6383,40.9687],[68.6336,40.9537],[68.6453,40.9363],[68.6539,40.9418],[68.7592,40.8511],[68.8342,40.7942],[68.9405,40.7211],[69.0425,40.6567],[69.0558,40.6553],[69.1214,40.5855],[69.1105,40.508],[69.092,40.4201],[69.0703,40.338],[69.0736,40.3103],[69.0844,40.2928],[69.0791,40.2144],[69.0549,40.2202],[68.9994,40.2205],[68.9267,40.2147],[68.8898,40.2081],[68.8549,40.1921],[68.8269,40.1866],[68.7753,40.1977],[68.7542,40.1903],[68.6364,40.1616]]]},"properties":{"name":"Sirdaryo","id":"UZ-SI","NAME_ENG":"Sirdarya","CNTRY":"Uzbekistan","TYPE":"Viloyat","TYPE_ENG":"Region"},"id":"UZ-SI"},
{"type":"Feature","geometry":{"type":"Polygon","coordinates":[[[66.672,37.9661],[66.6661,37.9816],[66.6886,38.0547],[66.698,38.0761],[66.9486,38.2828],[67.025,38.3142],[67.0647,38.3361],[67.1169,38.3775],[67.1267,38.3922],[67.1347,38.4161],[67.1383,38.4419],[67.1539,38.4989],[67.3461,38.6497],[67.3719,38.6875],[67.3894,38.7094],[67.4119,38.7261],[67.4366,38.7316],[67.4675,38.7305],[67.4891,38.725],[67.5197,38.7008],[67.5314,38.6978],[67.5603,38.7705],[67.5575,38.8417],[67.5239,38.8939],[67.5122,38.9469],[67.5233,38.9678],[67.5378,38.9775],[67.5675,38.9861],[67.6539,38.99],[67.675,38.9997],[67.6922,39.0135],[67.7154,38.9997],[67.7351,39.0051],[67.7486,39.0011],[67.771,39.0133],[67.8154,39.0165],[67.8446,39.0027],[67.8765,39.0003],[67.8992,39.023],[67.9435,39.0242],[67.9659,39.0335],[67.9757,39.0333],[67.9998,39.0138],[68.0218,39.0096],[68.0616,39.0262],[68.0886,39.0239],[68.1154,39.01],[68.1342,38.979],[68.1411,38.9616],[68.1991,38.9261],[68.1981,38.8916],[68.1906,38.8879],[68.197,38.8513],[68.1697,38.8403],[68.157,38.8251],[68.1348,38.8197],[68.0806,38.8129],[68.0729,38.8035],[68.1277,38.7412],[68.1201,38.7298],[68.0856,38.7265],[68.0581,38.7059],[68.0673,38.6808],[68.086,38.6478],[68.0757,38.6307],[68.0685,38.5407],[68.1208,38.486],[68.1424,38.4723],[68.1346,38.4532],[68.1144,38.4286],[68.1188,38.4112],[68.1508,38.4222],[68.1606,38.422],[68.1967,38.4061],[68.2273,38.3652],[68.2336,38.3286],[68.2987,38.3044],[68.3203,38.2925],[68.3629,38.2495],[68.3634,38.2429],[68.3791,38.2204],[68.4027,38.195],[68.4022,38.1815],[68.373,38.0995],[68.3699,38.0785],[68.3201,38.0371],[68.2846,37.984],[68.2862,37.9571],[68.276,37.9381],[68.278,37.9246],[68.2703,37.9094],[68.2164,37.8892],[68.1288,37.8773],[68.1111,37.8526],[68.0427,37.7366],[68.0178,37.7082],[67.9883,37.6914],[67.9387,37.6403],[67.916,37.5984],[67.8884,37.5565],[67.854,37.5301],[67.8284,37.4633],[67.8274,37.4191],[67.833,37.3499],[67.8208,37.2348],[67.8054,37.1928],[67.7906,37.1852],[67.778,37.2043],[67.7455,37.2252],[67.7295,37.2289],[67.6905,37.2274],[67.672,37.2404],[67.6503,37.2506],[67.6075,37.2397],[67.5846,37.2216],[67.5695,37.22],[67.5603,37.2314],[67.5512,37.255],[67.5351,37.2675],[67.5174,37.2743],[67.4906,37.2655],[67.4503,37.2357],[67.421,37.2278],[67.3961,37.216],[67.3688,37.2141],[67.3291,37.2058],[67.3083,37.1882],[67.2758,37.1772],[67.2642,37.1806],[67.2456,37.194],[67.2419,37.2204],[67.2359,37.2289],[67.2192,37.2354],[67.2054,37.255],[67.1746,37.2675],[67.1495,37.2669],[67.1166,37.2817],[67.1067,37.294],[67.1145,37.3203],[67.1076,37.3349],[67.0702,37.3498],[67.0406,37.3741],[66.9895,37.391],[66.9489,37.3888],[66.8715,37.3613],[66.8373,37.3645],[66.8195,37.3635],[66.7714,37.3502],[66.7292,37.3588],[66.7086,37.3585],[66.6848,37.3521],[66.6502,37.3586],[66.6188,37.3545],[66.5935,37.3567],[66.5547,37.3554],[66.5264,37.3461],[66.5178,37.3808],[66.5308,37.403],[66.5738,37.4239],[66.6396,37.4395],[66.6462,37.4651],[66.637,37.484],[66.5383,37.5794],[66.5327,37.6051],[66.5448,37.7018],[66.5386,37.7383],[66.5482,37.7918],[66.5642,37.8224],[66.5802,37.8417],[66.5968,37.8548],[66.6083,37.8766],[66.6205,37.889],[66.6698,37.9119],[66.6792,37.9187],[66.6837,37.9483],[66.672,37.9661]]]},"properties":{"name":"Surxondaryo","id":"UZ-SU","NAME_ENG":"Surxondaryo","CNTRY":"Uzbekistan","TYPE":"Viloyat","TYPE_ENG":"Region"},"id":"UZ-SU"},
{"type":"Feature","geometry":{"type":"Polygon","coordinates":[[[69.3832,41.3806],[69.3944,41.3731],[69.3899,41.3448],[69.378,41.3437],[69.3717,41.3326],[69.3736,41.3192],[69.3557,41.3028],[69.3702,41.2865],[69.3717,41.2672],[69.3635,41.2531],[69.3409,41.2359],[69.3193,41.2386],[69.31,41.2538],[69.3134,41.2605],[69.2743,41.2657],[69.2383,41.2426],[69.2085,41.246],[69.2014,41.2597],[69.191,41.2638],[69.1576,41.2679],[69.1557,41.2735],[69.1613,41.3114],[69.1732,41.3456],[69.1992,41.3672],[69.2267,41.3608],[69.2546,41.3727],[69.2892,41.359],[69.3134,41.3564],[69.3212,41.3672],[69.3364,41.366],[69.3516,41.3783],[69.3832,41.3806]]]},"properties":{"name":"Toshkent","id":"UZ-TK","NAME_ENG":"Tashkent","CNTRY":"Uzbekistan","TYPE":"City","TYPE_ENG":"City"},"id":"UZ-TK"},
{"type":"Feature","geometry":{"type":"Polygon","coordinates":[[[70.4727,41.4084],[70.4581,41.3769],[70.3939,41.3099],[70.4083,41.1908],[70.4497,41.148],[70.4639,41.1261],[70.4691,41.088],[70.4709,41.0381],[70.4486,41.0422],[70.4205,41.0337],[70.4086,41.0238],[70.3895,40.9963],[70.3955,40.9753],[70.3885,40.9542],[70.3738,40.9408],[70.3705,40.9289],[70.3766,40.9077],[70.3655,40.8912],[70.3427,40.8815],[70.3168,40.881],[70.2812,40.8648],[70.2657,40.848],[70.2466,40.8417],[70.2149,40.8263],[70.1903,40.8293],[70.168,40.8361],[70.1552,40.8344],[70.1445,40.8247],[70.1317,40.8033],[70.0803,40.7652],[70.0494,40.7559],[70.0265,40.7411],[70.0086,40.7352],[69.9648,40.7304],[69.9483,40.7223],[69.9227,40.7039],[69.8837,40.7203],[69.8504,40.7093],[69.8301,40.6927],[69.7926,40.6989],[69.7676,40.6888],[69.7372,40.6389],[69.717,40.6292],[69.682,40.6275],[69.6677,40.6299],[69.6502,40.6582],[69.6266,40.6634],[69.6109,40.6779],[69.5837,40.6928],[69.5717,40.7057],[69.5664,40.7253],[69.5479,40.7535],[69.5317,40.7657],[69.5056,40.7682],[69.4509,40.7798],[69.4365,40.7853],[69.401,40.782],[69.3612,40.7393],[69.3484,40.7121],[69.3438,40.6543],[69.3634,40.6155],[69.3578,40.5946],[69.3474,40.5908],[69.3337,40.5711],[69.3083,40.5727],[69.269,40.5687],[69.2352,40.5513],[69.2307,40.5353],[69.2597,40.5048],[69.2739,40.4954],[69.2656,40.476],[69.2654,40.4623],[69.2744,40.4541],[69.2876,40.4198],[69.2978,40.4167],[69.2926,40.4026],[69.3077,40.3835],[69.3074,40.3698],[69.339,40.3479],[69.3394,40.3279],[69.3321,40.3188],[69.332,40.3037],[69.3077,40.286],[69.2898,40.285],[69.2518,40.289],[69.248,40.2788],[69.2555,40.2692],[69.2504,40.2552],[69.2593,40.2482],[69.2891,40.2437],[69.2979,40.2368],[69.3161,40.2016],[69.3057,40.1949],[69.2816,40.2052],[69.2391,40.2057],[69.2108,40.2109],[69.1706,40.2054],[69.148,40.2115],[69.1342,40.2107],[69.0791,40.2144],[69.0844,40.2928],[69.0736,40.3103],[69.0703,40.338],[69.092,40.4201],[69.1105,40.508],[69.1214,40.5855],[69.0558,40.6553],[69.0425,40.6567],[68.9405,40.7211],[68.8342,40.7942],[68.7592,40.8511],[68.6539,40.9418],[68.6764,40.9559],[68.716,40.9676],[68.7448,40.9875],[68.7517,41.0179],[68.7673,41.0452],[68.8032,41.0794],[68.8135,41.0974],[68.8626,41.1493],[68.8931,41.1717],[68.9071,41.1858],[68.9219,41.1933],[68.9449,41.1932],[68.9514,41.2227],[68.9863,41.2478],[68.9904,41.2921],[69.0332,41.3422],[69.0442,41.3448],[69.0633,41.3335],[69.0885,41.34],[69.1132,41.3863],[69.1615,41.4068],[69.171,41.4149],[69.1848,41.4459],[69.2096,41.4571],[69.2421,41.4623],[69.2737,41.4626],[69.3075,41.4509],[69.3175,41.4505],[69.3754,41.4606],[69.4232,41.4549],[69.432,41.4583],[69.4393,41.4748],[69.414,41.4872],[69.4064,41.5045],[69.4209,41.5224],[69.4572,41.5456],[69.499,41.5523],[69.52,41.563],[69.5308,41.5884],[69.5677,41.6196],[69.5883,41.6312],[69.5946,41.6395],[69.6211,41.658],[69.6324,41.6618],[69.6916,41.6723],[69.7064,41.6776],[69.7289,41.6966],[69.7525,41.6966],[69.7967,41.702],[69.8328,41.7191],[69.8596,41.7137],[69.8855,41.6968],[69.9488,41.7162],[69.9845,41.7808],[69.9902,41.7859],[70.0134,41.7879],[70.0205,41.768],[70.0318,41.7615],[70.0459,41.7683],[70.0617,41.8029],[70.0907,41.8185],[70.1597,41.8443],[70.1725,41.8607],[70.1886,41.8933],[70.198,41.9056],[70.2211,41.9201],[70.2403,41.9412],[70.2877,41.9586],[70.3085,41.9636],[70.3309,41.9756],[70.3326,41.9931],[70.3226,42.0344],[70.3294,42.0424],[70.3635,42.0579],[70.37,42.069],[70.3959,42.0888],[70.4025,42.123],[70.4105,42.1305],[70.4333,42.1301],[70.4916,42.092],[70.5465,42.0695],[70.5583,42.0549],[70.556,42.0289],[70.5592,42.0187],[70.5754,42.0153],[70.6019,41.9971],[70.627,42.0008],[70.6545,42.06],[70.6742,42.0889],[70.6773,42.1092],[70.6936,42.1268],[70.7148,42.1393],[70.7267,42.1538],[70.7444,42.1644],[70.7626,42.1866],[70.7897,42.2074],[70.8009,42.2099],[70.824,42.1936],[70.839,42.1939],[70.8645,42.2082],[70.9073,42.2263],[70.9456,42.2624],[70.9899,42.2581],[71.0171,42.2767],[71.0418,42.2847],[71.0703,42.2879],[71.0966,42.2767],[71.1345,42.2732],[71.1548,42.2645],[71.2269,42.2163],[71.258,42.202],[71.2513,42.1608],[71.2222,42.1447],[71.2136,42.1347],[71.1862,42.1397],[71.1684,42.1393],[71.1452,42.1328],[71.0873,42.0915],[71.0697,42.0865],[71.0317,42.0574],[71.017,42.0525],[70.989,42.0347],[70.9662,42.0263],[70.9322,42.0296],[70.8918,42.0464],[70.8616,42.0418],[70.8554,42.0253],[70.8414,42.0147],[70.8341,42.0002],[70.8537,41.9746],[70.8503,41.9452],[70.8245,41.9224],[70.7962,41.9202],[70.7591,41.9334],[70.7507,41.917],[70.7381,41.9137],[70.7049,41.9181],[70.6792,41.9089],[70.6566,41.8914],[70.6406,41.8667],[70.6083,41.8471],[70.6012,41.8276],[70.5544,41.803],[70.5275,41.7938],[70.5089,41.7763],[70.507,41.7405],[70.4924,41.7189],[70.4565,41.7005],[70.4447,41.6979],[70.4,41.6796],[70.3809,41.6614],[70.3482,41.6378],[70.3298,41.6312],[70.3017,41.632],[70.2658,41.6071],[70.238,41.609],[70.1956,41.5983],[70.1806,41.5768],[70.1789,41.5448],[70.1862,41.5185],[70.1998,41.5125],[70.2268,41.5139],[70.2472,41.51],[70.2762,41.5164],[70.3203,41.5144],[70.3573,41.5009],[70.371,41.477],[70.3817,41.4685],[70.4071,41.4667],[70.4333,41.443],[70.4621,41.4248],[70.4727,41.4084]],[[69.3832,41.3806],[69.3516,41.3783],[69.3364,41.366],[69.3212,41.3672],[69.3134,41.3564],[69.2892,41.359],[69.2546,41.3727],[69.2267,41.3608],[69.1992,41.3672],[69.1732,41.3456],[69.1613,41.3114],[69.1557,41.2735],[69.1576,41.2679],[69.191,41.2638],[69.2014,41.2597],[69.2085,41.246],[69.2383,41.2426],[69.2743,41.2657],[69.3134,41.2605],[69.31,41.2538],[69.3193,41.2386],[69.3409,41.2359],[69.3635,41.2531],[69.3717,41.2672],[69.3702,41.2865],[69.3557,41.3028],[69.3736,41.3192],[69.3717,41.3326],[69.378,41.3437],[69.3899,41.3448],[69.3944,41.3731],[69.3832,41.3806]]]},"properties":{"name":"Toshkent","id":"UZ-TO","NAME_ENG":"Tashkent","CNTRY":"Uzbekistan","TYPE":"Viloyat","TYPE_ENG":"Region"},"id":"UZ-TO"},
{"type":"Feature","geometry":{"type":"Polygon","coordinates":[[[60.1425,41.8702],[60.2003,41.9547],[60.2414,41.9683],[60.3336,41.9908],[60.4478,41.9728],[60.4597,41.9555],[60.4605,41.913],[60.4694,41.8733],[60.5361,41.7861],[60.5586,41.768],[60.5736,41.7631],[60.6855,41.6847],[60.758,41.6214],[60.7919,41.5969],[60.97,41.478],[61.0989,41.4042],[61.1294,41.3947],[61.1761,41.3889],[61.2075,41.3742],[61.2511,41.3372],[61.2647,41.3041],[61.3133,41.2805],[61.3455,41.2805],[61.3611,41.293],[61.3722,41.3236],[61.3975,41.3611],[61.4144,41.3755],[61.4578,41.3914],[61.5236,41.3911],[61.7172,41.3575],[61.7933,41.3272],[61.86,41.2961],[62.0331,41.1522],[62.0655,41.1069],[62.1642,40.9855],[62.1842,40.9789],[62.2394,40.9988],[62.3094,40.9442],[62.4372,40.8344],[62.4519,40.8156],[62.4514,40.7903],[62.4342,40.7278],[62.335,40.6433],[62.199,40.5177],[62.1055,40.6293],[62.0782,40.6763],[62.052,40.6989],[62.0455,40.7121],[62.0421,40.7577],[62.0322,40.7699],[62.0264,40.7868],[62.0001,40.8203],[61.9981,40.8405],[62.0015,40.8599],[62.0001,40.8924],[61.9969,40.9003],[61.9914,40.9469],[61.9964,40.9735],[61.9806,40.9836],[61.9772,41.0059],[61.9709,41.0191],[61.9547,41.0345],[61.901,41.0534],[61.8945,41.0625],[61.8985,41.078],[61.8804,41.1094],[61.8541,41.1213],[61.8132,41.1536],[61.789,41.1593],[61.7567,41.1757],[61.7128,41.2151],[61.7024,41.22],[61.6606,41.2259],[61.6411,41.2376],[61.6269,41.265],[61.6085,41.2753],[61.5982,41.2756],[61.5702,41.2662],[61.5318,41.2685],[61.5159,41.2721],[61.481,41.2867],[61.443,41.2915],[61.4215,41.2859],[61.4039,41.2618],[61.4051,41.2186],[61.3954,41.2054],[61.3893,41.1799],[61.3799,41.1649],[61.3619,41.1532],[61.336,41.1483],[61.2998,41.1452],[61.2385,41.1491],[61.1713,41.1732],[61.1254,41.2097],[61.1179,41.2121],[61.0745,41.2091],[61.046,41.2347],[60.9398,41.2383],[60.8611,41.2308],[60.8051,41.2327],[60.7689,41.2276],[60.6837,41.2275],[60.5809,41.2226],[60.5618,41.2234],[60.5056,41.2165],[60.4694,41.2214],[60.3993,41.2531],[60.3363,41.2954],[60.2041,41.3635],[60.1312,41.3948],[60.1061,41.4118],[60.0937,41.4321],[60.0969,41.4561],[60.0976,41.5048],[60.1037,41.5349],[60.1119,41.5481],[60.1583,41.5808],[60.1637,41.5905],[60.1638,41.6095],[60.158,41.624],[60.1333,41.6568],[60.1085,41.6816],[60.0686,41.7285],[60.0602,41.7528],[60.0716,41.7728],[60.0836,41.8093],[60.0956,41.8112],[60.115,41.8032],[60.1367,41.8037],[60.2035,41.7834],[60.2313,41.7663],[60.257,41.7669],[60.2738,41.7566],[60.2915,41.7523],[60.313,41.7586],[60.3193,41.7684],[60.308,41.7797],[60.2836,41.794],[60.2584,41.8154],[60.2314,41.8247],[60.1957,41.8306],[60.1657,41.8447],[60.1492,41.8584],[60.1425,41.8702]]]},"properties":{"name":"Xorazm","id":"UZ-XO","NAME_ENG":"Khorezm","CNTRY":"Uzbekistan","TYPE":"Viloyat","TYPE_ENG":"Region"},"id":"UZ-XO"}
]}