{"type":"FeatureCollection", "features": [
{"type":"Feature","geometry":{"type":"MultiPolygon","coordinates":[[[[-75.624,37.995],[-75.636,38.024],[-75.661,38.039],[-75.623,38.056],[-75.611,38.077],[-75.583,38.069],[-75.568,38.089],[-75.545,38.09],[-75.546,38.106],[-75.56,38.127],[-75.574,38.135],[-75.576,38.148],[-75.551,38.167],[-75.548,38.18],[-75.607,38.243],[-75.615,38.279],[-75.365,38.293],[-75.356,38.318],[-75.324,38.333],[-75.309,38.353],[-75.329,38.38],[-75.317,38.404],[-75.331,38.425],[-75.339,38.451],[-75.124,38.45],[-75.103,38.421],[-75.1,38.406],[-75.126,38.404],[-75.145,38.416],[-75.154,38.406],[-75.127,38.39],[-75.136,38.361],[-75.099,38.35],[-75.099,38.328],[-75.134,38.292],[-75.135,38.276],[-75.151,38.262],[-75.148,38.252],[-75.168,38.234],[-75.197,38.233],[-75.202,38.253],[-75.226,38.245],[-75.236,38.228],[-75.256,38.21],[-75.255,38.185],[-75.26,38.168],[-75.277,38.155],[-75.285,38.131],[-75.301,38.114],[-75.334,38.106],[-75.361,38.079],[-75.355,38.062],[-75.374,38.039],[-75.377,38.018],[-75.53,38.005],[-75.624,37.995]]],[[[-75.079,38.326],[-75.09,38.33],[-75.074,38.396],[-75.061,38.422],[-75.06,38.442],[-75.046,38.449],[-75.052,38.408],[-75.068,38.369],[-75.079,38.326]]],[[[-75.159,38.186],[-75.174,38.124],[-75.232,38.036],[-75.242,38.054],[-75.215,38.078],[-75.209,38.106],[-75.191,38.133],[-75.183,38.18],[-75.169,38.183],[-75.164,38.205],[-75.132,38.25],[-75.121,38.275],[-75.107,38.28],[-75.135,38.23],[-75.148,38.213],[-75.159,38.186]]]]},"properties":{"name":"Worcester","id":"24047","STATE":"MD","TYPE":"County","CNTRY":"USA"},"id":"24047"},
{"type":"Feature","geometry":{"type":"Polygon","coordinates":[[[-75.702,38.562],[-75.694,38.459],[-75.571,38.456],[-75.339,38.451],[-75.331,38.425],[-75.317,38.404],[-75.329,38.38],[-75.309,38.353],[-75.324,38.333],[-75.356,38.318],[-75.365,38.293],[-75.615,38.279],[-75.661,38.299],[-75.683,38.293],[-75.697,38.274],[-75.723,38.275],[-75.759,38.287],[-75.774,38.271],[-75.792,38.264],[-75.844,38.261],[-75.852,38.25],[-75.879,38.256],[-75.888,38.245],[-75.909,38.246],[-75.906,38.277],[-75.887,38.327],[-75.853,38.362],[-75.84,38.383],[-75.823,38.394],[-75.838,38.409],[-75.834,38.424],[-75.811,38.429],[-75.81,38.451],[-75.825,38.461],[-75.816,38.488],[-75.796,38.492],[-75.756,38.513],[-75.745,38.537],[-75.728,38.539],[-75.702,38.562]]]},"properties":{"name":"Wicomico","id":"24045","STATE":"MD","TYPE":"County","CNTRY":"USA"},"id":"24045"},
{"type":"Feature","geometry":{"type":"Polygon","coordinates":[[[-77.467,39.72],[-77.495,39.693],[-77.493,39.678],[-77.517,39.645],[-77.532,39.632],[-77.573,39.619],[-77.585,39.577],[-77.601,39.541],[-77.611,39.53],[-77.623,39.5],[-77.615,39.47],[-77.633,39.444],[-77.638,39.406],[-77.65,39.377],[-77.673,39.342],[-77.677,39.327],[-77.694,39.321],[-77.748,39.333],[-77.758,39.341],[-77.744,39.364],[-77.75,39.384],[-77.736,39.388],[-77.74,39.404],[-77.756,39.428],[-77.792,39.433],[-77.784,39.448],[-77.798,39.461],[-77.794,39.483],[-77.802,39.49],[-77.839,39.498],[-77.866,39.525],[-77.865,39.538],[-77.882,39.551],[-77.882,39.562],[-77.84,39.568],[-77.83,39.585],[-77.839,39.607],[-77.872,39.614],[-77.886,39.6],[-77.922,39.607],[-77.937,39.593],[-77.966,39.609],[-77.976,39.602],[-78.007,39.602],[-78.038,39.637],[-78.074,39.666],[-78.102,39.681],[-78.179,39.698],[-78.206,39.678],[-78.232,39.673],[-78.227,39.658],[-78.253,39.642],[-78.273,39.619],[-78.328,39.637],[-78.352,39.663],[-78.333,39.665],[-78.32,39.679],[-78.317,39.702],[-78.344,39.723],[-77.938,39.724],[-77.672,39.721],[-77.467,39.72]]]},"properties":{"name":"Washington","id":"24043","STATE":"MD","TYPE":"County","CNTRY":"USA"},"id":"24043"},
{"type":"Feature","geometry":{"type":"Polygon","coordinates":[[[-75.944,38.918],[-75.945,38.879],[-75.92,38.858],[-75.92,38.835],[-75.901,38.827],[-75.903,38.817],[-75.931,38.805],[-75.949,38.788],[-75.962,38.789],[-75.999,38.76],[-76,38.743],[-76.017,38.729],[-76,38.716],[-75.994,38.695],[-75.978,38.694],[-75.958,38.668],[-75.963,38.651],[-75.996,38.633],[-75.987,38.61],[-75.999,38.593],[-76.017,38.591],[-76.022,38.612],[-76.047,38.592],[-76.077,38.614],[-76.112,38.629],[-76.089,38.645],[-76.099,38.661],[-76.116,38.648],[-76.118,38.636],[-76.146,38.636],[-76.141,38.659],[-76.165,38.664],[-76.177,38.674],[-76.173,38.69],[-76.154,38.702],[-76.137,38.692],[-76.125,38.709],[-76.131,38.725],[-76.096,38.743],[-76.111,38.748],[-76.139,38.74],[-76.154,38.708],[-76.172,38.717],[-76.182,38.701],[-76.202,38.687],[-76.239,38.721],[-76.227,38.738],[-76.195,38.727],[-76.187,38.746],[-76.224,38.753],[-76.218,38.767],[-76.25,38.788],[-76.258,38.772],[-76.246,38.756],[-76.279,38.738],[-76.272,38.72],[-76.298,38.717],[-76.295,38.733],[-76.302,38.754],[-76.27,38.779],[-76.32,38.768],[-76.313,38.747],[-76.316,38.727],[-76.329,38.715],[-76.321,38.685],[-76.339,38.672],[-76.349,38.685],[-76.337,38.723],[-76.344,38.754],[-76.33,38.767],[-76.315,38.794],[-76.305,38.825],[-76.28,38.832],[-76.249,38.833],[-76.213,38.81],[-76.22,38.802],[-76.209,38.779],[-76.161,38.76],[-76.15,38.776],[-76.105,38.792],[-76.118,38.811],[-76.13,38.797],[-76.148,38.796],[-76.158,38.78],[-76.187,38.789],[-76.195,38.84],[-76.192,38.853],[-76.152,38.862],[-76.156,38.875],[-76.124,38.881],[-76.106,38.873],[-76.1,38.896],[-76.106,38.926],[-76.096,38.945],[-75.944,38.918]]]},"properties":{"name":"Talbot","id":"24041","STATE":"MD","TYPE":"County","CNTRY":"USA"},"id":"24041"},
{"type":"Feature","geometry":{"type":"MultiPolygon","coordinates":[[[[-75.624,37.995],[-75.661,37.962],[-75.676,37.975],[-75.711,37.983],[-75.735,37.965],[-75.754,37.975],[-75.787,37.976],[-75.814,37.961],[-75.827,37.966],[-75.834,37.937],[-75.85,37.943],[-75.869,37.925],[-75.895,37.946],[-75.871,37.955],[-75.864,37.989],[-75.9,37.979],[-75.874,38.016],[-75.869,38.041],[-75.85,38.028],[-75.828,38.031],[-75.819,38.05],[-75.797,38.058],[-75.773,38.076],[-75.851,38.073],[-75.864,38.084],[-75.861,38.103],[-75.833,38.1],[-75.84,38.129],[-75.823,38.136],[-75.789,38.131],[-75.784,38.147],[-75.764,38.157],[-75.776,38.168],[-75.807,38.159],[-75.833,38.157],[-75.842,38.148],[-75.868,38.146],[-75.885,38.154],[-75.927,38.148],[-75.935,38.136],[-75.955,38.134],[-75.948,38.168],[-75.951,38.185],[-75.886,38.203],[-75.875,38.197],[-75.832,38.221],[-75.841,38.234],[-75.836,38.253],[-75.792,38.264],[-75.774,38.271],[-75.759,38.287],[-75.723,38.275],[-75.697,38.274],[-75.683,38.293],[-75.661,38.299],[-75.615,38.279],[-75.607,38.243],[-75.548,38.18],[-75.551,38.167],[-75.576,38.148],[-75.574,38.135],[-75.56,38.127],[-75.546,38.106],[-75.545,38.09],[-75.568,38.089],[-75.583,38.069],[-75.611,38.077],[-75.623,38.056],[-75.661,38.039],[-75.636,38.024],[-75.624,37.995]]],[[[-76.03,38.107],[-76.018,38.108],[-76,38.092],[-76.016,38.083],[-76.03,38.107]]],[[[-76.005,38.04],[-75.983,37.993],[-76.026,38.021],[-76.046,38.019],[-76.036,38.039],[-76.005,38.04]]],[[[-76.019,37.984],[-76.042,37.98],[-76.05,37.992],[-76.034,38.006],[-76.019,37.984]]]]},"properties":{"name":"Somerset","id":"24039","STATE":"MD","TYPE":"County","CNTRY":"USA"},"id":"24039"},
{"type":"Feature","geometry":{"type":"Polygon","coordinates":[[[-76.683,38.496],[-76.662,38.471],[-76.661,38.451],[-76.628,38.431],[-76.629,38.418],[-76.599,38.406],[-76.581,38.39],[-76.523,38.376],[-76.5,38.356],[-76.509,38.329],[-76.477,38.316],[-76.459,38.295],[-76.429,38.292],[-76.421,38.303],[-76.401,38.302],[-76.393,38.313],[-76.368,38.296],[-76.385,38.284],[-76.39,38.252],[-76.377,38.22],[-76.348,38.179],[-76.319,38.149],[-76.321,38.127],[-76.353,38.121],[-76.345,38.105],[-76.328,38.1],[-76.332,38.078],[-76.321,38.067],[-76.328,38.054],[-76.353,38.059],[-76.355,38.072],[-76.4,38.114],[-76.411,38.129],[-76.434,38.138],[-76.436,38.15],[-76.415,38.16],[-76.435,38.195],[-76.458,38.17],[-76.468,38.138],[-76.48,38.138],[-76.499,38.168],[-76.522,38.167],[-76.497,38.145],[-76.525,38.137],[-76.541,38.183],[-76.57,38.205],[-76.61,38.224],[-76.638,38.228],[-76.676,38.247],[-76.639,38.256],[-76.627,38.269],[-76.642,38.278],[-76.661,38.263],[-76.687,38.268],[-76.703,38.26],[-76.702,38.293],[-76.716,38.288],[-76.717,38.269],[-76.753,38.235],[-76.77,38.239],[-76.782,38.253],[-76.798,38.257],[-76.797,38.276],[-76.81,38.307],[-76.827,38.336],[-76.824,38.36],[-76.846,38.383],[-76.862,38.391],[-76.848,38.401],[-76.819,38.437],[-76.774,38.509],[-76.761,38.514],[-76.712,38.51],[-76.704,38.498],[-76.683,38.496]]]},"properties":{"name":"Saint Mary's","id":"24037","STATE":"MD","TYPE":"County","CNTRY":"USA"},"id":"24037"},
{"type":"Feature","geometry":{"type":"MultiPolygon","coordinates":[[[[-75.756,39.247],[-75.747,39.144],[-75.788,39.135],[-75.835,39.108],[-75.848,39.075],[-75.871,39.057],[-75.883,39.029],[-75.915,39.004],[-75.938,38.977],[-75.936,38.96],[-75.95,38.93],[-75.944,38.918],[-76.096,38.945],[-76.112,38.936],[-76.115,38.901],[-76.165,38.93],[-76.177,38.895],[-76.205,38.906],[-76.201,38.934],[-76.223,38.942],[-76.238,38.965],[-76.195,38.979],[-76.162,39.009],[-76.153,39.059],[-76.141,39.086],[-76.118,39.075],[-76.1,39.097],[-76.108,39.113],[-76.066,39.144],[-76.065,39.155],[-76.026,39.165],[-76.033,39.188],[-76.056,39.202],[-76.026,39.225],[-75.997,39.241],[-75.971,39.245],[-75.935,39.24],[-75.929,39.247],[-75.896,39.247],[-75.853,39.261],[-75.821,39.246],[-75.799,39.242],[-75.756,39.247]]],[[[-76.259,38.982],[-76.249,38.952],[-76.306,38.934],[-76.298,38.953],[-76.332,38.959],[-76.333,38.947],[-76.314,38.942],[-76.326,38.914],[-76.328,38.881],[-76.354,38.862],[-76.368,38.914],[-76.356,38.958],[-76.329,38.989],[-76.321,39.027],[-76.299,39.035],[-76.298,39.018],[-76.285,38.995],[-76.259,38.982]]],[[[-76.13,38.902],[-76.164,38.882],[-76.165,38.903],[-76.13,38.902]]]]},"properties":{"name":"Queen Anne's","id":"24035","STATE":"MD","TYPE":"County","CNTRY":"USA"},"id":"24035"},
{"type":"Feature","geometry":{"type":"Polygon","coordinates":[[[-76.687,38.747],[-76.687,38.736],[-76.702,38.71],[-76.697,38.687],[-76.692,38.659],[-76.692,38.625],[-76.678,38.611],[-76.679,38.546],[-76.707,38.546],[-76.741,38.558],[-76.747,38.608],[-76.755,38.621],[-76.863,38.658],[-76.904,38.653],[-76.965,38.661],[-77.019,38.649],[-77.028,38.634],[-77.049,38.618],[-77.077,38.693],[-77.047,38.707],[-77.037,38.7],[-77.02,38.724],[-77.028,38.729],[-77.016,38.756],[-77.029,38.772],[-77.026,38.801],[-76.91,38.893],[-77.009,38.97],[-76.888,39.132],[-76.871,39.116],[-76.839,39.105],[-76.826,39.092],[-76.836,39.069],[-76.81,39.062],[-76.792,39.047],[-76.749,39.034],[-76.745,39.019],[-76.723,38.997],[-76.701,38.983],[-76.705,38.97],[-76.679,38.908],[-76.671,38.9],[-76.679,38.874],[-76.693,38.858],[-76.7,38.839],[-76.698,38.82],[-76.711,38.813],[-76.7,38.751],[-76.687,38.747]]]},"properties":{"name":"Prince George's","id":"24033","STATE":"MD","TYPE":"County","CNTRY":"USA"},"id":"24033"},
{"type":"Feature","geometry":{"type":"Polygon","coordinates":[[[-76.888,39.132],[-77.009,38.97],[-77.041,38.995],[-77.121,38.934],[-77.155,38.967],[-77.19,38.969],[-77.226,38.976],[-77.249,38.997],[-77.243,39.015],[-77.248,39.028],[-77.271,39.035],[-77.297,39.052],[-77.327,39.061],[-77.382,39.064],[-77.453,39.073],[-77.485,39.111],[-77.518,39.124],[-77.525,39.143],[-77.515,39.17],[-77.474,39.194],[-77.458,39.22],[-77.284,39.3],[-77.182,39.348],[-77.183,39.334],[-77.167,39.313],[-77.144,39.297],[-77.133,39.272],[-77.103,39.267],[-77.067,39.254],[-77.029,39.218],[-77.013,39.208],[-76.996,39.167],[-76.975,39.153],[-76.927,39.138],[-76.912,39.128],[-76.888,39.132]]]},"properties":{"name":"Montgomery","id":"24031","STATE":"MD","TYPE":"County","CNTRY":"USA"},"id":"24031"},
{"type":"Feature","geometry":{"type":"Polygon","coordinates":[[[-75.766,39.377],[-75.756,39.247],[-75.799,39.242],[-75.821,39.246],[-75.853,39.261],[-75.896,39.247],[-75.929,39.247],[-75.973,39.253],[-76.032,39.234],[-76.07,39.198],[-76.046,39.18],[-76.048,39.168],[-76.085,39.158],[-76.085,39.14],[-76.109,39.139],[-76.11,39.123],[-76.131,39.126],[-76.156,39.11],[-76.167,39.135],[-76.185,39.098],[-76.201,39.094],[-76.204,39.064],[-76.218,39.05],[-76.201,39.026],[-76.224,39.019],[-76.24,39.035],[-76.231,39.059],[-76.236,39.101],[-76.247,39.115],[-76.243,39.131],[-76.273,39.162],[-76.217,39.249],[-76.197,39.258],[-76.181,39.308],[-76.18,39.322],[-76.166,39.334],[-76.117,39.334],[-76.134,39.351],[-76.118,39.361],[-76.113,39.376],[-76.077,39.368],[-76.049,39.371],[-76.021,39.362],[-75.997,39.37],[-75.986,39.365],[-75.965,39.371],[-75.941,39.363],[-75.928,39.367],[-75.885,39.359],[-75.848,39.366],[-75.832,39.374],[-75.824,39.381],[-75.766,39.377]]]},"properties":{"name":"Kent","id":"24029","STATE":"MD","TYPE":"County","CNTRY":"USA"},"id":"24029"},
{"type":"Feature","geometry":{"type":"Polygon","coordinates":[[[-76.881,39.352],[-76.877,39.334],[-76.853,39.319],[-76.794,39.315],[-76.782,39.299],[-76.791,39.27],[-76.743,39.232],[-76.722,39.23],[-76.701,39.215],[-76.723,39.185],[-76.747,39.181],[-76.769,39.166],[-76.789,39.131],[-76.816,39.124],[-76.839,39.105],[-76.871,39.116],[-76.888,39.132],[-76.912,39.128],[-76.927,39.138],[-76.975,39.153],[-76.996,39.167],[-77.013,39.208],[-77.029,39.218],[-77.067,39.254],[-77.103,39.267],[-77.133,39.272],[-77.144,39.297],[-77.167,39.313],[-77.183,39.334],[-77.182,39.348],[-77.168,39.354],[-77.151,39.35],[-77.125,39.363],[-77.089,39.369],[-77.059,39.359],[-77.015,39.352],[-76.985,39.361],[-76.936,39.358],[-76.91,39.349],[-76.881,39.352]]]},"properties":{"name":"Howard","id":"24027","STATE":"MD","TYPE":"County","CNTRY":"USA"},"id":"24027"},
{"type":"Feature","geometry":{"type":"MultiPolygon","coordinates":[[[[-76.235,39.721],[-76.212,39.688],[-76.168,39.656],[-76.148,39.621],[-76.138,39.616],[-76.076,39.544],[-76.093,39.538],[-76.113,39.503],[-76.097,39.471],[-76.099,39.437],[-76.132,39.416],[-76.164,39.404],[-76.181,39.393],[-76.207,39.399],[-76.229,39.384],[-76.185,39.384],[-76.198,39.364],[-76.225,39.349],[-76.249,39.364],[-76.244,39.398],[-76.222,39.431],[-76.232,39.44],[-76.235,39.466],[-76.258,39.452],[-76.251,39.43],[-76.255,39.418],[-76.283,39.372],[-76.261,39.337],[-76.286,39.303],[-76.302,39.346],[-76.305,39.384],[-76.31,39.39],[-76.36,39.4],[-76.379,39.425],[-76.38,39.446],[-76.394,39.467],[-76.433,39.49],[-76.428,39.502],[-76.466,39.512],[-76.488,39.525],[-76.511,39.527],[-76.533,39.546],[-76.534,39.561],[-76.56,39.597],[-76.567,39.618],[-76.57,39.721],[-76.411,39.721],[-76.235,39.721]]],[[[-76.082,39.478],[-76.061,39.459],[-76.074,39.445],[-76.092,39.448],[-76.082,39.478]]]]},"properties":{"name":"Harford","id":"24025","STATE":"MD","TYPE":"County","CNTRY":"USA"},"id":"24025"},
{"type":"Feature","geometry":{"type":"Polygon","coordinates":[[[-78.915,39.723],[-79.066,39.479],[-79.092,39.473],[-79.13,39.419],[-79.156,39.418],[-79.165,39.405],[-79.16,39.391],[-79.196,39.39],[-79.214,39.364],[-79.254,39.355],[-79.253,39.341],[-79.282,39.322],[-79.293,39.301],[-79.311,39.306],[-79.343,39.296],[-79.36,39.277],[-79.375,39.273],[-79.421,39.235],[-79.423,39.227],[-79.468,39.205],[-79.487,39.207],[-79.487,39.285],[-79.482,39.532],[-79.478,39.532],[-79.477,39.722],[-79.041,39.723],[-78.915,39.723]]]},"properties":{"name":"Garrett","id":"24023","STATE":"MD","TYPE":"County","CNTRY":"USA"},"id":"24023"},
{"type":"Feature","geometry":{"type":"Polygon","coordinates":[[[-77.168,39.354],[-77.182,39.348],[-77.284,39.3],[-77.458,39.22],[-77.456,39.228],[-77.491,39.251],[-77.538,39.266],[-77.57,39.308],[-77.599,39.303],[-77.635,39.309],[-77.677,39.327],[-77.673,39.342],[-77.65,39.377],[-77.638,39.406],[-77.633,39.444],[-77.615,39.47],[-77.623,39.5],[-77.611,39.53],[-77.601,39.541],[-77.585,39.577],[-77.573,39.619],[-77.532,39.632],[-77.517,39.645],[-77.493,39.678],[-77.495,39.693],[-77.467,39.72],[-77.215,39.72],[-77.216,39.697],[-77.244,39.694],[-77.242,39.67],[-77.261,39.663],[-77.276,39.632],[-77.31,39.629],[-77.299,39.611],[-77.272,39.612],[-77.215,39.576],[-77.201,39.578],[-77.17,39.555],[-77.169,39.536],[-77.154,39.534],[-77.134,39.509],[-77.106,39.493],[-77.119,39.475],[-77.116,39.461],[-77.147,39.418],[-77.147,39.41],[-77.168,39.354]]]},"properties":{"name":"Frederick","id":"24021","STATE":"MD","TYPE":"County","CNTRY":"USA"},"id":"24021"},
{"type":"Feature","geometry":{"type":"MultiPolygon","coordinates":[[[[-75.709,38.637],[-75.702,38.562],[-75.728,38.539],[-75.745,38.537],[-75.756,38.513],[-75.796,38.492],[-75.816,38.488],[-75.825,38.461],[-75.844,38.416],[-75.871,38.375],[-75.876,38.36],[-75.909,38.344],[-75.914,38.331],[-75.937,38.312],[-75.939,38.277],[-75.952,38.256],[-75.98,38.267],[-76.003,38.303],[-76.016,38.315],[-75.96,38.328],[-75.959,38.354],[-75.976,38.369],[-75.992,38.37],[-76.004,38.352],[-76.037,38.321],[-76.04,38.31],[-76.022,38.283],[-76.036,38.246],[-76.026,38.221],[-76.054,38.224],[-76.073,38.269],[-76.094,38.278],[-76.1,38.299],[-76.119,38.297],[-76.136,38.313],[-76.155,38.313],[-76.154,38.338],[-76.168,38.34],[-76.179,38.361],[-76.219,38.371],[-76.216,38.39],[-76.234,38.391],[-76.239,38.366],[-76.28,38.38],[-76.285,38.412],[-76.314,38.448],[-76.337,38.489],[-76.325,38.487],[-76.282,38.504],[-76.292,38.481],[-76.283,38.471],[-76.264,38.508],[-76.245,38.525],[-76.227,38.527],[-76.221,38.538],[-76.189,38.522],[-76.163,38.529],[-76.136,38.526],[-76.139,38.539],[-76.19,38.533],[-76.21,38.546],[-76.171,38.568],[-76.224,38.57],[-76.226,38.555],[-76.27,38.56],[-76.31,38.571],[-76.288,38.583],[-76.278,38.572],[-76.258,38.597],[-76.265,38.609],[-76.213,38.613],[-76.208,38.607],[-76.175,38.631],[-76.165,38.602],[-76.137,38.603],[-76.107,38.582],[-76.074,38.584],[-76.072,38.575],[-76.034,38.562],[-76.012,38.577],[-75.962,38.603],[-75.973,38.623],[-75.956,38.64],[-75.945,38.673],[-75.928,38.677],[-75.896,38.699],[-75.873,38.692],[-75.834,38.704],[-75.797,38.695],[-75.796,38.677],[-75.775,38.676],[-75.762,38.686],[-75.709,38.637]]],[[[-76.162,38.292],[-76.172,38.29],[-76.171,38.259],[-76.126,38.247],[-76.14,38.232],[-76.162,38.244],[-76.187,38.264],[-76.191,38.295],[-76.162,38.292]]],[[[-76.06,38.21],[-76.047,38.209],[-76.034,38.189],[-76.033,38.15],[-76.055,38.162],[-76.09,38.156],[-76.092,38.173],[-76.074,38.187],[-76.06,38.21]]]]},"properties":{"name":"Dorchester","id":"24019","STATE":"MD","TYPE":"County","CNTRY":"USA"},"id":"24019"},
{"type":"Feature","geometry":{"type":"Polygon","coordinates":[[[-77.077,38.693],[-77.049,38.618],[-77.028,38.634],[-77.019,38.649],[-76.965,38.661],[-76.904,38.653],[-76.863,38.658],[-76.755,38.621],[-76.747,38.608],[-76.741,38.558],[-76.707,38.546],[-76.68,38.527],[-76.683,38.496],[-76.704,38.498],[-76.712,38.51],[-76.761,38.514],[-76.774,38.509],[-76.819,38.437],[-76.848,38.401],[-76.862,38.391],[-76.901,38.389],[-76.889,38.373],[-76.862,38.364],[-76.863,38.34],[-76.845,38.302],[-76.827,38.278],[-76.882,38.277],[-76.9,38.291],[-76.924,38.294],[-76.918,38.31],[-76.939,38.33],[-76.976,38.341],[-76.982,38.387],[-77.002,38.419],[-77.008,38.438],[-77.041,38.472],[-77.04,38.443],[-77.083,38.411],[-77.109,38.406],[-77.101,38.432],[-77.118,38.443],[-77.128,38.421],[-77.13,38.397],[-77.167,38.374],[-77.211,38.362],[-77.228,38.377],[-77.249,38.385],[-77.264,38.42],[-77.255,38.432],[-77.268,38.466],[-77.264,38.513],[-77.253,38.531],[-77.218,38.546],[-77.162,38.577],[-77.125,38.592],[-77.139,38.601],[-77.171,38.582],[-77.188,38.586],[-77.176,38.611],[-77.139,38.611],[-77.123,38.619],[-77.11,38.637],[-77.106,38.681],[-77.077,38.693]]]},"properties":{"name":"Charles","id":"24017","STATE":"MD","TYPE":"County","CNTRY":"USA"},"id":"24017"},
{"type":"Feature","geometry":{"type":"Polygon","coordinates":[[[-75.766,39.377],[-75.824,39.381],[-75.832,39.374],[-75.887,39.365],[-75.905,39.366],[-75.944,39.383],[-75.977,39.375],[-76,39.385],[-76.03,39.385],[-76.037,39.403],[-76.004,39.421],[-75.971,39.467],[-75.944,39.478],[-75.926,39.47],[-75.896,39.49],[-75.928,39.49],[-75.923,39.503],[-75.893,39.509],[-75.878,39.525],[-75.872,39.542],[-75.854,39.547],[-75.831,39.572],[-75.845,39.588],[-75.864,39.572],[-75.902,39.519],[-75.928,39.52],[-75.935,39.508],[-75.98,39.479],[-76.002,39.493],[-75.981,39.516],[-75.97,39.565],[-75.951,39.584],[-75.971,39.586],[-75.974,39.572],[-76,39.566],[-76.006,39.555],[-76.076,39.544],[-76.138,39.616],[-76.148,39.621],[-76.168,39.656],[-76.212,39.688],[-76.235,39.721],[-76.015,39.723],[-75.788,39.723],[-75.788,39.65],[-75.775,39.483],[-75.766,39.377]]]},"properties":{"name":"Cecil","id":"24015","STATE":"MD","TYPE":"County","CNTRY":"USA"},"id":"24015"},
{"type":"Feature","geometry":{"type":"Polygon","coordinates":[[[-76.789,39.721],[-76.868,39.501],[-76.868,39.485],[-76.88,39.477],[-76.895,39.426],[-76.879,39.42],[-76.882,39.391],[-76.891,39.38],[-76.876,39.358],[-76.881,39.352],[-76.91,39.349],[-76.936,39.358],[-76.985,39.361],[-77.015,39.352],[-77.059,39.359],[-77.089,39.369],[-77.125,39.363],[-77.151,39.35],[-77.168,39.354],[-77.147,39.41],[-77.147,39.418],[-77.116,39.461],[-77.119,39.475],[-77.106,39.493],[-77.134,39.509],[-77.154,39.534],[-77.169,39.536],[-77.17,39.555],[-77.201,39.578],[-77.215,39.576],[-77.272,39.612],[-77.299,39.611],[-77.31,39.629],[-77.276,39.632],[-77.261,39.663],[-77.242,39.67],[-77.244,39.694],[-77.216,39.697],[-77.215,39.72],[-76.996,39.72],[-76.789,39.721]]]},"properties":{"name":"Carroll","id":"24013","STATE":"MD","TYPE":"County","CNTRY":"USA"},"id":"24013"},
{"type":"Feature","geometry":{"type":"Polygon","coordinates":[[[-75.709,38.637],[-75.762,38.686],[-75.775,38.676],[-75.796,38.677],[-75.797,38.695],[-75.834,38.704],[-75.873,38.692],[-75.896,38.699],[-75.928,38.677],[-75.945,38.673],[-75.97,38.7],[-76.006,38.729],[-75.989,38.74],[-75.99,38.757],[-75.956,38.779],[-75.945,38.777],[-75.93,38.793],[-75.894,38.807],[-75.901,38.827],[-75.92,38.835],[-75.92,38.858],[-75.945,38.879],[-75.944,38.918],[-75.95,38.93],[-75.936,38.96],[-75.938,38.977],[-75.915,39.004],[-75.883,39.029],[-75.871,39.057],[-75.848,39.075],[-75.835,39.108],[-75.788,39.135],[-75.747,39.144],[-75.722,38.83],[-75.709,38.637]]]},"properties":{"name":"Caroline","id":"24011","STATE":"MD","TYPE":"County","CNTRY":"USA"},"id":"24011"},
{"type":"Feature","geometry":{"type":"Polygon","coordinates":[[[-76.525,38.71],[-76.524,38.655],[-76.508,38.623],[-76.513,38.556],[-76.509,38.522],[-76.482,38.473],[-76.454,38.456],[-76.451,38.445],[-76.402,38.405],[-76.389,38.39],[-76.383,38.363],[-76.42,38.32],[-76.44,38.329],[-76.458,38.316],[-76.471,38.335],[-76.467,38.362],[-76.478,38.364],[-76.491,38.396],[-76.531,38.415],[-76.584,38.43],[-76.614,38.459],[-76.638,38.462],[-76.643,38.49],[-76.664,38.511],[-76.651,38.526],[-76.661,38.545],[-76.65,38.562],[-76.669,38.57],[-76.665,38.592],[-76.668,38.62],[-76.684,38.637],[-76.685,38.685],[-76.697,38.687],[-76.702,38.71],[-76.687,38.736],[-76.687,38.747],[-76.66,38.765],[-76.624,38.765],[-76.624,38.729],[-76.612,38.72],[-76.537,38.721],[-76.525,38.71]]]},"properties":{"name":"Calvert","id":"24009","STATE":"MD","TYPE":"County","CNTRY":"USA"},"id":"24009"},
{"type":"Feature","geometry":{"type":"Polygon","coordinates":[[[-76.36,39.4],[-76.385,39.38],[-76.339,39.376],[-76.355,39.35],[-76.374,39.34],[-76.394,39.306],[-76.424,39.323],[-76.431,39.313],[-76.382,39.286],[-76.405,39.258],[-76.434,39.255],[-76.456,39.299],[-76.494,39.305],[-76.485,39.289],[-76.462,39.283],[-76.455,39.261],[-76.439,39.241],[-76.424,39.232],[-76.401,39.233],[-76.424,39.21],[-76.446,39.221],[-76.467,39.221],[-76.488,39.209],[-76.496,39.23],[-76.516,39.232],[-76.53,39.243],[-76.53,39.372],[-76.712,39.372],[-76.71,39.277],[-76.618,39.238],[-76.631,39.224],[-76.665,39.231],[-76.701,39.215],[-76.722,39.23],[-76.743,39.232],[-76.791,39.27],[-76.782,39.299],[-76.794,39.315],[-76.853,39.319],[-76.877,39.334],[-76.881,39.352],[-76.876,39.358],[-76.891,39.38],[-76.882,39.391],[-76.879,39.42],[-76.895,39.426],[-76.88,39.477],[-76.868,39.485],[-76.868,39.501],[-76.789,39.721],[-76.57,39.721],[-76.567,39.618],[-76.56,39.597],[-76.534,39.561],[-76.533,39.546],[-76.511,39.527],[-76.488,39.525],[-76.466,39.512],[-76.428,39.502],[-76.433,39.49],[-76.394,39.467],[-76.38,39.446],[-76.379,39.425],[-76.36,39.4]]]},"properties":{"name":"Baltimore","id":"24005","STATE":"MD","TYPE":"County","CNTRY":"USA"},"id":"24005"},
{"type":"Feature","geometry":{"type":"MultiPolygon","coordinates":[[[[-76.53,39.243],[-76.54,39.256],[-76.589,39.268],[-76.624,39.26],[-76.615,39.243],[-76.599,39.249],[-76.579,39.245],[-76.565,39.229],[-76.578,39.206],[-76.618,39.238],[-76.71,39.277],[-76.712,39.372],[-76.53,39.372],[-76.53,39.243]]],[[[-76.535,39.207],[-76.55,39.197],[-76.571,39.203],[-76.545,39.219],[-76.535,39.207]]]]},"properties":{"name":"Baltimo","id":"24510","STATE":"MD","TYPE":"County","CNTRY":"USA"},"id":"24510"},
{"type":"Feature","geometry":{"type":"Polygon","coordinates":[[[-76.578,39.206],[-76.571,39.203],[-76.55,39.197],[-76.535,39.207],[-76.531,39.189],[-76.502,39.163],[-76.48,39.169],[-76.458,39.151],[-76.463,39.134],[-76.432,39.111],[-76.416,39.084],[-76.437,39.07],[-76.441,39.096],[-76.456,39.097],[-76.484,39.078],[-76.513,39.083],[-76.501,39.062],[-76.457,39.061],[-76.409,39.037],[-76.389,39.012],[-76.411,39.004],[-76.427,39.006],[-76.447,38.987],[-76.48,38.99],[-76.482,38.998],[-76.535,39.042],[-76.538,39.058],[-76.559,39.075],[-76.563,39.036],[-76.53,39.027],[-76.525,39.013],[-76.507,39.008],[-76.486,38.97],[-76.469,38.965],[-76.444,38.946],[-76.457,38.938],[-76.454,38.91],[-76.473,38.915],[-76.476,38.93],[-76.495,38.928],[-76.515,38.94],[-76.519,38.96],[-76.546,38.956],[-76.579,38.959],[-76.577,38.942],[-76.554,38.952],[-76.532,38.929],[-76.491,38.914],[-76.489,38.888],[-76.51,38.872],[-76.533,38.866],[-76.542,38.852],[-76.54,38.834],[-76.52,38.833],[-76.511,38.844],[-76.489,38.842],[-76.493,38.821],[-76.508,38.797],[-76.525,38.799],[-76.529,38.782],[-76.563,38.77],[-76.542,38.729],[-76.523,38.729],[-76.525,38.71],[-76.537,38.721],[-76.612,38.72],[-76.624,38.729],[-76.624,38.765],[-76.66,38.765],[-76.687,38.747],[-76.7,38.751],[-76.711,38.813],[-76.698,38.82],[-76.7,38.839],[-76.693,38.858],[-76.679,38.874],[-76.671,38.9],[-76.679,38.908],[-76.705,38.97],[-76.701,38.983],[-76.723,38.997],[-76.745,39.019],[-76.749,39.034],[-76.792,39.047],[-76.81,39.062],[-76.836,39.069],[-76.826,39.092],[-76.839,39.105],[-76.816,39.124],[-76.789,39.131],[-76.769,39.166],[-76.747,39.181],[-76.723,39.185],[-76.701,39.215],[-76.665,39.231],[-76.631,39.224],[-76.618,39.238],[-76.578,39.206]]]},"properties":{"name":"Anne Arundel","id":"24003","STATE":"MD","TYPE":"County","CNTRY":"USA"},"id":"24003"},
{"type":"Feature","geometry":{"type":"Polygon","coordinates":[[[-78.344,39.723],[-78.317,39.702],[-78.32,39.679],[-78.333,39.665],[-78.352,39.663],[-78.328,39.637],[-78.355,39.642],[-78.372,39.631],[-78.388,39.611],[-78.421,39.625],[-78.425,39.609],[-78.397,39.593],[-78.406,39.579],[-78.44,39.59],[-78.451,39.572],[-78.429,39.562],[-78.433,39.544],[-78.461,39.549],[-78.466,39.52],[-78.502,39.52],[-78.531,39.526],[-78.559,39.52],[-78.624,39.54],[-78.647,39.537],[-78.68,39.544],[-78.725,39.567],[-78.733,39.579],[-78.757,39.582],[-78.773,39.599],[-78.747,39.609],[-78.749,39.628],[-78.776,39.625],[-78.798,39.633],[-78.796,39.612],[-78.809,39.608],[-78.838,39.567],[-78.869,39.539],[-78.874,39.524],[-78.892,39.523],[-78.918,39.487],[-78.936,39.484],[-78.942,39.469],[-78.958,39.461],[-78.964,39.44],[-79.039,39.478],[-79.066,39.479],[-78.915,39.723],[-78.763,39.724],[-78.488,39.723],[-78.344,39.723]]]},"properties":{"name":"Allegany","id":"24001","STATE":"MD","TYPE":"County","CNTRY":"USA"},"id":"24001"}
]}