{"type":"FeatureCollection", "features": [
{"type":"Feature","geometry":{"type":"Polygon","coordinates":[[[-107.737,46.481],[-107.738,46.467],[-107.721,46.468],[-107.719,46.437],[-107.701,46.436],[-107.698,46.407],[-107.677,46.407],[-107.676,46.394],[-107.655,46.394],[-107.656,46.365],[-107.635,46.365],[-107.634,46.348],[-107.614,46.349],[-107.613,46.305],[-107.592,46.305],[-107.592,46.29],[-107.573,46.29],[-107.571,46.261],[-107.551,46.261],[-107.552,46.247],[-107.529,46.247],[-107.529,46.219],[-107.51,46.219],[-107.509,46.192],[-107.488,46.192],[-107.488,46.177],[-107.468,46.177],[-107.467,46.163],[-107.474,46.152],[-107.462,46.14],[-107.47,46.124],[-107.484,46.124],[-107.475,46.106],[-107.485,46.09],[-107.502,46.081],[-107.501,46.067],[-107.52,46.064],[-107.512,46.043],[-107.671,46.043],[-107.673,45.987],[-107.798,45.987],[-107.798,45.958],[-107.841,45.958],[-107.841,45.929],[-107.882,45.929],[-107.882,45.9],[-108.045,45.9],[-108.043,45.785],[-108.068,45.784],[-108.065,45.677],[-108.064,45.52],[-108.187,45.52],[-108.188,45.49],[-108.313,45.49],[-108.312,45.461],[-108.443,45.462],[-108.441,45.465],[-108.643,45.464],[-108.695,45.464],[-108.695,45.523],[-108.761,45.524],[-108.761,45.551],[-108.801,45.552],[-108.803,45.587],[-108.792,45.598],[-108.778,45.625],[-108.78,45.638],[-108.798,45.635],[-108.808,45.626],[-108.822,45.624],[-108.83,45.612],[-108.843,45.611],[-108.842,45.639],[-108.864,45.639],[-108.864,45.653],[-108.884,45.654],[-108.885,45.683],[-108.905,45.683],[-108.903,45.784],[-108.9,45.784],[-108.9,45.961],[-108.921,45.961],[-108.924,46.048],[-108.924,46.133],[-108.778,46.133],[-108.403,46.133],[-108.403,46.235],[-108.363,46.235],[-108.362,46.25],[-108.319,46.25],[-108.32,46.263],[-108.027,46.262],[-108.025,46.307],[-108.012,46.307],[-108.01,46.336],[-107.99,46.335],[-107.992,46.35],[-107.971,46.349],[-107.969,46.364],[-107.948,46.365],[-107.947,46.377],[-107.93,46.378],[-107.93,46.393],[-107.783,46.395],[-107.778,46.495],[-107.753,46.495],[-107.754,46.48],[-107.737,46.481]]]},"properties":{"name":"Yellowstone","id":"30111","STATE":"MT","TYPE":"County","CNTRY":"USA"},"id":"30111"},
{"type":"Feature","geometry":{"type":"Polygon","coordinates":[[[-104.043,47.4],[-104.045,47.328],[-104.045,47.187],[-104.045,46.64],[-104.352,46.639],[-104.352,46.669],[-104.418,46.67],[-104.418,46.684],[-104.603,46.685],[-104.603,46.828],[-104.6,46.86],[-104.497,46.859],[-104.458,46.878],[-104.458,46.888],[-104.431,46.886],[-104.431,46.902],[-104.412,46.903],[-104.402,46.917],[-104.401,46.932],[-104.369,46.949],[-104.339,46.99],[-104.33,47.007],[-104.328,47.044],[-104.304,47.043],[-104.305,47.137],[-104.319,47.139],[-104.321,47.196],[-104.333,47.198],[-104.333,47.219],[-104.342,47.22],[-104.343,47.245],[-104.365,47.252],[-104.376,47.263],[-104.376,47.276],[-104.399,47.296],[-104.42,47.304],[-104.432,47.318],[-104.452,47.319],[-104.409,47.355],[-104.128,47.355],[-104.129,47.401],[-104.043,47.4]]]},"properties":{"name":"Wibaux","id":"30109","STATE":"MT","TYPE":"County","CNTRY":"USA"},"id":"30109"},
{"type":"Feature","geometry":{"type":"Polygon","coordinates":[[[-109.746,46.693],[-109.68,46.693],[-109.386,46.694],[-109.386,46.49],[-109.4,46.49],[-109.401,46.219],[-109.652,46.22],[-109.904,46.22],[-110.153,46.221],[-110.281,46.223],[-110.281,46.401],[-110.281,46.488],[-110.274,46.488],[-110.273,46.552],[-110.273,46.709],[-110.264,46.713],[-110.213,46.71],[-110.194,46.725],[-110.161,46.718],[-110.126,46.72],[-110.118,46.738],[-110.089,46.745],[-110.05,46.748],[-110.035,46.74],[-110.012,46.74],[-109.97,46.752],[-109.945,46.743],[-109.923,46.731],[-109.9,46.729],[-109.863,46.709],[-109.832,46.71],[-109.824,46.694],[-109.746,46.693]]]},"properties":{"name":"Wheatland","id":"30107","STATE":"MT","TYPE":"County","CNTRY":"USA"},"id":"30107"},
{"type":"Feature","geometry":{"type":"Polygon","coordinates":[[[-106.108,49.001],[-106.112,48.91],[-106.153,48.909],[-106.15,48.823],[-106.022,48.823],[-106.022,48.737],[-106.02,48.631],[-106.021,48.564],[-105.805,48.564],[-105.806,48.48],[-105.803,48.393],[-105.803,48.217],[-105.84,48.217],[-105.843,48.01],[-105.851,48.009],[-105.879,48.025],[-105.888,48.038],[-105.901,48.03],[-105.898,48.012],[-105.924,48.007],[-105.94,48.015],[-105.971,48.014],[-106.004,48.033],[-106.018,48.033],[-106.022,48.021],[-106.01,48.015],[-106.017,48.005],[-106.043,48.009],[-106.049,48.021],[-106.064,48.033],[-106.088,48.034],[-106.085,48.02],[-106.112,48.005],[-106.141,48.007],[-106.143,48.013],[-106.123,48.022],[-106.128,48.033],[-106.172,48.028],[-106.231,48.027],[-106.268,48.045],[-106.301,48.043],[-106.308,48.053],[-106.323,48.055],[-106.348,48.044],[-106.365,48.048],[-106.375,48.066],[-106.394,48.067],[-106.414,48.052],[-106.425,48.036],[-106.429,48.018],[-106.414,47.972],[-106.418,47.958],[-106.433,47.961],[-106.431,47.98],[-106.462,47.965],[-106.499,47.96],[-106.508,47.947],[-106.492,47.941],[-106.488,47.93],[-106.498,47.914],[-106.517,47.913],[-106.53,47.904],[-106.508,47.89],[-106.511,47.879],[-106.535,47.879],[-106.543,47.871],[-106.527,47.863],[-106.53,47.848],[-106.562,47.843],[-106.557,47.826],[-106.564,47.815],[-106.609,47.806],[-106.602,47.785],[-106.622,47.792],[-106.652,47.791],[-106.663,47.77],[-106.691,47.777],[-106.711,47.773],[-106.71,47.756],[-106.73,47.735],[-106.756,47.73],[-106.793,47.742],[-106.838,47.742],[-106.868,47.735],[-106.877,47.72],[-106.87,47.693],[-106.877,47.681],[-106.927,47.67],[-106.937,47.674],[-107,47.672],[-107.018,47.661],[-107.075,47.662],[-107.124,47.669],[-107.159,47.667],[-107.174,47.661],[-107.25,47.661],[-107.28,47.68],[-107.334,47.681],[-107.365,47.692],[-107.414,47.692],[-107.414,47.872],[-107.405,47.871],[-107.403,48.091],[-107.402,48.22],[-107.366,48.221],[-107.368,48.306],[-107.26,48.306],[-107.259,48.395],[-107.302,48.395],[-107.304,48.481],[-107.258,48.481],[-107.257,48.518],[-107.219,48.51],[-107.195,48.512],[-107.192,48.535],[-107.195,48.569],[-107.205,48.569],[-107.204,48.656],[-107.206,48.742],[-107.205,48.914],[-107.175,48.914],[-107.176,49.001],[-106.98,49.001],[-106.606,49.002],[-106.108,49.001]]]},"properties":{"name":"Valley","id":"30105","STATE":"MT","TYPE":"County","CNTRY":"USA"},"id":"30105"},
{"type":"Feature","geometry":{"type":"Polygon","coordinates":[[[-106.937,45.871],[-107.052,45.872],[-107.051,45.915],[-107.174,45.914],[-107.176,45.959],[-107.303,45.959],[-107.424,45.958],[-107.427,46.042],[-107.512,46.043],[-107.52,46.064],[-107.501,46.067],[-107.502,46.081],[-107.485,46.09],[-107.475,46.106],[-107.484,46.124],[-107.47,46.124],[-107.462,46.14],[-107.474,46.152],[-107.467,46.163],[-107.468,46.177],[-107.488,46.177],[-107.488,46.192],[-107.509,46.192],[-107.51,46.219],[-107.529,46.219],[-107.529,46.247],[-107.552,46.247],[-107.551,46.261],[-107.571,46.261],[-107.573,46.29],[-107.592,46.29],[-107.592,46.305],[-107.613,46.305],[-107.614,46.349],[-107.634,46.348],[-107.635,46.365],[-107.656,46.365],[-107.655,46.394],[-107.676,46.394],[-107.677,46.407],[-107.698,46.407],[-107.701,46.436],[-107.719,46.437],[-107.721,46.468],[-107.738,46.467],[-107.737,46.481],[-107.533,46.48],[-107.279,46.48],[-107.177,46.481],[-107.176,46.467],[-107.152,46.467],[-107.152,46.396],[-107.029,46.395],[-107.027,46.308],[-107.007,46.308],[-107.008,46.135],[-106.935,46.136],[-106.935,45.957],[-106.937,45.871]]]},"properties":{"name":"Treasure","id":"30103","STATE":"MT","TYPE":"County","CNTRY":"USA"},"id":"30103"},
{"type":"Feature","geometry":{"type":"Polygon","coordinates":[[[-111.269,49.001],[-111.273,48.913],[-111.274,48.825],[-111.273,48.739],[-111.274,48.652],[-111.274,48.565],[-111.274,48.332],[-111.274,48.219],[-111.409,48.218],[-111.539,48.219],[-111.669,48.218],[-111.669,48.303],[-111.668,48.349],[-111.798,48.35],[-111.798,48.39],[-111.929,48.393],[-111.99,48.393],[-111.991,48.438],[-112.024,48.451],[-112.099,48.438],[-112.102,48.449],[-112.127,48.462],[-112.152,48.469],[-112.169,48.469],[-112.185,48.475],[-112.188,48.566],[-112.191,48.567],[-112.192,48.652],[-112.189,48.738],[-112.189,48.913],[-112.196,48.913],[-112.191,49.001],[-112,49],[-111.269,49.001]]]},"properties":{"name":"Toole","id":"30101","STATE":"MT","TYPE":"County","CNTRY":"USA"},"id":"30101"},
{"type":"Feature","geometry":{"type":"Polygon","coordinates":[[[-111.41,47.987],[-111.411,47.783],[-111.409,47.698],[-111.54,47.697],[-111.665,47.698],[-111.667,47.61],[-111.924,47.61],[-111.922,47.501],[-111.974,47.509],[-111.993,47.505],[-112.027,47.516],[-112.045,47.517],[-112.087,47.514],[-112.093,47.509],[-112.151,47.513],[-112.162,47.508],[-112.181,47.511],[-112.207,47.502],[-112.248,47.508],[-112.275,47.504],[-112.294,47.521],[-112.31,47.529],[-112.324,47.543],[-112.344,47.537],[-112.348,47.55],[-112.379,47.545],[-112.406,47.553],[-112.407,47.576],[-112.424,47.588],[-112.425,47.603],[-112.452,47.609],[-112.513,47.618],[-112.522,47.632],[-112.551,47.651],[-112.562,47.641],[-112.583,47.634],[-112.624,47.631],[-112.64,47.622],[-112.678,47.619],[-112.707,47.62],[-112.733,47.615],[-112.774,47.597],[-112.828,47.613],[-112.859,47.632],[-112.916,47.695],[-112.904,47.71],[-112.905,47.731],[-112.929,47.758],[-112.922,47.77],[-112.924,47.788],[-112.915,47.801],[-112.914,47.825],[-112.929,47.852],[-112.928,47.859],[-112.943,47.868],[-112.955,47.907],[-112.975,47.913],[-112.976,47.933],[-112.989,47.949],[-112.965,47.953],[-112.949,47.946],[-112.914,47.949],[-112.909,47.966],[-112.886,47.983],[-112.897,48.009],[-112.899,48.02],[-112.911,48.03],[-112.954,48.036],[-112.952,48.046],[-112.938,48.058],[-112.969,48.075],[-112.982,48.073],[-112.983,48.088],[-112.997,48.107],[-112.989,48.12],[-112.999,48.129],[-112.83,48.13],[-112.829,48.132],[-112.568,48.133],[-112.437,48.132],[-112.306,48.132],[-112.179,48.131],[-112.178,48.088],[-112.048,48.087],[-112.047,48.044],[-111.985,48.044],[-111.985,47.984],[-111.789,47.984],[-111.41,47.987]]]},"properties":{"name":"Teton","id":"30099","STATE":"MT","TYPE":"County","CNTRY":"USA"},"id":"30099"},
{"type":"Feature","geometry":{"type":"Polygon","coordinates":[[[-109.652,46.22],[-109.65,46.132],[-109.602,46.132],[-109.606,46.046],[-109.421,46.045],[-109.422,45.96],[-109.507,45.96],[-109.507,45.871],[-109.547,45.871],[-109.547,45.783],[-109.563,45.783],[-109.559,45.695],[-109.557,45.609],[-109.682,45.609],[-109.683,45.564],[-109.805,45.565],[-109.806,45.522],[-109.932,45.522],[-109.931,45.347],[-110.057,45.348],[-110.059,45.176],[-110.227,45.176],[-110.227,45.259],[-110.23,45.349],[-110.217,45.349],[-110.217,45.482],[-110.215,45.552],[-110.218,45.607],[-110.221,45.784],[-110.291,45.785],[-110.292,45.871],[-110.29,45.96],[-110.29,46.134],[-110.282,46.135],[-110.282,46.185],[-110.281,46.223],[-110.153,46.221],[-109.904,46.22],[-109.652,46.22]]]},"properties":{"name":"Sweet Grass","id":"30097","STATE":"MT","TYPE":"County","CNTRY":"USA"},"id":"30097"},
{"type":"Feature","geometry":{"type":"Polygon","coordinates":[[[-108.924,46.133],[-108.924,46.048],[-108.921,45.961],[-108.9,45.961],[-108.9,45.784],[-108.903,45.784],[-108.905,45.683],[-108.885,45.683],[-108.884,45.654],[-108.864,45.653],[-108.864,45.639],[-108.842,45.639],[-108.843,45.611],[-108.861,45.614],[-108.868,45.609],[-108.903,45.603],[-108.934,45.605],[-108.976,45.616],[-108.985,45.609],[-109.009,45.609],[-109.041,45.59],[-109.072,45.582],[-109.107,45.583],[-109.127,45.589],[-109.129,45.523],[-109.189,45.523],[-109.19,45.464],[-109.355,45.463],[-109.355,45.449],[-109.416,45.449],[-109.416,45.434],[-109.433,45.435],[-109.433,45.419],[-109.479,45.418],[-109.48,45.402],[-109.501,45.403],[-109.501,45.39],[-109.519,45.39],[-109.52,45.376],[-109.543,45.376],[-109.543,45.36],[-109.559,45.36],[-109.565,45.331],[-109.587,45.332],[-109.587,45.305],[-109.606,45.304],[-109.607,45.261],[-109.655,45.261],[-109.687,45.244],[-109.69,45.167],[-109.798,45.167],[-109.798,45.173],[-110.059,45.176],[-110.057,45.348],[-109.931,45.347],[-109.932,45.522],[-109.806,45.522],[-109.805,45.565],[-109.683,45.564],[-109.682,45.609],[-109.557,45.609],[-109.559,45.695],[-109.563,45.783],[-109.547,45.783],[-109.547,45.871],[-109.507,45.871],[-109.507,45.96],[-109.422,45.96],[-109.421,46.045],[-109.42,46.131],[-109.404,46.132],[-109.275,46.132],[-108.924,46.133]]]},"properties":{"name":"Stillwater","id":"30095","STATE":"MT","TYPE":"County","CNTRY":"USA"},"id":"30095"},
{"type":"Feature","geometry":{"type":"Polygon","coordinates":[[[-112.173,45.749],[-112.196,45.75],[-112.462,45.742],[-112.488,45.759],[-112.507,45.753],[-112.523,45.728],[-112.523,45.709],[-112.537,45.696],[-112.571,45.674],[-112.607,45.656],[-112.623,45.651],[-112.659,45.633],[-112.684,45.626],[-112.697,45.639],[-112.692,45.657],[-112.698,45.676],[-112.715,45.676],[-112.733,45.684],[-112.753,45.713],[-112.747,45.733],[-112.764,45.75],[-112.787,45.761],[-112.802,45.762],[-112.823,45.776],[-112.87,45.781],[-112.882,45.791],[-112.908,45.789],[-112.933,45.802],[-112.947,45.799],[-112.986,45.808],[-113.013,45.819],[-113.026,45.832],[-113.062,45.849],[-113.074,45.852],[-113.083,45.865],[-113.025,45.871],[-113.012,45.883],[-112.989,45.891],[-112.968,45.903],[-112.957,45.925],[-112.922,45.928],[-112.925,45.944],[-112.935,45.948],[-112.936,45.99],[-112.914,46.008],[-112.898,46.001],[-112.872,46.007],[-112.869,46.031],[-112.85,46.052],[-112.777,46.051],[-112.779,46.138],[-112.683,46.139],[-112.655,46.157],[-112.641,46.177],[-112.607,46.168],[-112.575,46.177],[-112.538,46.177],[-112.525,46.184],[-112.508,46.179],[-112.515,46.167],[-112.513,46.153],[-112.522,46.139],[-112.515,46.124],[-112.501,46.123],[-112.496,46.11],[-112.467,46.095],[-112.472,46.084],[-112.464,46.075],[-112.476,46.052],[-112.469,46.04],[-112.444,46.035],[-112.44,46.012],[-112.445,46.005],[-112.438,45.967],[-112.445,45.959],[-112.433,45.952],[-112.437,45.937],[-112.421,45.92],[-112.422,45.907],[-112.41,45.901],[-112.41,45.874],[-112.427,45.857],[-112.423,45.842],[-112.386,45.827],[-112.323,45.807],[-112.311,45.8],[-112.271,45.788],[-112.252,45.77],[-112.236,45.771],[-112.195,45.758],[-112.173,45.749]]]},"properties":{"name":"Silver Bow","id":"30093","STATE":"MT","TYPE":"County","CNTRY":"USA"},"id":"30093"},
{"type":"Feature","geometry":{"type":"Polygon","coordinates":[[[-104.047,48.389],[-104.236,48.39],[-104.624,48.39],[-104.623,48.476],[-104.756,48.477],[-104.756,48.562],[-104.971,48.563],[-104.971,48.651],[-105.039,48.651],[-105.04,48.737],[-105.039,48.911],[-105.058,48.911],[-105.055,49],[-105.001,49],[-104.05,49],[-104.048,48.633],[-104.047,48.389]]]},"properties":{"name":"Sheridan","id":"30091","STATE":"MT","TYPE":"County","CNTRY":"USA"},"id":"30091"},
{"type":"Feature","geometry":{"type":"Polygon","coordinates":[[[-115.011,48.018],[-115.009,48.003],[-114.988,48.003],[-114.992,47.874],[-114.876,47.873],[-114.858,47.875],[-114.726,47.874],[-114.604,47.875],[-114.606,47.789],[-114.606,47.746],[-114.587,47.744],[-114.585,47.599],[-114.349,47.6],[-114.332,47.596],[-114.34,47.571],[-114.329,47.563],[-114.338,47.549],[-114.357,47.544],[-114.366,47.534],[-114.365,47.517],[-114.383,47.489],[-114.373,47.48],[-114.358,47.494],[-114.302,47.497],[-114.285,47.474],[-114.286,47.466],[-114.307,47.461],[-114.327,47.465],[-114.327,47.454],[-114.343,47.435],[-114.342,47.418],[-114.353,47.394],[-114.348,47.383],[-114.328,47.368],[-114.305,47.363],[-114.28,47.352],[-114.208,47.351],[-114.205,47.282],[-114.203,47.181],[-114.189,47.18],[-114.19,47.141],[-114.212,47.129],[-114.236,47.133],[-114.266,47.12],[-114.289,47.124],[-114.344,47.15],[-114.366,47.162],[-114.346,47.176],[-114.354,47.186],[-114.378,47.187],[-114.435,47.209],[-114.454,47.208],[-114.467,47.216],[-114.488,47.217],[-114.542,47.238],[-114.555,47.251],[-114.602,47.257],[-114.628,47.266],[-114.69,47.273],[-114.707,47.259],[-114.72,47.256],[-114.737,47.262],[-114.77,47.259],[-114.782,47.268],[-114.799,47.268],[-114.842,47.269],[-114.842,47.296],[-114.905,47.296],[-114.905,47.31],[-114.969,47.31],[-114.969,47.374],[-114.989,47.393],[-115.026,47.41],[-115.105,47.426],[-115.126,47.419],[-115.159,47.438],[-115.165,47.448],[-115.199,47.462],[-115.221,47.463],[-115.242,47.477],[-115.281,47.486],[-115.315,47.473],[-115.343,47.474],[-115.358,47.483],[-115.403,47.484],[-115.451,47.469],[-115.48,47.471],[-115.506,47.498],[-115.521,47.495],[-115.529,47.48],[-115.541,47.474],[-115.576,47.471],[-115.635,47.477],[-115.656,47.477],[-115.668,47.488],[-115.69,47.487],[-115.693,47.5],[-115.705,47.51],[-115.706,47.534],[-115.726,47.534],[-115.75,47.541],[-115.752,47.554],[-115.719,47.577],[-115.69,47.593],[-115.697,47.627],[-115.728,47.643],[-115.733,47.662],[-115.724,47.696],[-115.733,47.706],[-115.757,47.717],[-115.771,47.716],[-115.782,47.725],[-115.783,47.743],[-115.799,47.755],[-115.831,47.752],[-115.848,47.786],[-115.848,47.815],[-115.854,47.825],[-115.873,47.836],[-115.879,47.845],[-115.9,47.843],[-115.914,47.853],[-115.942,47.884],[-115.961,47.896],[-115.966,47.908],[-115.995,47.928],[-116.011,47.954],[-116.021,47.965],[-116.047,47.973],[-116.048,48.216],[-116.02,48.206],[-116.019,48.158],[-115.988,48.157],[-115.959,48.15],[-115.949,48.161],[-115.939,48.183],[-115.907,48.182],[-115.868,48.206],[-115.797,48.224],[-115.781,48.242],[-115.77,48.26],[-115.739,48.261],[-115.711,48.247],[-115.674,48.205],[-115.699,48.176],[-115.692,48.166],[-115.676,48.164],[-115.649,48.134],[-115.653,48.126],[-115.64,48.111],[-115.643,48.099],[-115.638,48.073],[-115.62,48.065],[-115.589,48.026],[-115.566,48.018],[-115.551,48.007],[-115.541,47.991],[-115.54,47.973],[-115.556,47.967],[-115.552,47.959],[-115.561,47.942],[-115.548,47.929],[-115.548,47.92],[-115.53,47.911],[-115.498,47.909],[-115.466,47.921],[-115.44,47.912],[-115.426,47.912],[-115.421,47.929],[-115.401,47.941],[-115.405,47.919],[-115.386,47.903],[-115.372,47.904],[-115.317,47.918],[-115.286,47.892],[-115.274,47.894],[-115.245,47.912],[-115.208,47.915],[-115.192,47.92],[-115.181,47.938],[-115.185,47.955],[-115.163,47.973],[-115.146,47.964],[-115.134,47.984],[-115.151,47.999],[-115.155,48.018],[-115.011,48.018]]]},"properties":{"name":"Sanders","id":"30089","STATE":"MT","TYPE":"County","CNTRY":"USA"},"id":"30089"},
{"type":"Feature","geometry":{"type":"Polygon","coordinates":[[[-106.088,46.845],[-106.087,46.831],[-106.122,46.831],[-106.12,46.743],[-106.121,46.655],[-106.12,46.569],[-106.117,46.484],[-106.154,46.483],[-106.153,46.384],[-106.152,46.136],[-106.191,46.136],[-106.191,46.05],[-106.193,45.791],[-106.236,45.792],[-106.235,45.61],[-106.234,45.44],[-106.233,45.352],[-106.277,45.352],[-106.274,45.181],[-106.519,45.178],[-106.642,45.179],[-106.763,45.181],[-106.763,45.353],[-106.724,45.352],[-106.724,45.408],[-106.727,45.679],[-106.848,45.678],[-106.847,45.685],[-106.911,45.686],[-106.91,45.79],[-106.875,45.79],[-106.876,45.834],[-106.937,45.833],[-106.937,45.871],[-106.935,45.957],[-106.935,46.136],[-107.008,46.135],[-107.007,46.308],[-107.027,46.308],[-107.029,46.395],[-107.152,46.396],[-107.152,46.467],[-107.176,46.467],[-107.177,46.481],[-107.279,46.48],[-107.533,46.48],[-107.737,46.481],[-107.754,46.48],[-107.753,46.495],[-107.778,46.495],[-107.799,46.495],[-107.797,46.595],[-107.837,46.598],[-107.819,46.615],[-107.815,46.652],[-107.798,46.664],[-107.795,46.683],[-107.824,46.704],[-107.83,46.725],[-107.81,46.731],[-107.828,46.757],[-107.839,46.772],[-107.853,46.781],[-107.836,46.792],[-107.867,46.834],[-107.893,46.851],[-107.467,46.851],[-107.468,46.859],[-107.101,46.859],[-106.93,46.86],[-106.717,46.859],[-106.717,46.845],[-106.469,46.845],[-106.088,46.845]]]},"properties":{"name":"Rosebud","id":"30087","STATE":"MT","TYPE":"County","CNTRY":"USA"},"id":"30087"},
{"type":"Feature","geometry":{"type":"Polygon","coordinates":[[[-104.971,48.563],[-104.756,48.562],[-104.756,48.477],[-104.623,48.476],[-104.624,48.39],[-104.236,48.39],[-104.047,48.389],[-104.045,48.001],[-104.092,48.001],[-104.102,48.011],[-104.091,48.032],[-104.111,48.03],[-104.124,48.04],[-104.127,48.05],[-104.142,48.055],[-104.175,48.036],[-104.185,48.045],[-104.184,48.07],[-104.202,48.065],[-104.197,48.038],[-104.219,48.031],[-104.239,48.03],[-104.29,48.051],[-104.347,48.048],[-104.36,48.072],[-104.377,48.077],[-104.395,48.076],[-104.448,48.099],[-104.454,48.115],[-104.478,48.124],[-104.51,48.11],[-104.52,48.12],[-104.548,48.126],[-104.583,48.107],[-104.592,48.11],[-104.588,48.124],[-104.611,48.14],[-104.629,48.111],[-104.678,48.104],[-104.685,48.119],[-104.709,48.12],[-104.737,48.11],[-104.746,48.111],[-104.76,48.128],[-104.781,48.13],[-104.822,48.121],[-104.845,48.122],[-104.886,48.15],[-104.898,48.151],[-104.923,48.137],[-104.924,48.117],[-104.933,48.1],[-104.943,48.095],[-104.974,48.103],[-104.974,48.087],[-104.992,48.079],[-105.005,48.086],[-105.012,48.069],[-105.037,48.064],[-105.061,48.078],[-105.099,48.06],[-105.11,48.078],[-105.13,48.075],[-105.159,48.075],[-105.177,48.088],[-105.182,48.075],[-105.194,48.065],[-105.219,48.064],[-105.217,48.083],[-105.223,48.092],[-105.24,48.094],[-105.3,48.081],[-105.322,48.08],[-105.325,48.09],[-105.344,48.095],[-105.363,48.089],[-105.388,48.093],[-105.423,48.093],[-105.45,48.089],[-105.466,48.094],[-105.487,48.091],[-105.497,48.098],[-105.515,48.092],[-105.524,48.073],[-105.535,48.066],[-105.555,48.073],[-105.567,48.083],[-105.606,48.079],[-105.639,48.067],[-105.644,48.049],[-105.664,48.048],[-105.668,48.061],[-105.7,48.051],[-105.718,48.033],[-105.748,48.026],[-105.761,48.031],[-105.771,48.048],[-105.782,48.042],[-105.787,48.024],[-105.808,48.025],[-105.843,48.01],[-105.84,48.217],[-105.803,48.217],[-105.803,48.393],[-105.806,48.48],[-105.805,48.564],[-105.538,48.565],[-105.495,48.565],[-105.282,48.565],[-104.971,48.563]]]},"properties":{"name":"Roosevelt","id":"30085","STATE":"MT","TYPE":"County","CNTRY":"USA"},"id":"30085"},
{"type":"Feature","geometry":{"type":"Polygon","coordinates":[[[-104.045,48.001],[-104.041,47.911],[-104.042,47.6],[-104.042,47.442],[-104.043,47.4],[-104.129,47.401],[-104.128,47.355],[-104.409,47.355],[-104.51,47.355],[-104.509,47.442],[-104.511,47.528],[-104.592,47.529],[-104.592,47.616],[-104.976,47.616],[-104.975,47.703],[-105.232,47.704],[-105.232,47.79],[-105.233,47.867],[-105.196,47.867],[-105.194,48.065],[-105.182,48.075],[-105.177,48.088],[-105.159,48.075],[-105.13,48.075],[-105.11,48.078],[-105.099,48.06],[-105.061,48.078],[-105.037,48.064],[-105.012,48.069],[-105.005,48.086],[-104.992,48.079],[-104.974,48.087],[-104.974,48.103],[-104.943,48.095],[-104.933,48.1],[-104.924,48.117],[-104.923,48.137],[-104.898,48.151],[-104.886,48.15],[-104.845,48.122],[-104.822,48.121],[-104.781,48.13],[-104.76,48.128],[-104.746,48.111],[-104.737,48.11],[-104.709,48.12],[-104.685,48.119],[-104.678,48.104],[-104.629,48.111],[-104.611,48.14],[-104.588,48.124],[-104.592,48.11],[-104.583,48.107],[-104.548,48.126],[-104.52,48.12],[-104.51,48.11],[-104.478,48.124],[-104.454,48.115],[-104.448,48.099],[-104.395,48.076],[-104.377,48.077],[-104.36,48.072],[-104.347,48.048],[-104.29,48.051],[-104.239,48.03],[-104.219,48.031],[-104.197,48.038],[-104.202,48.065],[-104.184,48.07],[-104.185,48.045],[-104.175,48.036],[-104.142,48.055],[-104.127,48.05],[-104.124,48.04],[-104.111,48.03],[-104.091,48.032],[-104.102,48.011],[-104.092,48.001],[-104.045,48.001]]]},"properties":{"name":"Richland","id":"30083","STATE":"MT","TYPE":"County","CNTRY":"USA"},"id":"30083"},
{"type":"Feature","geometry":{"type":"Polygon","coordinates":[[[-113.827,46.66],[-113.817,46.637],[-113.803,46.62],[-113.819,46.588],[-113.83,46.578],[-113.832,46.567],[-113.844,46.544],[-113.847,46.515],[-113.877,46.506],[-113.868,46.491],[-113.851,46.446],[-113.859,46.419],[-113.821,46.405],[-113.814,46.391],[-113.802,46.384],[-113.783,46.361],[-113.787,46.338],[-113.774,46.316],[-113.785,46.3],[-113.785,46.283],[-113.752,46.27],[-113.762,46.258],[-113.759,46.25],[-113.778,46.239],[-113.783,46.224],[-113.817,46.216],[-113.825,46.199],[-113.817,46.19],[-113.787,46.181],[-113.796,46.153],[-113.78,46.141],[-113.753,46.11],[-113.768,46.101],[-113.773,46.086],[-113.79,46.073],[-113.793,46.059],[-113.805,46.043],[-113.801,46.035],[-113.773,46.032],[-113.749,46.049],[-113.732,46.038],[-113.696,46.04],[-113.662,45.999],[-113.668,45.985],[-113.654,45.97],[-113.638,45.964],[-113.615,45.962],[-113.614,45.953],[-113.595,45.946],[-113.575,45.948],[-113.557,45.939],[-113.548,45.947],[-113.522,45.942],[-113.519,45.938],[-113.533,45.919],[-113.539,45.901],[-113.53,45.88],[-113.541,45.876],[-113.579,45.872],[-113.593,45.864],[-113.593,45.851],[-113.612,45.85],[-113.622,45.841],[-113.662,45.835],[-113.697,45.841],[-113.726,45.827],[-113.739,45.815],[-113.77,45.797],[-113.772,45.79],[-113.794,45.792],[-113.79,45.78],[-113.801,45.77],[-113.797,45.762],[-113.849,45.75],[-113.863,45.779],[-113.898,45.763],[-113.913,45.747],[-113.903,45.722],[-113.91,45.711],[-113.934,45.694],[-113.969,45.69],[-113.975,45.703],[-113.986,45.705],[-114.017,45.692],[-114.025,45.674],[-114.015,45.659],[-114.065,45.629],[-114.08,45.611],[-114.084,45.597],[-114.099,45.586],[-114.129,45.577],[-114.13,45.566],[-114.141,45.557],[-114.179,45.55],[-114.202,45.535],[-114.229,45.547],[-114.249,45.544],[-114.249,45.524],[-114.272,45.484],[-114.296,45.479],[-114.308,45.471],[-114.341,45.459],[-114.357,45.472],[-114.368,45.492],[-114.381,45.499],[-114.427,45.513],[-114.431,45.527],[-114.462,45.551],[-114.468,45.565],[-114.506,45.556],[-114.527,45.571],[-114.552,45.558],[-114.557,45.571],[-114.552,45.596],[-114.539,45.612],[-114.559,45.628],[-114.562,45.639],[-114.51,45.656],[-114.499,45.677],[-114.507,45.69],[-114.495,45.701],[-114.501,45.718],[-114.528,45.73],[-114.545,45.745],[-114.545,45.76],[-114.562,45.765],[-114.566,45.777],[-114.546,45.793],[-114.542,45.803],[-114.515,45.832],[-114.513,45.843],[-114.492,45.852],[-114.48,45.849],[-114.436,45.863],[-114.41,45.852],[-114.395,45.877],[-114.386,45.886],[-114.432,45.94],[-114.411,45.952],[-114.405,45.962],[-114.413,45.977],[-114.427,45.985],[-114.462,45.996],[-114.477,45.993],[-114.487,46.003],[-114.474,46.017],[-114.48,46.03],[-114.504,46.031],[-114.494,46.051],[-114.469,46.065],[-114.472,46.075],[-114.46,46.094],[-114.472,46.111],[-114.486,46.119],[-114.518,46.125],[-114.524,46.147],[-114.515,46.165],[-114.504,46.169],[-114.47,46.166],[-114.447,46.174],[-114.445,46.2],[-114.452,46.239],[-114.471,46.259],[-114.467,46.27],[-114.444,46.276],[-114.43,46.285],[-114.433,46.309],[-114.415,46.339],[-114.415,46.37],[-114.422,46.383],[-114.419,46.393],[-114.392,46.411],[-114.381,46.433],[-114.382,46.46],[-114.398,46.475],[-114.403,46.499],[-114.39,46.506],[-114.369,46.506],[-114.345,46.517],[-114.35,46.53],[-114.348,46.553],[-114.335,46.578],[-114.342,46.592],[-114.325,46.611],[-114.323,46.634],[-114.325,46.653],[-114.334,46.66],[-114.181,46.659],[-114.152,46.662],[-113.899,46.66],[-113.827,46.66]]]},"properties":{"name":"Ravalli","id":"30081","STATE":"MT","TYPE":"County","CNTRY":"USA"},"id":"30081"},
{"type":"Feature","geometry":{"type":"Polygon","coordinates":[[[-104.6,46.86],[-104.603,46.828],[-104.603,46.685],[-104.604,46.656],[-104.73,46.655],[-104.73,46.612],[-104.858,46.611],[-104.858,46.567],[-104.982,46.569],[-104.981,46.54],[-105.238,46.54],[-105.238,46.569],[-105.367,46.569],[-105.449,46.57],[-105.451,46.599],[-105.491,46.599],[-105.491,46.658],[-105.576,46.657],[-105.578,46.745],[-105.618,46.745],[-105.622,46.831],[-105.828,46.832],[-105.829,46.861],[-106.087,46.86],[-106.085,47.007],[-106.088,47.181],[-105.957,47.182],[-105.957,47.094],[-105.831,47.094],[-105.832,47.182],[-105.704,47.181],[-105.401,47.182],[-105.321,47.183],[-105.324,46.977],[-105.194,46.977],[-105.194,46.919],[-105.068,46.919],[-105.067,46.903],[-105.048,46.903],[-105.048,46.889],[-105.029,46.888],[-105.028,46.86],[-104.796,46.86],[-104.6,46.86]]]},"properties":{"name":"Prairie","id":"30079","STATE":"MT","TYPE":"County","CNTRY":"USA"},"id":"30079"},
{"type":"Feature","geometry":{"type":"Polygon","coordinates":[[[-112.315,46.42],[-112.34,46.402],[-112.354,46.384],[-112.405,46.389],[-112.43,46.367],[-112.428,46.36],[-112.451,46.354],[-112.456,46.331],[-112.472,46.339],[-112.499,46.344],[-112.503,46.331],[-112.526,46.336],[-112.535,46.331],[-112.555,46.31],[-112.573,46.297],[-112.56,46.284],[-112.559,46.27],[-112.66,46.269],[-113.032,46.264],[-113.032,46.31],[-113.034,46.396],[-113.035,46.485],[-113.038,46.485],[-113.037,46.571],[-113.038,46.738],[-113.071,46.72],[-113.092,46.721],[-113.106,46.712],[-113.136,46.727],[-113.18,46.731],[-113.175,46.755],[-113.189,46.77],[-113.214,46.785],[-113.228,46.786],[-113.238,46.798],[-113.245,46.817],[-113.258,46.825],[-113.29,46.805],[-113.289,46.833],[-113.304,46.834],[-113.304,47.11],[-113.305,47.182],[-113.467,47.183],[-113.469,47.35],[-113.472,47.601],[-113.149,47.6],[-113.132,47.589],[-113.128,47.574],[-113.117,47.564],[-113.125,47.557],[-113.128,47.537],[-113.125,47.517],[-113.106,47.485],[-113.08,47.482],[-113.059,47.488],[-113.057,47.221],[-113.058,47.179],[-113.048,47.176],[-112.873,47.175],[-112.794,47.176],[-112.792,47.004],[-112.789,46.885],[-112.789,46.831],[-112.665,46.834],[-112.666,46.836],[-112.536,46.835],[-112.533,46.697],[-112.413,46.7],[-112.413,46.656],[-112.32,46.658],[-112.307,46.638],[-112.293,46.606],[-112.314,46.567],[-112.298,46.531],[-112.306,46.506],[-112.306,46.463],[-112.31,46.448],[-112.324,46.435],[-112.315,46.42]]]},"properties":{"name":"Powell","id":"30077","STATE":"MT","TYPE":"County","CNTRY":"USA"},"id":"30077"},
{"type":"Feature","geometry":{"type":"Polygon","coordinates":[[[-104.98,45.786],[-104.979,45.683],[-104.981,45.625],[-104.982,45.442],[-104.989,45.442],[-104.989,45.352],[-105.038,45.351],[-105.039,45.092],[-105.039,45],[-105.287,45.001],[-105.588,45.001],[-105.92,45.002],[-105.933,44.997],[-106.001,44.997],[-106.142,44.998],[-106.265,44.997],[-106.264,45.088],[-106.265,45.18],[-106.274,45.181],[-106.277,45.352],[-106.233,45.352],[-106.234,45.44],[-106.235,45.61],[-106.236,45.792],[-106.193,45.791],[-106.111,45.79],[-105.89,45.789],[-105.694,45.79],[-105.489,45.789],[-105.312,45.789],[-105.31,45.786],[-105.241,45.785],[-105.201,45.787],[-105.067,45.787],[-104.995,45.788],[-104.98,45.786]]]},"properties":{"name":"Powder River","id":"30075","STATE":"MT","TYPE":"County","CNTRY":"USA"},"id":"30075"},
{"type":"Feature","geometry":{"type":"Polygon","coordinates":[[[-112.185,48.475],[-112.169,48.469],[-112.152,48.469],[-112.127,48.462],[-112.102,48.449],[-112.099,48.438],[-112.024,48.451],[-111.991,48.438],[-111.99,48.393],[-111.929,48.393],[-111.798,48.39],[-111.798,48.35],[-111.668,48.349],[-111.669,48.303],[-111.669,48.218],[-111.539,48.219],[-111.409,48.218],[-111.409,48.133],[-111.41,47.987],[-111.789,47.984],[-111.985,47.984],[-111.985,48.044],[-112.047,48.044],[-112.048,48.087],[-112.178,48.088],[-112.179,48.131],[-112.306,48.132],[-112.437,48.132],[-112.568,48.133],[-112.829,48.132],[-112.83,48.13],[-112.999,48.129],[-113.007,48.132],[-113.037,48.129],[-113.054,48.135],[-113.07,48.149],[-113.079,48.137],[-113.135,48.136],[-113.14,48.152],[-113.161,48.154],[-113.172,48.166],[-113.187,48.17],[-113.206,48.164],[-113.233,48.168],[-113.238,48.217],[-113.226,48.229],[-113.253,48.254],[-113.281,48.261],[-113.293,48.268],[-113.298,48.281],[-113.33,48.288],[-113.334,48.298],[-113.356,48.31],[-113.23,48.31],[-113.23,48.307],[-113.074,48.31],[-112.969,48.309],[-112.843,48.31],[-112.71,48.31],[-112.578,48.308],[-112.577,48.394],[-112.576,48.484],[-112.446,48.484],[-112.313,48.483],[-112.216,48.48],[-112.185,48.475]]]},"properties":{"name":"Pondera","id":"30073","STATE":"MT","TYPE":"County","CNTRY":"USA"},"id":"30073"},
{"type":"Feature","geometry":{"type":"Polygon","coordinates":[[[-107.176,49.001],[-107.175,48.914],[-107.205,48.914],[-107.206,48.742],[-107.204,48.656],[-107.205,48.569],[-107.195,48.569],[-107.192,48.535],[-107.195,48.512],[-107.219,48.51],[-107.257,48.518],[-107.258,48.481],[-107.304,48.481],[-107.302,48.395],[-107.259,48.395],[-107.26,48.306],[-107.368,48.306],[-107.366,48.221],[-107.402,48.22],[-107.403,48.091],[-107.405,47.871],[-107.414,47.872],[-107.414,47.692],[-107.429,47.673],[-107.42,47.665],[-107.426,47.651],[-107.439,47.649],[-107.433,47.634],[-107.448,47.622],[-107.491,47.624],[-107.51,47.63],[-107.52,47.643],[-107.553,47.646],[-107.568,47.643],[-107.596,47.65],[-107.611,47.647],[-107.616,47.632],[-107.637,47.649],[-107.645,47.641],[-107.647,47.626],[-107.659,47.62],[-107.672,47.631],[-107.693,47.63],[-107.694,47.62],[-107.719,47.591],[-107.729,47.586],[-107.737,47.569],[-107.762,47.564],[-107.759,47.551],[-107.772,47.543],[-107.791,47.554],[-107.805,47.543],[-107.816,47.546],[-107.839,47.534],[-107.841,47.525],[-107.865,47.513],[-107.852,47.497],[-107.853,47.487],[-107.867,47.479],[-107.859,47.457],[-107.892,47.451],[-107.906,47.451],[-107.912,47.464],[-107.908,47.483],[-107.895,47.508],[-107.917,47.52],[-107.917,47.533],[-107.928,47.544],[-107.923,47.561],[-107.959,47.57],[-107.962,47.576],[-107.984,47.589],[-108.018,47.582],[-108.055,47.593],[-108.079,47.596],[-108.094,47.592],[-108.134,47.593],[-108.166,47.582],[-108.205,47.585],[-108.247,47.582],[-108.267,47.586],[-108.286,47.581],[-108.312,47.581],[-108.332,47.567],[-108.349,47.579],[-108.372,47.577],[-108.382,47.589],[-108.397,47.594],[-108.424,47.584],[-108.422,47.599],[-108.44,47.606],[-108.454,47.616],[-108.465,47.605],[-108.51,47.601],[-108.507,47.61],[-108.526,47.621],[-108.558,47.611],[-108.593,47.616],[-108.611,47.625],[-108.623,47.62],[-108.674,47.621],[-108.688,47.63],[-108.708,47.631],[-108.729,47.648],[-108.755,47.647],[-108.781,47.651],[-108.792,47.661],[-108.783,47.678],[-108.795,47.686],[-108.804,47.702],[-108.832,47.715],[-108.891,47.737],[-108.891,47.801],[-108.892,47.871],[-108.886,47.87],[-108.886,47.924],[-108.676,47.926],[-108.628,47.919],[-108.621,47.965],[-108.604,47.995],[-108.574,47.986],[-108.437,47.98],[-108.435,48.046],[-108.432,48.221],[-108.409,48.221],[-108.409,48.429],[-108.41,48.448],[-108.378,48.44],[-108.358,48.429],[-108.348,48.43],[-108.347,48.567],[-108.322,48.568],[-108.323,48.741],[-108.259,48.742],[-108.261,48.914],[-108.241,48.915],[-108.238,49.001],[-108.021,49],[-107.949,49.001],[-107.527,49.001],[-107.176,49.001]]]},"properties":{"name":"Phillips","id":"30071","STATE":"MT","TYPE":"County","CNTRY":"USA"},"id":"30071"},
{"type":"Feature","geometry":{"type":"Polygon","coordinates":[[[-107.906,47.451],[-107.918,47.435],[-107.917,47.406],[-107.939,47.374],[-107.962,47.35],[-107.952,47.344],[-107.963,47.331],[-107.95,47.314],[-107.954,47.302],[-107.948,47.283],[-107.961,47.267],[-107.964,47.248],[-107.959,47.237],[-107.943,47.227],[-107.937,47.208],[-107.948,47.201],[-107.934,47.181],[-107.952,47.161],[-107.947,47.149],[-107.954,47.122],[-107.943,47.115],[-107.933,47.097],[-107.933,47.084],[-107.913,47.067],[-107.918,47.043],[-107.907,47.034],[-107.919,47.023],[-107.914,47.015],[-107.895,47.011],[-107.882,47.002],[-107.894,46.976],[-107.911,46.972],[-107.908,46.954],[-107.917,46.949],[-107.91,46.937],[-107.932,46.917],[-107.934,46.897],[-107.943,46.878],[-107.93,46.878],[-107.91,46.859],[-107.893,46.851],[-107.867,46.834],[-107.836,46.792],[-107.853,46.781],[-107.839,46.772],[-107.828,46.757],[-107.883,46.757],[-108.262,46.752],[-108.359,46.75],[-108.516,46.748],[-108.628,46.749],[-108.63,46.837],[-108.607,46.837],[-108.607,47.028],[-108.606,47.099],[-108.735,47.1],[-108.733,47.184],[-108.714,47.184],[-108.714,47.27],[-108.588,47.27],[-108.59,47.306],[-108.462,47.306],[-108.463,47.309],[-108.336,47.307],[-108.319,47.316],[-108.32,47.53],[-108.312,47.53],[-108.312,47.581],[-108.286,47.581],[-108.267,47.586],[-108.247,47.582],[-108.205,47.585],[-108.166,47.582],[-108.134,47.593],[-108.094,47.592],[-108.079,47.596],[-108.055,47.593],[-108.018,47.582],[-107.984,47.589],[-107.962,47.576],[-107.959,47.57],[-107.923,47.561],[-107.928,47.544],[-107.917,47.533],[-107.917,47.52],[-107.895,47.508],[-107.908,47.483],[-107.912,47.464],[-107.906,47.451]]]},"properties":{"name":"Petroleum","id":"30069","STATE":"MT","TYPE":"County","CNTRY":"USA"},"id":"30069"},
{"type":"Feature","geometry":{"type":"Polygon","coordinates":[[[-110.783,46.193],[-110.579,46.191],[-110.406,46.19],[-110.407,46.184],[-110.282,46.185],[-110.282,46.135],[-110.29,46.134],[-110.29,45.96],[-110.292,45.871],[-110.291,45.785],[-110.221,45.784],[-110.218,45.607],[-110.215,45.552],[-110.217,45.482],[-110.217,45.349],[-110.23,45.349],[-110.227,45.259],[-110.227,45.176],[-110.059,45.176],[-109.798,45.173],[-109.798,45.167],[-109.797,45.003],[-110.132,45.002],[-110.201,44.994],[-110.372,44.997],[-110.402,44.992],[-110.707,44.993],[-110.776,45.002],[-111.042,45],[-111.043,45.102],[-111.042,45.179],[-111.036,45.179],[-111.035,45.35],[-110.915,45.349],[-110.918,45.525],[-110.859,45.525],[-110.857,45.59],[-110.794,45.59],[-110.794,45.611],[-110.795,45.786],[-110.789,45.786],[-110.789,45.945],[-110.789,46.142],[-110.784,46.142],[-110.783,46.193]]]},"properties":{"name":"Park","id":"30067","STATE":"MT","TYPE":"County","CNTRY":"USA"},"id":"30067"},
{"type":"Feature","geometry":{"type":"Polygon","coordinates":[[[-107.778,46.495],[-107.783,46.395],[-107.93,46.393],[-107.93,46.378],[-107.947,46.377],[-107.948,46.365],[-107.969,46.364],[-107.971,46.349],[-107.992,46.35],[-107.99,46.335],[-108.01,46.336],[-108.012,46.307],[-108.025,46.307],[-108.027,46.262],[-108.32,46.263],[-108.319,46.25],[-108.362,46.25],[-108.363,46.235],[-108.403,46.235],[-108.403,46.133],[-108.778,46.133],[-108.778,46.276],[-108.799,46.276],[-108.799,46.307],[-108.821,46.307],[-108.822,46.322],[-108.833,46.322],[-108.832,46.351],[-108.842,46.352],[-108.842,46.367],[-108.864,46.367],[-108.864,46.451],[-108.885,46.453],[-108.886,46.492],[-108.907,46.492],[-108.906,46.577],[-108.991,46.578],[-108.99,46.622],[-109.01,46.621],[-109.009,46.752],[-108.904,46.75],[-108.817,46.751],[-108.628,46.749],[-108.516,46.748],[-108.359,46.75],[-108.262,46.752],[-107.883,46.757],[-107.828,46.757],[-107.81,46.731],[-107.83,46.725],[-107.824,46.704],[-107.795,46.683],[-107.798,46.664],[-107.815,46.652],[-107.819,46.615],[-107.837,46.598],[-107.797,46.595],[-107.799,46.495],[-107.778,46.495]]]},"properties":{"name":"Musselshell","id":"30065","STATE":"MT","TYPE":"County","CNTRY":"USA"},"id":"30065"},
{"type":"Feature","geometry":{"type":"Polygon","coordinates":[[[-113.627,47.601],[-113.472,47.601],[-113.469,47.35],[-113.467,47.183],[-113.305,47.182],[-113.304,47.11],[-113.304,46.834],[-113.415,46.833],[-113.416,46.801],[-113.479,46.801],[-113.478,46.746],[-113.544,46.747],[-113.544,46.728],[-113.553,46.715],[-113.672,46.716],[-113.672,46.658],[-113.793,46.658],[-113.827,46.66],[-113.899,46.66],[-114.152,46.662],[-114.181,46.659],[-114.334,46.66],[-114.365,46.669],[-114.432,46.66],[-114.455,46.649],[-114.468,46.633],[-114.49,46.636],[-114.503,46.643],[-114.525,46.641],[-114.542,46.652],[-114.556,46.645],[-114.591,46.637],[-114.613,46.638],[-114.618,46.657],[-114.641,46.666],[-114.643,46.679],[-114.625,46.692],[-114.629,46.713],[-114.657,46.736],[-114.674,46.739],[-114.675,46.749],[-114.551,46.748],[-114.548,46.835],[-114.565,46.836],[-114.565,46.964],[-114.548,46.964],[-114.549,46.994],[-114.531,46.993],[-114.53,47.01],[-114.508,47.01],[-114.494,47.003],[-114.447,46.994],[-114.447,47.011],[-114.419,47.01],[-114.418,47.021],[-114.482,47.021],[-114.487,47.066],[-114.568,47.067],[-114.568,47.096],[-114.59,47.096],[-114.589,47.124],[-114.635,47.124],[-114.635,47.138],[-114.65,47.138],[-114.651,47.167],[-114.689,47.167],[-114.69,47.183],[-114.711,47.183],[-114.711,47.226],[-114.777,47.225],[-114.778,47.239],[-114.798,47.24],[-114.799,47.268],[-114.782,47.268],[-114.77,47.259],[-114.737,47.262],[-114.72,47.256],[-114.707,47.259],[-114.69,47.273],[-114.628,47.266],[-114.602,47.257],[-114.555,47.251],[-114.542,47.238],[-114.488,47.217],[-114.467,47.216],[-114.454,47.208],[-114.435,47.209],[-114.378,47.187],[-114.354,47.186],[-114.346,47.176],[-114.366,47.162],[-114.344,47.15],[-114.289,47.124],[-114.266,47.12],[-114.236,47.133],[-114.212,47.129],[-114.19,47.141],[-114.061,47.139],[-113.936,47.141],[-113.933,47.183],[-113.823,47.182],[-113.819,47.268],[-113.839,47.274],[-113.856,47.286],[-113.871,47.289],[-113.876,47.302],[-113.893,47.311],[-113.879,47.341],[-113.89,47.361],[-113.869,47.383],[-113.885,47.408],[-113.887,47.435],[-113.897,47.444],[-113.925,47.458],[-113.929,47.468],[-113.95,47.476],[-113.935,47.496],[-113.912,47.499],[-113.902,47.514],[-113.915,47.518],[-113.921,47.532],[-113.931,47.539],[-113.916,47.549],[-113.934,47.601],[-113.627,47.601]]]},"properties":{"name":"Missoula","id":"30063","STATE":"MT","TYPE":"County","CNTRY":"USA"},"id":"30063"},
{"type":"Feature","geometry":{"type":"Polygon","coordinates":[[[-114.799,47.268],[-114.798,47.24],[-114.778,47.239],[-114.777,47.225],[-114.711,47.226],[-114.711,47.183],[-114.69,47.183],[-114.689,47.167],[-114.651,47.167],[-114.65,47.138],[-114.635,47.138],[-114.635,47.124],[-114.589,47.124],[-114.59,47.096],[-114.568,47.096],[-114.568,47.067],[-114.487,47.066],[-114.482,47.021],[-114.418,47.021],[-114.419,47.01],[-114.447,47.011],[-114.447,46.994],[-114.494,47.003],[-114.508,47.01],[-114.53,47.01],[-114.531,46.993],[-114.549,46.994],[-114.548,46.964],[-114.565,46.964],[-114.565,46.836],[-114.548,46.835],[-114.551,46.748],[-114.675,46.749],[-114.674,46.739],[-114.694,46.739],[-114.713,46.717],[-114.736,46.714],[-114.753,46.7],[-114.784,46.709],[-114.786,46.718],[-114.768,46.739],[-114.768,46.76],[-114.792,46.778],[-114.826,46.782],[-114.853,46.798],[-114.863,46.81],[-114.889,46.809],[-114.906,46.823],[-114.923,46.828],[-114.929,46.838],[-114.926,46.853],[-114.943,46.859],[-114.943,46.867],[-114.929,46.88],[-114.933,46.896],[-114.923,46.915],[-114.953,46.928],[-114.983,46.948],[-114.998,46.967],[-115.015,46.975],[-115.05,46.971],[-115.052,46.982],[-115.065,46.994],[-115.071,47.025],[-115.084,47.044],[-115.109,47.053],[-115.14,47.083],[-115.141,47.102],[-115.167,47.107],[-115.184,47.128],[-115.198,47.138],[-115.226,47.152],[-115.239,47.154],[-115.256,47.164],[-115.257,47.175],[-115.27,47.183],[-115.296,47.189],[-115.299,47.199],[-115.293,47.221],[-115.319,47.239],[-115.326,47.26],[-115.363,47.262],[-115.385,47.267],[-115.409,47.265],[-115.425,47.28],[-115.448,47.276],[-115.469,47.284],[-115.503,47.287],[-115.527,47.304],[-115.545,47.328],[-115.554,47.347],[-115.577,47.357],[-115.604,47.379],[-115.631,47.385],[-115.648,47.383],[-115.662,47.4],[-115.725,47.426],[-115.75,47.422],[-115.752,47.437],[-115.729,47.448],[-115.705,47.454],[-115.669,47.453],[-115.645,47.459],[-115.635,47.477],[-115.576,47.471],[-115.541,47.474],[-115.529,47.48],[-115.521,47.495],[-115.506,47.498],[-115.48,47.471],[-115.451,47.469],[-115.403,47.484],[-115.358,47.483],[-115.343,47.474],[-115.315,47.473],[-115.281,47.486],[-115.242,47.477],[-115.221,47.463],[-115.199,47.462],[-115.165,47.448],[-115.159,47.438],[-115.126,47.419],[-115.105,47.426],[-115.026,47.41],[-114.989,47.393],[-114.969,47.374],[-114.969,47.31],[-114.905,47.31],[-114.905,47.296],[-114.842,47.296],[-114.842,47.269],[-114.799,47.268]]]},"properties":{"name":"Mineral","id":"30061","STATE":"MT","TYPE":"County","CNTRY":"USA"},"id":"30061"},
{"type":"Feature","geometry":{"type":"Polygon","coordinates":[[[-110.653,46.822],[-110.649,46.8],[-110.632,46.78],[-110.614,46.768],[-110.564,46.771],[-110.56,46.765],[-110.562,46.733],[-110.532,46.721],[-110.523,46.712],[-110.508,46.714],[-110.484,46.703],[-110.478,46.686],[-110.467,46.678],[-110.436,46.684],[-110.419,46.678],[-110.405,46.688],[-110.367,46.693],[-110.351,46.679],[-110.34,46.677],[-110.323,46.689],[-110.302,46.69],[-110.289,46.706],[-110.273,46.709],[-110.273,46.552],[-110.274,46.488],[-110.281,46.488],[-110.281,46.401],[-110.281,46.223],[-110.282,46.185],[-110.407,46.184],[-110.406,46.19],[-110.579,46.191],[-110.783,46.193],[-111.01,46.192],[-111.056,46.192],[-111.07,46.233],[-111.083,46.235],[-111.077,46.248],[-111.093,46.25],[-111.126,46.275],[-111.118,46.294],[-111.117,46.316],[-111.098,46.336],[-111.098,46.342],[-111.075,46.35],[-111.072,46.375],[-111.058,46.408],[-111.078,46.413],[-111.109,46.436],[-111.134,46.45],[-111.173,46.447],[-111.176,46.437],[-111.194,46.429],[-111.232,46.43],[-111.251,46.446],[-111.255,46.494],[-111.266,46.5],[-111.278,46.519],[-111.292,46.528],[-111.316,46.53],[-111.341,46.541],[-111.326,46.555],[-111.32,46.569],[-111.332,46.578],[-111.327,46.585],[-111.332,46.605],[-111.326,46.615],[-111.33,46.631],[-111.364,46.634],[-111.375,46.643],[-111.411,46.643],[-111.411,46.66],[-111.422,46.677],[-111.448,46.685],[-111.446,46.696],[-111.461,46.706],[-111.451,46.717],[-111.463,46.723],[-111.455,46.733],[-111.469,46.753],[-111.498,46.762],[-111.498,46.789],[-111.512,46.808],[-111.552,46.804],[-111.579,46.808],[-111.597,46.805],[-111.615,46.816],[-111.623,46.828],[-111.644,46.839],[-111.638,46.849],[-111.639,46.865],[-111.612,46.878],[-111.603,46.89],[-111.659,46.914],[-111.539,46.915],[-111.537,47.002],[-111.284,47.002],[-111.283,47.011],[-111.158,47.011],[-111.157,47.089],[-111.079,47.088],[-111.084,47.071],[-111.078,47.042],[-111.094,47.037],[-111.103,47.028],[-111.079,47.007],[-111.058,47.008],[-111.003,47.002],[-110.971,47.001],[-110.965,46.995],[-110.922,46.984],[-110.889,46.958],[-110.853,46.939],[-110.859,46.927],[-110.804,46.902],[-110.787,46.911],[-110.78,46.898],[-110.76,46.897],[-110.752,46.844],[-110.738,46.846],[-110.718,46.839],[-110.695,46.841],[-110.676,46.822],[-110.653,46.822]]]},"properties":{"name":"Meagher","id":"30059","STATE":"MT","TYPE":"County","CNTRY":"USA"},"id":"30059"},
{"type":"Feature","geometry":{"type":"Polygon","coordinates":[[[-105.194,48.065],[-105.196,47.867],[-105.233,47.867],[-105.232,47.79],[-105.362,47.791],[-105.362,47.619],[-105.363,47.529],[-105.406,47.528],[-105.405,47.443],[-105.405,47.357],[-105.401,47.268],[-105.401,47.182],[-105.704,47.181],[-105.832,47.182],[-105.831,47.094],[-105.957,47.094],[-105.957,47.182],[-106.088,47.181],[-106.168,47.182],[-106.168,47.357],[-106.301,47.355],[-106.3,47.4],[-106.3,47.529],[-106.263,47.53],[-106.262,47.631],[-106.262,47.7],[-106.261,47.868],[-106.36,47.869],[-106.361,47.958],[-106.418,47.958],[-106.414,47.972],[-106.429,48.018],[-106.425,48.036],[-106.414,48.052],[-106.394,48.067],[-106.375,48.066],[-106.365,48.048],[-106.348,48.044],[-106.323,48.055],[-106.308,48.053],[-106.301,48.043],[-106.268,48.045],[-106.231,48.027],[-106.172,48.028],[-106.128,48.033],[-106.123,48.022],[-106.143,48.013],[-106.141,48.007],[-106.112,48.005],[-106.085,48.02],[-106.088,48.034],[-106.064,48.033],[-106.049,48.021],[-106.043,48.009],[-106.017,48.005],[-106.01,48.015],[-106.022,48.021],[-106.018,48.033],[-106.004,48.033],[-105.971,48.014],[-105.94,48.015],[-105.924,48.007],[-105.898,48.012],[-105.901,48.03],[-105.888,48.038],[-105.879,48.025],[-105.851,48.009],[-105.843,48.01],[-105.808,48.025],[-105.787,48.024],[-105.782,48.042],[-105.771,48.048],[-105.761,48.031],[-105.748,48.026],[-105.718,48.033],[-105.7,48.051],[-105.668,48.061],[-105.664,48.048],[-105.644,48.049],[-105.639,48.067],[-105.606,48.079],[-105.567,48.083],[-105.555,48.073],[-105.535,48.066],[-105.524,48.073],[-105.515,48.092],[-105.497,48.098],[-105.487,48.091],[-105.466,48.094],[-105.45,48.089],[-105.423,48.093],[-105.388,48.093],[-105.363,48.089],[-105.344,48.095],[-105.325,48.09],[-105.322,48.08],[-105.3,48.081],[-105.24,48.094],[-105.223,48.092],[-105.217,48.083],[-105.219,48.064],[-105.194,48.065]]]},"properties":{"name":"McCone","id":"30055","STATE":"MT","TYPE":"County","CNTRY":"USA"},"id":"30055"},
{"type":"Feature","geometry":{"type":"Polygon","coordinates":[[[-111.804,45.797],[-111.804,45.787],[-111.765,45.788],[-111.765,45.773],[-111.724,45.772],[-111.723,45.744],[-111.661,45.743],[-111.66,45.728],[-111.643,45.729],[-111.643,45.714],[-111.621,45.714],[-111.621,45.699],[-111.599,45.699],[-111.6,45.685],[-111.579,45.685],[-111.579,45.67],[-111.558,45.671],[-111.558,45.656],[-111.536,45.657],[-111.536,45.641],[-111.352,45.641],[-111.353,45.524],[-111.352,45.453],[-111.354,45.351],[-111.373,45.351],[-111.373,45.203],[-111.372,45],[-111.374,44.911],[-111.378,44.911],[-111.378,44.754],[-111.393,44.751],[-111.398,44.726],[-111.411,44.713],[-111.442,44.721],[-111.483,44.708],[-111.64,44.708],[-111.66,44.709],[-111.782,44.708],[-111.782,44.781],[-112.067,44.783],[-112.068,44.825],[-112.169,44.826],[-112.167,44.912],[-112.194,44.912],[-112.191,45.002],[-112.332,45.002],[-112.333,45.087],[-112.457,45.087],[-112.457,45.261],[-112.459,45.349],[-112.465,45.35],[-112.464,45.391],[-112.507,45.443],[-112.541,45.444],[-112.575,45.43],[-112.605,45.427],[-112.621,45.439],[-112.651,45.45],[-112.688,45.481],[-112.688,45.509],[-112.702,45.527],[-112.686,45.56],[-112.686,45.599],[-112.681,45.605],[-112.684,45.626],[-112.659,45.633],[-112.623,45.651],[-112.607,45.656],[-112.571,45.674],[-112.537,45.696],[-112.523,45.709],[-112.523,45.728],[-112.507,45.753],[-112.488,45.759],[-112.462,45.742],[-112.196,45.75],[-112.173,45.749],[-112.156,45.756],[-112.141,45.769],[-112.136,45.784],[-112.116,45.803],[-112.118,45.827],[-112.114,45.834],[-112.097,45.837],[-112.089,45.848],[-112.019,45.858],[-111.994,45.848],[-111.953,45.851],[-111.931,45.856],[-111.906,45.829],[-111.881,45.831],[-111.87,45.821],[-111.844,45.822],[-111.809,45.811],[-111.804,45.797]]]},"properties":{"name":"Madison","id":"30057","STATE":"MT","TYPE":"County","CNTRY":"USA"},"id":"30057"},
{"type":"Feature","geometry":{"type":"Polygon","coordinates":[[[-114.726,49.001],[-114.727,48.986],[-114.687,48.973],[-114.687,48.963],[-114.698,48.951],[-114.718,48.941],[-114.722,48.933],[-114.709,48.924],[-114.704,48.899],[-114.709,48.887],[-114.691,48.87],[-114.689,48.858],[-114.694,48.841],[-114.729,48.829],[-114.733,48.807],[-114.715,48.801],[-114.676,48.799],[-114.67,48.787],[-114.65,48.78],[-114.637,48.76],[-114.621,48.758],[-114.622,48.747],[-114.635,48.734],[-114.677,48.726],[-114.693,48.705],[-114.684,48.696],[-114.694,48.68],[-114.655,48.671],[-114.639,48.659],[-114.757,48.66],[-114.887,48.658],[-114.888,48.574],[-114.848,48.574],[-114.848,48.4],[-114.849,48.228],[-115.021,48.228],[-115.02,48.14],[-115.013,48.14],[-115.011,48.018],[-115.155,48.018],[-115.151,47.999],[-115.134,47.984],[-115.146,47.964],[-115.163,47.973],[-115.185,47.955],[-115.181,47.938],[-115.192,47.92],[-115.208,47.915],[-115.245,47.912],[-115.274,47.894],[-115.286,47.892],[-115.317,47.918],[-115.372,47.904],[-115.386,47.903],[-115.405,47.919],[-115.401,47.941],[-115.421,47.929],[-115.426,47.912],[-115.44,47.912],[-115.466,47.921],[-115.498,47.909],[-115.53,47.911],[-115.548,47.92],[-115.548,47.929],[-115.561,47.942],[-115.552,47.959],[-115.556,47.967],[-115.54,47.973],[-115.541,47.991],[-115.551,48.007],[-115.566,48.018],[-115.589,48.026],[-115.62,48.065],[-115.638,48.073],[-115.643,48.099],[-115.64,48.111],[-115.653,48.126],[-115.649,48.134],[-115.676,48.164],[-115.692,48.166],[-115.699,48.176],[-115.674,48.205],[-115.711,48.247],[-115.739,48.261],[-115.77,48.26],[-115.781,48.242],[-115.797,48.224],[-115.868,48.206],[-115.907,48.182],[-115.939,48.183],[-115.949,48.161],[-115.959,48.15],[-115.988,48.157],[-116.019,48.158],[-116.02,48.206],[-116.048,48.216],[-116.05,48.502],[-116.05,48.612],[-116.05,48.867],[-116.051,49.001],[-115.97,49.001],[-115.201,49.001],[-114.999,49],[-114.726,49.001]]]},"properties":{"name":"Lincoln","id":"30053","STATE":"MT","TYPE":"County","CNTRY":"USA"},"id":"30053"},
{"type":"Feature","geometry":{"type":"Polygon","coordinates":[[[-110.739,49.001],[-110.742,48.913],[-110.748,48.913],[-110.747,48.567],[-110.753,48.567],[-110.754,48.479],[-110.753,48.392],[-110.754,48.306],[-110.753,48.221],[-110.827,48.221],[-110.827,48.135],[-110.894,48.136],[-111.02,48.135],[-111.153,48.136],[-111.28,48.134],[-111.409,48.133],[-111.409,48.218],[-111.274,48.219],[-111.274,48.332],[-111.274,48.565],[-111.274,48.652],[-111.273,48.739],[-111.274,48.825],[-111.273,48.913],[-111.269,49.001],[-111.002,49],[-110.739,49.001]]]},"properties":{"name":"Liberty","id":"30051","STATE":"MT","TYPE":"County","CNTRY":"USA"},"id":"30051"},
{"type":"Feature","geometry":{"type":"Polygon","coordinates":[[[-112.045,47.517],[-112.046,47.435],[-112.044,47.193],[-112.023,47.195],[-112.008,47.177],[-111.994,47.179],[-111.967,47.173],[-111.964,47.16],[-111.949,47.153],[-111.942,47.14],[-111.921,47.136],[-111.896,47.135],[-111.894,47.123],[-111.872,47.128],[-111.789,47.128],[-111.79,47.001],[-111.788,46.913],[-111.659,46.914],[-111.603,46.89],[-111.612,46.878],[-111.639,46.865],[-111.638,46.849],[-111.644,46.839],[-111.623,46.828],[-111.615,46.816],[-111.597,46.805],[-111.579,46.808],[-111.552,46.804],[-111.512,46.808],[-111.498,46.789],[-111.498,46.762],[-111.519,46.763],[-111.542,46.769],[-111.563,46.767],[-111.568,46.776],[-111.59,46.783],[-111.609,46.774],[-111.627,46.75],[-111.639,46.739],[-111.64,46.647],[-111.64,46.581],[-111.634,46.573],[-111.788,46.572],[-111.915,46.571],[-112.027,46.572],[-112.034,46.562],[-112.031,46.545],[-112.072,46.522],[-112.094,46.516],[-112.123,46.516],[-112.136,46.523],[-112.157,46.511],[-112.204,46.497],[-112.2,46.478],[-112.187,46.478],[-112.177,46.459],[-112.191,46.453],[-112.216,46.45],[-112.241,46.425],[-112.279,46.417],[-112.297,46.423],[-112.315,46.42],[-112.324,46.435],[-112.31,46.448],[-112.306,46.463],[-112.306,46.506],[-112.298,46.531],[-112.314,46.567],[-112.293,46.606],[-112.307,46.638],[-112.32,46.658],[-112.413,46.656],[-112.413,46.7],[-112.533,46.697],[-112.536,46.835],[-112.666,46.836],[-112.665,46.834],[-112.789,46.831],[-112.789,46.885],[-112.792,47.004],[-112.794,47.176],[-112.873,47.175],[-113.048,47.176],[-113.058,47.179],[-113.057,47.221],[-113.059,47.488],[-113.08,47.482],[-113.106,47.485],[-113.125,47.517],[-113.128,47.537],[-113.125,47.557],[-113.117,47.564],[-113.128,47.574],[-113.132,47.589],[-113.149,47.6],[-113.137,47.619],[-113.147,47.635],[-113.129,47.647],[-113.132,47.659],[-113.154,47.685],[-113.167,47.723],[-113.137,47.745],[-113.118,47.742],[-113.085,47.748],[-113.084,47.77],[-113.074,47.773],[-113.066,47.787],[-113.071,47.797],[-113.061,47.808],[-113.062,47.823],[-113.071,47.828],[-113.059,47.843],[-113.059,47.868],[-113.07,47.889],[-113.094,47.902],[-113.086,47.916],[-113.047,47.928],[-113.025,47.927],[-113.015,47.939],[-112.989,47.949],[-112.976,47.933],[-112.975,47.913],[-112.955,47.907],[-112.943,47.868],[-112.928,47.859],[-112.929,47.852],[-112.914,47.825],[-112.915,47.801],[-112.924,47.788],[-112.922,47.77],[-112.929,47.758],[-112.905,47.731],[-112.904,47.71],[-112.916,47.695],[-112.859,47.632],[-112.828,47.613],[-112.774,47.597],[-112.733,47.615],[-112.707,47.62],[-112.678,47.619],[-112.64,47.622],[-112.624,47.631],[-112.583,47.634],[-112.562,47.641],[-112.551,47.651],[-112.522,47.632],[-112.513,47.618],[-112.452,47.609],[-112.425,47.603],[-112.424,47.588],[-112.407,47.576],[-112.406,47.553],[-112.379,47.545],[-112.348,47.55],[-112.344,47.537],[-112.324,47.543],[-112.31,47.529],[-112.294,47.521],[-112.275,47.504],[-112.248,47.508],[-112.207,47.502],[-112.181,47.511],[-112.162,47.508],[-112.151,47.513],[-112.093,47.509],[-112.087,47.514],[-112.045,47.517]]]},"properties":{"name":"Lewis and Clark","id":"30049","STATE":"MT","TYPE":"County","CNTRY":"USA"},"id":"30049"},
{"type":"Feature","geometry":{"type":"Polygon","coordinates":[[[-113.627,47.601],[-113.934,47.601],[-113.916,47.549],[-113.931,47.539],[-113.921,47.532],[-113.915,47.518],[-113.902,47.514],[-113.912,47.499],[-113.935,47.496],[-113.95,47.476],[-113.929,47.468],[-113.925,47.458],[-113.897,47.444],[-113.887,47.435],[-113.885,47.408],[-113.869,47.383],[-113.89,47.361],[-113.879,47.341],[-113.893,47.311],[-113.876,47.302],[-113.871,47.289],[-113.856,47.286],[-113.839,47.274],[-113.819,47.268],[-113.823,47.182],[-113.933,47.183],[-113.936,47.141],[-114.061,47.139],[-114.19,47.141],[-114.189,47.18],[-114.203,47.181],[-114.205,47.282],[-114.208,47.351],[-114.28,47.352],[-114.305,47.363],[-114.328,47.368],[-114.348,47.383],[-114.353,47.394],[-114.342,47.418],[-114.343,47.435],[-114.327,47.454],[-114.327,47.465],[-114.307,47.461],[-114.286,47.466],[-114.285,47.474],[-114.302,47.497],[-114.358,47.494],[-114.373,47.48],[-114.383,47.489],[-114.365,47.517],[-114.366,47.534],[-114.357,47.544],[-114.338,47.549],[-114.329,47.563],[-114.34,47.571],[-114.332,47.596],[-114.349,47.6],[-114.585,47.599],[-114.587,47.744],[-114.606,47.746],[-114.606,47.789],[-114.479,47.791],[-114.48,47.876],[-114.492,47.876],[-114.492,47.962],[-114.304,47.962],[-114.043,47.96],[-114.042,47.985],[-114.049,47.998],[-114.064,47.992],[-114.08,48.023],[-114.055,48.024],[-114.052,48.037],[-114.033,48.037],[-114.031,48.052],[-113.942,48.053],[-113.887,48.051],[-113.871,48.043],[-113.862,48.03],[-113.868,48.016],[-113.842,47.977],[-113.799,47.986],[-113.797,47.969],[-113.774,47.955],[-113.735,47.942],[-113.725,47.919],[-113.699,47.916],[-113.667,47.89],[-113.664,47.872],[-113.675,47.858],[-113.666,47.839],[-113.673,47.824],[-113.665,47.817],[-113.682,47.804],[-113.666,47.78],[-113.651,47.775],[-113.645,47.76],[-113.66,47.747],[-113.648,47.733],[-113.634,47.725],[-113.604,47.725],[-113.596,47.695],[-113.6,47.666],[-113.621,47.659],[-113.62,47.636],[-113.627,47.601]]]},"properties":{"name":"Lake","id":"30047","STATE":"MT","TYPE":"County","CNTRY":"USA"},"id":"30047"},
{"type":"Feature","geometry":{"type":"Polygon","coordinates":[[[-110.21,47.417],[-110.207,47.361],[-110.123,47.36],[-110.121,47.274],[-109.997,47.273],[-109.998,47.23],[-109.868,47.228],[-109.867,47.188],[-109.75,47.186],[-109.75,47.1],[-109.754,46.895],[-109.775,46.895],[-109.775,46.883],[-109.793,46.882],[-109.798,46.866],[-109.796,46.83],[-109.836,46.83],[-109.837,46.809],[-109.829,46.801],[-109.797,46.801],[-109.788,46.792],[-109.789,46.779],[-109.754,46.78],[-109.755,46.743],[-109.745,46.743],[-109.746,46.693],[-109.824,46.694],[-109.832,46.71],[-109.863,46.709],[-109.9,46.729],[-109.923,46.731],[-109.945,46.743],[-109.97,46.752],[-110.012,46.74],[-110.035,46.74],[-110.05,46.748],[-110.089,46.745],[-110.118,46.738],[-110.126,46.72],[-110.161,46.718],[-110.194,46.725],[-110.213,46.71],[-110.264,46.713],[-110.273,46.709],[-110.289,46.706],[-110.302,46.69],[-110.323,46.689],[-110.34,46.677],[-110.351,46.679],[-110.367,46.693],[-110.405,46.688],[-110.419,46.678],[-110.436,46.684],[-110.467,46.678],[-110.478,46.686],[-110.484,46.703],[-110.508,46.714],[-110.523,46.712],[-110.532,46.721],[-110.562,46.733],[-110.56,46.765],[-110.564,46.771],[-110.614,46.768],[-110.632,46.78],[-110.649,46.8],[-110.653,46.822],[-110.653,46.837],[-110.636,46.837],[-110.635,46.924],[-110.641,46.924],[-110.641,47.011],[-110.645,47.011],[-110.647,47.097],[-110.769,47.098],[-110.773,47.184],[-110.767,47.184],[-110.766,47.235],[-110.78,47.235],[-110.789,47.249],[-110.789,47.307],[-110.775,47.307],[-110.767,47.295],[-110.765,47.358],[-110.639,47.359],[-110.638,47.417],[-110.466,47.417],[-110.21,47.417]]]},"properties":{"name":"Judith Basin","id":"30045","STATE":"MT","TYPE":"County","CNTRY":"USA"},"id":"30045"},
{"type":"Feature","geometry":{"type":"Polygon","coordinates":[[[-111.788,46.572],[-111.788,46.486],[-111.786,46.309],[-111.787,46.223],[-111.784,46.137],[-111.783,46.051],[-111.659,46.05],[-111.659,45.96],[-111.66,45.838],[-111.663,45.829],[-111.682,45.825],[-111.703,45.797],[-111.737,45.797],[-111.754,45.806],[-111.789,45.794],[-111.804,45.797],[-111.809,45.811],[-111.844,45.822],[-111.87,45.821],[-111.881,45.831],[-111.906,45.829],[-111.931,45.856],[-111.953,45.851],[-111.994,45.848],[-112.019,45.858],[-112.089,45.848],[-112.097,45.837],[-112.114,45.834],[-112.118,45.827],[-112.116,45.803],[-112.136,45.784],[-112.141,45.769],[-112.156,45.756],[-112.173,45.749],[-112.195,45.758],[-112.236,45.771],[-112.252,45.77],[-112.271,45.788],[-112.311,45.8],[-112.323,45.807],[-112.386,45.827],[-112.423,45.842],[-112.427,45.857],[-112.41,45.874],[-112.41,45.901],[-112.422,45.907],[-112.421,45.92],[-112.437,45.937],[-112.433,45.952],[-112.445,45.959],[-112.438,45.967],[-112.445,46.005],[-112.44,46.012],[-112.444,46.035],[-112.469,46.04],[-112.476,46.052],[-112.464,46.075],[-112.472,46.084],[-112.467,46.095],[-112.496,46.11],[-112.501,46.123],[-112.515,46.124],[-112.522,46.139],[-112.513,46.153],[-112.515,46.167],[-112.508,46.179],[-112.525,46.184],[-112.538,46.177],[-112.575,46.177],[-112.58,46.195],[-112.576,46.214],[-112.593,46.228],[-112.583,46.241],[-112.565,46.257],[-112.559,46.27],[-112.56,46.284],[-112.573,46.297],[-112.555,46.31],[-112.535,46.331],[-112.526,46.336],[-112.503,46.331],[-112.499,46.344],[-112.472,46.339],[-112.456,46.331],[-112.451,46.354],[-112.428,46.36],[-112.43,46.367],[-112.405,46.389],[-112.354,46.384],[-112.34,46.402],[-112.315,46.42],[-112.297,46.423],[-112.279,46.417],[-112.241,46.425],[-112.216,46.45],[-112.191,46.453],[-112.177,46.459],[-112.187,46.478],[-112.2,46.478],[-112.204,46.497],[-112.157,46.511],[-112.136,46.523],[-112.123,46.516],[-112.094,46.516],[-112.072,46.522],[-112.031,46.545],[-112.034,46.562],[-112.027,46.572],[-111.915,46.571],[-111.788,46.572]]]},"properties":{"name":"Jefferson","id":"30043","STATE":"MT","TYPE":"County","CNTRY":"USA"},"id":"30043"},
{"type":"Feature","geometry":{"type":"Polygon","coordinates":[[[-109.491,49.001],[-109.492,48.912],[-109.507,48.912],[-109.507,48.666],[-109.506,48.565],[-109.5,48.565],[-109.497,48.525],[-109.464,48.525],[-109.462,48.453],[-109.497,48.452],[-109.497,48.393],[-109.52,48.392],[-109.522,48.292],[-109.553,48.292],[-109.553,48.22],[-109.535,48.22],[-109.536,48.134],[-109.598,48.132],[-109.726,48.131],[-109.726,48.219],[-109.845,48.219],[-109.846,48.306],[-109.934,48.305],[-110.063,48.306],[-110.362,48.308],[-110.623,48.307],[-110.623,48.221],[-110.753,48.221],[-110.754,48.306],[-110.753,48.392],[-110.754,48.479],[-110.753,48.567],[-110.747,48.567],[-110.748,48.913],[-110.742,48.913],[-110.739,49.001],[-110.081,49],[-110,49],[-109.659,49.001],[-109.491,49.001]]]},"properties":{"name":"Hill","id":"30041","STATE":"MT","TYPE":"County","CNTRY":"USA"},"id":"30041"},
{"type":"Feature","geometry":{"type":"Polygon","coordinates":[[[-113.032,46.264],[-113.032,46.222],[-113.285,46.223],[-113.286,46.138],[-113.269,46.137],[-113.274,46.064],[-113.295,46.03],[-113.33,46.014],[-113.347,46.01],[-113.363,46.001],[-113.377,46.017],[-113.418,45.991],[-113.441,45.982],[-113.465,45.985],[-113.471,45.971],[-113.463,45.959],[-113.482,45.94],[-113.503,45.95],[-113.522,45.942],[-113.548,45.947],[-113.557,45.939],[-113.575,45.948],[-113.595,45.946],[-113.614,45.953],[-113.615,45.962],[-113.638,45.964],[-113.654,45.97],[-113.668,45.985],[-113.662,45.999],[-113.696,46.04],[-113.732,46.038],[-113.749,46.049],[-113.773,46.032],[-113.801,46.035],[-113.805,46.043],[-113.793,46.059],[-113.79,46.073],[-113.773,46.086],[-113.768,46.101],[-113.753,46.11],[-113.78,46.141],[-113.796,46.153],[-113.787,46.181],[-113.817,46.19],[-113.825,46.199],[-113.817,46.216],[-113.783,46.224],[-113.778,46.239],[-113.759,46.25],[-113.762,46.258],[-113.752,46.27],[-113.785,46.283],[-113.785,46.3],[-113.774,46.316],[-113.787,46.338],[-113.783,46.361],[-113.802,46.384],[-113.814,46.391],[-113.821,46.405],[-113.859,46.419],[-113.851,46.446],[-113.868,46.491],[-113.877,46.506],[-113.847,46.515],[-113.844,46.544],[-113.832,46.567],[-113.83,46.578],[-113.819,46.588],[-113.803,46.62],[-113.817,46.637],[-113.827,46.66],[-113.793,46.658],[-113.672,46.658],[-113.672,46.716],[-113.553,46.715],[-113.544,46.728],[-113.544,46.747],[-113.478,46.746],[-113.479,46.801],[-113.416,46.801],[-113.415,46.833],[-113.304,46.834],[-113.289,46.833],[-113.29,46.805],[-113.258,46.825],[-113.245,46.817],[-113.238,46.798],[-113.228,46.786],[-113.214,46.785],[-113.189,46.77],[-113.175,46.755],[-113.18,46.731],[-113.136,46.727],[-113.106,46.712],[-113.092,46.721],[-113.071,46.72],[-113.038,46.738],[-113.037,46.571],[-113.038,46.485],[-113.035,46.485],[-113.034,46.396],[-113.032,46.31],[-113.032,46.264]]]},"properties":{"name":"Granite","id":"30039","STATE":"MT","TYPE":"County","CNTRY":"USA"},"id":"30039"},
{"type":"Feature","geometry":{"type":"Polygon","coordinates":[[[-109.009,46.752],[-109.01,46.621],[-108.99,46.622],[-108.991,46.578],[-108.906,46.577],[-108.907,46.492],[-108.886,46.492],[-108.885,46.453],[-108.864,46.451],[-108.864,46.367],[-108.842,46.367],[-108.842,46.352],[-108.832,46.351],[-108.833,46.322],[-108.822,46.322],[-108.821,46.307],[-108.799,46.307],[-108.799,46.276],[-108.778,46.276],[-108.778,46.133],[-108.924,46.133],[-109.275,46.132],[-109.404,46.132],[-109.42,46.131],[-109.421,46.045],[-109.606,46.046],[-109.602,46.132],[-109.65,46.132],[-109.652,46.22],[-109.401,46.219],[-109.4,46.49],[-109.386,46.49],[-109.386,46.694],[-109.385,46.752],[-109.183,46.752],[-109.009,46.752]]]},"properties":{"name":"Golden Valley","id":"30037","STATE":"MT","TYPE":"County","CNTRY":"USA"},"id":"30037"},
{"type":"Feature","geometry":{"type":"Polygon","coordinates":[[[-112.191,49.001],[-112.196,48.913],[-112.189,48.913],[-112.189,48.738],[-112.192,48.652],[-112.191,48.567],[-112.188,48.566],[-112.185,48.475],[-112.216,48.48],[-112.313,48.483],[-112.446,48.484],[-112.576,48.484],[-112.577,48.394],[-112.578,48.308],[-112.71,48.31],[-112.843,48.31],[-112.969,48.309],[-113.074,48.31],[-113.23,48.307],[-113.23,48.31],[-113.356,48.31],[-113.367,48.327],[-113.389,48.343],[-113.344,48.367],[-113.334,48.377],[-113.345,48.392],[-113.349,48.412],[-113.36,48.424],[-113.383,48.416],[-113.413,48.42],[-113.452,48.441],[-113.478,48.451],[-113.48,48.464],[-113.469,48.474],[-113.468,48.494],[-113.474,48.513],[-113.468,48.536],[-113.473,48.55],[-113.509,48.557],[-113.517,48.569],[-113.541,48.577],[-113.547,48.585],[-113.573,48.579],[-113.588,48.581],[-113.607,48.574],[-113.623,48.593],[-113.638,48.599],[-113.668,48.581],[-113.681,48.592],[-113.713,48.593],[-113.752,48.616],[-113.742,48.637],[-113.746,48.651],[-113.727,48.67],[-113.741,48.69],[-113.71,48.701],[-113.704,48.719],[-113.71,48.735],[-113.733,48.746],[-113.741,48.758],[-113.763,48.773],[-113.774,48.798],[-113.76,48.806],[-113.766,48.82],[-113.781,48.827],[-113.792,48.842],[-113.815,48.838],[-113.823,48.846],[-113.844,48.854],[-113.87,48.841],[-113.91,48.85],[-113.921,48.821],[-113.946,48.821],[-113.959,48.816],[-113.994,48.824],[-114.011,48.831],[-113.993,48.838],[-113.988,48.846],[-114.001,48.861],[-114.022,48.865],[-114.044,48.887],[-114.021,48.899],[-114.015,48.911],[-114.026,48.931],[-114.047,48.93],[-114.049,48.939],[-114.024,48.958],[-114.043,48.96],[-114.069,49.001],[-113.999,49.001],[-113.684,49.001],[-113.616,49.001],[-113.002,49],[-112.368,49.001],[-112.191,49.001]]]},"properties":{"name":"Glacier","id":"30035","STATE":"MT","TYPE":"County","CNTRY":"USA"},"id":"30035"},
{"type":"Feature","geometry":{"type":"Polygon","coordinates":[[[-106.418,47.958],[-106.361,47.958],[-106.36,47.869],[-106.261,47.868],[-106.262,47.7],[-106.262,47.631],[-106.263,47.53],[-106.3,47.529],[-106.3,47.4],[-106.301,47.355],[-106.168,47.357],[-106.168,47.182],[-106.088,47.181],[-106.085,47.007],[-106.087,46.86],[-106.088,46.845],[-106.469,46.845],[-106.717,46.845],[-106.717,46.859],[-106.93,46.86],[-107.101,46.859],[-107.468,46.859],[-107.467,46.851],[-107.893,46.851],[-107.91,46.859],[-107.93,46.878],[-107.943,46.878],[-107.934,46.897],[-107.932,46.917],[-107.91,46.937],[-107.917,46.949],[-107.908,46.954],[-107.911,46.972],[-107.894,46.976],[-107.882,47.002],[-107.895,47.011],[-107.914,47.015],[-107.919,47.023],[-107.907,47.034],[-107.918,47.043],[-107.913,47.067],[-107.933,47.084],[-107.933,47.097],[-107.943,47.115],[-107.954,47.122],[-107.947,47.149],[-107.952,47.161],[-107.934,47.181],[-107.948,47.201],[-107.937,47.208],[-107.943,47.227],[-107.959,47.237],[-107.964,47.248],[-107.961,47.267],[-107.948,47.283],[-107.954,47.302],[-107.95,47.314],[-107.963,47.331],[-107.952,47.344],[-107.962,47.35],[-107.939,47.374],[-107.917,47.406],[-107.918,47.435],[-107.906,47.451],[-107.892,47.451],[-107.859,47.457],[-107.867,47.479],[-107.853,47.487],[-107.852,47.497],[-107.865,47.513],[-107.841,47.525],[-107.839,47.534],[-107.816,47.546],[-107.805,47.543],[-107.791,47.554],[-107.772,47.543],[-107.759,47.551],[-107.762,47.564],[-107.737,47.569],[-107.729,47.586],[-107.719,47.591],[-107.694,47.62],[-107.693,47.63],[-107.672,47.631],[-107.659,47.62],[-107.647,47.626],[-107.645,47.641],[-107.637,47.649],[-107.616,47.632],[-107.611,47.647],[-107.596,47.65],[-107.568,47.643],[-107.553,47.646],[-107.52,47.643],[-107.51,47.63],[-107.491,47.624],[-107.448,47.622],[-107.433,47.634],[-107.439,47.649],[-107.426,47.651],[-107.42,47.665],[-107.429,47.673],[-107.414,47.692],[-107.365,47.692],[-107.334,47.681],[-107.28,47.68],[-107.25,47.661],[-107.174,47.661],[-107.159,47.667],[-107.124,47.669],[-107.075,47.662],[-107.018,47.661],[-107,47.672],[-106.937,47.674],[-106.927,47.67],[-106.877,47.681],[-106.87,47.693],[-106.877,47.72],[-106.868,47.735],[-106.838,47.742],[-106.793,47.742],[-106.756,47.73],[-106.73,47.735],[-106.71,47.756],[-106.711,47.773],[-106.691,47.777],[-106.663,47.77],[-106.652,47.791],[-106.622,47.792],[-106.602,47.785],[-106.609,47.806],[-106.564,47.815],[-106.557,47.826],[-106.562,47.843],[-106.53,47.848],[-106.527,47.863],[-106.543,47.871],[-106.535,47.879],[-106.511,47.879],[-106.508,47.89],[-106.53,47.904],[-106.517,47.913],[-106.498,47.914],[-106.488,47.93],[-106.492,47.941],[-106.508,47.947],[-106.499,47.96],[-106.462,47.965],[-106.431,47.98],[-106.433,47.961],[-106.418,47.958]]]},"properties":{"name":"Garfield","id":"30033","STATE":"MT","TYPE":"County","CNTRY":"USA"},"id":"30033"},
{"type":"Feature","geometry":{"type":"Polygon","coordinates":[[[-110.783,46.193],[-110.784,46.142],[-110.789,46.142],[-110.789,45.945],[-110.789,45.786],[-110.795,45.786],[-110.794,45.611],[-110.794,45.59],[-110.857,45.59],[-110.859,45.525],[-110.918,45.525],[-110.915,45.349],[-111.035,45.35],[-111.036,45.179],[-111.042,45.179],[-111.043,45.102],[-111.042,45],[-111.053,45],[-111.055,44.667],[-111.049,44.477],[-111.112,44.491],[-111.133,44.511],[-111.133,44.534],[-111.153,44.544],[-111.171,44.549],[-111.182,44.568],[-111.199,44.576],[-111.229,44.58],[-111.238,44.616],[-111.218,44.622],[-111.238,44.641],[-111.255,44.651],[-111.273,44.648],[-111.277,44.656],[-111.268,44.666],[-111.296,44.702],[-111.321,44.718],[-111.337,44.732],[-111.358,44.729],[-111.378,44.754],[-111.378,44.911],[-111.374,44.911],[-111.372,45],[-111.373,45.203],[-111.373,45.351],[-111.354,45.351],[-111.352,45.453],[-111.353,45.524],[-111.352,45.641],[-111.536,45.641],[-111.536,45.657],[-111.558,45.656],[-111.558,45.671],[-111.579,45.67],[-111.579,45.685],[-111.6,45.685],[-111.599,45.699],[-111.621,45.699],[-111.621,45.714],[-111.643,45.714],[-111.643,45.729],[-111.66,45.728],[-111.661,45.743],[-111.723,45.744],[-111.724,45.772],[-111.765,45.773],[-111.765,45.788],[-111.804,45.787],[-111.804,45.797],[-111.789,45.794],[-111.754,45.806],[-111.737,45.797],[-111.703,45.797],[-111.682,45.825],[-111.663,45.829],[-111.66,45.838],[-111.616,45.872],[-111.597,45.896],[-111.571,45.898],[-111.549,45.908],[-111.53,45.925],[-111.504,45.93],[-111.47,45.952],[-111.462,45.966],[-111.461,45.995],[-111.44,45.991],[-111.415,45.999],[-111.421,46.017],[-111.429,46.021],[-111.424,46.062],[-111.405,46.087],[-111.392,46.092],[-111.396,46.104],[-111.35,46.124],[-111.346,46.188],[-111.282,46.187],[-111.158,46.188],[-111.158,46.192],[-111.056,46.192],[-111.01,46.192],[-110.783,46.193]]]},"properties":{"name":"Gallatin","id":"30031","STATE":"MT","TYPE":"County","CNTRY":"USA"},"id":"30031"},
{"type":"Feature","geometry":{"type":"Polygon","coordinates":[[[-114.069,49.001],[-114.043,48.96],[-114.024,48.958],[-114.049,48.939],[-114.047,48.93],[-114.026,48.931],[-114.015,48.911],[-114.021,48.899],[-114.044,48.887],[-114.022,48.865],[-114.001,48.861],[-113.988,48.846],[-113.993,48.838],[-114.011,48.831],[-113.994,48.824],[-113.959,48.816],[-113.946,48.821],[-113.921,48.821],[-113.91,48.85],[-113.87,48.841],[-113.844,48.854],[-113.823,48.846],[-113.815,48.838],[-113.792,48.842],[-113.781,48.827],[-113.766,48.82],[-113.76,48.806],[-113.774,48.798],[-113.763,48.773],[-113.741,48.758],[-113.733,48.746],[-113.71,48.735],[-113.704,48.719],[-113.71,48.701],[-113.741,48.69],[-113.727,48.67],[-113.746,48.651],[-113.742,48.637],[-113.752,48.616],[-113.713,48.593],[-113.681,48.592],[-113.668,48.581],[-113.638,48.599],[-113.623,48.593],[-113.607,48.574],[-113.588,48.581],[-113.573,48.579],[-113.547,48.585],[-113.541,48.577],[-113.517,48.569],[-113.509,48.557],[-113.473,48.55],[-113.468,48.536],[-113.474,48.513],[-113.468,48.494],[-113.469,48.474],[-113.48,48.464],[-113.478,48.451],[-113.452,48.441],[-113.413,48.42],[-113.383,48.416],[-113.36,48.424],[-113.349,48.412],[-113.345,48.392],[-113.334,48.377],[-113.344,48.367],[-113.389,48.343],[-113.367,48.327],[-113.356,48.31],[-113.334,48.298],[-113.33,48.288],[-113.298,48.281],[-113.293,48.268],[-113.281,48.261],[-113.253,48.254],[-113.226,48.229],[-113.238,48.217],[-113.233,48.168],[-113.206,48.164],[-113.187,48.17],[-113.172,48.166],[-113.161,48.154],[-113.14,48.152],[-113.135,48.136],[-113.079,48.137],[-113.07,48.149],[-113.054,48.135],[-113.037,48.129],[-113.007,48.132],[-112.999,48.129],[-112.989,48.12],[-112.997,48.107],[-112.983,48.088],[-112.982,48.073],[-112.969,48.075],[-112.938,48.058],[-112.952,48.046],[-112.954,48.036],[-112.911,48.03],[-112.899,48.02],[-112.897,48.009],[-112.886,47.983],[-112.909,47.966],[-112.914,47.949],[-112.949,47.946],[-112.965,47.953],[-112.989,47.949],[-113.015,47.939],[-113.025,47.927],[-113.047,47.928],[-113.086,47.916],[-113.094,47.902],[-113.07,47.889],[-113.059,47.868],[-113.059,47.843],[-113.071,47.828],[-113.062,47.823],[-113.061,47.808],[-113.071,47.797],[-113.066,47.787],[-113.074,47.773],[-113.084,47.77],[-113.085,47.748],[-113.118,47.742],[-113.137,47.745],[-113.167,47.723],[-113.154,47.685],[-113.132,47.659],[-113.129,47.647],[-113.147,47.635],[-113.137,47.619],[-113.149,47.6],[-113.472,47.601],[-113.627,47.601],[-113.62,47.636],[-113.621,47.659],[-113.6,47.666],[-113.596,47.695],[-113.604,47.725],[-113.634,47.725],[-113.648,47.733],[-113.66,47.747],[-113.645,47.76],[-113.651,47.775],[-113.666,47.78],[-113.682,47.804],[-113.665,47.817],[-113.673,47.824],[-113.666,47.839],[-113.675,47.858],[-113.664,47.872],[-113.667,47.89],[-113.699,47.916],[-113.725,47.919],[-113.735,47.942],[-113.774,47.955],[-113.797,47.969],[-113.799,47.986],[-113.842,47.977],[-113.868,48.016],[-113.862,48.03],[-113.871,48.043],[-113.887,48.051],[-113.942,48.053],[-114.031,48.052],[-114.033,48.037],[-114.052,48.037],[-114.055,48.024],[-114.08,48.023],[-114.064,47.992],[-114.049,47.998],[-114.042,47.985],[-114.043,47.96],[-114.304,47.962],[-114.492,47.962],[-114.492,47.876],[-114.48,47.876],[-114.479,47.791],[-114.606,47.789],[-114.604,47.875],[-114.726,47.874],[-114.858,47.875],[-114.876,47.873],[-114.992,47.874],[-114.988,48.003],[-115.009,48.003],[-115.011,48.018],[-115.013,48.14],[-115.02,48.14],[-115.021,48.228],[-114.849,48.228],[-114.848,48.4],[-114.848,48.574],[-114.888,48.574],[-114.887,48.658],[-114.757,48.66],[-114.639,48.659],[-114.655,48.671],[-114.694,48.68],[-114.684,48.696],[-114.693,48.705],[-114.677,48.726],[-114.635,48.734],[-114.622,48.747],[-114.621,48.758],[-114.637,48.76],[-114.65,48.78],[-114.67,48.787],[-114.676,48.799],[-114.715,48.801],[-114.733,48.807],[-114.729,48.829],[-114.694,48.841],[-114.689,48.858],[-114.691,48.87],[-114.709,48.887],[-114.704,48.899],[-114.709,48.924],[-114.722,48.933],[-114.718,48.941],[-114.698,48.951],[-114.687,48.963],[-114.687,48.973],[-114.727,48.986],[-114.726,49.001],[-114.384,49.002],[-114.069,49.001]]]},"properties":{"name":"Flathead","id":"30029","STATE":"MT","TYPE":"County","CNTRY":"USA"},"id":"30029"},
{"type":"Feature","geometry":{"type":"Polygon","coordinates":[[[-108.891,47.737],[-108.832,47.715],[-108.804,47.702],[-108.795,47.686],[-108.783,47.678],[-108.792,47.661],[-108.781,47.651],[-108.755,47.647],[-108.729,47.648],[-108.708,47.631],[-108.688,47.63],[-108.674,47.621],[-108.623,47.62],[-108.611,47.625],[-108.593,47.616],[-108.558,47.611],[-108.526,47.621],[-108.507,47.61],[-108.51,47.601],[-108.465,47.605],[-108.454,47.616],[-108.44,47.606],[-108.422,47.599],[-108.424,47.584],[-108.397,47.594],[-108.382,47.589],[-108.372,47.577],[-108.349,47.579],[-108.332,47.567],[-108.312,47.581],[-108.312,47.53],[-108.32,47.53],[-108.319,47.316],[-108.336,47.307],[-108.463,47.309],[-108.462,47.306],[-108.59,47.306],[-108.588,47.27],[-108.714,47.27],[-108.714,47.184],[-108.733,47.184],[-108.735,47.1],[-108.606,47.099],[-108.607,47.028],[-108.607,46.837],[-108.63,46.837],[-108.628,46.749],[-108.817,46.751],[-108.904,46.75],[-109.009,46.752],[-109.183,46.752],[-109.385,46.752],[-109.386,46.694],[-109.68,46.693],[-109.746,46.693],[-109.745,46.743],[-109.755,46.743],[-109.754,46.78],[-109.789,46.779],[-109.788,46.792],[-109.797,46.801],[-109.829,46.801],[-109.837,46.809],[-109.836,46.83],[-109.796,46.83],[-109.798,46.866],[-109.793,46.882],[-109.775,46.883],[-109.775,46.895],[-109.754,46.895],[-109.75,47.1],[-109.75,47.186],[-109.867,47.188],[-109.868,47.228],[-109.998,47.23],[-109.997,47.273],[-110.121,47.274],[-110.123,47.36],[-110.207,47.361],[-110.21,47.417],[-110.158,47.418],[-110.114,47.439],[-110.096,47.443],[-110.072,47.459],[-110.047,47.467],[-110.026,47.479],[-110.004,47.477],[-109.935,47.504],[-109.91,47.526],[-109.873,47.526],[-109.842,47.55],[-109.845,47.576],[-109.85,47.586],[-109.838,47.626],[-109.832,47.631],[-109.833,47.688],[-109.839,47.693],[-109.835,47.709],[-109.81,47.712],[-109.77,47.71],[-109.759,47.705],[-109.72,47.705],[-109.69,47.727],[-109.677,47.733],[-109.631,47.738],[-109.611,47.734],[-109.582,47.746],[-109.539,47.741],[-109.519,47.745],[-109.485,47.732],[-109.421,47.723],[-109.397,47.731],[-109.388,47.74],[-109.353,47.754],[-109.316,47.756],[-109.298,47.771],[-109.284,47.776],[-109.279,47.787],[-109.264,47.795],[-109.235,47.796],[-109.186,47.791],[-109.166,47.782],[-109.127,47.784],[-109.068,47.803],[-109.028,47.795],[-108.998,47.806],[-108.98,47.804],[-108.966,47.794],[-108.941,47.794],[-108.949,47.779],[-108.943,47.77],[-108.926,47.765],[-108.923,47.757],[-108.942,47.746],[-108.952,47.733],[-108.936,47.73],[-108.912,47.738],[-108.891,47.737]]]},"properties":{"name":"Fergus","id":"30027","STATE":"MT","TYPE":"County","CNTRY":"USA"},"id":"30027"},
{"type":"Feature","geometry":{"type":"Polygon","coordinates":[[[-104.045,46.64],[-104.045,46.467],[-104.045,46.281],[-104.045,46.192],[-104.045,46.056],[-104.044,45.88],[-104.135,45.881],[-104.135,45.969],[-104.202,45.969],[-104.202,45.967],[-104.332,45.968],[-104.391,45.969],[-104.392,46.054],[-104.518,46.054],[-104.517,46.137],[-104.695,46.136],[-104.882,46.136],[-104.882,46.222],[-104.882,46.313],[-104.906,46.313],[-104.906,46.484],[-104.731,46.481],[-104.73,46.612],[-104.73,46.655],[-104.604,46.656],[-104.603,46.685],[-104.418,46.684],[-104.418,46.67],[-104.352,46.669],[-104.352,46.639],[-104.045,46.64]]]},"properties":{"name":"Fallon","id":"30025","STATE":"MT","TYPE":"County","CNTRY":"USA"},"id":"30025"},
{"type":"Feature","geometry":{"type":"Polygon","coordinates":[[[-112.575,46.177],[-112.607,46.168],[-112.641,46.177],[-112.655,46.157],[-112.683,46.139],[-112.779,46.138],[-112.777,46.051],[-112.85,46.052],[-112.869,46.031],[-112.872,46.007],[-112.898,46.001],[-112.914,46.008],[-112.936,45.99],[-112.935,45.948],[-112.925,45.944],[-112.922,45.928],[-112.957,45.925],[-112.968,45.903],[-112.989,45.891],[-113.012,45.883],[-113.025,45.871],[-113.083,45.865],[-113.096,45.879],[-113.143,45.881],[-113.165,45.885],[-113.19,45.876],[-113.215,45.874],[-113.253,45.845],[-113.258,45.832],[-113.273,45.817],[-113.296,45.816],[-113.317,45.807],[-113.331,45.813],[-113.345,45.804],[-113.362,45.77],[-113.365,45.754],[-113.379,45.752],[-113.411,45.786],[-113.434,45.804],[-113.431,45.826],[-113.443,45.839],[-113.44,45.847],[-113.467,45.886],[-113.47,45.896],[-113.485,45.912],[-113.496,45.936],[-113.519,45.938],[-113.522,45.942],[-113.503,45.95],[-113.482,45.94],[-113.463,45.959],[-113.471,45.971],[-113.465,45.985],[-113.441,45.982],[-113.418,45.991],[-113.377,46.017],[-113.363,46.001],[-113.347,46.01],[-113.33,46.014],[-113.295,46.03],[-113.274,46.064],[-113.269,46.137],[-113.286,46.138],[-113.285,46.223],[-113.032,46.222],[-113.032,46.264],[-112.66,46.269],[-112.559,46.27],[-112.565,46.257],[-112.583,46.241],[-112.593,46.228],[-112.576,46.214],[-112.58,46.195],[-112.575,46.177]]]},"properties":{"name":"Deer Lodge","id":"30023","STATE":"MT","TYPE":"County","CNTRY":"USA"},"id":"30023"},
{"type":"Feature","geometry":{"type":"Polygon","coordinates":[[[-104.409,47.355],[-104.452,47.319],[-104.432,47.318],[-104.42,47.304],[-104.399,47.296],[-104.376,47.276],[-104.376,47.263],[-104.365,47.252],[-104.343,47.245],[-104.342,47.22],[-104.333,47.219],[-104.333,47.198],[-104.321,47.196],[-104.319,47.139],[-104.305,47.137],[-104.304,47.043],[-104.328,47.044],[-104.33,47.007],[-104.339,46.99],[-104.369,46.949],[-104.401,46.932],[-104.402,46.917],[-104.412,46.903],[-104.431,46.902],[-104.431,46.886],[-104.458,46.888],[-104.458,46.878],[-104.497,46.859],[-104.6,46.86],[-104.796,46.86],[-105.028,46.86],[-105.029,46.888],[-105.048,46.889],[-105.048,46.903],[-105.067,46.903],[-105.068,46.919],[-105.194,46.919],[-105.194,46.977],[-105.324,46.977],[-105.321,47.183],[-105.401,47.182],[-105.401,47.268],[-105.405,47.357],[-105.405,47.443],[-105.406,47.528],[-105.363,47.529],[-105.362,47.619],[-105.362,47.791],[-105.232,47.79],[-105.232,47.704],[-104.975,47.703],[-104.976,47.616],[-104.592,47.616],[-104.592,47.529],[-104.511,47.528],[-104.509,47.442],[-104.51,47.355],[-104.409,47.355]]]},"properties":{"name":"Dawson","id":"30021","STATE":"MT","TYPE":"County","CNTRY":"USA"},"id":"30021"},
{"type":"Feature","geometry":{"type":"Polygon","coordinates":[[[-105.055,49],[-105.058,48.911],[-105.039,48.911],[-105.04,48.737],[-105.039,48.651],[-104.971,48.651],[-104.971,48.563],[-105.282,48.565],[-105.495,48.565],[-105.538,48.565],[-105.805,48.564],[-106.021,48.564],[-106.02,48.631],[-106.022,48.737],[-106.022,48.823],[-106.15,48.823],[-106.153,48.909],[-106.112,48.91],[-106.108,49.001],[-106.002,49.001],[-105.055,49]]]},"properties":{"name":"Daniels","id":"30019","STATE":"MT","TYPE":"County","CNTRY":"USA"},"id":"30019"},
{"type":"Feature","geometry":{"type":"Polygon","coordinates":[[[-104.73,46.612],[-104.731,46.481],[-104.906,46.484],[-104.906,46.313],[-104.882,46.313],[-104.882,46.222],[-104.882,46.136],[-104.943,46.137],[-104.939,45.875],[-104.935,45.787],[-104.98,45.786],[-104.995,45.788],[-105.067,45.787],[-105.201,45.787],[-105.241,45.785],[-105.31,45.786],[-105.312,45.789],[-105.489,45.789],[-105.694,45.79],[-105.89,45.789],[-106.111,45.79],[-106.193,45.791],[-106.191,46.05],[-106.191,46.136],[-106.152,46.136],[-106.153,46.384],[-106.154,46.483],[-106.117,46.484],[-106.12,46.569],[-106.121,46.655],[-106.12,46.743],[-106.122,46.831],[-106.087,46.831],[-106.088,46.845],[-106.087,46.86],[-105.829,46.861],[-105.828,46.832],[-105.622,46.831],[-105.618,46.745],[-105.578,46.745],[-105.576,46.657],[-105.491,46.658],[-105.491,46.599],[-105.451,46.599],[-105.449,46.57],[-105.367,46.569],[-105.238,46.569],[-105.238,46.54],[-104.981,46.54],[-104.982,46.569],[-104.858,46.567],[-104.858,46.611],[-104.73,46.612]]]},"properties":{"name":"Custer","id":"30017","STATE":"MT","TYPE":"County","CNTRY":"USA"},"id":"30017"},
{"type":"Feature","geometry":{"type":"Polygon","coordinates":[[[-109.536,48.134],[-109.537,47.871],[-109.541,47.871],[-109.539,47.741],[-109.582,47.746],[-109.611,47.734],[-109.631,47.738],[-109.677,47.733],[-109.69,47.727],[-109.72,47.705],[-109.759,47.705],[-109.77,47.71],[-109.81,47.712],[-109.835,47.709],[-109.839,47.693],[-109.833,47.688],[-109.832,47.631],[-109.838,47.626],[-109.85,47.586],[-109.845,47.576],[-109.842,47.55],[-109.873,47.526],[-109.91,47.526],[-109.935,47.504],[-110.004,47.477],[-110.026,47.479],[-110.047,47.467],[-110.072,47.459],[-110.096,47.443],[-110.114,47.439],[-110.158,47.418],[-110.21,47.417],[-110.466,47.417],[-110.638,47.417],[-110.639,47.446],[-110.765,47.448],[-110.765,47.525],[-110.864,47.525],[-110.872,47.539],[-110.887,47.551],[-110.906,47.542],[-110.934,47.546],[-110.968,47.565],[-110.976,47.574],[-111.005,47.572],[-111.044,47.59],[-111.046,47.609],[-111.039,47.622],[-111.021,47.637],[-111.019,47.654],[-111.004,47.659],[-111.001,47.673],[-110.983,47.682],[-110.977,47.698],[-111.153,47.699],[-111.323,47.697],[-111.409,47.698],[-111.411,47.783],[-111.41,47.987],[-111.409,48.133],[-111.28,48.134],[-111.153,48.136],[-111.02,48.135],[-110.894,48.136],[-110.827,48.135],[-110.827,48.221],[-110.753,48.221],[-110.623,48.221],[-110.623,48.307],[-110.362,48.308],[-110.063,48.306],[-109.934,48.305],[-109.846,48.306],[-109.845,48.219],[-109.726,48.219],[-109.726,48.131],[-109.598,48.132],[-109.536,48.134]]]},"properties":{"name":"Chouteau","id":"30015","STATE":"MT","TYPE":"County","CNTRY":"USA"},"id":"30015"},
{"type":"Feature","geometry":{"type":"Polygon","coordinates":[[[-110.638,47.417],[-110.639,47.359],[-110.765,47.358],[-110.767,47.295],[-110.775,47.307],[-110.789,47.307],[-110.789,47.249],[-110.78,47.235],[-110.766,47.235],[-110.767,47.184],[-110.773,47.184],[-110.769,47.098],[-110.647,47.097],[-110.645,47.011],[-110.641,47.011],[-110.641,46.924],[-110.635,46.924],[-110.636,46.837],[-110.653,46.837],[-110.653,46.822],[-110.676,46.822],[-110.695,46.841],[-110.718,46.839],[-110.738,46.846],[-110.752,46.844],[-110.76,46.897],[-110.78,46.898],[-110.787,46.911],[-110.804,46.902],[-110.859,46.927],[-110.853,46.939],[-110.889,46.958],[-110.922,46.984],[-110.965,46.995],[-110.971,47.001],[-111.003,47.002],[-111.058,47.008],[-111.079,47.007],[-111.103,47.028],[-111.094,47.037],[-111.078,47.042],[-111.084,47.071],[-111.079,47.088],[-111.157,47.089],[-111.158,47.011],[-111.283,47.011],[-111.284,47.002],[-111.537,47.002],[-111.539,46.915],[-111.659,46.914],[-111.788,46.913],[-111.79,47.001],[-111.789,47.128],[-111.872,47.128],[-111.894,47.123],[-111.896,47.135],[-111.921,47.136],[-111.942,47.14],[-111.949,47.153],[-111.964,47.16],[-111.967,47.173],[-111.994,47.179],[-112.008,47.177],[-112.023,47.195],[-112.044,47.193],[-112.046,47.435],[-112.045,47.517],[-112.027,47.516],[-111.993,47.505],[-111.974,47.509],[-111.922,47.501],[-111.924,47.61],[-111.667,47.61],[-111.665,47.698],[-111.54,47.697],[-111.409,47.698],[-111.323,47.697],[-111.153,47.699],[-110.977,47.698],[-110.983,47.682],[-111.001,47.673],[-111.004,47.659],[-111.019,47.654],[-111.021,47.637],[-111.039,47.622],[-111.046,47.609],[-111.044,47.59],[-111.005,47.572],[-110.976,47.574],[-110.968,47.565],[-110.934,47.546],[-110.906,47.542],[-110.887,47.551],[-110.872,47.539],[-110.864,47.525],[-110.765,47.525],[-110.765,47.448],[-110.639,47.446],[-110.638,47.417]]]},"properties":{"name":"Cascade","id":"30013","STATE":"MT","TYPE":"County","CNTRY":"USA"},"id":"30013"},
{"type":"Feature","geometry":{"type":"Polygon","coordinates":[[[-104.044,45.88],[-104.043,45.683],[-104.043,45.557],[-104.041,45.264],[-104.04,45.183],[-104.04,44.999],[-104.18,44.999],[-104.295,44.999],[-104.502,44.999],[-104.7,44.999],[-104.908,45],[-105.039,45],[-105.039,45.092],[-105.038,45.351],[-104.989,45.352],[-104.989,45.442],[-104.982,45.442],[-104.981,45.625],[-104.979,45.683],[-104.98,45.786],[-104.935,45.787],[-104.939,45.875],[-104.943,46.137],[-104.882,46.136],[-104.695,46.136],[-104.517,46.137],[-104.518,46.054],[-104.392,46.054],[-104.391,45.969],[-104.332,45.968],[-104.202,45.967],[-104.202,45.969],[-104.135,45.969],[-104.135,45.881],[-104.044,45.88]]]},"properties":{"name":"Carter","id":"30011","STATE":"MT","TYPE":"County","CNTRY":"USA"},"id":"30011"},
{"type":"Feature","geometry":{"type":"Polygon","coordinates":[[[-108.643,45.464],[-108.677,45.435],[-108.683,45.413],[-108.684,45.388],[-108.699,45.347],[-108.695,45.318],[-108.697,45.309],[-108.697,45.217],[-108.594,45.217],[-108.337,45.22],[-108.089,45.221],[-108.1,45.213],[-108.119,45.209],[-108.131,45.191],[-108.127,45.179],[-108.141,45.178],[-108.171,45.158],[-108.161,45.137],[-108.183,45.132],[-108.179,45.099],[-108.204,45.1],[-108.218,45.088],[-108.219,45.077],[-108.233,45.068],[-108.225,45.05],[-108.238,45.046],[-108.249,45.031],[-108.254,45.01],[-108.245,45.001],[-108.261,45.002],[-108.495,45.001],[-108.839,45.001],[-109.083,45.001],[-109.176,45.004],[-109.469,45.004],[-109.797,45.003],[-109.798,45.167],[-109.69,45.167],[-109.687,45.244],[-109.655,45.261],[-109.607,45.261],[-109.606,45.304],[-109.587,45.305],[-109.587,45.332],[-109.565,45.331],[-109.559,45.36],[-109.543,45.36],[-109.543,45.376],[-109.52,45.376],[-109.519,45.39],[-109.501,45.39],[-109.501,45.403],[-109.48,45.402],[-109.479,45.418],[-109.433,45.419],[-109.433,45.435],[-109.416,45.434],[-109.416,45.449],[-109.355,45.449],[-109.355,45.463],[-109.19,45.464],[-109.189,45.523],[-109.129,45.523],[-109.127,45.589],[-109.107,45.583],[-109.072,45.582],[-109.041,45.59],[-109.009,45.609],[-108.985,45.609],[-108.976,45.616],[-108.934,45.605],[-108.903,45.603],[-108.868,45.609],[-108.861,45.614],[-108.843,45.611],[-108.83,45.612],[-108.822,45.624],[-108.808,45.626],[-108.798,45.635],[-108.78,45.638],[-108.778,45.625],[-108.792,45.598],[-108.803,45.587],[-108.801,45.552],[-108.761,45.551],[-108.761,45.524],[-108.695,45.523],[-108.695,45.464],[-108.643,45.464]]]},"properties":{"name":"Carbon","id":"30009","STATE":"MT","TYPE":"County","CNTRY":"USA"},"id":"30009"},
{"type":"Feature","geometry":{"type":"Polygon","coordinates":[[[-111.498,46.762],[-111.469,46.753],[-111.455,46.733],[-111.463,46.723],[-111.451,46.717],[-111.461,46.706],[-111.446,46.696],[-111.448,46.685],[-111.422,46.677],[-111.411,46.66],[-111.411,46.643],[-111.375,46.643],[-111.364,46.634],[-111.33,46.631],[-111.326,46.615],[-111.332,46.605],[-111.327,46.585],[-111.332,46.578],[-111.32,46.569],[-111.326,46.555],[-111.341,46.541],[-111.316,46.53],[-111.292,46.528],[-111.278,46.519],[-111.266,46.5],[-111.255,46.494],[-111.251,46.446],[-111.232,46.43],[-111.194,46.429],[-111.176,46.437],[-111.173,46.447],[-111.134,46.45],[-111.109,46.436],[-111.078,46.413],[-111.058,46.408],[-111.072,46.375],[-111.075,46.35],[-111.098,46.342],[-111.098,46.336],[-111.117,46.316],[-111.118,46.294],[-111.126,46.275],[-111.093,46.25],[-111.077,46.248],[-111.083,46.235],[-111.07,46.233],[-111.056,46.192],[-111.158,46.192],[-111.158,46.188],[-111.282,46.187],[-111.346,46.188],[-111.35,46.124],[-111.396,46.104],[-111.392,46.092],[-111.405,46.087],[-111.424,46.062],[-111.429,46.021],[-111.421,46.017],[-111.415,45.999],[-111.44,45.991],[-111.461,45.995],[-111.462,45.966],[-111.47,45.952],[-111.504,45.93],[-111.53,45.925],[-111.549,45.908],[-111.571,45.898],[-111.597,45.896],[-111.616,45.872],[-111.66,45.838],[-111.659,45.96],[-111.659,46.05],[-111.783,46.051],[-111.784,46.137],[-111.787,46.223],[-111.786,46.309],[-111.788,46.486],[-111.788,46.572],[-111.634,46.573],[-111.64,46.581],[-111.64,46.647],[-111.639,46.739],[-111.627,46.75],[-111.609,46.774],[-111.59,46.783],[-111.568,46.776],[-111.563,46.767],[-111.542,46.769],[-111.519,46.763],[-111.498,46.762]]]},"properties":{"name":"Broadwater","id":"30007","STATE":"MT","TYPE":"County","CNTRY":"USA"},"id":"30007"},
{"type":"Feature","geometry":{"type":"Polygon","coordinates":[[[-108.238,49.001],[-108.241,48.915],[-108.261,48.914],[-108.259,48.742],[-108.323,48.741],[-108.322,48.568],[-108.347,48.567],[-108.348,48.43],[-108.358,48.429],[-108.378,48.44],[-108.41,48.448],[-108.409,48.429],[-108.409,48.221],[-108.432,48.221],[-108.435,48.046],[-108.437,47.98],[-108.574,47.986],[-108.604,47.995],[-108.621,47.965],[-108.628,47.919],[-108.676,47.926],[-108.886,47.924],[-108.886,47.87],[-108.892,47.871],[-108.891,47.801],[-108.891,47.737],[-108.912,47.738],[-108.936,47.73],[-108.952,47.733],[-108.942,47.746],[-108.923,47.757],[-108.926,47.765],[-108.943,47.77],[-108.949,47.779],[-108.941,47.794],[-108.966,47.794],[-108.98,47.804],[-108.998,47.806],[-109.028,47.795],[-109.068,47.803],[-109.127,47.784],[-109.166,47.782],[-109.186,47.791],[-109.235,47.796],[-109.264,47.795],[-109.279,47.787],[-109.284,47.776],[-109.298,47.771],[-109.316,47.756],[-109.353,47.754],[-109.388,47.74],[-109.397,47.731],[-109.421,47.723],[-109.485,47.732],[-109.519,47.745],[-109.539,47.741],[-109.541,47.871],[-109.537,47.871],[-109.536,48.134],[-109.535,48.22],[-109.553,48.22],[-109.553,48.292],[-109.522,48.292],[-109.52,48.392],[-109.497,48.393],[-109.497,48.452],[-109.462,48.453],[-109.464,48.525],[-109.497,48.525],[-109.5,48.565],[-109.506,48.565],[-109.507,48.666],[-109.507,48.912],[-109.492,48.912],[-109.491,49.001],[-109.227,49.001],[-109.001,49],[-108.661,49.001],[-108.441,49.001],[-108.238,49.001]]]},"properties":{"name":"Blaine","id":"30005","STATE":"MT","TYPE":"County","CNTRY":"USA"},"id":"30005"},
{"type":"Feature","geometry":{"type":"Polygon","coordinates":[[[-106.937,45.871],[-106.937,45.833],[-106.876,45.834],[-106.875,45.79],[-106.91,45.79],[-106.911,45.686],[-106.847,45.685],[-106.848,45.678],[-106.727,45.679],[-106.724,45.408],[-106.724,45.352],[-106.763,45.353],[-106.763,45.181],[-106.642,45.179],[-106.519,45.178],[-106.274,45.181],[-106.265,45.18],[-106.264,45.088],[-106.265,44.997],[-106.683,44.998],[-107.001,44.997],[-107.231,45.001],[-107.645,45.001],[-107.965,45.001],[-108.245,45.001],[-108.254,45.01],[-108.249,45.031],[-108.238,45.046],[-108.225,45.05],[-108.233,45.068],[-108.219,45.077],[-108.218,45.088],[-108.204,45.1],[-108.179,45.099],[-108.183,45.132],[-108.161,45.137],[-108.171,45.158],[-108.141,45.178],[-108.127,45.179],[-108.131,45.191],[-108.119,45.209],[-108.1,45.213],[-108.089,45.221],[-108.337,45.22],[-108.594,45.217],[-108.697,45.217],[-108.697,45.309],[-108.695,45.318],[-108.699,45.347],[-108.684,45.388],[-108.683,45.413],[-108.677,45.435],[-108.643,45.464],[-108.441,45.465],[-108.443,45.462],[-108.312,45.461],[-108.313,45.49],[-108.188,45.49],[-108.187,45.52],[-108.064,45.52],[-108.065,45.677],[-108.068,45.784],[-108.043,45.785],[-108.045,45.9],[-107.882,45.9],[-107.882,45.929],[-107.841,45.929],[-107.841,45.958],[-107.798,45.958],[-107.798,45.987],[-107.673,45.987],[-107.671,46.043],[-107.512,46.043],[-107.427,46.042],[-107.424,45.958],[-107.303,45.959],[-107.176,45.959],[-107.174,45.914],[-107.051,45.915],[-107.052,45.872],[-106.937,45.871]]]},"properties":{"name":"Big Horn","id":"30003","STATE":"MT","TYPE":"County","CNTRY":"USA"},"id":"30003"},
{"type":"Feature","geometry":{"type":"Polygon","coordinates":[[[-113.083,45.865],[-113.074,45.852],[-113.062,45.849],[-113.026,45.832],[-113.013,45.819],[-112.986,45.808],[-112.947,45.799],[-112.933,45.802],[-112.908,45.789],[-112.882,45.791],[-112.87,45.781],[-112.823,45.776],[-112.802,45.762],[-112.787,45.761],[-112.764,45.75],[-112.747,45.733],[-112.753,45.713],[-112.733,45.684],[-112.715,45.676],[-112.698,45.676],[-112.692,45.657],[-112.697,45.639],[-112.684,45.626],[-112.681,45.605],[-112.686,45.599],[-112.686,45.56],[-112.702,45.527],[-112.688,45.509],[-112.688,45.481],[-112.651,45.45],[-112.621,45.439],[-112.605,45.427],[-112.575,45.43],[-112.541,45.444],[-112.507,45.443],[-112.464,45.391],[-112.465,45.35],[-112.459,45.349],[-112.457,45.261],[-112.457,45.087],[-112.333,45.087],[-112.332,45.002],[-112.191,45.002],[-112.194,44.912],[-112.167,44.912],[-112.169,44.826],[-112.068,44.825],[-112.067,44.783],[-111.782,44.781],[-111.782,44.708],[-111.66,44.709],[-111.64,44.708],[-111.483,44.708],[-111.486,44.692],[-111.472,44.668],[-111.494,44.643],[-111.514,44.645],[-111.505,44.629],[-111.521,44.615],[-111.521,44.592],[-111.505,44.574],[-111.508,44.562],[-111.469,44.556],[-111.463,44.542],[-111.501,44.541],[-111.512,44.536],[-111.527,44.548],[-111.546,44.556],[-111.561,44.555],[-111.576,44.561],[-111.594,44.56],[-111.617,44.549],[-111.667,44.555],[-111.679,44.56],[-111.701,44.559],[-111.714,44.547],[-111.75,44.538],[-111.767,44.528],[-111.805,44.525],[-111.822,44.511],[-111.844,44.529],[-111.865,44.555],[-111.869,44.566],[-111.89,44.565],[-111.903,44.558],[-111.948,44.557],[-111.976,44.539],[-112,44.537],[-112.013,44.542],[-112.036,44.544],[-112.114,44.525],[-112.136,44.537],[-112.172,44.542],[-112.186,44.537],[-112.224,44.545],[-112.232,44.563],[-112.255,44.569],[-112.286,44.569],[-112.314,44.552],[-112.317,44.539],[-112.34,44.54],[-112.356,44.533],[-112.36,44.518],[-112.358,44.493],[-112.372,44.461],[-112.383,44.449],[-112.407,44.457],[-112.431,44.456],[-112.467,44.479],[-112.501,44.465],[-112.515,44.475],[-112.542,44.486],[-112.57,44.481],[-112.602,44.49],[-112.623,44.486],[-112.632,44.492],[-112.665,44.488],[-112.691,44.5],[-112.715,44.506],[-112.735,44.5],[-112.743,44.493],[-112.783,44.483],[-112.801,44.462],[-112.826,44.446],[-112.838,44.423],[-112.814,44.395],[-112.819,44.372],[-112.841,44.359],[-112.851,44.358],[-112.878,44.378],[-112.885,44.4],[-112.905,44.399],[-112.921,44.409],[-112.946,44.415],[-112.954,44.423],[-112.979,44.432],[-113.009,44.46],[-113.01,44.475],[-113.024,44.494],[-113.009,44.527],[-113.048,44.547],[-113.038,44.565],[-113.064,44.579],[-113.065,44.589],[-113.086,44.604],[-113.071,44.618],[-113.053,44.629],[-113.071,44.669],[-113.068,44.678],[-113.083,44.692],[-113.101,44.701],[-113.1,44.722],[-113.135,44.756],[-113.135,44.775],[-113.179,44.789],[-113.197,44.805],[-113.238,44.816],[-113.248,44.823],[-113.279,44.815],[-113.285,44.809],[-113.329,44.789],[-113.352,44.792],[-113.35,44.815],[-113.387,44.839],[-113.419,44.84],[-113.425,44.853],[-113.456,44.87],[-113.465,44.889],[-113.478,44.898],[-113.473,44.908],[-113.492,44.926],[-113.497,44.943],[-113.491,44.949],[-113.461,44.951],[-113.449,44.956],[-113.448,44.987],[-113.439,45.008],[-113.448,45.034],[-113.457,45.04],[-113.455,45.06],[-113.489,45.065],[-113.492,45.077],[-113.515,45.084],[-113.522,45.092],[-113.506,45.11],[-113.524,45.116],[-113.552,45.113],[-113.573,45.126],[-113.567,45.142],[-113.586,45.153],[-113.594,45.164],[-113.591,45.181],[-113.638,45.214],[-113.653,45.237],[-113.687,45.258],[-113.693,45.27],[-113.68,45.275],[-113.688,45.285],[-113.712,45.302],[-113.715,45.312],[-113.729,45.318],[-113.738,45.331],[-113.732,45.359],[-113.737,45.366],[-113.734,45.39],[-113.755,45.405],[-113.77,45.406],[-113.775,45.416],[-113.761,45.423],[-113.774,45.436],[-113.78,45.452],[-113.774,45.468],[-113.759,45.484],[-113.773,45.522],[-113.787,45.524],[-113.834,45.52],[-113.815,45.561],[-113.815,45.57],[-113.797,45.583],[-113.806,45.599],[-113.819,45.61],[-113.841,45.611],[-113.854,45.621],[-113.884,45.617],[-113.907,45.625],[-113.895,45.644],[-113.898,45.65],[-113.93,45.674],[-113.934,45.694],[-113.91,45.711],[-113.903,45.722],[-113.913,45.747],[-113.898,45.763],[-113.863,45.779],[-113.849,45.75],[-113.797,45.762],[-113.801,45.77],[-113.79,45.78],[-113.794,45.792],[-113.772,45.79],[-113.77,45.797],[-113.739,45.815],[-113.726,45.827],[-113.697,45.841],[-113.662,45.835],[-113.622,45.841],[-113.612,45.85],[-113.593,45.851],[-113.593,45.864],[-113.579,45.872],[-113.541,45.876],[-113.53,45.88],[-113.539,45.901],[-113.533,45.919],[-113.519,45.938],[-113.496,45.936],[-113.485,45.912],[-113.47,45.896],[-113.467,45.886],[-113.44,45.847],[-113.443,45.839],[-113.431,45.826],[-113.434,45.804],[-113.411,45.786],[-113.379,45.752],[-113.365,45.754],[-113.362,45.77],[-113.345,45.804],[-113.331,45.813],[-113.317,45.807],[-113.296,45.816],[-113.273,45.817],[-113.258,45.832],[-113.253,45.845],[-113.215,45.874],[-113.19,45.876],[-113.165,45.885],[-113.143,45.881],[-113.096,45.879],[-113.083,45.865]]]},"properties":{"name":"Beaverhead","id":"30001","STATE":"MT","TYPE":"County","CNTRY":"USA"},"id":"30001"}
]}