{"type":"FeatureCollection", "features": [
{"type":"Feature","geometry":{"type":"Polygon","coordinates":[[[-76.723,40.122],[-76.707,40.113],[-76.693,40.102],[-76.669,40.073],[-76.663,40.067],[-76.649,40.061],[-76.642,40.061],[-76.605,40.056],[-76.567,40.048],[-76.552,40.05],[-76.538,40.055],[-76.533,40.051],[-76.528,40.031],[-76.506,40.01],[-76.5,39.998],[-76.498,39.979],[-76.489,39.963],[-76.476,39.947],[-76.446,39.933],[-76.43,39.929],[-76.406,39.917],[-76.388,39.912],[-76.378,39.885],[-76.38,39.877],[-76.371,39.863],[-76.354,39.854],[-76.351,39.84],[-76.331,39.818],[-76.313,39.807],[-76.307,39.801],[-76.296,39.786],[-76.281,39.78],[-76.275,39.771],[-76.241,39.728],[-76.241,39.722],[-76.287,39.721],[-76.411,39.721],[-76.558,39.722],[-76.57,39.721],[-76.701,39.721],[-76.84,39.721],[-77,39.72],[-76.999,39.775],[-77,39.831],[-76.992,39.834],[-76.986,39.839],[-76.982,39.848],[-76.965,39.852],[-76.958,39.857],[-76.966,39.874],[-76.977,39.875],[-76.98,39.881],[-76.985,39.901],[-76.972,39.916],[-76.973,39.932],[-76.968,39.937],[-76.999,39.981],[-77.018,40.011],[-77.028,40.019],[-77.039,40.02],[-77.062,40.024],[-77.073,40.033],[-77.087,40.051],[-77.098,40.061],[-77.115,40.065],[-77.139,40.072],[-77.092,40.105],[-77.076,40.116],[-77.035,40.145],[-77.008,40.15],[-76.999,40.154],[-76.988,40.153],[-76.975,40.156],[-76.979,40.166],[-76.953,40.167],[-76.928,40.164],[-76.91,40.167],[-76.91,40.172],[-76.926,40.181],[-76.924,40.189],[-76.916,40.187],[-76.914,40.197],[-76.93,40.199],[-76.923,40.209],[-76.91,40.209],[-76.908,40.217],[-76.901,40.217],[-76.898,40.225],[-76.89,40.216],[-76.88,40.219],[-76.87,40.217],[-76.861,40.227],[-76.842,40.222],[-76.833,40.215],[-76.829,40.205],[-76.822,40.201],[-76.8,40.2],[-76.785,40.19],[-76.762,40.178],[-76.752,40.174],[-76.749,40.168],[-76.748,40.143],[-76.745,40.135],[-76.733,40.126],[-76.723,40.122]]]},"properties":{"name":"York","id":"42133","STATE":"PA","TYPE":"County","CNTRY":"USA"},"id":"42133"},
{"type":"Feature","geometry":{"type":"Polygon","coordinates":[[[-76.117,41.653],[-76.115,41.644],[-76.018,41.646],[-75.845,41.646],[-75.744,41.644],[-75.72,41.644],[-75.724,41.636],[-75.73,41.637],[-75.75,41.608],[-75.774,41.576],[-75.769,41.569],[-75.802,41.525],[-75.77,41.507],[-75.782,41.495],[-75.806,41.463],[-75.835,41.428],[-75.874,41.418],[-75.903,41.411],[-75.954,41.399],[-76.014,41.385],[-76.076,41.383],[-76.197,41.38],[-76.283,41.378],[-76.273,41.405],[-76.232,41.506],[-76.222,41.545],[-76.209,41.598],[-76.201,41.643],[-76.196,41.648],[-76.117,41.653]]]},"properties":{"name":"Wyoming","id":"42131","STATE":"PA","TYPE":"County","CNTRY":"USA"},"id":"42131"},
{"type":"Feature","geometry":{"type":"Polygon","coordinates":[[[-79.453,40.534],[-79.449,40.528],[-79.46,40.519],[-79.454,40.505],[-79.455,40.497],[-79.454,40.485],[-79.446,40.481],[-79.438,40.487],[-79.429,40.487],[-79.42,40.47],[-79.409,40.474],[-79.403,40.472],[-79.394,40.456],[-79.377,40.453],[-79.369,40.458],[-79.367,40.476],[-79.356,40.474],[-79.359,40.455],[-79.346,40.455],[-79.345,40.468],[-79.338,40.47],[-79.332,40.463],[-79.33,40.454],[-79.318,40.459],[-79.301,40.461],[-79.3,40.458],[-79.3,40.436],[-79.292,40.436],[-79.281,40.442],[-79.273,40.439],[-79.27,40.431],[-79.272,40.418],[-79.262,40.417],[-79.254,40.422],[-79.25,40.43],[-79.231,40.43],[-79.216,40.425],[-79.207,40.415],[-79.2,40.411],[-79.19,40.415],[-79.17,40.41],[-79.154,40.411],[-79.151,40.398],[-79.134,40.398],[-79.116,40.393],[-79.129,40.386],[-79.127,40.375],[-79.119,40.371],[-79.111,40.373],[-79.101,40.369],[-79.097,40.371],[-79.088,40.388],[-79.078,40.388],[-79.068,40.38],[-79.062,40.379],[-79.05,40.39],[-79.035,40.396],[-79.028,40.406],[-79.035,40.41],[-79.032,40.418],[-79.014,40.42],[-78.989,40.412],[-78.973,40.392],[-78.987,40.365],[-78.995,40.36],[-79.012,40.341],[-79.02,40.337],[-79.026,40.328],[-79.039,40.313],[-79.057,40.286],[-79.061,40.277],[-79.076,40.261],[-79.079,40.251],[-79.089,40.24],[-79.099,40.224],[-79.114,40.205],[-79.125,40.2],[-79.131,40.183],[-79.148,40.178],[-79.144,40.164],[-79.147,40.16],[-79.16,40.16],[-79.165,40.138],[-79.172,40.126],[-79.182,40.114],[-79.195,40.109],[-79.198,40.117],[-79.21,40.117],[-79.221,40.109],[-79.223,40.101],[-79.228,40.098],[-79.25,40.092],[-79.258,40.086],[-79.267,40.073],[-79.294,40.04],[-79.313,40.044],[-79.326,40.041],[-79.345,40.045],[-79.354,40.072],[-79.376,40.083],[-79.393,40.09],[-79.405,40.103],[-79.417,40.104],[-79.426,40.111],[-79.44,40.117],[-79.448,40.123],[-79.45,40.131],[-79.465,40.139],[-79.487,40.144],[-79.503,40.141],[-79.515,40.136],[-79.526,40.128],[-79.539,40.126],[-79.545,40.112],[-79.557,40.113],[-79.567,40.108],[-79.583,40.104],[-79.592,40.096],[-79.599,40.085],[-79.608,40.09],[-79.624,40.095],[-79.632,40.089],[-79.656,40.09],[-79.661,40.096],[-79.67,40.098],[-79.671,40.106],[-79.682,40.108],[-79.692,40.113],[-79.708,40.109],[-79.723,40.116],[-79.725,40.122],[-79.733,40.121],[-79.747,40.128],[-79.782,40.128],[-79.8,40.129],[-79.856,40.129],[-79.88,40.127],[-79.888,40.131],[-79.893,40.141],[-79.904,40.15],[-79.904,40.16],[-79.891,40.165],[-79.863,40.162],[-79.854,40.167],[-79.851,40.175],[-79.855,40.191],[-79.871,40.197],[-79.799,40.223],[-79.785,40.228],[-79.805,40.233],[-79.807,40.238],[-79.801,40.244],[-79.788,40.265],[-79.797,40.276],[-79.794,40.282],[-79.781,40.282],[-79.776,40.29],[-79.788,40.298],[-79.786,40.31],[-79.774,40.358],[-79.77,40.382],[-79.763,40.391],[-79.754,40.389],[-79.745,40.396],[-79.739,40.397],[-79.727,40.413],[-79.718,40.416],[-79.704,40.426],[-79.704,40.444],[-79.702,40.479],[-79.702,40.5],[-79.705,40.528],[-79.722,40.541],[-79.738,40.549],[-79.752,40.552],[-79.765,40.55],[-79.774,40.569],[-79.771,40.586],[-79.761,40.594],[-79.737,40.602],[-79.724,40.607],[-79.711,40.622],[-79.7,40.629],[-79.692,40.638],[-79.689,40.645],[-79.696,40.662],[-79.693,40.67],[-79.678,40.673],[-79.67,40.68],[-79.662,40.678],[-79.638,40.665],[-79.637,40.656],[-79.629,40.649],[-79.61,40.642],[-79.61,40.628],[-79.604,40.624],[-79.597,40.627],[-79.589,40.636],[-79.583,40.632],[-79.588,40.626],[-79.59,40.617],[-79.578,40.601],[-79.566,40.608],[-79.554,40.601],[-79.566,40.592],[-79.57,40.584],[-79.561,40.563],[-79.536,40.55],[-79.526,40.542],[-79.512,40.543],[-79.497,40.528],[-79.491,40.525],[-79.478,40.537],[-79.475,40.53],[-79.464,40.535],[-79.453,40.534]]]},"properties":{"name":"Westmoreland","id":"42129","STATE":"PA","TYPE":"County","CNTRY":"USA"},"id":"42129"},
{"type":"Feature","geometry":{"type":"Polygon","coordinates":[[[-75.07,41.602],[-75.122,41.534],[-75.174,41.469],[-75.188,41.458],[-75.189,41.449],[-75.186,41.444],[-75.2,41.435],[-75.22,41.425],[-75.232,41.425],[-75.233,41.421],[-75.246,41.422],[-75.253,41.414],[-75.251,41.403],[-75.253,41.39],[-75.263,41.383],[-75.266,41.374],[-75.301,41.371],[-75.308,41.378],[-75.313,41.37],[-75.328,41.369],[-75.34,41.376],[-75.351,41.368],[-75.347,41.358],[-75.339,41.351],[-75.337,41.345],[-75.343,41.341],[-75.338,41.336],[-75.326,41.338],[-75.319,41.337],[-75.311,41.327],[-75.316,41.32],[-75.314,41.311],[-75.328,41.295],[-75.332,41.27],[-75.344,41.267],[-75.347,41.26],[-75.337,41.253],[-75.33,41.246],[-75.327,41.238],[-75.379,41.233],[-75.409,41.233],[-75.493,41.233],[-75.506,41.232],[-75.495,41.243],[-75.485,41.243],[-75.483,41.247],[-75.468,41.248],[-75.443,41.257],[-75.444,41.285],[-75.447,41.331],[-75.447,41.364],[-75.448,41.402],[-75.45,41.426],[-75.453,41.48],[-75.46,41.588],[-75.462,41.643],[-75.469,41.75],[-75.471,41.801],[-75.476,41.877],[-75.483,41.999],[-75.355,41.999],[-75.34,41.99],[-75.342,41.977],[-75.339,41.971],[-75.325,41.965],[-75.313,41.951],[-75.308,41.949],[-75.294,41.953],[-75.279,41.939],[-75.273,41.921],[-75.268,41.912],[-75.267,41.905],[-75.272,41.896],[-75.271,41.891],[-75.262,41.887],[-75.259,41.878],[-75.262,41.869],[-75.254,41.865],[-75.238,41.866],[-75.225,41.86],[-75.212,41.869],[-75.203,41.87],[-75.183,41.864],[-75.179,41.87],[-75.168,41.869],[-75.166,41.858],[-75.155,41.851],[-75.144,41.853],[-75.129,41.847],[-75.116,41.844],[-75.114,41.83],[-75.109,41.823],[-75.096,41.817],[-75.081,41.815],[-75.073,41.812],[-75.075,41.801],[-75.08,41.797],[-75.091,41.796],[-75.097,41.792],[-75.102,41.78],[-75.094,41.771],[-75.079,41.772],[-75.061,41.766],[-75.056,41.758],[-75.054,41.748],[-75.054,41.73],[-75.051,41.713],[-75.067,41.712],[-75.067,41.707],[-75.056,41.694],[-75.054,41.679],[-75.059,41.671],[-75.052,41.661],[-75.049,41.634],[-75.045,41.621],[-75.057,41.618],[-75.063,41.61],[-75.073,41.608],[-75.07,41.602]]]},"properties":{"name":"Wayne","id":"42127","STATE":"PA","TYPE":"County","CNTRY":"USA"},"id":"42127"},
{"type":"Feature","geometry":{"type":"Polygon","coordinates":[[[-79.871,40.197],[-79.855,40.191],[-79.851,40.175],[-79.854,40.167],[-79.863,40.162],[-79.891,40.165],[-79.904,40.16],[-79.904,40.15],[-79.893,40.141],[-79.888,40.131],[-79.88,40.127],[-79.85,40.115],[-79.839,40.092],[-79.843,40.083],[-79.858,40.077],[-79.87,40.075],[-79.88,40.079],[-79.894,40.08],[-79.902,40.074],[-79.897,40.07],[-79.88,40.065],[-79.882,40.058],[-79.891,40.051],[-79.891,40.045],[-79.877,40.037],[-79.878,40.03],[-79.886,40.024],[-79.912,40.021],[-79.927,40.015],[-79.934,40],[-79.944,39.995],[-79.957,39.997],[-79.965,40.01],[-79.971,40.014],[-79.986,40.013],[-79.996,40.006],[-79.991,39.986],[-79.999,39.983],[-80.01,39.985],[-80.018,39.98],[-80.03,39.984],[-80.042,39.978],[-80.049,39.98],[-80.051,39.99],[-80.042,40.001],[-80.05,40.007],[-80.064,40.008],[-80.075,39.998],[-80.086,39.999],[-80.093,39.994],[-80.112,39.989],[-80.134,39.991],[-80.154,39.997],[-80.164,40.006],[-80.179,40.01],[-80.185,40.005],[-80.196,40.006],[-80.217,40.006],[-80.239,40.011],[-80.268,40.004],[-80.273,40.005],[-80.275,40.013],[-80.283,40.014],[-80.291,40.022],[-80.303,40.022],[-80.308,40.019],[-80.312,40.006],[-80.328,40.008],[-80.354,40],[-80.373,39.997],[-80.389,39.989],[-80.395,39.98],[-80.424,39.974],[-80.434,39.977],[-80.451,39.973],[-80.458,39.969],[-80.466,39.957],[-80.476,39.953],[-80.487,39.955],[-80.486,39.96],[-80.502,39.957],[-80.509,39.962],[-80.52,39.964],[-80.519,40.108],[-80.519,40.288],[-80.519,40.401],[-80.519,40.48],[-80.436,40.48],[-80.359,40.48],[-80.277,40.413],[-80.247,40.387],[-80.182,40.334],[-80.099,40.309],[-80.074,40.302],[-80.041,40.291],[-79.938,40.26],[-79.916,40.253],[-79.927,40.245],[-79.962,40.24],[-79.97,40.234],[-79.971,40.229],[-79.958,40.217],[-79.92,40.203],[-79.909,40.198],[-79.895,40.196],[-79.871,40.197]]]},"properties":{"name":"Washington","id":"42125","STATE":"PA","TYPE":"County","CNTRY":"USA"},"id":"42125"},
{"type":"Feature","geometry":{"type":"Polygon","coordinates":[[[-78.922,41.999],[-78.922,41.954],[-78.918,41.954],[-78.922,41.848],[-78.925,41.836],[-78.952,41.836],[-78.958,41.625],[-79.078,41.626],[-79.097,41.626],[-79.317,41.626],[-79.358,41.626],[-79.402,41.626],[-79.43,41.626],[-79.512,41.626],[-79.615,41.626],[-79.614,41.721],[-79.613,41.789],[-79.613,41.851],[-79.612,41.958],[-79.611,41.998],[-79.523,41.998],[-79.261,41.998],[-79.063,41.999],[-78.969,41.999],[-78.922,41.999]]]},"properties":{"name":"Warren","id":"42123","STATE":"PA","TYPE":"County","CNTRY":"USA"},"id":"42123"},
{"type":"Feature","geometry":{"type":"Polygon","coordinates":[[[-79.615,41.626],[-79.512,41.626],[-79.513,41.56],[-79.509,41.56],[-79.51,41.514],[-79.512,41.5],[-79.512,41.465],[-79.521,41.465],[-79.521,41.441],[-79.479,41.441],[-79.478,41.401],[-79.477,41.386],[-79.477,41.336],[-79.542,41.336],[-79.541,41.322],[-79.605,41.322],[-79.605,41.277],[-79.623,41.277],[-79.628,41.274],[-79.632,41.251],[-79.649,41.25],[-79.649,41.216],[-79.67,41.195],[-79.661,41.192],[-79.665,41.181],[-79.67,41.185],[-79.683,41.183],[-79.698,41.184],[-79.7,41.179],[-79.69,41.172],[-79.718,41.171],[-79.96,41.17],[-79.998,41.17],[-79.999,41.237],[-79.999,41.28],[-80,41.29],[-79.998,41.336],[-79.999,41.404],[-79.998,41.475],[-79.999,41.49],[-79.999,41.5],[-79.982,41.5],[-79.982,41.513],[-79.959,41.515],[-79.958,41.524],[-79.942,41.524],[-79.94,41.537],[-79.924,41.537],[-79.923,41.55],[-79.909,41.55],[-79.909,41.563],[-79.893,41.564],[-79.892,41.576],[-79.868,41.577],[-79.871,41.581],[-79.851,41.589],[-79.851,41.599],[-79.841,41.602],[-79.83,41.602],[-79.83,41.62],[-79.792,41.621],[-79.77,41.621],[-79.77,41.617],[-79.724,41.618],[-79.699,41.617],[-79.614,41.619],[-79.615,41.626]]]},"properties":{"name":"Venango","id":"42121","STATE":"PA","TYPE":"County","CNTRY":"USA"},"id":"42121"},
{"type":"Feature","geometry":{"type":"Polygon","coordinates":[[[-76.82,40.89],[-76.86,40.889],[-76.872,40.886],[-76.891,40.889],[-76.912,40.885],[-76.934,40.89],[-76.945,40.89],[-76.956,40.882],[-76.993,40.876],[-76.998,40.873],[-77.015,40.872],[-77.02,40.861],[-77.057,40.87],[-77.078,40.867],[-77.108,40.86],[-77.193,40.843],[-77.201,40.841],[-77.239,40.834],[-77.322,40.817],[-77.356,40.808],[-77.357,40.844],[-77.359,40.849],[-77.337,40.866],[-77.313,40.883],[-77.301,40.894],[-77.28,40.91],[-77.248,40.941],[-77.203,40.993],[-77.192,41.001],[-77.144,41.041],[-77.143,41.044],[-77.14,41.07],[-77.111,41.069],[-77.097,41.075],[-77.067,41.086],[-76.977,41.088],[-76.959,41.149],[-76.895,41.14],[-76.898,41.132],[-76.891,41.104],[-76.885,41.094],[-76.862,41.078],[-76.857,41.069],[-76.856,41.045],[-76.861,41.038],[-76.861,41.031],[-76.867,41.007],[-76.867,40.997],[-76.882,40.971],[-76.878,40.963],[-76.876,40.951],[-76.854,40.918],[-76.842,40.907],[-76.82,40.89]]]},"properties":{"name":"Union","id":"42119","STATE":"PA","TYPE":"County","CNTRY":"USA"},"id":"42119"},
{"type":"Feature","geometry":{"type":"Polygon","coordinates":[[[-76.929,42.002],[-76.924,41.971],[-76.916,41.918],[-76.899,41.808],[-76.898,41.783],[-76.883,41.668],[-76.88,41.636],[-76.875,41.597],[-76.893,41.586],[-76.92,41.581],[-76.926,41.572],[-76.946,41.567],[-76.957,41.561],[-76.963,41.552],[-77.001,41.551],[-77.075,41.548],[-77.128,41.547],[-77.295,41.544],[-77.351,41.544],[-77.48,41.543],[-77.519,41.543],[-77.599,41.542],[-77.601,41.599],[-77.603,41.719],[-77.604,41.747],[-77.606,41.833],[-77.606,41.84],[-77.608,41.921],[-77.61,42],[-77.439,42.001],[-77.177,42],[-77.113,42.001],[-76.929,42.002]]]},"properties":{"name":"Tioga","id":"42117","STATE":"PA","TYPE":"County","CNTRY":"USA"},"id":"42117"},
{"type":"Feature","geometry":{"type":"Polygon","coordinates":[[[-75.483,41.999],[-75.476,41.877],[-75.471,41.801],[-75.469,41.75],[-75.462,41.643],[-75.524,41.644],[-75.6,41.643],[-75.72,41.644],[-75.744,41.644],[-75.845,41.646],[-76.018,41.646],[-76.115,41.644],[-76.117,41.653],[-76.126,41.773],[-76.129,41.793],[-76.138,41.898],[-76.147,41.999],[-75.849,41.999],[-75.598,41.999],[-75.483,41.999]]]},"properties":{"name":"Susquehanna","id":"42115","STATE":"PA","TYPE":"County","CNTRY":"USA"},"id":"42115"},
{"type":"Feature","geometry":{"type":"Polygon","coordinates":[[[-76.447,41.277],[-76.514,41.288],[-76.559,41.301],[-76.595,41.307],[-76.604,41.312],[-76.673,41.358],[-76.751,41.409],[-76.778,41.488],[-76.81,41.58],[-76.813,41.59],[-76.757,41.584],[-76.597,41.572],[-76.5,41.565],[-76.445,41.561],[-76.328,41.553],[-76.222,41.545],[-76.232,41.506],[-76.273,41.405],[-76.283,41.378],[-76.296,41.348],[-76.31,41.311],[-76.408,41.31],[-76.447,41.277]]]},"properties":{"name":"Sullivan","id":"42113","STATE":"PA","TYPE":"County","CNTRY":"USA"},"id":"42113"},
{"type":"Feature","geometry":{"type":"Polygon","coordinates":[[[-78.657,40.243],[-78.667,40.222],[-78.674,40.211],[-78.685,40.189],[-78.691,40.18],[-78.697,40.164],[-78.711,40.138],[-78.727,40.093],[-78.739,40.073],[-78.749,40.076],[-78.761,40.06],[-78.765,40.019],[-78.763,40.017],[-78.762,39.935],[-78.76,39.9],[-78.759,39.827],[-78.761,39.817],[-78.773,39.783],[-78.779,39.778],[-78.784,39.766],[-78.798,39.741],[-78.81,39.724],[-79.041,39.723],[-79.321,39.722],[-79.39,39.722],[-79.395,39.733],[-79.407,39.734],[-79.407,39.74],[-79.395,39.744],[-79.396,39.76],[-79.382,39.764],[-79.381,39.774],[-79.392,39.779],[-79.377,39.789],[-79.358,39.781],[-79.353,39.788],[-79.364,39.79],[-79.368,39.798],[-79.364,39.81],[-79.365,39.819],[-79.372,39.827],[-79.381,39.828],[-79.381,39.836],[-79.417,39.854],[-79.398,39.901],[-79.373,39.935],[-79.327,39.997],[-79.294,40.04],[-79.267,40.073],[-79.258,40.086],[-79.25,40.092],[-79.228,40.098],[-79.223,40.101],[-79.221,40.109],[-79.21,40.117],[-79.198,40.117],[-79.195,40.109],[-79.182,40.114],[-79.172,40.126],[-79.165,40.138],[-79.16,40.16],[-79.147,40.16],[-79.144,40.164],[-79.148,40.178],[-79.131,40.183],[-79.125,40.2],[-79.114,40.205],[-79.099,40.224],[-79.089,40.24],[-79.079,40.251],[-79.076,40.261],[-79.061,40.277],[-79.057,40.286],[-79,40.285],[-78.927,40.285],[-78.921,40.277],[-78.904,40.275],[-78.896,40.271],[-78.897,40.263],[-78.891,40.25],[-78.882,40.246],[-78.874,40.249],[-78.861,40.246],[-78.819,40.244],[-78.757,40.243],[-78.68,40.243],[-78.657,40.243]]]},"properties":{"name":"Somerset","id":"42111","STATE":"PA","TYPE":"County","CNTRY":"USA"},"id":"42111"},
{"type":"Feature","geometry":{"type":"Polygon","coordinates":[[[-76.82,40.89],[-76.809,40.889],[-76.8,40.884],[-76.803,40.855],[-76.81,40.845],[-76.822,40.836],[-76.838,40.822],[-76.847,40.809],[-76.857,40.783],[-76.853,40.73],[-76.856,40.713],[-76.863,40.7],[-76.87,40.692],[-76.913,40.663],[-76.927,40.644],[-76.937,40.636],[-76.942,40.647],[-76.949,40.65],[-76.965,40.646],[-76.97,40.642],[-76.979,40.645],[-76.989,40.643],[-76.999,40.636],[-77.007,40.643],[-77.01,40.66],[-77.035,40.66],[-77.035,40.668],[-77.04,40.679],[-77.051,40.676],[-77.071,40.679],[-77.09,40.677],[-77.098,40.679],[-77.101,40.688],[-77.114,40.691],[-77.151,40.68],[-77.159,40.679],[-77.191,40.682],[-77.249,40.689],[-77.292,40.695],[-77.354,40.703],[-77.356,40.808],[-77.322,40.817],[-77.239,40.834],[-77.201,40.841],[-77.193,40.843],[-77.108,40.86],[-77.078,40.867],[-77.057,40.87],[-77.02,40.861],[-77.015,40.872],[-76.998,40.873],[-76.993,40.876],[-76.956,40.882],[-76.945,40.89],[-76.934,40.89],[-76.912,40.885],[-76.891,40.889],[-76.872,40.886],[-76.86,40.889],[-76.82,40.89]]]},"properties":{"name":"Snyder","id":"42109","STATE":"PA","TYPE":"County","CNTRY":"USA"},"id":"42109"},
{"type":"Feature","geometry":{"type":"Polygon","coordinates":[[[-75.998,40.913],[-75.979,40.897],[-75.908,40.833],[-75.886,40.816],[-75.859,40.801],[-75.81,40.769],[-75.755,40.735],[-75.76,40.733],[-75.803,40.709],[-75.89,40.676],[-75.996,40.637],[-76.005,40.609],[-76.019,40.573],[-76.036,40.576],[-76.044,40.581],[-76.053,40.575],[-76.065,40.579],[-76.076,40.57],[-76.093,40.565],[-76.102,40.564],[-76.149,40.55],[-76.174,40.537],[-76.19,40.536],[-76.232,40.524],[-76.239,40.521],[-76.26,40.517],[-76.34,40.515],[-76.399,40.503],[-76.423,40.497],[-76.441,40.497],[-76.454,40.504],[-76.526,40.549],[-76.535,40.555],[-76.628,40.613],[-76.673,40.64],[-76.701,40.658],[-76.693,40.664],[-76.649,40.678],[-76.599,40.697],[-76.573,40.705],[-76.472,40.742],[-76.445,40.755],[-76.407,40.766],[-76.38,40.776],[-76.308,40.802],[-76.3,40.826],[-76.286,40.883],[-76.258,40.909],[-76.209,40.951],[-76.199,40.947],[-76.087,40.918],[-76.029,40.902],[-75.998,40.913]]]},"properties":{"name":"Schuylkill","id":"42107","STATE":"PA","TYPE":"County","CNTRY":"USA"},"id":"42107"},
{"type":"Feature","geometry":{"type":"Polygon","coordinates":[[[-77.61,42],[-77.608,41.921],[-77.606,41.84],[-77.606,41.833],[-77.604,41.747],[-77.603,41.719],[-77.601,41.599],[-77.599,41.542],[-77.598,41.478],[-77.664,41.478],[-77.698,41.478],[-77.764,41.478],[-77.777,41.477],[-77.951,41.475],[-77.988,41.476],[-78.051,41.477],[-78.064,41.488],[-78.112,41.533],[-78.124,41.544],[-78.183,41.599],[-78.205,41.619],[-78.205,41.625],[-78.206,41.697],[-78.206,41.787],[-78.208,41.92],[-78.208,41.979],[-78.209,42],[-77.966,41.999],[-77.703,41.999],[-77.61,42]]]},"properties":{"name":"Potter","id":"42105","STATE":"PA","TYPE":"County","CNTRY":"USA"},"id":"42105"},
{"type":"Feature","geometry":{"type":"Polygon","coordinates":[[[-74.992,41.093],[-75.003,41.092],[-75.027,41.082],[-75.037,41.091],[-75.076,41.142],[-75.093,41.145],[-75.156,41.152],[-75.128,41.254],[-75.201,41.25],[-75.265,41.245],[-75.327,41.238],[-75.33,41.246],[-75.337,41.253],[-75.347,41.26],[-75.344,41.267],[-75.332,41.27],[-75.328,41.295],[-75.314,41.311],[-75.316,41.32],[-75.311,41.327],[-75.319,41.337],[-75.326,41.338],[-75.338,41.336],[-75.343,41.341],[-75.337,41.345],[-75.339,41.351],[-75.347,41.358],[-75.351,41.368],[-75.34,41.376],[-75.328,41.369],[-75.313,41.37],[-75.308,41.378],[-75.301,41.371],[-75.266,41.374],[-75.263,41.383],[-75.253,41.39],[-75.251,41.403],[-75.253,41.414],[-75.246,41.422],[-75.233,41.421],[-75.232,41.425],[-75.22,41.425],[-75.2,41.435],[-75.186,41.444],[-75.189,41.449],[-75.188,41.458],[-75.174,41.469],[-75.122,41.534],[-75.07,41.602],[-75.055,41.591],[-75.047,41.582],[-75.041,41.571],[-75.025,41.56],[-75.019,41.553],[-75.017,41.545],[-75.022,41.535],[-75.008,41.528],[-75.004,41.523],[-74.999,41.508],[-74.989,41.509],[-74.984,41.501],[-74.987,41.487],[-74.98,41.479],[-74.959,41.477],[-74.938,41.484],[-74.915,41.474],[-74.905,41.46],[-74.895,41.455],[-74.893,41.451],[-74.898,41.442],[-74.887,41.439],[-74.867,41.445],[-74.858,41.444],[-74.84,41.435],[-74.832,41.434],[-74.814,41.443],[-74.808,41.442],[-74.798,41.425],[-74.789,41.423],[-74.773,41.427],[-74.763,41.425],[-74.754,41.425],[-74.746,41.43],[-74.738,41.426],[-74.742,41.409],[-74.738,41.4],[-74.715,41.392],[-74.71,41.384],[-74.691,41.366],[-74.691,41.36],[-74.706,41.353],[-74.725,41.347],[-74.751,41.346],[-74.76,41.339],[-74.77,41.327],[-74.792,41.323],[-74.793,41.313],[-74.825,41.292],[-74.838,41.278],[-74.846,41.256],[-74.859,41.246],[-74.866,41.229],[-74.859,41.222],[-74.862,41.215],[-74.877,41.193],[-74.883,41.181],[-74.897,41.17],[-74.905,41.157],[-74.92,41.142],[-74.943,41.13],[-74.95,41.123],[-74.962,41.116],[-74.973,41.114],[-74.984,41.106],[-74.992,41.093]]]},"properties":{"name":"Pike","id":"42103","STATE":"PA","TYPE":"County","CNTRY":"USA"},"id":"42103"},
{"type":"Feature","geometry":{"type":"Polygon","coordinates":[[[-75.213,39.866],[-75.219,39.876],[-75.234,39.877],[-75.241,39.873],[-75.249,39.877],[-75.262,39.877],[-75.262,39.889],[-75.254,39.898],[-75.252,39.912],[-75.247,39.912],[-75.25,39.923],[-75.242,39.941],[-75.251,39.947],[-75.252,39.963],[-75.277,39.97],[-75.278,39.976],[-75.23,40.001],[-75.21,40.014],[-75.242,40.035],[-75.265,40.055],[-75.223,40.093],[-75.212,40.088],[-75.186,40.073],[-75.176,40.084],[-75.165,40.079],[-75.131,40.059],[-75.107,40.048],[-75.091,40.059],[-75.089,40.063],[-75.095,40.069],[-75.072,40.091],[-75.065,40.1],[-75.047,40.116],[-75.015,40.139],[-74.981,40.121],[-74.966,40.118],[-74.965,40.108],[-74.959,40.092],[-74.966,40.079],[-74.981,40.068],[-74.986,40.057],[-74.975,40.051],[-74.986,40.044],[-74.997,40.034],[-75.013,40.024],[-75.038,40.016],[-75.051,40.009],[-75.061,39.992],[-75.068,39.986],[-75.084,39.977],[-75.111,39.97],[-75.126,39.962],[-75.134,39.956],[-75.138,39.944],[-75.137,39.933],[-75.13,39.913],[-75.134,39.897],[-75.149,39.884],[-75.158,39.883],[-75.179,39.883],[-75.19,39.882],[-75.213,39.866]]]},"properties":{"name":"Philadelphia","id":"42101","STATE":"PA","TYPE":"County","CNTRY":"USA"},"id":"42101"},
{"type":"Feature","geometry":{"type":"Polygon","coordinates":[[[-76.916,40.33],[-76.94,40.32],[-76.965,40.313],[-77.014,40.305],[-77.057,40.305],[-77.09,40.303],[-77.104,40.3],[-77.131,40.297],[-77.144,40.294],[-77.218,40.287],[-77.236,40.287],[-77.278,40.28],[-77.3,40.272],[-77.311,40.27],[-77.323,40.272],[-77.33,40.278],[-77.324,40.29],[-77.328,40.294],[-77.337,40.29],[-77.366,40.274],[-77.403,40.259],[-77.415,40.257],[-77.421,40.265],[-77.406,40.279],[-77.389,40.291],[-77.359,40.309],[-77.357,40.314],[-77.368,40.316],[-77.389,40.307],[-77.42,40.292],[-77.487,40.248],[-77.509,40.238],[-77.538,40.221],[-77.555,40.22],[-77.573,40.209],[-77.594,40.191],[-77.618,40.178],[-77.626,40.191],[-77.605,40.207],[-77.604,40.231],[-77.624,40.228],[-77.635,40.221],[-77.647,40.228],[-77.644,40.24],[-77.647,40.247],[-77.644,40.257],[-77.649,40.26],[-77.666,40.254],[-77.671,40.258],[-77.662,40.266],[-77.658,40.273],[-77.671,40.291],[-77.651,40.311],[-77.631,40.328],[-77.6,40.348],[-77.558,40.373],[-77.535,40.377],[-77.541,40.401],[-77.521,40.411],[-77.502,40.422],[-77.463,40.44],[-77.439,40.452],[-77.406,40.465],[-77.349,40.492],[-77.328,40.501],[-77.297,40.516],[-77.274,40.525],[-77.231,40.539],[-77.169,40.563],[-77.181,40.581],[-77.166,40.587],[-77.121,40.591],[-77.099,40.596],[-77.066,40.599],[-77.041,40.605],[-77.02,40.606],[-76.995,40.613],[-76.988,40.617],[-76.956,40.628],[-76.95,40.627],[-76.954,40.617],[-76.953,40.604],[-76.957,40.594],[-76.97,40.584],[-76.983,40.578],[-76.99,40.572],[-76.993,40.564],[-76.983,40.551],[-76.981,40.534],[-76.985,40.526],[-76.983,40.516],[-76.978,40.507],[-76.97,40.498],[-76.953,40.491],[-76.948,40.481],[-76.949,40.469],[-76.956,40.459],[-76.978,40.449],[-76.989,40.438],[-76.995,40.436],[-77.003,40.427],[-77.016,40.426],[-77.017,40.417],[-77.012,40.411],[-77.013,40.402],[-77.028,40.391],[-77.028,40.384],[-77.022,40.376],[-77.021,40.367],[-77.008,40.358],[-76.991,40.357],[-76.969,40.357],[-76.961,40.359],[-76.937,40.358],[-76.933,40.356],[-76.927,40.343],[-76.916,40.33]]]},"properties":{"name":"Perry","id":"42099","STATE":"PA","TYPE":"County","CNTRY":"USA"},"id":"42099"},
{"type":"Feature","geometry":{"type":"Polygon","coordinates":[[[-76.733,41.172],[-76.732,41.154],[-76.735,41.144],[-76.735,41.105],[-76.737,41.091],[-76.747,41.068],[-76.763,41.037],[-76.763,41.027],[-76.775,41.011],[-76.774,41.003],[-76.778,40.984],[-76.788,40.969],[-76.791,40.959],[-76.795,40.956],[-76.796,40.946],[-76.738,40.953],[-76.675,40.966],[-76.662,40.967],[-76.654,40.961],[-76.648,40.964],[-76.636,40.965],[-76.617,40.955],[-76.602,40.943],[-76.591,40.94],[-76.562,40.939],[-76.564,40.925],[-76.569,40.912],[-76.562,40.902],[-76.559,40.892],[-76.551,40.883],[-76.545,40.881],[-76.531,40.881],[-76.504,40.881],[-76.51,40.873],[-76.501,40.853],[-76.507,40.843],[-76.5,40.824],[-76.477,40.828],[-76.408,40.835],[-76.398,40.81],[-76.395,40.799],[-76.38,40.776],[-76.407,40.766],[-76.445,40.755],[-76.472,40.742],[-76.573,40.705],[-76.599,40.697],[-76.649,40.678],[-76.693,40.664],[-76.701,40.658],[-76.718,40.658],[-76.726,40.653],[-76.739,40.655],[-76.748,40.654],[-76.758,40.648],[-76.773,40.647],[-76.795,40.642],[-76.803,40.646],[-76.81,40.643],[-76.811,40.636],[-76.826,40.634],[-76.839,40.627],[-76.865,40.627],[-76.874,40.617],[-76.886,40.617],[-76.897,40.61],[-76.908,40.611],[-76.919,40.608],[-76.922,40.604],[-76.939,40.614],[-76.95,40.627],[-76.937,40.636],[-76.927,40.644],[-76.913,40.663],[-76.87,40.692],[-76.863,40.7],[-76.856,40.713],[-76.853,40.73],[-76.857,40.783],[-76.847,40.809],[-76.838,40.822],[-76.822,40.836],[-76.81,40.845],[-76.803,40.855],[-76.8,40.884],[-76.809,40.889],[-76.82,40.89],[-76.842,40.907],[-76.854,40.918],[-76.876,40.951],[-76.878,40.963],[-76.882,40.971],[-76.867,40.997],[-76.867,41.007],[-76.861,41.031],[-76.861,41.038],[-76.856,41.045],[-76.857,41.069],[-76.862,41.078],[-76.885,41.094],[-76.891,41.104],[-76.898,41.132],[-76.895,41.14],[-76.887,41.155],[-76.882,41.158],[-76.86,41.163],[-76.833,41.166],[-76.791,41.176],[-76.733,41.172]]]},"properties":{"name":"Northumberland","id":"42097","STATE":"PA","TYPE":"County","CNTRY":"USA"},"id":"42097"},
{"type":"Feature","geometry":{"type":"Polygon","coordinates":[[[-75.198,40.611],[-75.255,40.584],[-75.274,40.576],[-75.335,40.537],[-75.405,40.581],[-75.395,40.592],[-75.39,40.63],[-75.417,40.653],[-75.433,40.67],[-75.479,40.653],[-75.489,40.676],[-75.502,40.686],[-75.519,40.71],[-75.528,40.735],[-75.54,40.737],[-75.546,40.725],[-75.555,40.721],[-75.566,40.724],[-75.573,40.734],[-75.587,40.734],[-75.593,40.738],[-75.604,40.754],[-75.611,40.786],[-75.602,40.788],[-75.586,40.797],[-75.543,40.804],[-75.476,40.814],[-75.406,40.827],[-75.392,40.828],[-75.374,40.833],[-75.356,40.842],[-75.341,40.845],[-75.324,40.855],[-75.307,40.857],[-75.288,40.864],[-75.273,40.873],[-75.261,40.888],[-75.237,40.899],[-75.243,40.908],[-75.226,40.918],[-75.216,40.931],[-75.209,40.935],[-75.186,40.938],[-75.174,40.948],[-75.154,40.95],[-75.12,40.964],[-75.118,40.958],[-75.095,40.925],[-75.08,40.913],[-75.074,40.895],[-75.058,40.878],[-75.054,40.869],[-75.056,40.861],[-75.064,40.851],[-75.071,40.848],[-75.08,40.851],[-75.093,40.849],[-75.096,40.844],[-75.092,40.838],[-75.085,40.831],[-75.087,40.818],[-75.096,40.811],[-75.102,40.801],[-75.111,40.792],[-75.118,40.79],[-75.133,40.776],[-75.168,40.779],[-75.172,40.776],[-75.18,40.762],[-75.196,40.754],[-75.195,40.746],[-75.183,40.733],[-75.188,40.721],[-75.199,40.709],[-75.204,40.693],[-75.201,40.686],[-75.195,40.683],[-75.181,40.682],[-75.18,40.672],[-75.196,40.658],[-75.199,40.649],[-75.192,40.641],[-75.189,40.625],[-75.199,40.619],[-75.198,40.611]]]},"properties":{"name":"Northampton","id":"42095","STATE":"PA","TYPE":"County","CNTRY":"USA"},"id":"42095"},
{"type":"Feature","geometry":{"type":"Polygon","coordinates":[[[-76.642,41.156],[-76.632,41.127],[-76.621,41.092],[-76.617,41.081],[-76.619,41.065],[-76.57,41.053],[-76.562,41.033],[-76.566,41.015],[-76.566,41],[-76.537,40.977],[-76.522,40.962],[-76.512,40.946],[-76.529,40.94],[-76.523,40.926],[-76.526,40.915],[-76.531,40.881],[-76.545,40.881],[-76.551,40.883],[-76.559,40.892],[-76.562,40.902],[-76.569,40.912],[-76.564,40.925],[-76.562,40.939],[-76.591,40.94],[-76.602,40.943],[-76.617,40.955],[-76.636,40.965],[-76.648,40.964],[-76.654,40.961],[-76.662,40.967],[-76.675,40.966],[-76.738,40.953],[-76.796,40.946],[-76.795,40.956],[-76.791,40.959],[-76.788,40.969],[-76.778,40.984],[-76.774,41.003],[-76.775,41.011],[-76.763,41.027],[-76.763,41.037],[-76.747,41.068],[-76.737,41.091],[-76.735,41.105],[-76.735,41.144],[-76.732,41.154],[-76.733,41.172],[-76.675,41.155],[-76.642,41.156]]]},"properties":{"name":"Montour","id":"42093","STATE":"PA","TYPE":"County","CNTRY":"USA"},"id":"42093"},
{"type":"Feature","geometry":{"type":"Polygon","coordinates":[[[-75.015,40.139],[-75.047,40.116],[-75.065,40.1],[-75.072,40.091],[-75.095,40.069],[-75.089,40.063],[-75.091,40.059],[-75.107,40.048],[-75.131,40.059],[-75.165,40.079],[-75.176,40.084],[-75.186,40.073],[-75.212,40.088],[-75.223,40.093],[-75.265,40.055],[-75.242,40.035],[-75.21,40.014],[-75.23,40.001],[-75.278,39.976],[-75.312,40.02],[-75.32,40.016],[-75.345,40.047],[-75.361,40.067],[-75.367,40.072],[-75.393,40.06],[-75.42,40.097],[-75.437,40.09],[-75.44,40.094],[-75.456,40.088],[-75.456,40.094],[-75.463,40.097],[-75.462,40.103],[-75.472,40.112],[-75.461,40.124],[-75.473,40.129],[-75.491,40.125],[-75.509,40.135],[-75.511,40.142],[-75.5,40.156],[-75.513,40.159],[-75.518,40.148],[-75.528,40.149],[-75.527,40.166],[-75.539,40.174],[-75.55,40.19],[-75.561,40.21],[-75.564,40.201],[-75.572,40.197],[-75.58,40.204],[-75.591,40.221],[-75.597,40.235],[-75.609,40.235],[-75.605,40.228],[-75.615,40.225],[-75.621,40.23],[-75.664,40.246],[-75.674,40.246],[-75.689,40.238],[-75.697,40.242],[-75.616,40.341],[-75.608,40.348],[-75.588,40.375],[-75.56,40.407],[-75.547,40.424],[-75.528,40.446],[-75.506,40.432],[-75.483,40.419],[-75.43,40.387],[-75.422,40.381],[-75.349,40.338],[-75.308,40.313],[-75.259,40.285],[-75.201,40.25],[-75.134,40.211],[-75.015,40.139]]]},"properties":{"name":"Montgomery","id":"42091","STATE":"PA","TYPE":"County","CNTRY":"USA"},"id":"42091"},
{"type":"Feature","geometry":{"type":"Polygon","coordinates":[[[-74.992,41.093],[-74.983,41.089],[-74.973,41.096],[-74.966,41.094],[-74.973,41.085],[-74.981,41.08],[-74.999,41.075],[-75.01,41.069],[-75.019,41.054],[-75.025,41.049],[-75.027,41.042],[-75.044,41.031],[-75.059,41.023],[-75.107,41.006],[-75.133,40.99],[-75.136,40.973],[-75.12,40.964],[-75.154,40.95],[-75.174,40.948],[-75.186,40.938],[-75.209,40.935],[-75.216,40.931],[-75.226,40.918],[-75.243,40.908],[-75.237,40.899],[-75.261,40.888],[-75.273,40.873],[-75.288,40.864],[-75.307,40.857],[-75.324,40.855],[-75.341,40.845],[-75.356,40.842],[-75.374,40.833],[-75.392,40.828],[-75.406,40.827],[-75.476,40.814],[-75.487,40.838],[-75.555,40.929],[-75.566,40.946],[-75.534,40.96],[-75.539,40.967],[-75.5,40.986],[-75.496,40.989],[-75.562,41.049],[-75.569,41.053],[-75.575,41.068],[-75.603,41.088],[-75.604,41.095],[-75.612,41.097],[-75.614,41.104],[-75.621,41.111],[-75.626,41.108],[-75.634,41.114],[-75.645,41.116],[-75.647,41.123],[-75.644,41.128],[-75.633,41.125],[-75.623,41.132],[-75.626,41.138],[-75.604,41.152],[-75.598,41.163],[-75.597,41.172],[-75.587,41.174],[-75.576,41.179],[-75.569,41.198],[-75.554,41.209],[-75.541,41.226],[-75.529,41.227],[-75.516,41.221],[-75.506,41.232],[-75.493,41.233],[-75.409,41.233],[-75.379,41.233],[-75.327,41.238],[-75.265,41.245],[-75.201,41.25],[-75.128,41.254],[-75.156,41.152],[-75.093,41.145],[-75.076,41.142],[-75.037,41.091],[-75.027,41.082],[-75.003,41.092],[-74.992,41.093]]]},"properties":{"name":"Monroe","id":"42089","STATE":"PA","TYPE":"County","CNTRY":"USA"},"id":"42089"},
{"type":"Feature","geometry":{"type":"Polygon","coordinates":[[[-77.75,40.379],[-77.762,40.369],[-77.811,40.37],[-77.821,40.363],[-77.844,40.37],[-77.853,40.367],[-77.86,40.369],[-77.868,40.376],[-77.873,40.385],[-77.87,40.394],[-77.889,40.395],[-77.893,40.413],[-77.896,40.42],[-77.888,40.432],[-77.834,40.486],[-77.816,40.499],[-77.817,40.506],[-77.838,40.548],[-77.832,40.566],[-77.822,40.578],[-77.793,40.608],[-77.775,40.624],[-77.75,40.634],[-77.716,40.657],[-77.683,40.683],[-77.702,40.681],[-77.706,40.694],[-77.698,40.696],[-77.698,40.707],[-77.674,40.718],[-77.682,40.73],[-77.659,40.739],[-77.653,40.744],[-77.634,40.75],[-77.594,40.761],[-77.553,40.777],[-77.53,40.786],[-77.511,40.794],[-77.482,40.805],[-77.438,40.823],[-77.408,40.835],[-77.389,40.839],[-77.379,40.845],[-77.359,40.849],[-77.357,40.844],[-77.356,40.808],[-77.354,40.703],[-77.292,40.695],[-77.35,40.673],[-77.386,40.662],[-77.469,40.625],[-77.499,40.61],[-77.49,40.587],[-77.552,40.55],[-77.612,40.518],[-77.612,40.495],[-77.642,40.473],[-77.691,40.432],[-77.724,40.406],[-77.738,40.393],[-77.75,40.379]]]},"properties":{"name":"Mifflin","id":"42087","STATE":"PA","TYPE":"County","CNTRY":"USA"},"id":"42087"},
{"type":"Feature","geometry":{"type":"Polygon","coordinates":[[[-79.998,41.17],[-80.044,41.127],[-80.076,41.092],[-80.097,41.07],[-80.148,41.115],[-80.242,41.121],[-80.258,41.122],[-80.259,41.129],[-80.328,41.128],[-80.395,41.128],[-80.518,41.127],[-80.518,41.214],[-80.518,41.34],[-80.519,41.49],[-80.372,41.487],[-80.227,41.484],[-80.13,41.481],[-80.13,41.487],[-80.074,41.489],[-79.999,41.49],[-79.998,41.475],[-79.999,41.404],[-79.998,41.336],[-80,41.29],[-79.999,41.28],[-79.999,41.237],[-79.998,41.17]]]},"properties":{"name":"Mercer","id":"42085","STATE":"PA","TYPE":"County","CNTRY":"USA"},"id":"42085"},
{"type":"Feature","geometry":{"type":"Polygon","coordinates":[[[-78.209,42],[-78.208,41.979],[-78.208,41.92],[-78.206,41.787],[-78.206,41.697],[-78.205,41.625],[-78.205,41.619],[-78.27,41.619],[-78.302,41.618],[-78.385,41.618],[-78.42,41.617],[-78.421,41.602],[-78.45,41.602],[-78.484,41.603],[-78.485,41.63],[-78.5,41.63],[-78.614,41.629],[-78.749,41.627],[-78.816,41.626],[-78.818,41.623],[-78.907,41.624],[-78.958,41.625],[-78.952,41.836],[-78.925,41.836],[-78.922,41.848],[-78.918,41.954],[-78.922,41.954],[-78.922,41.999],[-78.741,41.999],[-78.483,42],[-78.344,42],[-78.209,42]]]},"properties":{"name":"McKean","id":"42083","STATE":"PA","TYPE":"County","CNTRY":"USA"},"id":"42083"},
{"type":"Feature","geometry":{"type":"Polygon","coordinates":[[[-76.813,41.59],[-76.81,41.58],[-76.778,41.488],[-76.751,41.409],[-76.673,41.358],[-76.604,41.312],[-76.595,41.307],[-76.559,41.301],[-76.514,41.288],[-76.447,41.277],[-76.512,41.225],[-76.54,41.2],[-76.566,41.179],[-76.593,41.158],[-76.642,41.156],[-76.675,41.155],[-76.733,41.172],[-76.791,41.176],[-76.833,41.166],[-76.86,41.163],[-76.882,41.158],[-76.887,41.155],[-76.895,41.14],[-76.959,41.149],[-76.977,41.088],[-77.067,41.086],[-77.097,41.075],[-77.111,41.069],[-77.14,41.07],[-77.166,41.069],[-77.206,41.109],[-77.226,41.131],[-77.268,41.171],[-77.278,41.181],[-77.29,41.185],[-77.293,41.189],[-77.29,41.196],[-77.305,41.211],[-77.32,41.219],[-77.349,41.221],[-77.359,41.227],[-77.395,41.25],[-77.41,41.266],[-77.425,41.273],[-77.429,41.282],[-77.443,41.287],[-77.45,41.293],[-77.456,41.305],[-77.471,41.313],[-77.475,41.326],[-77.476,41.338],[-77.5,41.354],[-77.524,41.358],[-77.539,41.367],[-77.542,41.382],[-77.55,41.395],[-77.563,41.411],[-77.575,41.421],[-77.582,41.439],[-77.597,41.44],[-77.598,41.478],[-77.599,41.542],[-77.519,41.543],[-77.48,41.543],[-77.351,41.544],[-77.295,41.544],[-77.128,41.547],[-77.075,41.548],[-77.001,41.551],[-76.963,41.552],[-76.957,41.561],[-76.946,41.567],[-76.926,41.572],[-76.92,41.581],[-76.893,41.586],[-76.875,41.597],[-76.813,41.59]]]},"properties":{"name":"Lycoming","id":"42081","STATE":"PA","TYPE":"County","CNTRY":"USA"},"id":"42081"},
{"type":"Feature","geometry":{"type":"Polygon","coordinates":[[[-75.598,41.163],[-75.604,41.152],[-75.626,41.138],[-75.623,41.132],[-75.633,41.125],[-75.644,41.128],[-75.647,41.123],[-75.655,41.119],[-75.658,41.128],[-75.665,41.134],[-75.692,41.131],[-75.704,41.123],[-75.709,41.117],[-75.718,41.119],[-75.722,41.112],[-75.733,41.104],[-75.751,41.105],[-75.752,41.096],[-75.765,41.095],[-75.766,41.084],[-75.771,41.073],[-75.769,41.054],[-75.758,41.037],[-75.745,41.035],[-75.744,41.026],[-75.735,41.011],[-75.756,41.001],[-75.786,40.989],[-75.819,40.98],[-75.839,40.973],[-75.848,40.966],[-75.998,40.913],[-76.029,40.902],[-76.087,40.918],[-76.199,40.947],[-76.209,40.951],[-76.217,40.975],[-76.222,41.004],[-76.231,41.051],[-76.228,41.072],[-76.229,41.139],[-76.276,41.134],[-76.304,41.18],[-76.319,41.207],[-76.32,41.216],[-76.317,41.25],[-76.317,41.265],[-76.31,41.311],[-76.296,41.348],[-76.283,41.378],[-76.197,41.38],[-76.076,41.383],[-76.014,41.385],[-75.954,41.399],[-75.903,41.411],[-75.874,41.418],[-75.835,41.428],[-75.831,41.422],[-75.832,41.4],[-75.827,41.392],[-75.809,41.389],[-75.793,41.378],[-75.77,41.369],[-75.746,41.353],[-75.726,41.347],[-75.687,41.341],[-75.686,41.319],[-75.694,41.319],[-75.69,41.306],[-75.69,41.29],[-75.68,41.289],[-75.678,41.266],[-75.648,41.259],[-75.646,41.19],[-75.642,41.179],[-75.624,41.171],[-75.614,41.173],[-75.611,41.166],[-75.598,41.163]]]},"properties":{"name":"Luzerne","id":"42079","STATE":"PA","TYPE":"County","CNTRY":"USA"},"id":"42079"},
{"type":"Feature","geometry":{"type":"Polygon","coordinates":[[[-75.335,40.537],[-75.388,40.502],[-75.411,40.487],[-75.455,40.446],[-75.483,40.419],[-75.506,40.432],[-75.528,40.446],[-75.558,40.464],[-75.621,40.502],[-75.685,40.544],[-75.719,40.565],[-75.74,40.58],[-75.8,40.618],[-75.89,40.676],[-75.803,40.709],[-75.76,40.733],[-75.755,40.735],[-75.741,40.741],[-75.728,40.752],[-75.699,40.764],[-75.686,40.773],[-75.628,40.784],[-75.611,40.786],[-75.604,40.754],[-75.593,40.738],[-75.587,40.734],[-75.573,40.734],[-75.566,40.724],[-75.555,40.721],[-75.546,40.725],[-75.54,40.737],[-75.528,40.735],[-75.519,40.71],[-75.502,40.686],[-75.489,40.676],[-75.479,40.653],[-75.433,40.67],[-75.417,40.653],[-75.39,40.63],[-75.395,40.592],[-75.405,40.581],[-75.335,40.537]]]},"properties":{"name":"Lehigh","id":"42077","STATE":"PA","TYPE":"County","CNTRY":"USA"},"id":"42077"},
{"type":"Feature","geometry":{"type":"Polygon","coordinates":[[[-76.57,40.196],[-76.58,40.221],[-76.61,40.298],[-76.64,40.373],[-76.68,40.475],[-76.61,40.514],[-76.555,40.544],[-76.535,40.555],[-76.526,40.549],[-76.454,40.504],[-76.441,40.497],[-76.401,40.472],[-76.302,40.41],[-76.294,40.404],[-76.237,40.368],[-76.221,40.363],[-76.205,40.357],[-76.151,40.316],[-76.313,40.257],[-76.322,40.254],[-76.359,40.25],[-76.425,40.241],[-76.437,40.239],[-76.497,40.219],[-76.57,40.196]]]},"properties":{"name":"Lebanon","id":"42075","STATE":"PA","TYPE":"County","CNTRY":"USA"},"id":"42075"},
{"type":"Feature","geometry":{"type":"Polygon","coordinates":[[[-80.097,41.07],[-80.118,41.047],[-80.141,41.026],[-80.165,41.001],[-80.161,40.955],[-80.158,40.893],[-80.158,40.856],[-80.249,40.856],[-80.323,40.855],[-80.365,40.855],[-80.447,40.854],[-80.466,40.854],[-80.518,40.853],[-80.518,40.979],[-80.518,41.127],[-80.395,41.128],[-80.328,41.128],[-80.259,41.129],[-80.258,41.122],[-80.242,41.121],[-80.148,41.115],[-80.097,41.07]]]},"properties":{"name":"Lawrence","id":"42073","STATE":"PA","TYPE":"County","CNTRY":"USA"},"id":"42073"},
{"type":"Feature","geometry":{"type":"Polygon","coordinates":[[[-75.876,40.137],[-75.941,40.109],[-75.936,40.081],[-75.935,40.039],[-75.956,40.012],[-75.964,40.001],[-75.972,39.985],[-75.987,39.968],[-75.992,39.954],[-75.988,39.94],[-75.98,39.933],[-75.996,39.924],[-75.996,39.903],[-75.988,39.893],[-75.991,39.88],[-75.988,39.873],[-75.993,39.87],[-76.004,39.873],[-76.009,39.854],[-76.021,39.854],[-76.023,39.846],[-76.019,39.832],[-76.032,39.821],[-76.03,39.813],[-76.044,39.796],[-76.051,39.785],[-76.066,39.771],[-76.068,39.763],[-76.084,39.759],[-76.084,39.754],[-76.091,39.745],[-76.101,39.745],[-76.096,39.736],[-76.1,39.729],[-76.105,39.725],[-76.113,39.729],[-76.111,39.735],[-76.12,39.736],[-76.119,39.726],[-76.124,39.724],[-76.134,39.728],[-76.139,39.722],[-76.241,39.722],[-76.241,39.728],[-76.275,39.771],[-76.281,39.78],[-76.296,39.786],[-76.307,39.801],[-76.313,39.807],[-76.331,39.818],[-76.351,39.84],[-76.354,39.854],[-76.371,39.863],[-76.38,39.877],[-76.378,39.885],[-76.388,39.912],[-76.406,39.917],[-76.43,39.929],[-76.446,39.933],[-76.476,39.947],[-76.489,39.963],[-76.498,39.979],[-76.5,39.998],[-76.506,40.01],[-76.528,40.031],[-76.533,40.051],[-76.538,40.055],[-76.552,40.05],[-76.567,40.048],[-76.605,40.056],[-76.642,40.061],[-76.649,40.061],[-76.663,40.067],[-76.669,40.073],[-76.693,40.102],[-76.707,40.113],[-76.723,40.122],[-76.715,40.135],[-76.696,40.155],[-76.679,40.15],[-76.671,40.161],[-76.665,40.165],[-76.646,40.167],[-76.622,40.181],[-76.617,40.181],[-76.609,40.19],[-76.592,40.191],[-76.581,40.195],[-76.57,40.196],[-76.497,40.219],[-76.437,40.239],[-76.425,40.241],[-76.359,40.25],[-76.322,40.254],[-76.313,40.257],[-76.151,40.316],[-76.045,40.249],[-75.97,40.199],[-75.939,40.178],[-75.902,40.155],[-75.876,40.137]]]},"properties":{"name":"Lancaster","id":"42071","STATE":"PA","TYPE":"County","CNTRY":"USA"},"id":"42071"},
{"type":"Feature","geometry":{"type":"Polygon","coordinates":[[[-75.462,41.643],[-75.46,41.588],[-75.453,41.48],[-75.45,41.426],[-75.448,41.402],[-75.447,41.364],[-75.447,41.331],[-75.444,41.285],[-75.443,41.257],[-75.468,41.248],[-75.483,41.247],[-75.485,41.243],[-75.495,41.243],[-75.506,41.232],[-75.516,41.221],[-75.529,41.227],[-75.541,41.226],[-75.554,41.209],[-75.569,41.198],[-75.576,41.179],[-75.587,41.174],[-75.597,41.172],[-75.598,41.163],[-75.611,41.166],[-75.614,41.173],[-75.624,41.171],[-75.642,41.179],[-75.646,41.19],[-75.648,41.259],[-75.678,41.266],[-75.68,41.289],[-75.69,41.29],[-75.69,41.306],[-75.694,41.319],[-75.686,41.319],[-75.687,41.341],[-75.726,41.347],[-75.746,41.353],[-75.77,41.369],[-75.793,41.378],[-75.809,41.389],[-75.827,41.392],[-75.832,41.4],[-75.831,41.422],[-75.835,41.428],[-75.806,41.463],[-75.782,41.495],[-75.77,41.507],[-75.802,41.525],[-75.769,41.569],[-75.774,41.576],[-75.75,41.608],[-75.73,41.637],[-75.724,41.636],[-75.72,41.644],[-75.6,41.643],[-75.524,41.644],[-75.462,41.643]]]},"properties":{"name":"Lackawanna","id":"42069","STATE":"PA","TYPE":"County","CNTRY":"USA"},"id":"42069"},
{"type":"Feature","geometry":{"type":"Polygon","coordinates":[[[-76.937,40.636],[-76.95,40.627],[-76.956,40.628],[-76.988,40.617],[-76.995,40.613],[-77.02,40.606],[-77.041,40.605],[-77.066,40.599],[-77.099,40.596],[-77.121,40.591],[-77.166,40.587],[-77.181,40.581],[-77.169,40.563],[-77.231,40.539],[-77.274,40.525],[-77.297,40.516],[-77.328,40.501],[-77.349,40.492],[-77.406,40.465],[-77.439,40.452],[-77.463,40.44],[-77.502,40.422],[-77.521,40.411],[-77.541,40.401],[-77.535,40.377],[-77.558,40.373],[-77.6,40.348],[-77.631,40.328],[-77.651,40.311],[-77.671,40.291],[-77.69,40.273],[-77.702,40.266],[-77.712,40.293],[-77.736,40.343],[-77.75,40.379],[-77.738,40.393],[-77.724,40.406],[-77.691,40.432],[-77.642,40.473],[-77.612,40.495],[-77.612,40.518],[-77.552,40.55],[-77.49,40.587],[-77.499,40.61],[-77.469,40.625],[-77.386,40.662],[-77.35,40.673],[-77.292,40.695],[-77.249,40.689],[-77.191,40.682],[-77.159,40.679],[-77.151,40.68],[-77.114,40.691],[-77.101,40.688],[-77.098,40.679],[-77.09,40.677],[-77.071,40.679],[-77.051,40.676],[-77.04,40.679],[-77.035,40.668],[-77.035,40.66],[-77.01,40.66],[-77.007,40.643],[-76.999,40.636],[-76.989,40.643],[-76.979,40.645],[-76.97,40.642],[-76.965,40.646],[-76.949,40.65],[-76.942,40.647],[-76.937,40.636]]]},"properties":{"name":"Juniata","id":"42067","STATE":"PA","TYPE":"County","CNTRY":"USA"},"id":"42067"},
{"type":"Feature","geometry":{"type":"Polygon","coordinates":[[[-78.71,41.204],[-78.764,41.204],[-78.783,41.173],[-78.801,41.14],[-78.807,41.132],[-78.807,41.057],[-78.807,41.014],[-78.805,40.941],[-78.805,40.906],[-78.948,40.908],[-78.954,40.908],[-79.093,40.909],[-79.121,40.91],[-79.216,40.91],[-79.215,40.951],[-79.216,40.988],[-79.213,41],[-79.213,41.047],[-79.215,41.053],[-79.214,41.083],[-79.21,41.084],[-79.21,41.113],[-79.21,41.156],[-79.209,41.202],[-79.21,41.251],[-79.21,41.337],[-79.2,41.327],[-79.193,41.325],[-79.186,41.33],[-79.186,41.339],[-79.177,41.338],[-79.178,41.328],[-79.162,41.332],[-79.15,41.332],[-79.139,41.341],[-79.132,41.339],[-79.119,41.327],[-79.108,41.326],[-79.106,41.336],[-79.098,41.341],[-79.09,41.342],[-79.08,41.353],[-79.072,41.354],[-79.061,41.35],[-79.034,41.358],[-79.027,41.357],[-79.021,41.351],[-79.014,41.357],[-79.001,41.361],[-78.993,41.369],[-78.98,41.37],[-78.973,41.376],[-78.965,41.37],[-78.964,41.364],[-78.941,41.353],[-78.741,41.265],[-78.738,41.232],[-78.71,41.233],[-78.71,41.204]]]},"properties":{"name":"Jefferson","id":"42065","STATE":"PA","TYPE":"County","CNTRY":"USA"},"id":"42065"},
{"type":"Feature","geometry":{"type":"Polygon","coordinates":[[[-78.805,40.906],[-78.804,40.896],[-78.805,40.793],[-78.806,40.732],[-78.796,40.728],[-78.797,40.72],[-78.808,40.721],[-78.831,40.674],[-78.848,40.632],[-78.871,40.583],[-78.904,40.52],[-78.942,40.442],[-78.965,40.401],[-78.973,40.392],[-78.989,40.412],[-79.014,40.42],[-79.032,40.418],[-79.035,40.41],[-79.028,40.406],[-79.035,40.396],[-79.05,40.39],[-79.062,40.379],[-79.068,40.38],[-79.078,40.388],[-79.088,40.388],[-79.097,40.371],[-79.101,40.369],[-79.111,40.373],[-79.119,40.371],[-79.127,40.375],[-79.129,40.386],[-79.116,40.393],[-79.134,40.398],[-79.151,40.398],[-79.154,40.411],[-79.17,40.41],[-79.19,40.415],[-79.2,40.411],[-79.207,40.415],[-79.216,40.425],[-79.231,40.43],[-79.25,40.43],[-79.254,40.422],[-79.262,40.417],[-79.272,40.418],[-79.27,40.431],[-79.273,40.439],[-79.281,40.442],[-79.292,40.436],[-79.3,40.436],[-79.3,40.458],[-79.301,40.461],[-79.318,40.459],[-79.33,40.454],[-79.332,40.463],[-79.338,40.47],[-79.345,40.468],[-79.346,40.455],[-79.359,40.455],[-79.356,40.474],[-79.367,40.476],[-79.369,40.458],[-79.377,40.453],[-79.394,40.456],[-79.403,40.472],[-79.409,40.474],[-79.42,40.47],[-79.429,40.487],[-79.438,40.487],[-79.446,40.481],[-79.454,40.485],[-79.455,40.497],[-79.454,40.505],[-79.46,40.519],[-79.449,40.528],[-79.453,40.534],[-79.452,40.535],[-79.36,40.629],[-79.247,40.741],[-79.215,40.774],[-79.215,40.805],[-79.216,40.91],[-79.121,40.91],[-79.093,40.909],[-78.954,40.908],[-78.948,40.908],[-78.805,40.906]]]},"properties":{"name":"Indiana","id":"42063","STATE":"PA","TYPE":"County","CNTRY":"USA"},"id":"42063"},
{"type":"Feature","geometry":{"type":"Polygon","coordinates":[[[-77.682,40.73],[-77.674,40.718],[-77.698,40.707],[-77.698,40.696],[-77.706,40.694],[-77.702,40.681],[-77.683,40.683],[-77.716,40.657],[-77.75,40.634],[-77.775,40.624],[-77.793,40.608],[-77.822,40.578],[-77.832,40.566],[-77.838,40.548],[-77.817,40.506],[-77.816,40.499],[-77.834,40.486],[-77.888,40.432],[-77.896,40.42],[-77.893,40.413],[-77.889,40.395],[-77.87,40.394],[-77.873,40.385],[-77.868,40.376],[-77.86,40.369],[-77.853,40.367],[-77.844,40.37],[-77.821,40.363],[-77.811,40.37],[-77.762,40.369],[-77.75,40.379],[-77.736,40.343],[-77.712,40.293],[-77.702,40.266],[-77.721,40.253],[-77.743,40.231],[-77.77,40.202],[-77.795,40.169],[-77.813,40.139],[-77.816,40.132],[-77.83,40.114],[-77.851,40.077],[-77.863,40.064],[-77.88,40.074],[-77.922,40.104],[-77.934,40.106],[-77.983,40.115],[-78.02,40.122],[-78.067,40.131],[-78.081,40.136],[-78.116,40.154],[-78.136,40.166],[-78.193,40.197],[-78.239,40.225],[-78.244,40.249],[-78.259,40.297],[-78.243,40.324],[-78.228,40.343],[-78.215,40.357],[-78.191,40.395],[-78.16,40.433],[-78.133,40.477],[-78.13,40.496],[-78.137,40.5],[-78.148,40.49],[-78.156,40.49],[-78.15,40.525],[-78.134,40.561],[-78.136,40.569],[-78.151,40.544],[-78.167,40.531],[-78.183,40.54],[-78.196,40.561],[-78.178,40.585],[-78.183,40.595],[-78.175,40.606],[-78.169,40.62],[-78.172,40.624],[-78.188,40.631],[-78.198,40.641],[-78.198,40.647],[-78.207,40.656],[-78.218,40.657],[-78.217,40.665],[-78.219,40.682],[-78.216,40.688],[-78.202,40.698],[-78.19,40.701],[-78.173,40.71],[-78.157,40.713],[-78.149,40.72],[-78.133,40.728],[-78.117,40.739],[-78.097,40.734],[-77.961,40.696],[-77.947,40.692],[-77.903,40.713],[-77.852,40.736],[-77.824,40.744],[-77.767,40.721],[-77.716,40.727],[-77.709,40.717],[-77.682,40.73]]]},"properties":{"name":"Huntingdon","id":"42061","STATE":"PA","TYPE":"County","CNTRY":"USA"},"id":"42061"},
{"type":"Feature","geometry":{"type":"Polygon","coordinates":[[[-79.999,39.983],[-80.007,39.979],[-80.011,39.971],[-80.01,39.959],[-79.999,39.951],[-79.993,39.95],[-79.976,39.955],[-79.966,39.956],[-79.955,39.953],[-79.947,39.947],[-79.923,39.921],[-79.929,39.908],[-79.928,39.901],[-79.916,39.883],[-79.916,39.878],[-79.928,39.872],[-79.93,39.866],[-79.924,39.856],[-79.939,39.846],[-79.935,39.841],[-79.924,39.838],[-79.922,39.83],[-79.921,39.813],[-79.91,39.801],[-79.909,39.792],[-79.917,39.787],[-79.934,39.784],[-79.935,39.766],[-79.93,39.756],[-79.91,39.75],[-79.903,39.74],[-79.915,39.722],[-80.191,39.722],[-80.424,39.721],[-80.517,39.721],[-80.518,39.754],[-80.52,39.964],[-80.509,39.962],[-80.502,39.957],[-80.486,39.96],[-80.487,39.955],[-80.476,39.953],[-80.466,39.957],[-80.458,39.969],[-80.451,39.973],[-80.434,39.977],[-80.424,39.974],[-80.395,39.98],[-80.389,39.989],[-80.373,39.997],[-80.354,40],[-80.328,40.008],[-80.312,40.006],[-80.308,40.019],[-80.303,40.022],[-80.291,40.022],[-80.283,40.014],[-80.275,40.013],[-80.273,40.005],[-80.268,40.004],[-80.239,40.011],[-80.217,40.006],[-80.196,40.006],[-80.185,40.005],[-80.179,40.01],[-80.164,40.006],[-80.154,39.997],[-80.134,39.991],[-80.112,39.989],[-80.093,39.994],[-80.086,39.999],[-80.075,39.998],[-80.064,40.008],[-80.05,40.007],[-80.042,40.001],[-80.051,39.99],[-80.049,39.98],[-80.042,39.978],[-80.03,39.984],[-80.018,39.98],[-80.01,39.985],[-79.999,39.983]]]},"properties":{"name":"Greene","id":"42059","STATE":"PA","TYPE":"County","CNTRY":"USA"},"id":"42059"},
{"type":"Feature","geometry":{"type":"Polygon","coordinates":[[[-78.382,39.723],[-78.369,39.737],[-78.362,39.746],[-78.348,39.76],[-78.326,39.789],[-78.288,39.857],[-78.268,39.905],[-78.253,39.935],[-78.241,39.951],[-78.232,39.975],[-78.217,40.001],[-78.206,40.01],[-78.205,40.017],[-78.207,40.039],[-78.204,40.045],[-78.189,40.048],[-78.183,40.06],[-78.19,40.066],[-78.206,40.072],[-78.208,40.087],[-78.188,40.102],[-78.18,40.104],[-78.174,40.114],[-78.159,40.126],[-78.136,40.166],[-78.116,40.154],[-78.081,40.136],[-78.067,40.131],[-78.02,40.122],[-77.983,40.115],[-77.934,40.106],[-77.922,40.104],[-77.88,40.074],[-77.863,40.064],[-77.881,40.05],[-77.894,40.034],[-77.901,40.028],[-77.922,39.999],[-77.919,39.991],[-77.934,39.969],[-77.937,39.95],[-77.951,39.933],[-77.957,39.915],[-77.963,39.905],[-77.971,39.88],[-77.99,39.847],[-78.002,39.828],[-78.011,39.82],[-78.019,39.81],[-78.034,39.796],[-78.063,39.762],[-78.072,39.749],[-78.101,39.724],[-78.21,39.723],[-78.382,39.723]]]},"properties":{"name":"Fulton","id":"42057","STATE":"PA","TYPE":"County","CNTRY":"USA"},"id":"42057"},
{"type":"Feature","geometry":{"type":"Polygon","coordinates":[[[-77.618,40.178],[-77.608,40.155],[-77.592,40.142],[-77.592,40.136],[-77.582,40.135],[-77.569,40.127],[-77.563,40.122],[-77.558,40.104],[-77.56,40.098],[-77.546,40.091],[-77.542,40.074],[-77.535,40.068],[-77.52,40.041],[-77.511,40.033],[-77.503,40.015],[-77.481,39.992],[-77.474,39.99],[-77.461,39.977],[-77.453,39.973],[-77.47,39.944],[-77.466,39.852],[-77.463,39.821],[-77.461,39.78],[-77.46,39.72],[-77.672,39.721],[-77.938,39.724],[-78.101,39.724],[-78.072,39.749],[-78.063,39.762],[-78.034,39.796],[-78.019,39.81],[-78.011,39.82],[-78.002,39.828],[-77.99,39.847],[-77.971,39.88],[-77.963,39.905],[-77.957,39.915],[-77.951,39.933],[-77.937,39.95],[-77.934,39.969],[-77.919,39.991],[-77.922,39.999],[-77.901,40.028],[-77.894,40.034],[-77.881,40.05],[-77.863,40.064],[-77.851,40.077],[-77.83,40.114],[-77.816,40.132],[-77.813,40.139],[-77.795,40.169],[-77.77,40.202],[-77.743,40.231],[-77.721,40.253],[-77.702,40.266],[-77.69,40.273],[-77.671,40.291],[-77.658,40.273],[-77.662,40.266],[-77.671,40.258],[-77.666,40.254],[-77.649,40.26],[-77.644,40.257],[-77.647,40.247],[-77.644,40.24],[-77.647,40.228],[-77.635,40.221],[-77.624,40.228],[-77.604,40.231],[-77.605,40.207],[-77.626,40.191],[-77.618,40.178]]]},"properties":{"name":"Franklin","id":"42055","STATE":"PA","TYPE":"County","CNTRY":"USA"},"id":"42055"},
{"type":"Feature","geometry":{"type":"Polygon","coordinates":[[[-78.958,41.625],[-78.96,41.467],[-78.961,41.437],[-78.977,41.437],[-78.976,41.452],[-79,41.452],[-79.068,41.453],[-79.069,41.426],[-79.097,41.425],[-79.098,41.341],[-79.106,41.336],[-79.108,41.326],[-79.119,41.327],[-79.132,41.339],[-79.139,41.341],[-79.15,41.332],[-79.162,41.332],[-79.178,41.328],[-79.177,41.338],[-79.186,41.339],[-79.186,41.33],[-79.193,41.325],[-79.2,41.327],[-79.21,41.337],[-79.209,41.432],[-79.292,41.432],[-79.358,41.432],[-79.358,41.436],[-79.4,41.436],[-79.401,41.386],[-79.477,41.386],[-79.478,41.401],[-79.479,41.441],[-79.521,41.441],[-79.521,41.465],[-79.512,41.465],[-79.512,41.5],[-79.51,41.514],[-79.509,41.56],[-79.513,41.56],[-79.512,41.626],[-79.43,41.626],[-79.402,41.626],[-79.358,41.626],[-79.317,41.626],[-79.097,41.626],[-79.078,41.626],[-78.958,41.625]]]},"properties":{"name":"Forest","id":"42053","STATE":"PA","TYPE":"County","CNTRY":"USA"},"id":"42053"},
{"type":"Feature","geometry":{"type":"Polygon","coordinates":[[[-79.294,40.04],[-79.327,39.997],[-79.373,39.935],[-79.398,39.901],[-79.417,39.854],[-79.381,39.836],[-79.381,39.828],[-79.372,39.827],[-79.365,39.819],[-79.364,39.81],[-79.368,39.798],[-79.364,39.79],[-79.353,39.788],[-79.358,39.781],[-79.377,39.789],[-79.392,39.779],[-79.381,39.774],[-79.382,39.764],[-79.396,39.76],[-79.395,39.744],[-79.407,39.74],[-79.407,39.734],[-79.395,39.733],[-79.39,39.722],[-79.53,39.722],[-79.762,39.722],[-79.855,39.722],[-79.915,39.722],[-79.903,39.74],[-79.91,39.75],[-79.93,39.756],[-79.935,39.766],[-79.934,39.784],[-79.917,39.787],[-79.909,39.792],[-79.91,39.801],[-79.921,39.813],[-79.922,39.83],[-79.924,39.838],[-79.935,39.841],[-79.939,39.846],[-79.924,39.856],[-79.93,39.866],[-79.928,39.872],[-79.916,39.878],[-79.916,39.883],[-79.928,39.901],[-79.929,39.908],[-79.923,39.921],[-79.947,39.947],[-79.955,39.953],[-79.966,39.956],[-79.976,39.955],[-79.993,39.95],[-79.999,39.951],[-80.01,39.959],[-80.011,39.971],[-80.007,39.979],[-79.999,39.983],[-79.991,39.986],[-79.996,40.006],[-79.986,40.013],[-79.971,40.014],[-79.965,40.01],[-79.957,39.997],[-79.944,39.995],[-79.934,40],[-79.927,40.015],[-79.912,40.021],[-79.886,40.024],[-79.878,40.03],[-79.877,40.037],[-79.891,40.045],[-79.891,40.051],[-79.882,40.058],[-79.88,40.065],[-79.897,40.07],[-79.902,40.074],[-79.894,40.08],[-79.88,40.079],[-79.87,40.075],[-79.858,40.077],[-79.843,40.083],[-79.839,40.092],[-79.85,40.115],[-79.88,40.127],[-79.856,40.129],[-79.8,40.129],[-79.782,40.128],[-79.747,40.128],[-79.733,40.121],[-79.725,40.122],[-79.723,40.116],[-79.708,40.109],[-79.692,40.113],[-79.682,40.108],[-79.671,40.106],[-79.67,40.098],[-79.661,40.096],[-79.656,40.09],[-79.632,40.089],[-79.624,40.095],[-79.608,40.09],[-79.599,40.085],[-79.592,40.096],[-79.583,40.104],[-79.567,40.108],[-79.557,40.113],[-79.545,40.112],[-79.539,40.126],[-79.526,40.128],[-79.515,40.136],[-79.503,40.141],[-79.487,40.144],[-79.465,40.139],[-79.45,40.131],[-79.448,40.123],[-79.44,40.117],[-79.426,40.111],[-79.417,40.104],[-79.405,40.103],[-79.393,40.09],[-79.376,40.083],[-79.354,40.072],[-79.345,40.045],[-79.326,40.041],[-79.313,40.044],[-79.294,40.04]]]},"properties":{"name":"Fayette","id":"42051","STATE":"PA","TYPE":"County","CNTRY":"USA"},"id":"42051"},
{"type":"Feature","geometry":{"type":"Polygon","coordinates":[[[-79.611,41.998],[-79.612,41.958],[-79.613,41.851],[-79.727,41.851],[-79.849,41.85],[-80.227,41.848],[-80.304,41.848],[-80.351,41.849],[-80.519,41.85],[-80.519,41.888],[-80.518,41.978],[-80.493,41.988],[-80.48,41.99],[-80.452,42],[-80.436,42.008],[-80.406,42.016],[-80.387,42.026],[-80.358,42.031],[-80.311,42.047],[-80.293,42.054],[-80.262,42.069],[-80.247,42.078],[-80.219,42.086],[-80.203,42.092],[-80.177,42.105],[-80.166,42.122],[-80.154,42.135],[-80.146,42.152],[-80.127,42.155],[-80.112,42.165],[-80.085,42.163],[-80.084,42.151],[-80.092,42.15],[-80.098,42.153],[-80.105,42.146],[-80.13,42.144],[-80.141,42.136],[-80.148,42.134],[-80.15,42.127],[-80.16,42.119],[-80.157,42.112],[-80.139,42.117],[-80.119,42.123],[-80.091,42.136],[-80.088,42.141],[-80.075,42.14],[-80.047,42.151],[-80.031,42.156],[-79.981,42.185],[-79.948,42.198],[-79.938,42.205],[-79.903,42.215],[-79.882,42.227],[-79.861,42.224],[-79.83,42.235],[-79.805,42.251],[-79.775,42.26],[-79.762,42.268],[-79.763,42.186],[-79.762,41.998],[-79.611,41.998]]]},"properties":{"name":"Erie","id":"42049","STATE":"PA","TYPE":"County","CNTRY":"USA"},"id":"42049"},
{"type":"Feature","geometry":{"type":"Polygon","coordinates":[[[-78.421,41.602],[-78.42,41.546],[-78.422,41.543],[-78.422,41.474],[-78.421,41.405],[-78.388,41.405],[-78.302,41.405],[-78.255,41.405],[-78.254,41.383],[-78.255,41.352],[-78.255,41.324],[-78.235,41.324],[-78.236,41.229],[-78.289,41.231],[-78.402,41.239],[-78.482,41.244],[-78.582,41.251],[-78.647,41.255],[-78.647,41.229],[-78.649,41.22],[-78.71,41.204],[-78.71,41.233],[-78.738,41.232],[-78.741,41.265],[-78.941,41.353],[-78.964,41.364],[-78.965,41.37],[-78.973,41.376],[-78.98,41.37],[-78.993,41.369],[-79.001,41.361],[-79.014,41.357],[-79.021,41.351],[-79.027,41.357],[-79.034,41.358],[-79.061,41.35],[-79.072,41.354],[-79.08,41.353],[-79.09,41.342],[-79.098,41.341],[-79.097,41.425],[-79.069,41.426],[-79.068,41.453],[-79,41.452],[-78.976,41.452],[-78.977,41.437],[-78.961,41.437],[-78.96,41.467],[-78.958,41.625],[-78.907,41.624],[-78.818,41.623],[-78.816,41.626],[-78.749,41.627],[-78.614,41.629],[-78.5,41.63],[-78.485,41.63],[-78.484,41.603],[-78.45,41.602],[-78.421,41.602]]]},"properties":{"name":"Elk","id":"42047","STATE":"PA","TYPE":"County","CNTRY":"USA"},"id":"42047"},
{"type":"Feature","geometry":{"type":"Polygon","coordinates":[[[-75.278,39.976],[-75.277,39.97],[-75.252,39.963],[-75.251,39.947],[-75.242,39.941],[-75.25,39.923],[-75.247,39.912],[-75.252,39.912],[-75.254,39.898],[-75.262,39.889],[-75.262,39.877],[-75.249,39.877],[-75.241,39.873],[-75.234,39.877],[-75.219,39.876],[-75.213,39.866],[-75.22,39.862],[-75.243,39.855],[-75.277,39.849],[-75.29,39.848],[-75.309,39.85],[-75.328,39.85],[-75.344,39.846],[-75.362,39.836],[-75.386,39.82],[-75.414,39.803],[-75.442,39.816],[-75.471,39.827],[-75.501,39.835],[-75.531,39.84],[-75.559,39.841],[-75.597,39.838],[-75.594,39.852],[-75.601,39.856],[-75.593,39.868],[-75.598,39.875],[-75.584,39.88],[-75.571,39.888],[-75.571,39.897],[-75.547,39.909],[-75.55,39.915],[-75.542,39.918],[-75.543,39.927],[-75.537,39.93],[-75.531,39.922],[-75.526,39.924],[-75.531,39.932],[-75.519,39.937],[-75.524,39.944],[-75.445,39.981],[-75.437,39.986],[-75.441,39.993],[-75.451,39.996],[-75.421,40.02],[-75.406,40.029],[-75.413,40.042],[-75.361,40.067],[-75.345,40.047],[-75.32,40.016],[-75.312,40.02],[-75.278,39.976]]]},"properties":{"name":"Delaware","id":"42045","STATE":"PA","TYPE":"County","CNTRY":"USA"},"id":"42045"},
{"type":"Feature","geometry":{"type":"Polygon","coordinates":[[[-76.701,40.658],[-76.673,40.64],[-76.628,40.613],[-76.535,40.555],[-76.555,40.544],[-76.61,40.514],[-76.68,40.475],[-76.64,40.373],[-76.61,40.298],[-76.58,40.221],[-76.57,40.196],[-76.581,40.195],[-76.592,40.191],[-76.609,40.19],[-76.617,40.181],[-76.622,40.181],[-76.646,40.167],[-76.665,40.165],[-76.671,40.161],[-76.679,40.15],[-76.696,40.155],[-76.715,40.135],[-76.723,40.122],[-76.733,40.126],[-76.745,40.135],[-76.748,40.143],[-76.749,40.168],[-76.752,40.174],[-76.762,40.178],[-76.785,40.19],[-76.8,40.2],[-76.822,40.201],[-76.829,40.205],[-76.833,40.215],[-76.842,40.222],[-76.861,40.227],[-76.879,40.243],[-76.907,40.266],[-76.922,40.289],[-76.923,40.298],[-76.912,40.326],[-76.916,40.33],[-76.927,40.343],[-76.933,40.356],[-76.937,40.358],[-76.961,40.359],[-76.969,40.357],[-76.991,40.357],[-77.008,40.358],[-77.021,40.367],[-77.022,40.376],[-77.028,40.384],[-77.028,40.391],[-77.013,40.402],[-77.012,40.411],[-77.017,40.417],[-77.016,40.426],[-77.003,40.427],[-76.995,40.436],[-76.989,40.438],[-76.978,40.449],[-76.956,40.459],[-76.949,40.469],[-76.948,40.481],[-76.953,40.491],[-76.97,40.498],[-76.978,40.507],[-76.983,40.516],[-76.985,40.526],[-76.981,40.534],[-76.983,40.551],[-76.993,40.564],[-76.99,40.572],[-76.983,40.578],[-76.97,40.584],[-76.957,40.594],[-76.953,40.604],[-76.954,40.617],[-76.95,40.627],[-76.939,40.614],[-76.922,40.604],[-76.919,40.608],[-76.908,40.611],[-76.897,40.61],[-76.886,40.617],[-76.874,40.617],[-76.865,40.627],[-76.839,40.627],[-76.826,40.634],[-76.811,40.636],[-76.81,40.643],[-76.803,40.646],[-76.795,40.642],[-76.773,40.647],[-76.758,40.648],[-76.748,40.654],[-76.739,40.655],[-76.726,40.653],[-76.718,40.658],[-76.701,40.658]]]},"properties":{"name":"Dauphin","id":"42043","STATE":"PA","TYPE":"County","CNTRY":"USA"},"id":"42043"},
{"type":"Feature","geometry":{"type":"Polygon","coordinates":[[[-76.861,40.227],[-76.87,40.217],[-76.88,40.219],[-76.89,40.216],[-76.898,40.225],[-76.901,40.217],[-76.908,40.217],[-76.91,40.209],[-76.923,40.209],[-76.93,40.199],[-76.914,40.197],[-76.916,40.187],[-76.924,40.189],[-76.926,40.181],[-76.91,40.172],[-76.91,40.167],[-76.928,40.164],[-76.953,40.167],[-76.979,40.166],[-76.975,40.156],[-76.988,40.153],[-76.999,40.154],[-77.008,40.15],[-77.035,40.145],[-77.076,40.116],[-77.092,40.105],[-77.139,40.072],[-77.157,40.056],[-77.181,40.032],[-77.276,40.019],[-77.332,40.01],[-77.402,39.993],[-77.422,39.98],[-77.47,39.944],[-77.453,39.973],[-77.461,39.977],[-77.474,39.99],[-77.481,39.992],[-77.503,40.015],[-77.511,40.033],[-77.52,40.041],[-77.535,40.068],[-77.542,40.074],[-77.546,40.091],[-77.56,40.098],[-77.558,40.104],[-77.563,40.122],[-77.569,40.127],[-77.582,40.135],[-77.592,40.136],[-77.592,40.142],[-77.608,40.155],[-77.618,40.178],[-77.594,40.191],[-77.573,40.209],[-77.555,40.22],[-77.538,40.221],[-77.509,40.238],[-77.487,40.248],[-77.42,40.292],[-77.389,40.307],[-77.368,40.316],[-77.357,40.314],[-77.359,40.309],[-77.389,40.291],[-77.406,40.279],[-77.421,40.265],[-77.415,40.257],[-77.403,40.259],[-77.366,40.274],[-77.337,40.29],[-77.328,40.294],[-77.324,40.29],[-77.33,40.278],[-77.323,40.272],[-77.311,40.27],[-77.3,40.272],[-77.278,40.28],[-77.236,40.287],[-77.218,40.287],[-77.144,40.294],[-77.131,40.297],[-77.104,40.3],[-77.09,40.303],[-77.057,40.305],[-77.014,40.305],[-76.965,40.313],[-76.94,40.32],[-76.916,40.33],[-76.912,40.326],[-76.923,40.298],[-76.922,40.289],[-76.907,40.266],[-76.879,40.243],[-76.861,40.227]]]},"properties":{"name":"Cumberland","id":"42041","STATE":"PA","TYPE":"County","CNTRY":"USA"},"id":"42041"},
{"type":"Feature","geometry":{"type":"Polygon","coordinates":[[[-79.613,41.851],[-79.613,41.789],[-79.614,41.721],[-79.615,41.626],[-79.614,41.619],[-79.699,41.617],[-79.724,41.618],[-79.77,41.617],[-79.77,41.621],[-79.792,41.621],[-79.83,41.62],[-79.83,41.602],[-79.841,41.602],[-79.851,41.599],[-79.851,41.589],[-79.871,41.581],[-79.868,41.577],[-79.892,41.576],[-79.893,41.564],[-79.909,41.563],[-79.909,41.55],[-79.923,41.55],[-79.924,41.537],[-79.94,41.537],[-79.942,41.524],[-79.958,41.524],[-79.959,41.515],[-79.982,41.513],[-79.982,41.5],[-79.999,41.5],[-79.999,41.49],[-80.074,41.489],[-80.13,41.487],[-80.13,41.481],[-80.227,41.484],[-80.372,41.487],[-80.519,41.49],[-80.519,41.525],[-80.518,41.664],[-80.518,41.747],[-80.519,41.85],[-80.351,41.849],[-80.304,41.848],[-80.227,41.848],[-79.849,41.85],[-79.727,41.851],[-79.613,41.851]]]},"properties":{"name":"Crawford","id":"42039","STATE":"PA","TYPE":"County","CNTRY":"USA"},"id":"42039"},
{"type":"Feature","geometry":{"type":"Polygon","coordinates":[[[-76.209,40.951],[-76.258,40.909],[-76.286,40.883],[-76.3,40.826],[-76.308,40.802],[-76.38,40.776],[-76.395,40.799],[-76.398,40.81],[-76.408,40.835],[-76.477,40.828],[-76.5,40.824],[-76.507,40.843],[-76.501,40.853],[-76.51,40.873],[-76.504,40.881],[-76.531,40.881],[-76.526,40.915],[-76.523,40.926],[-76.529,40.94],[-76.512,40.946],[-76.522,40.962],[-76.537,40.977],[-76.566,41],[-76.566,41.015],[-76.562,41.033],[-76.57,41.053],[-76.619,41.065],[-76.617,41.081],[-76.621,41.092],[-76.632,41.127],[-76.642,41.156],[-76.593,41.158],[-76.566,41.179],[-76.54,41.2],[-76.512,41.225],[-76.447,41.277],[-76.408,41.31],[-76.31,41.311],[-76.317,41.265],[-76.317,41.25],[-76.32,41.216],[-76.319,41.207],[-76.304,41.18],[-76.276,41.134],[-76.229,41.139],[-76.228,41.072],[-76.231,41.051],[-76.222,41.004],[-76.217,40.975],[-76.209,40.951]]]},"properties":{"name":"Columbia","id":"42037","STATE":"PA","TYPE":"County","CNTRY":"USA"},"id":"42037"},
{"type":"Feature","geometry":{"type":"Polygon","coordinates":[[[-77.598,41.478],[-77.597,41.44],[-77.582,41.439],[-77.575,41.421],[-77.563,41.411],[-77.55,41.395],[-77.542,41.382],[-77.539,41.367],[-77.524,41.358],[-77.5,41.354],[-77.476,41.338],[-77.475,41.326],[-77.471,41.313],[-77.456,41.305],[-77.45,41.293],[-77.443,41.287],[-77.429,41.282],[-77.425,41.273],[-77.41,41.266],[-77.395,41.25],[-77.359,41.227],[-77.349,41.221],[-77.32,41.219],[-77.305,41.211],[-77.29,41.196],[-77.293,41.189],[-77.29,41.185],[-77.278,41.181],[-77.268,41.171],[-77.226,41.131],[-77.206,41.109],[-77.166,41.069],[-77.14,41.07],[-77.143,41.044],[-77.249,41.014],[-77.285,41.004],[-77.311,40.996],[-77.332,40.989],[-77.344,40.987],[-77.396,40.978],[-77.436,40.975],[-77.508,40.963],[-77.559,41.022],[-77.58,41.05],[-77.563,41.059],[-77.57,41.067],[-77.595,41.074],[-77.617,41.087],[-77.628,41.091],[-77.633,41.095],[-77.658,41.102],[-77.663,41.109],[-77.673,41.107],[-77.683,41.111],[-77.695,41.11],[-77.705,41.115],[-77.717,41.108],[-77.729,41.113],[-77.745,41.109],[-77.777,41.147],[-77.805,41.18],[-77.84,41.18],[-77.893,41.177],[-77.895,41.2],[-77.896,41.25],[-77.911,41.244],[-77.921,41.229],[-77.936,41.226],[-77.934,41.216],[-77.937,41.21],[-77.96,41.218],[-77.966,41.209],[-77.972,41.205],[-77.973,41.189],[-77.971,41.174],[-77.984,41.17],[-77.988,41.163],[-77.999,41.161],[-78.001,41.149],[-78.01,41.145],[-78.015,41.153],[-78.039,41.151],[-78.052,41.165],[-78.066,41.183],[-78.092,41.218],[-78.017,41.329],[-77.989,41.37],[-77.989,41.443],[-77.988,41.476],[-77.951,41.475],[-77.777,41.477],[-77.764,41.478],[-77.698,41.478],[-77.664,41.478],[-77.598,41.478]]]},"properties":{"name":"Clinton","id":"42035","STATE":"PA","TYPE":"County","CNTRY":"USA"},"id":"42035"},
{"type":"Feature","geometry":{"type":"Polygon","coordinates":[[[-78.039,41.151],[-78.041,41.148],[-78.054,41.145],[-78.055,41.134],[-78.069,41.131],[-78.071,41.123],[-78.082,41.127],[-78.09,41.117],[-78.104,41.121],[-78.111,41.116],[-78.098,41.089],[-78.092,41.08],[-78.096,41.074],[-78.085,41.07],[-78.088,41.062],[-78.085,41.059],[-78.075,41.061],[-78.067,41.053],[-78.057,41.038],[-78.07,41.034],[-78.067,41.022],[-78.069,41.015],[-78.059,41.014],[-78.056,41.006],[-78.077,40.993],[-78.085,40.993],[-78.082,40.984],[-78.091,40.972],[-78.08,40.963],[-78.079,40.957],[-78.095,40.952],[-78.109,40.95],[-78.12,40.944],[-78.135,40.955],[-78.148,40.949],[-78.148,40.957],[-78.156,40.96],[-78.161,40.954],[-78.156,40.943],[-78.171,40.936],[-78.182,40.923],[-78.195,40.921],[-78.204,40.916],[-78.21,40.916],[-78.221,40.91],[-78.229,40.901],[-78.221,40.892],[-78.231,40.88],[-78.242,40.881],[-78.241,40.872],[-78.248,40.87],[-78.248,40.857],[-78.268,40.848],[-78.287,40.85],[-78.294,40.839],[-78.302,40.834],[-78.3,40.824],[-78.312,40.815],[-78.316,40.807],[-78.328,40.804],[-78.338,40.797],[-78.347,40.78],[-78.354,40.77],[-78.37,40.761],[-78.376,40.754],[-78.367,40.738],[-78.362,40.734],[-78.351,40.722],[-78.425,40.723],[-78.499,40.725],[-78.512,40.724],[-78.682,40.727],[-78.775,40.727],[-78.796,40.728],[-78.806,40.732],[-78.805,40.793],[-78.804,40.896],[-78.805,40.906],[-78.805,40.941],[-78.807,41.014],[-78.807,41.057],[-78.807,41.132],[-78.801,41.14],[-78.783,41.173],[-78.764,41.204],[-78.71,41.204],[-78.649,41.22],[-78.647,41.229],[-78.647,41.255],[-78.582,41.251],[-78.482,41.244],[-78.402,41.239],[-78.289,41.231],[-78.236,41.229],[-78.126,41.221],[-78.092,41.218],[-78.066,41.183],[-78.052,41.165],[-78.039,41.151]]]},"properties":{"name":"Clearfield","id":"42033","STATE":"PA","TYPE":"County","CNTRY":"USA"},"id":"42033"},
{"type":"Feature","geometry":{"type":"Polygon","coordinates":[[[-79.21,41.337],[-79.21,41.251],[-79.209,41.202],[-79.21,41.156],[-79.21,41.113],[-79.21,41.084],[-79.214,41.083],[-79.215,41.053],[-79.231,41.047],[-79.238,41.039],[-79.259,41.031],[-79.271,41.02],[-79.283,41.013],[-79.3,41.014],[-79.315,41.004],[-79.327,41.001],[-79.334,41.004],[-79.345,41],[-79.357,41.004],[-79.363,41.004],[-79.369,40.991],[-79.368,40.976],[-79.372,40.971],[-79.38,40.97],[-79.377,40.993],[-79.383,40.995],[-79.401,40.992],[-79.407,41.006],[-79.412,41.01],[-79.419,41.005],[-79.427,40.988],[-79.431,40.986],[-79.445,40.986],[-79.451,40.982],[-79.457,40.991],[-79.486,40.996],[-79.492,40.99],[-79.492,40.979],[-79.503,40.977],[-79.507,40.984],[-79.517,40.985],[-79.519,40.976],[-79.528,40.978],[-79.539,40.984],[-79.552,40.983],[-79.566,40.987],[-79.575,40.986],[-79.594,40.971],[-79.621,40.978],[-79.617,40.989],[-79.599,40.994],[-79.581,40.993],[-79.579,40.999],[-79.584,41.004],[-79.605,41.009],[-79.597,41.029],[-79.6,41.04],[-79.617,41.037],[-79.64,41.042],[-79.662,41.051],[-79.665,41.055],[-79.655,41.066],[-79.655,41.074],[-79.674,41.087],[-79.677,41.093],[-79.676,41.132],[-79.683,41.145],[-79.677,41.16],[-79.69,41.172],[-79.7,41.179],[-79.698,41.184],[-79.683,41.183],[-79.67,41.185],[-79.665,41.181],[-79.661,41.192],[-79.67,41.195],[-79.649,41.216],[-79.649,41.25],[-79.632,41.251],[-79.628,41.274],[-79.623,41.277],[-79.605,41.277],[-79.605,41.322],[-79.541,41.322],[-79.542,41.336],[-79.477,41.336],[-79.477,41.386],[-79.401,41.386],[-79.4,41.436],[-79.358,41.436],[-79.358,41.432],[-79.292,41.432],[-79.209,41.432],[-79.21,41.337]]]},"properties":{"name":"Clarion","id":"42031","STATE":"PA","TYPE":"County","CNTRY":"USA"},"id":"42031"},
{"type":"Feature","geometry":{"type":"Polygon","coordinates":[[[-75.361,40.067],[-75.413,40.042],[-75.406,40.029],[-75.421,40.02],[-75.451,39.996],[-75.441,39.993],[-75.437,39.986],[-75.445,39.981],[-75.524,39.944],[-75.519,39.937],[-75.531,39.932],[-75.526,39.924],[-75.531,39.922],[-75.537,39.93],[-75.543,39.927],[-75.542,39.918],[-75.55,39.915],[-75.547,39.909],[-75.571,39.897],[-75.571,39.888],[-75.584,39.88],[-75.598,39.875],[-75.593,39.868],[-75.601,39.856],[-75.594,39.852],[-75.597,39.838],[-75.615,39.835],[-75.647,39.827],[-75.678,39.816],[-75.693,39.807],[-75.718,39.791],[-75.738,39.775],[-75.748,39.765],[-75.761,39.748],[-75.77,39.731],[-75.772,39.723],[-76.015,39.723],[-76.139,39.722],[-76.134,39.728],[-76.124,39.724],[-76.119,39.726],[-76.12,39.736],[-76.111,39.735],[-76.113,39.729],[-76.105,39.725],[-76.1,39.729],[-76.096,39.736],[-76.101,39.745],[-76.091,39.745],[-76.084,39.754],[-76.084,39.759],[-76.068,39.763],[-76.066,39.771],[-76.051,39.785],[-76.044,39.796],[-76.03,39.813],[-76.032,39.821],[-76.019,39.832],[-76.023,39.846],[-76.021,39.854],[-76.009,39.854],[-76.004,39.873],[-75.993,39.87],[-75.988,39.873],[-75.991,39.88],[-75.988,39.893],[-75.996,39.903],[-75.996,39.924],[-75.98,39.933],[-75.988,39.94],[-75.992,39.954],[-75.987,39.968],[-75.972,39.985],[-75.964,40.001],[-75.956,40.012],[-75.935,40.039],[-75.936,40.081],[-75.941,40.109],[-75.876,40.137],[-75.772,40.203],[-75.76,40.209],[-75.697,40.242],[-75.689,40.238],[-75.674,40.246],[-75.664,40.246],[-75.621,40.23],[-75.615,40.225],[-75.605,40.228],[-75.609,40.235],[-75.597,40.235],[-75.591,40.221],[-75.58,40.204],[-75.572,40.197],[-75.564,40.201],[-75.561,40.21],[-75.55,40.19],[-75.539,40.174],[-75.527,40.166],[-75.528,40.149],[-75.518,40.148],[-75.513,40.159],[-75.5,40.156],[-75.511,40.142],[-75.509,40.135],[-75.491,40.125],[-75.473,40.129],[-75.461,40.124],[-75.472,40.112],[-75.462,40.103],[-75.463,40.097],[-75.456,40.094],[-75.456,40.088],[-75.44,40.094],[-75.437,40.09],[-75.42,40.097],[-75.393,40.06],[-75.367,40.072],[-75.361,40.067]]]},"properties":{"name":"Chester","id":"42029","STATE":"PA","TYPE":"County","CNTRY":"USA"},"id":"42029"},
{"type":"Feature","geometry":{"type":"Polygon","coordinates":[[[-77.143,41.044],[-77.144,41.041],[-77.192,41.001],[-77.203,40.993],[-77.248,40.941],[-77.28,40.91],[-77.301,40.894],[-77.313,40.883],[-77.337,40.866],[-77.359,40.849],[-77.379,40.845],[-77.389,40.839],[-77.408,40.835],[-77.438,40.823],[-77.482,40.805],[-77.511,40.794],[-77.53,40.786],[-77.553,40.777],[-77.594,40.761],[-77.634,40.75],[-77.653,40.744],[-77.659,40.739],[-77.682,40.73],[-77.709,40.717],[-77.716,40.727],[-77.767,40.721],[-77.824,40.744],[-77.852,40.736],[-77.903,40.713],[-77.947,40.692],[-77.961,40.696],[-78.097,40.734],[-78.117,40.739],[-78.135,40.744],[-78.198,40.741],[-78.246,40.739],[-78.274,40.738],[-78.362,40.734],[-78.367,40.738],[-78.376,40.754],[-78.37,40.761],[-78.354,40.77],[-78.347,40.78],[-78.338,40.797],[-78.328,40.804],[-78.316,40.807],[-78.312,40.815],[-78.3,40.824],[-78.302,40.834],[-78.294,40.839],[-78.287,40.85],[-78.268,40.848],[-78.248,40.857],[-78.248,40.87],[-78.241,40.872],[-78.242,40.881],[-78.231,40.88],[-78.221,40.892],[-78.229,40.901],[-78.221,40.91],[-78.21,40.916],[-78.204,40.916],[-78.195,40.921],[-78.182,40.923],[-78.171,40.936],[-78.156,40.943],[-78.161,40.954],[-78.156,40.96],[-78.148,40.957],[-78.148,40.949],[-78.135,40.955],[-78.12,40.944],[-78.109,40.95],[-78.095,40.952],[-78.079,40.957],[-78.08,40.963],[-78.091,40.972],[-78.082,40.984],[-78.085,40.993],[-78.077,40.993],[-78.056,41.006],[-78.059,41.014],[-78.069,41.015],[-78.067,41.022],[-78.07,41.034],[-78.057,41.038],[-78.067,41.053],[-78.075,41.061],[-78.085,41.059],[-78.088,41.062],[-78.085,41.07],[-78.096,41.074],[-78.092,41.08],[-78.098,41.089],[-78.111,41.116],[-78.104,41.121],[-78.09,41.117],[-78.082,41.127],[-78.071,41.123],[-78.069,41.131],[-78.055,41.134],[-78.054,41.145],[-78.041,41.148],[-78.039,41.151],[-78.015,41.153],[-78.01,41.145],[-78.001,41.149],[-77.999,41.161],[-77.988,41.163],[-77.984,41.17],[-77.971,41.174],[-77.973,41.189],[-77.972,41.205],[-77.966,41.209],[-77.96,41.218],[-77.937,41.21],[-77.934,41.216],[-77.936,41.226],[-77.921,41.229],[-77.911,41.244],[-77.896,41.25],[-77.895,41.2],[-77.893,41.177],[-77.84,41.18],[-77.805,41.18],[-77.777,41.147],[-77.745,41.109],[-77.729,41.113],[-77.717,41.108],[-77.705,41.115],[-77.695,41.11],[-77.683,41.111],[-77.673,41.107],[-77.663,41.109],[-77.658,41.102],[-77.633,41.095],[-77.628,41.091],[-77.617,41.087],[-77.595,41.074],[-77.57,41.067],[-77.563,41.059],[-77.58,41.05],[-77.559,41.022],[-77.508,40.963],[-77.436,40.975],[-77.396,40.978],[-77.344,40.987],[-77.332,40.989],[-77.311,40.996],[-77.285,41.004],[-77.249,41.014],[-77.143,41.044]]]},"properties":{"name":"Centre","id":"42027","STATE":"PA","TYPE":"County","CNTRY":"USA"},"id":"42027"},
{"type":"Feature","geometry":{"type":"Polygon","coordinates":[[[-75.647,41.123],[-75.645,41.116],[-75.634,41.114],[-75.626,41.108],[-75.621,41.111],[-75.614,41.104],[-75.612,41.097],[-75.604,41.095],[-75.603,41.088],[-75.575,41.068],[-75.569,41.053],[-75.562,41.049],[-75.496,40.989],[-75.5,40.986],[-75.539,40.967],[-75.534,40.96],[-75.566,40.946],[-75.555,40.929],[-75.487,40.838],[-75.476,40.814],[-75.543,40.804],[-75.586,40.797],[-75.602,40.788],[-75.611,40.786],[-75.628,40.784],[-75.686,40.773],[-75.699,40.764],[-75.728,40.752],[-75.741,40.741],[-75.755,40.735],[-75.81,40.769],[-75.859,40.801],[-75.886,40.816],[-75.908,40.833],[-75.979,40.897],[-75.998,40.913],[-75.848,40.966],[-75.839,40.973],[-75.819,40.98],[-75.786,40.989],[-75.756,41.001],[-75.735,41.011],[-75.744,41.026],[-75.745,41.035],[-75.758,41.037],[-75.769,41.054],[-75.771,41.073],[-75.766,41.084],[-75.765,41.095],[-75.752,41.096],[-75.751,41.105],[-75.733,41.104],[-75.722,41.112],[-75.718,41.119],[-75.709,41.117],[-75.704,41.123],[-75.692,41.131],[-75.665,41.134],[-75.658,41.128],[-75.655,41.119],[-75.647,41.123]]]},"properties":{"name":"Carbon","id":"42025","STATE":"PA","TYPE":"County","CNTRY":"USA"},"id":"42025"},
{"type":"Feature","geometry":{"type":"Polygon","coordinates":[[[-78.205,41.619],[-78.183,41.599],[-78.124,41.544],[-78.112,41.533],[-78.064,41.488],[-78.051,41.477],[-77.988,41.476],[-77.989,41.443],[-77.989,41.37],[-78.017,41.329],[-78.092,41.218],[-78.126,41.221],[-78.236,41.229],[-78.235,41.324],[-78.255,41.324],[-78.255,41.352],[-78.254,41.383],[-78.255,41.405],[-78.302,41.405],[-78.388,41.405],[-78.421,41.405],[-78.422,41.474],[-78.422,41.543],[-78.42,41.546],[-78.421,41.602],[-78.42,41.617],[-78.385,41.618],[-78.302,41.618],[-78.27,41.619],[-78.205,41.619]]]},"properties":{"name":"Cameron","id":"42023","STATE":"PA","TYPE":"County","CNTRY":"USA"},"id":"42023"},
{"type":"Feature","geometry":{"type":"Polygon","coordinates":[[[-78.351,40.722],[-78.402,40.655],[-78.408,40.644],[-78.416,40.644],[-78.427,40.647],[-78.438,40.646],[-78.442,40.641],[-78.442,40.631],[-78.447,40.624],[-78.44,40.6],[-78.473,40.555],[-78.474,40.551],[-78.495,40.544],[-78.511,40.535],[-78.519,40.526],[-78.53,40.519],[-78.541,40.504],[-78.544,40.487],[-78.542,40.475],[-78.546,40.465],[-78.559,40.444],[-78.555,40.422],[-78.555,40.408],[-78.559,40.368],[-78.604,40.348],[-78.622,40.325],[-78.639,40.307],[-78.644,40.288],[-78.644,40.281],[-78.651,40.279],[-78.638,40.262],[-78.657,40.243],[-78.68,40.243],[-78.757,40.243],[-78.819,40.244],[-78.861,40.246],[-78.874,40.249],[-78.882,40.246],[-78.891,40.25],[-78.897,40.263],[-78.896,40.271],[-78.904,40.275],[-78.921,40.277],[-78.927,40.285],[-79,40.285],[-79.057,40.286],[-79.039,40.313],[-79.026,40.328],[-79.02,40.337],[-79.012,40.341],[-78.995,40.36],[-78.987,40.365],[-78.973,40.392],[-78.965,40.401],[-78.942,40.442],[-78.904,40.52],[-78.871,40.583],[-78.848,40.632],[-78.831,40.674],[-78.808,40.721],[-78.797,40.72],[-78.796,40.728],[-78.775,40.727],[-78.682,40.727],[-78.512,40.724],[-78.499,40.725],[-78.425,40.723],[-78.351,40.722]]]},"properties":{"name":"Cambria","id":"42021","STATE":"PA","TYPE":"County","CNTRY":"USA"},"id":"42021"},
{"type":"Feature","geometry":{"type":"Polygon","coordinates":[[[-79.69,41.172],[-79.691,41.097],[-79.692,41.08],[-79.692,41.039],[-79.69,41],[-79.69,40.947],[-79.691,40.933],[-79.691,40.829],[-79.692,40.754],[-79.693,40.67],[-79.708,40.668],[-79.798,40.672],[-79.829,40.671],[-79.843,40.672],[-79.88,40.673],[-79.915,40.674],[-79.964,40.673],[-79.993,40.674],[-80.058,40.675],[-80.15,40.676],[-80.154,40.735],[-80.155,40.815],[-80.158,40.856],[-80.158,40.893],[-80.161,40.955],[-80.165,41.001],[-80.141,41.026],[-80.118,41.047],[-80.097,41.07],[-80.076,41.092],[-80.044,41.127],[-79.998,41.17],[-79.96,41.17],[-79.718,41.171],[-79.69,41.172]]]},"properties":{"name":"Butler","id":"42019","STATE":"PA","TYPE":"County","CNTRY":"USA"},"id":"42019"},
{"type":"Feature","geometry":{"type":"Polygon","coordinates":[[[-74.975,40.051],[-74.986,40.057],[-74.981,40.068],[-74.966,40.079],[-74.959,40.092],[-74.965,40.108],[-74.966,40.118],[-74.981,40.121],[-75.015,40.139],[-75.134,40.211],[-75.201,40.25],[-75.259,40.285],[-75.308,40.313],[-75.349,40.338],[-75.422,40.381],[-75.43,40.387],[-75.483,40.419],[-75.455,40.446],[-75.411,40.487],[-75.388,40.502],[-75.335,40.537],[-75.274,40.576],[-75.255,40.584],[-75.198,40.611],[-75.191,40.594],[-75.193,40.579],[-75.19,40.574],[-75.18,40.568],[-75.166,40.565],[-75.157,40.567],[-75.141,40.576],[-75.118,40.575],[-75.104,40.571],[-75.097,40.566],[-75.068,40.543],[-75.064,40.533],[-75.066,40.52],[-75.063,40.482],[-75.071,40.46],[-75.071,40.448],[-75.065,40.435],[-75.061,40.421],[-75.037,40.408],[-75.022,40.406],[-75.004,40.411],[-74.991,40.411],[-74.969,40.401],[-74.963,40.394],[-74.95,40.37],[-74.944,40.345],[-74.922,40.325],[-74.911,40.318],[-74.892,40.314],[-74.884,40.309],[-74.865,40.292],[-74.861,40.285],[-74.848,40.261],[-74.837,40.248],[-74.806,40.235],[-74.782,40.223],[-74.772,40.215],[-74.762,40.2],[-74.757,40.188],[-74.741,40.181],[-74.725,40.166],[-74.723,40.156],[-74.728,40.148],[-74.749,40.136],[-74.769,40.133],[-74.784,40.124],[-74.792,40.122],[-74.815,40.129],[-74.826,40.127],[-74.833,40.12],[-74.838,40.106],[-74.857,40.095],[-74.866,40.086],[-74.885,40.079],[-74.914,40.072],[-74.934,40.071],[-74.975,40.051]]]},"properties":{"name":"Bucks","id":"42017","STATE":"PA","TYPE":"County","CNTRY":"USA"},"id":"42017"},
{"type":"Feature","geometry":{"type":"Polygon","coordinates":[[[-76.147,41.999],[-76.138,41.898],[-76.129,41.793],[-76.126,41.773],[-76.117,41.653],[-76.196,41.648],[-76.201,41.643],[-76.209,41.598],[-76.222,41.545],[-76.328,41.553],[-76.445,41.561],[-76.5,41.565],[-76.597,41.572],[-76.757,41.584],[-76.813,41.59],[-76.875,41.597],[-76.88,41.636],[-76.883,41.668],[-76.898,41.783],[-76.899,41.808],[-76.916,41.918],[-76.924,41.971],[-76.929,42.002],[-76.897,42.003],[-76.648,42.002],[-76.523,42],[-76.383,41.999],[-76.147,41.999]]]},"properties":{"name":"Bradford","id":"42015","STATE":"PA","TYPE":"County","CNTRY":"USA"},"id":"42015"},
{"type":"Feature","geometry":{"type":"Polygon","coordinates":[[[-78.259,40.297],[-78.291,40.245],[-78.307,40.251],[-78.435,40.301],[-78.443,40.278],[-78.445,40.252],[-78.45,40.245],[-78.506,40.287],[-78.528,40.292],[-78.622,40.325],[-78.604,40.348],[-78.559,40.368],[-78.555,40.408],[-78.555,40.422],[-78.559,40.444],[-78.546,40.465],[-78.542,40.475],[-78.544,40.487],[-78.541,40.504],[-78.53,40.519],[-78.519,40.526],[-78.511,40.535],[-78.495,40.544],[-78.474,40.551],[-78.473,40.555],[-78.44,40.6],[-78.447,40.624],[-78.442,40.631],[-78.442,40.641],[-78.438,40.646],[-78.427,40.647],[-78.416,40.644],[-78.408,40.644],[-78.402,40.655],[-78.351,40.722],[-78.362,40.734],[-78.274,40.738],[-78.246,40.739],[-78.198,40.741],[-78.135,40.744],[-78.117,40.739],[-78.133,40.728],[-78.149,40.72],[-78.157,40.713],[-78.173,40.71],[-78.19,40.701],[-78.202,40.698],[-78.216,40.688],[-78.219,40.682],[-78.217,40.665],[-78.218,40.657],[-78.207,40.656],[-78.198,40.647],[-78.198,40.641],[-78.188,40.631],[-78.172,40.624],[-78.169,40.62],[-78.175,40.606],[-78.183,40.595],[-78.178,40.585],[-78.196,40.561],[-78.183,40.54],[-78.167,40.531],[-78.151,40.544],[-78.136,40.569],[-78.134,40.561],[-78.15,40.525],[-78.156,40.49],[-78.148,40.49],[-78.137,40.5],[-78.13,40.496],[-78.133,40.477],[-78.16,40.433],[-78.191,40.395],[-78.215,40.357],[-78.228,40.343],[-78.243,40.324],[-78.259,40.297]]]},"properties":{"name":"Blair","id":"42013","STATE":"PA","TYPE":"County","CNTRY":"USA"},"id":"42013"},
{"type":"Feature","geometry":{"type":"Polygon","coordinates":[[[-75.528,40.446],[-75.547,40.424],[-75.56,40.407],[-75.588,40.375],[-75.608,40.348],[-75.616,40.341],[-75.697,40.242],[-75.76,40.209],[-75.772,40.203],[-75.876,40.137],[-75.902,40.155],[-75.939,40.178],[-75.97,40.199],[-76.045,40.249],[-76.151,40.316],[-76.205,40.357],[-76.221,40.363],[-76.237,40.368],[-76.294,40.404],[-76.302,40.41],[-76.401,40.472],[-76.441,40.497],[-76.423,40.497],[-76.399,40.503],[-76.34,40.515],[-76.26,40.517],[-76.239,40.521],[-76.232,40.524],[-76.19,40.536],[-76.174,40.537],[-76.149,40.55],[-76.102,40.564],[-76.093,40.565],[-76.076,40.57],[-76.065,40.579],[-76.053,40.575],[-76.044,40.581],[-76.036,40.576],[-76.019,40.573],[-76.005,40.609],[-75.996,40.637],[-75.89,40.676],[-75.8,40.618],[-75.74,40.58],[-75.719,40.565],[-75.685,40.544],[-75.621,40.502],[-75.558,40.464],[-75.528,40.446]]]},"properties":{"name":"Berks","id":"42011","STATE":"PA","TYPE":"County","CNTRY":"USA"},"id":"42011"},
{"type":"Feature","geometry":{"type":"Polygon","coordinates":[[[-78.259,40.297],[-78.244,40.249],[-78.239,40.225],[-78.193,40.197],[-78.136,40.166],[-78.159,40.126],[-78.174,40.114],[-78.18,40.104],[-78.188,40.102],[-78.208,40.087],[-78.206,40.072],[-78.19,40.066],[-78.183,40.06],[-78.189,40.048],[-78.204,40.045],[-78.207,40.039],[-78.205,40.017],[-78.206,40.01],[-78.217,40.001],[-78.232,39.975],[-78.241,39.951],[-78.253,39.935],[-78.268,39.905],[-78.288,39.857],[-78.326,39.789],[-78.348,39.76],[-78.362,39.746],[-78.369,39.737],[-78.382,39.723],[-78.488,39.723],[-78.763,39.724],[-78.81,39.724],[-78.798,39.741],[-78.784,39.766],[-78.779,39.778],[-78.773,39.783],[-78.761,39.817],[-78.759,39.827],[-78.76,39.9],[-78.762,39.935],[-78.763,40.017],[-78.765,40.019],[-78.761,40.06],[-78.749,40.076],[-78.739,40.073],[-78.727,40.093],[-78.711,40.138],[-78.697,40.164],[-78.691,40.18],[-78.685,40.189],[-78.674,40.211],[-78.667,40.222],[-78.657,40.243],[-78.638,40.262],[-78.651,40.279],[-78.644,40.281],[-78.644,40.288],[-78.639,40.307],[-78.622,40.325],[-78.528,40.292],[-78.506,40.287],[-78.45,40.245],[-78.445,40.252],[-78.443,40.278],[-78.435,40.301],[-78.307,40.251],[-78.291,40.245],[-78.259,40.297]]]},"properties":{"name":"Bedford","id":"42009","STATE":"PA","TYPE":"County","CNTRY":"USA"},"id":"42009"},
{"type":"Feature","geometry":{"type":"Polygon","coordinates":[[[-80.158,40.856],[-80.155,40.815],[-80.154,40.735],[-80.15,40.676],[-80.149,40.65],[-80.146,40.616],[-80.166,40.609],[-80.179,40.61],[-80.186,40.603],[-80.201,40.594],[-80.211,40.585],[-80.221,40.582],[-80.229,40.573],[-80.298,40.525],[-80.332,40.5],[-80.359,40.48],[-80.436,40.48],[-80.519,40.48],[-80.519,40.639],[-80.518,40.797],[-80.518,40.853],[-80.466,40.854],[-80.447,40.854],[-80.365,40.855],[-80.323,40.855],[-80.249,40.856],[-80.158,40.856]]]},"properties":{"name":"Beaver","id":"42007","STATE":"PA","TYPE":"County","CNTRY":"USA"},"id":"42007"},
{"type":"Feature","geometry":{"type":"Polygon","coordinates":[[[-79.215,41.053],[-79.213,41.047],[-79.213,41],[-79.216,40.988],[-79.215,40.951],[-79.216,40.91],[-79.215,40.805],[-79.215,40.774],[-79.247,40.741],[-79.36,40.629],[-79.452,40.535],[-79.453,40.534],[-79.464,40.535],[-79.475,40.53],[-79.478,40.537],[-79.491,40.525],[-79.497,40.528],[-79.512,40.543],[-79.526,40.542],[-79.536,40.55],[-79.561,40.563],[-79.57,40.584],[-79.566,40.592],[-79.554,40.601],[-79.566,40.608],[-79.578,40.601],[-79.59,40.617],[-79.588,40.626],[-79.583,40.632],[-79.589,40.636],[-79.597,40.627],[-79.604,40.624],[-79.61,40.628],[-79.61,40.642],[-79.629,40.649],[-79.637,40.656],[-79.638,40.665],[-79.662,40.678],[-79.67,40.68],[-79.678,40.673],[-79.693,40.67],[-79.692,40.754],[-79.691,40.829],[-79.691,40.933],[-79.69,40.947],[-79.69,41],[-79.692,41.039],[-79.692,41.08],[-79.691,41.097],[-79.69,41.172],[-79.677,41.16],[-79.683,41.145],[-79.676,41.132],[-79.677,41.093],[-79.674,41.087],[-79.655,41.074],[-79.655,41.066],[-79.665,41.055],[-79.662,41.051],[-79.64,41.042],[-79.617,41.037],[-79.6,41.04],[-79.597,41.029],[-79.605,41.009],[-79.584,41.004],[-79.579,40.999],[-79.581,40.993],[-79.599,40.994],[-79.617,40.989],[-79.621,40.978],[-79.594,40.971],[-79.575,40.986],[-79.566,40.987],[-79.552,40.983],[-79.539,40.984],[-79.528,40.978],[-79.519,40.976],[-79.517,40.985],[-79.507,40.984],[-79.503,40.977],[-79.492,40.979],[-79.492,40.99],[-79.486,40.996],[-79.457,40.991],[-79.451,40.982],[-79.445,40.986],[-79.431,40.986],[-79.427,40.988],[-79.419,41.005],[-79.412,41.01],[-79.407,41.006],[-79.401,40.992],[-79.383,40.995],[-79.377,40.993],[-79.38,40.97],[-79.372,40.971],[-79.368,40.976],[-79.369,40.991],[-79.363,41.004],[-79.357,41.004],[-79.345,41],[-79.334,41.004],[-79.327,41.001],[-79.315,41.004],[-79.3,41.014],[-79.283,41.013],[-79.271,41.02],[-79.259,41.031],[-79.238,41.039],[-79.231,41.047],[-79.215,41.053]]]},"properties":{"name":"Armstrong","id":"42005","STATE":"PA","TYPE":"County","CNTRY":"USA"},"id":"42005"},
{"type":"Feature","geometry":{"type":"Polygon","coordinates":[[[-80.15,40.676],[-80.058,40.675],[-79.993,40.674],[-79.964,40.673],[-79.915,40.674],[-79.88,40.673],[-79.843,40.672],[-79.829,40.671],[-79.798,40.672],[-79.708,40.668],[-79.693,40.67],[-79.696,40.662],[-79.689,40.645],[-79.692,40.638],[-79.7,40.629],[-79.711,40.622],[-79.724,40.607],[-79.737,40.602],[-79.761,40.594],[-79.771,40.586],[-79.774,40.569],[-79.765,40.55],[-79.752,40.552],[-79.738,40.549],[-79.722,40.541],[-79.705,40.528],[-79.702,40.5],[-79.702,40.479],[-79.704,40.444],[-79.704,40.426],[-79.718,40.416],[-79.727,40.413],[-79.739,40.397],[-79.745,40.396],[-79.754,40.389],[-79.763,40.391],[-79.77,40.382],[-79.774,40.358],[-79.786,40.31],[-79.788,40.298],[-79.776,40.29],[-79.781,40.282],[-79.794,40.282],[-79.797,40.276],[-79.788,40.265],[-79.801,40.244],[-79.807,40.238],[-79.805,40.233],[-79.785,40.228],[-79.799,40.223],[-79.871,40.197],[-79.895,40.196],[-79.909,40.198],[-79.92,40.203],[-79.958,40.217],[-79.971,40.229],[-79.97,40.234],[-79.962,40.24],[-79.927,40.245],[-79.916,40.253],[-79.938,40.26],[-80.041,40.291],[-80.074,40.302],[-80.099,40.309],[-80.182,40.334],[-80.247,40.387],[-80.277,40.413],[-80.359,40.48],[-80.332,40.5],[-80.298,40.525],[-80.229,40.573],[-80.221,40.582],[-80.211,40.585],[-80.201,40.594],[-80.186,40.603],[-80.179,40.61],[-80.166,40.609],[-80.146,40.616],[-80.149,40.65],[-80.15,40.676]]]},"properties":{"name":"Allegheny","id":"42003","STATE":"PA","TYPE":"County","CNTRY":"USA"},"id":"42003"},
{"type":"Feature","geometry":{"type":"Polygon","coordinates":[[[-77,39.72],[-77.121,39.719],[-77.215,39.72],[-77.393,39.72],[-77.46,39.72],[-77.461,39.78],[-77.463,39.821],[-77.466,39.852],[-77.47,39.944],[-77.422,39.98],[-77.402,39.993],[-77.332,40.01],[-77.276,40.019],[-77.181,40.032],[-77.157,40.056],[-77.139,40.072],[-77.115,40.065],[-77.098,40.061],[-77.087,40.051],[-77.073,40.033],[-77.062,40.024],[-77.039,40.02],[-77.028,40.019],[-77.018,40.011],[-76.999,39.981],[-76.968,39.937],[-76.973,39.932],[-76.972,39.916],[-76.985,39.901],[-76.98,39.881],[-76.977,39.875],[-76.966,39.874],[-76.958,39.857],[-76.965,39.852],[-76.982,39.848],[-76.986,39.839],[-76.992,39.834],[-77,39.831],[-76.999,39.775],[-77,39.72]]]},"properties":{"name":"Adams","id":"42001","STATE":"PA","TYPE":"County","CNTRY":"USA"},"id":"42001"}
]}